all
[94m->finding paths...
[0m[94m-->starting edm_karp...
[0m[94m--->starting bfs...
[0m[94m--->finish bfs.
[0m[90mPaths:
size: 22
Xod7->Asl3->Vqc4->Par4->Axg6->Tli4->Tsj7->Mza3->Bkg9->De_6->Npl1->Ybt8->Skt5->Hg_8->Mwp7->Mcw7->Wwn4->Vkr5->Jrt2->P_d8->Cdg4->Txg9->Wyc9


[0m[94m--->starting bfs...
[0m[94m--->finish bfs.
[0m[90mPaths:
size: 23
Xod7->Jic6->Ybj9->Ain3->Ksj0->Veg8->V_p4->P_r8->Njj5->Nzh1->Nck8->Yxp7->Pyr7->Ddw0->Rvk7->Z_n2->Rqy0->Foa0->Oev0->Zs_3->Uab8->Zco6->Png0->Wyc9
size: 22
Xod7->Asl3->Vqc4->Par4->Axg6->Tli4->Tsj7->Mza3->Bkg9->De_6->Npl1->Ybt8->Skt5->Hg_8->Mwp7->Mcw7->Wwn4->Vkr5->Jrt2->P_d8->Cdg4->Txg9->Wyc9


[0m[94m--->starting bfs...
[0m[94m--->finish bfs.
[0m[90mPaths:
size: 27
Xod7->Vxq5->Div3->Xus5->Flg1->J_f1->C_q5->Byk3->Vzd2->Yr_4->Wsn2->Wqj2->Zpt2->Jms2->Zqt8->Brt2->Rjx9->Ppw5->Tfv7->V_z5->Bom3->Yjh4->Zne6->Gpn1->Hhr2->Ndn9->Eym4->Wyc9
size: 23
Xod7->Jic6->Ybj9->Ain3->Ksj0->Veg8->V_p4->P_r8->Njj5->Nzh1->Nck8->Yxp7->Pyr7->Ddw0->Rvk7->Z_n2->Rqy0->Foa0->Oev0->Zs_3->Uab8->Zco6->Png0->Wyc9
size: 22
Xod7->Asl3->Vqc4->Par4->Axg6->Tli4->Tsj7->Mza3->Bkg9->De_6->Npl1->Ybt8->Skt5->Hg_8->Mwp7->Mcw7->Wwn4->Vkr5->Jrt2->P_d8->Cdg4->Txg9->Wyc9


[0m[94m--->starting bfs...
[0m[94m--->finish bfs.
[0m[90mPaths:
size: 28
Xod7->Fiw8->Rro8->Ugy3->Iy_8->Ygp8->Nbb9->Edn4->Cas5->Vze1->Flu6->Chn7->Mvk6->Ipn5->H_v0->Ijl4->Fjn7->Fvx7->Owt4->Zzj9->Pvc1->Ryq4->Tso1->Fjv5->Md_0->P_p2->Ilm9->Jv_8->Wyc9
size: 27
Xod7->Vxq5->Div3->Xus5->Flg1->J_f1->C_q5->Byk3->Vzd2->Yr_4->Wsn2->Wqj2->Zpt2->Jms2->Zqt8->Brt2->Rjx9->Ppw5->Tfv7->V_z5->Bom3->Yjh4->Zne6->Gpn1->Hhr2->Ndn9->Eym4->Wyc9
size: 23
Xod7->Jic6->Ybj9->Ain3->Ksj0->Veg8->V_p4->P_r8->Njj5->Nzh1->Nck8->Yxp7->Pyr7->Ddw0->Rvk7->Z_n2->Rqy0->Foa0->Oev0->Zs_3->Uab8->Zco6->Png0->Wyc9
size: 22
Xod7->Asl3->Vqc4->Par4->Axg6->Tli4->Tsj7->Mza3->Bkg9->De_6->Npl1->Ybt8->Skt5->Hg_8->Mwp7->Mcw7->Wwn4->Vkr5->Jrt2->P_d8->Cdg4->Txg9->Wyc9


[0m[94m--->starting bfs...
[0m[94m--->finish bfs.
[0m[90mPaths:
size: 30
Xod7->Qkd6->Iyn6->Git4->Pur0->Daa7->Uqa7->Udm8->Yyu0->Mld7->Si_5->Msp9->Oxs0->Pgr2->Cjl8->Mjh5->Diw0->Gkf1->Wge9->Zgc9->Srx8->Epk7->Kyh4->Tjb1->Xcz5->Vhb1->Pfq3->Pvd5->Pov4->Pvq5->Wyc9
size: 28
Xod7->Fiw8->Rro8->Ugy3->Iy_8->Ygp8->Nbb9->Edn4->Cas5->Vze1->Flu6->Chn7->Mvk6->Ipn5->H_v0->Ijl4->Fjn7->Fvx7->Owt4->Zzj9->Pvc1->Ryq4->Tso1->Fjv5->Md_0->P_p2->Ilm9->Jv_8->Wyc9
size: 27
Xod7->Vxq5->Div3->Xus5->Flg1->J_f1->C_q5->Byk3->Vzd2->Yr_4->Wsn2->Wqj2->Zpt2->Jms2->Zqt8->Brt2->Rjx9->Ppw5->Tfv7->V_z5->Bom3->Yjh4->Zne6->Gpn1->Hhr2->Ndn9->Eym4->Wyc9
size: 23
Xod7->Jic6->Ybj9->Ain3->Ksj0->Veg8->V_p4->P_r8->Njj5->Nzh1->Nck8->Yxp7->Pyr7->Ddw0->Rvk7->Z_n2->Rqy0->Foa0->Oev0->Zs_3->Uab8->Zco6->Png0->Wyc9
size: 22
Xod7->Asl3->Vqc4->Par4->Axg6->Tli4->Tsj7->Mza3->Bkg9->De_6->Npl1->Ybt8->Skt5->Hg_8->Mwp7->Mcw7->Wwn4->Vkr5->Jrt2->P_d8->Cdg4->Txg9->Wyc9


[0m[94m--->starting bfs...
[0m[94m--->finish bfs.
[0m[90mPaths:
size: 31
Xod7->Zwe8->Mzu4->Pcv4->Ezu1->Jnx3->Ewa1->Wwf0->Fky1->Yqk9->K_v2->D_a1->Fyb5->Qcc9->Whl7->Hvo5->Kqw7->Wlb7->Uho3->Jzp2->Qsx9->Wrp2->Yen9->Vny8->Tao1->Ga_2->S_b7->S_r7->R_y6->Qd_9->Czu2->Wyc9
size: 30
Xod7->Qkd6->Iyn6->Git4->Pur0->Daa7->Uqa7->Udm8->Yyu0->Mld7->Si_5->Msp9->Oxs0->Pgr2->Cjl8->Mjh5->Diw0->Gkf1->Wge9->Zgc9->Srx8->Epk7->Kyh4->Tjb1->Xcz5->Vhb1->Pfq3->Pvd5->Pov4->Pvq5->Wyc9
size: 28
Xod7->Fiw8->Rro8->Ugy3->Iy_8->Ygp8->Nbb9->Edn4->Cas5->Vze1->Flu6->Chn7->Mvk6->Ipn5->H_v0->Ijl4->Fjn7->Fvx7->Owt4->Zzj9->Pvc1->Ryq4->Tso1->Fjv5->Md_0->P_p2->Ilm9->Jv_8->Wyc9
size: 27
Xod7->Vxq5->Div3->Xus5->Flg1->J_f1->C_q5->Byk3->Vzd2->Yr_4->Wsn2->Wqj2->Zpt2->Jms2->Zqt8->Brt2->Rjx9->Ppw5->Tfv7->V_z5->Bom3->Yjh4->Zne6->Gpn1->Hhr2->Ndn9->Eym4->Wyc9
size: 23
Xod7->Jic6->Ybj9->Ain3->Ksj0->Veg8->V_p4->P_r8->Njj5->Nzh1->Nck8->Yxp7->Pyr7->Ddw0->Rvk7->Z_n2->Rqy0->Foa0->Oev0->Zs_3->Uab8->Zco6->Png0->Wyc9
size: 22
Xod7->Asl3->Vqc4->Par4->Axg6->Tli4->Tsj7->Mza3->Bkg9->De_6->Npl1->Ybt8->Skt5->Hg_8->Mwp7->Mcw7->Wwn4->Vkr5->Jrt2->P_d8->Cdg4->Txg9->Wyc9


[0m[94m--->starting bfs...
[0m[94m--->finish bfs.
[0m[90mPaths:
size: 34
Xod7->Zgg1->Zhs7->Yyx1->Ols9->Fti7->X_v0->Wou9->Feh7->Ult8->Fjp7->Nwz8->Uwr1->Hqu4->Ey_5->Tqi5->U_j8->Cbt3->Pmk8->Hiz7->Rpr5->Qvp9->Zqz0->Ryk3->Fns3->Ixz5->Cqc3->Nwc1->Ete7->Srm6->Vsn8->Fhz5->Tww2->Jpm1->Wyc9
size: 31
Xod7->Zwe8->Mzu4->Pcv4->Ezu1->Jnx3->Ewa1->Wwf0->Fky1->Yqk9->K_v2->D_a1->Fyb5->Qcc9->Whl7->Hvo5->Kqw7->Wlb7->Uho3->Jzp2->Qsx9->Wrp2->Yen9->Vny8->Tao1->Ga_2->S_b7->S_r7->R_y6->Qd_9->Czu2->Wyc9
size: 30
Xod7->Qkd6->Iyn6->Git4->Pur0->Daa7->Uqa7->Udm8->Yyu0->Mld7->Si_5->Msp9->Oxs0->Pgr2->Cjl8->Mjh5->Diw0->Gkf1->Wge9->Zgc9->Srx8->Epk7->Kyh4->Tjb1->Xcz5->Vhb1->Pfq3->Pvd5->Pov4->Pvq5->Wyc9
size: 28
Xod7->Fiw8->Rro8->Ugy3->Iy_8->Ygp8->Nbb9->Edn4->Cas5->Vze1->Flu6->Chn7->Mvk6->Ipn5->H_v0->Ijl4->Fjn7->Fvx7->Owt4->Zzj9->Pvc1->Ryq4->Tso1->Fjv5->Md_0->P_p2->Ilm9->Jv_8->Wyc9
size: 27
Xod7->Vxq5->Div3->Xus5->Flg1->J_f1->C_q5->Byk3->Vzd2->Yr_4->Wsn2->Wqj2->Zpt2->Jms2->Zqt8->Brt2->Rjx9->Ppw5->Tfv7->V_z5->Bom3->Yjh4->Zne6->Gpn1->Hhr2->Ndn9->Eym4->Wyc9
size: 23
Xod7->Jic6->Ybj9->Ain3->Ksj0->Veg8->V_p4->P_r8->Njj5->Nzh1->Nck8->Yxp7->Pyr7->Ddw0->Rvk7->Z_n2->Rqy0->Foa0->Oev0->Zs_3->Uab8->Zco6->Png0->Wyc9
size: 22
Xod7->Asl3->Vqc4->Par4->Axg6->Tli4->Tsj7->Mza3->Bkg9->De_6->Npl1->Ybt8->Skt5->Hg_8->Mwp7->Mcw7->Wwn4->Vkr5->Jrt2->P_d8->Cdg4->Txg9->Wyc9


[0m[94m--->starting bfs...
[0m[94m--->finish bfs.
[0m[90mPaths:
size: 35
Xod7->Xzg0->Exn7->Ift5->Whv9->Wio3->Tjg2->Bji6->Chj4->Qmk7->M_y0->Ivy8->Rer1->Deq7->Two5->Inx0->Fyr9->Hbc2->Kmh3->Fuy9->Wfz4->Yrr0->Yqa2->Gey2->Tor6->Omg3->Idv4->Ptf1->Mll7->Tjp3->Gek7->Ehj7->Zow6->Tgo8->Kls8->Wyc9
size: 34
Xod7->Zgg1->Zhs7->Yyx1->Ols9->Fti7->X_v0->Wou9->Feh7->Ult8->Fjp7->Nwz8->Uwr1->Hqu4->Ey_5->Tqi5->U_j8->Cbt3->Pmk8->Hiz7->Rpr5->Qvp9->Zqz0->Ryk3->Fns3->Ixz5->Cqc3->Nwc1->Ete7->Srm6->Vsn8->Fhz5->Tww2->Jpm1->Wyc9
size: 31
Xod7->Zwe8->Mzu4->Pcv4->Ezu1->Jnx3->Ewa1->Wwf0->Fky1->Yqk9->K_v2->D_a1->Fyb5->Qcc9->Whl7->Hvo5->Kqw7->Wlb7->Uho3->Jzp2->Qsx9->Wrp2->Yen9->Vny8->Tao1->Ga_2->S_b7->S_r7->R_y6->Qd_9->Czu2->Wyc9
size: 30
Xod7->Qkd6->Iyn6->Git4->Pur0->Daa7->Uqa7->Udm8->Yyu0->Mld7->Si_5->Msp9->Oxs0->Pgr2->Cjl8->Mjh5->Diw0->Gkf1->Wge9->Zgc9->Srx8->Epk7->Kyh4->Tjb1->Xcz5->Vhb1->Pfq3->Pvd5->Pov4->Pvq5->Wyc9
size: 28
Xod7->Fiw8->Rro8->Ugy3->Iy_8->Ygp8->Nbb9->Edn4->Cas5->Vze1->Flu6->Chn7->Mvk6->Ipn5->H_v0->Ijl4->Fjn7->Fvx7->Owt4->Zzj9->Pvc1->Ryq4->Tso1->Fjv5->Md_0->P_p2->Ilm9->Jv_8->Wyc9
size: 27
Xod7->Vxq5->Div3->Xus5->Flg1->J_f1->C_q5->Byk3->Vzd2->Yr_4->Wsn2->Wqj2->Zpt2->Jms2->Zqt8->Brt2->Rjx9->Ppw5->Tfv7->V_z5->Bom3->Yjh4->Zne6->Gpn1->Hhr2->Ndn9->Eym4->Wyc9
size: 23
Xod7->Jic6->Ybj9->Ain3->Ksj0->Veg8->V_p4->P_r8->Njj5->Nzh1->Nck8->Yxp7->Pyr7->Ddw0->Rvk7->Z_n2->Rqy0->Foa0->Oev0->Zs_3->Uab8->Zco6->Png0->Wyc9
size: 22
Xod7->Asl3->Vqc4->Par4->Axg6->Tli4->Tsj7->Mza3->Bkg9->De_6->Npl1->Ybt8->Skt5->Hg_8->Mwp7->Mcw7->Wwn4->Vkr5->Jrt2->P_d8->Cdg4->Txg9->Wyc9


[0m[94m--->starting bfs...
[0m[94m--->finish bfs.
[0m[90mPaths:
size: 36
Xod7->Kwu1->Cnr8->Ahr6->Ibx1->Jdf8->Ryi5->Bxa2->Fxg0->Sel8->Ytw4->Dhz6->X_u7->Mjb9->D__8->Kae5->Sa_0->Ojs8->T_k8->Xe_8->B_j0->Kcm6->U_y5->Zn_4->Ntd5->Czl0->Zzk4->Skb3->Djd5->Euf5->Tax7->Apw1->Mwt8->Uvv5->Qwz5->Xvk2->Wyc9
size: 35
Xod7->Xzg0->Exn7->Ift5->Whv9->Wio3->Tjg2->Bji6->Chj4->Qmk7->M_y0->Ivy8->Rer1->Deq7->Two5->Inx0->Fyr9->Hbc2->Kmh3->Fuy9->Wfz4->Yrr0->Yqa2->Gey2->Tor6->Omg3->Idv4->Ptf1->Mll7->Tjp3->Gek7->Ehj7->Zow6->Tgo8->Kls8->Wyc9
size: 34
Xod7->Zgg1->Zhs7->Yyx1->Ols9->Fti7->X_v0->Wou9->Feh7->Ult8->Fjp7->Nwz8->Uwr1->Hqu4->Ey_5->Tqi5->U_j8->Cbt3->Pmk8->Hiz7->Rpr5->Qvp9->Zqz0->Ryk3->Fns3->Ixz5->Cqc3->Nwc1->Ete7->Srm6->Vsn8->Fhz5->Tww2->Jpm1->Wyc9
size: 31
Xod7->Zwe8->Mzu4->Pcv4->Ezu1->Jnx3->Ewa1->Wwf0->Fky1->Yqk9->K_v2->D_a1->Fyb5->Qcc9->Whl7->Hvo5->Kqw7->Wlb7->Uho3->Jzp2->Qsx9->Wrp2->Yen9->Vny8->Tao1->Ga_2->S_b7->S_r7->R_y6->Qd_9->Czu2->Wyc9
size: 30
Xod7->Qkd6->Iyn6->Git4->Pur0->Daa7->Uqa7->Udm8->Yyu0->Mld7->Si_5->Msp9->Oxs0->Pgr2->Cjl8->Mjh5->Diw0->Gkf1->Wge9->Zgc9->Srx8->Epk7->Kyh4->Tjb1->Xcz5->Vhb1->Pfq3->Pvd5->Pov4->Pvq5->Wyc9
size: 28
Xod7->Fiw8->Rro8->Ugy3->Iy_8->Ygp8->Nbb9->Edn4->Cas5->Vze1->Flu6->Chn7->Mvk6->Ipn5->H_v0->Ijl4->Fjn7->Fvx7->Owt4->Zzj9->Pvc1->Ryq4->Tso1->Fjv5->Md_0->P_p2->Ilm9->Jv_8->Wyc9
size: 27
Xod7->Vxq5->Div3->Xus5->Flg1->J_f1->C_q5->Byk3->Vzd2->Yr_4->Wsn2->Wqj2->Zpt2->Jms2->Zqt8->Brt2->Rjx9->Ppw5->Tfv7->V_z5->Bom3->Yjh4->Zne6->Gpn1->Hhr2->Ndn9->Eym4->Wyc9
size: 23
Xod7->Jic6->Ybj9->Ain3->Ksj0->Veg8->V_p4->P_r8->Njj5->Nzh1->Nck8->Yxp7->Pyr7->Ddw0->Rvk7->Z_n2->Rqy0->Foa0->Oev0->Zs_3->Uab8->Zco6->Png0->Wyc9
size: 22
Xod7->Asl3->Vqc4->Par4->Axg6->Tli4->Tsj7->Mza3->Bkg9->De_6->Npl1->Ybt8->Skt5->Hg_8->Mwp7->Mcw7->Wwn4->Vkr5->Jrt2->P_d8->Cdg4->Txg9->Wyc9


[0m[94m--->starting bfs...
[0m[94m--->finish bfs.
[0m[90mPaths:
size: 38
Xod7->Bje6->Kq_6->Fhe7->Rcj3->R_q7->Xuz5->Alr0->Vzg3->Xqv7->Amz5->Or_1->Gls0->Gsk1->Kme0->Kuv6->Xfv1->Nip2->Qmh0->H_q5->Xzw3->Ggl2->Jsc5->Rgu9->Hym2->Orn3->Tza5->H_n0->Y__1->Pxn7->Nhm8->Nge0->Vr_1->Wni2->Umr4->Vpj4->Ozw0->Vun5->Wyc9
size: 36
Xod7->Kwu1->Cnr8->Ahr6->Ibx1->Jdf8->Ryi5->Bxa2->Fxg0->Sel8->Ytw4->Dhz6->X_u7->Mjb9->D__8->Kae5->Sa_0->Ojs8->T_k8->Xe_8->B_j0->Kcm6->U_y5->Zn_4->Ntd5->Czl0->Zzk4->Skb3->Djd5->Euf5->Tax7->Apw1->Mwt8->Uvv5->Qwz5->Xvk2->Wyc9
size: 35
Xod7->Xzg0->Exn7->Ift5->Whv9->Wio3->Tjg2->Bji6->Chj4->Qmk7->M_y0->Ivy8->Rer1->Deq7->Two5->Inx0->Fyr9->Hbc2->Kmh3->Fuy9->Wfz4->Yrr0->Yqa2->Gey2->Tor6->Omg3->Idv4->Ptf1->Mll7->Tjp3->Gek7->Ehj7->Zow6->Tgo8->Kls8->Wyc9
size: 34
Xod7->Zgg1->Zhs7->Yyx1->Ols9->Fti7->X_v0->Wou9->Feh7->Ult8->Fjp7->Nwz8->Uwr1->Hqu4->Ey_5->Tqi5->U_j8->Cbt3->Pmk8->Hiz7->Rpr5->Qvp9->Zqz0->Ryk3->Fns3->Ixz5->Cqc3->Nwc1->Ete7->Srm6->Vsn8->Fhz5->Tww2->Jpm1->Wyc9
size: 31
Xod7->Zwe8->Mzu4->Pcv4->Ezu1->Jnx3->Ewa1->Wwf0->Fky1->Yqk9->K_v2->D_a1->Fyb5->Qcc9->Whl7->Hvo5->Kqw7->Wlb7->Uho3->Jzp2->Qsx9->Wrp2->Yen9->Vny8->Tao1->Ga_2->S_b7->S_r7->R_y6->Qd_9->Czu2->Wyc9
size: 30
Xod7->Qkd6->Iyn6->Git4->Pur0->Daa7->Uqa7->Udm8->Yyu0->Mld7->Si_5->Msp9->Oxs0->Pgr2->Cjl8->Mjh5->Diw0->Gkf1->Wge9->Zgc9->Srx8->Epk7->Kyh4->Tjb1->Xcz5->Vhb1->Pfq3->Pvd5->Pov4->Pvq5->Wyc9
size: 28
Xod7->Fiw8->Rro8->Ugy3->Iy_8->Ygp8->Nbb9->Edn4->Cas5->Vze1->Flu6->Chn7->Mvk6->Ipn5->H_v0->Ijl4->Fjn7->Fvx7->Owt4->Zzj9->Pvc1->Ryq4->Tso1->Fjv5->Md_0->P_p2->Ilm9->Jv_8->Wyc9
size: 27
Xod7->Vxq5->Div3->Xus5->Flg1->J_f1->C_q5->Byk3->Vzd2->Yr_4->Wsn2->Wqj2->Zpt2->Jms2->Zqt8->Brt2->Rjx9->Ppw5->Tfv7->V_z5->Bom3->Yjh4->Zne6->Gpn1->Hhr2->Ndn9->Eym4->Wyc9
size: 23
Xod7->Jic6->Ybj9->Ain3->Ksj0->Veg8->V_p4->P_r8->Njj5->Nzh1->Nck8->Yxp7->Pyr7->Ddw0->Rvk7->Z_n2->Rqy0->Foa0->Oev0->Zs_3->Uab8->Zco6->Png0->Wyc9
size: 22
Xod7->Asl3->Vqc4->Par4->Axg6->Tli4->Tsj7->Mza3->Bkg9->De_6->Npl1->Ybt8->Skt5->Hg_8->Mwp7->Mcw7->Wwn4->Vkr5->Jrt2->P_d8->Cdg4->Txg9->Wyc9


[0m[94m--->starting bfs...
[0m[94m--->finish bfs.
[0m[90mPaths:
size: 39
Xod7->Ft_5->Pdz6->Yhy5->Tg_1->Xlk3->Ixz9->Kgq2->Ssz8->Qcm1->Fai4->Cjk8->Mek7->Yjs7->Vvj9->Wg_7->Odo4->Xt_5->O_d3->Zgs1->Jgo5->Uzq1->Pa_7->Zyp6->Rir1->Wk_5->Tki9->Thu7->Jz_1->Zgs4->Zuc0->Igo6->Krr6->X_i4->Ttd6->Yh_7->Vna4->Zpp5->Yma6->Wyc9
size: 38
Xod7->Bje6->Kq_6->Fhe7->Rcj3->R_q7->Xuz5->Alr0->Vzg3->Xqv7->Amz5->Or_1->Gls0->Gsk1->Kme0->Kuv6->Xfv1->Nip2->Qmh0->H_q5->Xzw3->Ggl2->Jsc5->Rgu9->Hym2->Orn3->Tza5->H_n0->Y__1->Pxn7->Nhm8->Nge0->Vr_1->Wni2->Umr4->Vpj4->Ozw0->Vun5->Wyc9
size: 36
Xod7->Kwu1->Cnr8->Ahr6->Ibx1->Jdf8->Ryi5->Bxa2->Fxg0->Sel8->Ytw4->Dhz6->X_u7->Mjb9->D__8->Kae5->Sa_0->Ojs8->T_k8->Xe_8->B_j0->Kcm6->U_y5->Zn_4->Ntd5->Czl0->Zzk4->Skb3->Djd5->Euf5->Tax7->Apw1->Mwt8->Uvv5->Qwz5->Xvk2->Wyc9
size: 35
Xod7->Xzg0->Exn7->Ift5->Whv9->Wio3->Tjg2->Bji6->Chj4->Qmk7->M_y0->Ivy8->Rer1->Deq7->Two5->Inx0->Fyr9->Hbc2->Kmh3->Fuy9->Wfz4->Yrr0->Yqa2->Gey2->Tor6->Omg3->Idv4->Ptf1->Mll7->Tjp3->Gek7->Ehj7->Zow6->Tgo8->Kls8->Wyc9
size: 34
Xod7->Zgg1->Zhs7->Yyx1->Ols9->Fti7->X_v0->Wou9->Feh7->Ult8->Fjp7->Nwz8->Uwr1->Hqu4->Ey_5->Tqi5->U_j8->Cbt3->Pmk8->Hiz7->Rpr5->Qvp9->Zqz0->Ryk3->Fns3->Ixz5->Cqc3->Nwc1->Ete7->Srm6->Vsn8->Fhz5->Tww2->Jpm1->Wyc9
size: 31
Xod7->Zwe8->Mzu4->Pcv4->Ezu1->Jnx3->Ewa1->Wwf0->Fky1->Yqk9->K_v2->D_a1->Fyb5->Qcc9->Whl7->Hvo5->Kqw7->Wlb7->Uho3->Jzp2->Qsx9->Wrp2->Yen9->Vny8->Tao1->Ga_2->S_b7->S_r7->R_y6->Qd_9->Czu2->Wyc9
size: 30
Xod7->Qkd6->Iyn6->Git4->Pur0->Daa7->Uqa7->Udm8->Yyu0->Mld7->Si_5->Msp9->Oxs0->Pgr2->Cjl8->Mjh5->Diw0->Gkf1->Wge9->Zgc9->Srx8->Epk7->Kyh4->Tjb1->Xcz5->Vhb1->Pfq3->Pvd5->Pov4->Pvq5->Wyc9
size: 28
Xod7->Fiw8->Rro8->Ugy3->Iy_8->Ygp8->Nbb9->Edn4->Cas5->Vze1->Flu6->Chn7->Mvk6->Ipn5->H_v0->Ijl4->Fjn7->Fvx7->Owt4->Zzj9->Pvc1->Ryq4->Tso1->Fjv5->Md_0->P_p2->Ilm9->Jv_8->Wyc9
size: 27
Xod7->Vxq5->Div3->Xus5->Flg1->J_f1->C_q5->Byk3->Vzd2->Yr_4->Wsn2->Wqj2->Zpt2->Jms2->Zqt8->Brt2->Rjx9->Ppw5->Tfv7->V_z5->Bom3->Yjh4->Zne6->Gpn1->Hhr2->Ndn9->Eym4->Wyc9
size: 23
Xod7->Jic6->Ybj9->Ain3->Ksj0->Veg8->V_p4->P_r8->Njj5->Nzh1->Nck8->Yxp7->Pyr7->Ddw0->Rvk7->Z_n2->Rqy0->Foa0->Oev0->Zs_3->Uab8->Zco6->Png0->Wyc9
size: 22
Xod7->Asl3->Vqc4->Par4->Axg6->Tli4->Tsj7->Mza3->Bkg9->De_6->Npl1->Ybt8->Skt5->Hg_8->Mwp7->Mcw7->Wwn4->Vkr5->Jrt2->P_d8->Cdg4->Txg9->Wyc9


[0m[94m--->starting bfs...
[0m[94m--->finish bfs.
[0m[94m-->finish edm_karp.
[0m[90mPaths:
size: 39
Xod7->Ft_5->Pdz6->Yhy5->Tg_1->Xlk3->Ixz9->Kgq2->Ssz8->Qcm1->Fai4->Cjk8->Mek7->Yjs7->Vvj9->Wg_7->Odo4->Xt_5->O_d3->Zgs1->Jgo5->Uzq1->Pa_7->Zyp6->Rir1->Wk_5->Tki9->Thu7->Jz_1->Zgs4->Zuc0->Igo6->Krr6->X_i4->Ttd6->Yh_7->Vna4->Zpp5->Yma6->Wyc9
size: 38
Xod7->Bje6->Kq_6->Fhe7->Rcj3->R_q7->Xuz5->Alr0->Vzg3->Xqv7->Amz5->Or_1->Gls0->Gsk1->Kme0->Kuv6->Xfv1->Nip2->Qmh0->H_q5->Xzw3->Ggl2->Jsc5->Rgu9->Hym2->Orn3->Tza5->H_n0->Y__1->Pxn7->Nhm8->Nge0->Vr_1->Wni2->Umr4->Vpj4->Ozw0->Vun5->Wyc9
size: 36
Xod7->Kwu1->Cnr8->Ahr6->Ibx1->Jdf8->Ryi5->Bxa2->Fxg0->Sel8->Ytw4->Dhz6->X_u7->Mjb9->D__8->Kae5->Sa_0->Ojs8->T_k8->Xe_8->B_j0->Kcm6->U_y5->Zn_4->Ntd5->Czl0->Zzk4->Skb3->Djd5->Euf5->Tax7->Apw1->Mwt8->Uvv5->Qwz5->Xvk2->Wyc9
size: 35
Xod7->Xzg0->Exn7->Ift5->Whv9->Wio3->Tjg2->Bji6->Chj4->Qmk7->M_y0->Ivy8->Rer1->Deq7->Two5->Inx0->Fyr9->Hbc2->Kmh3->Fuy9->Wfz4->Yrr0->Yqa2->Gey2->Tor6->Omg3->Idv4->Ptf1->Mll7->Tjp3->Gek7->Ehj7->Zow6->Tgo8->Kls8->Wyc9
size: 34
Xod7->Zgg1->Zhs7->Yyx1->Ols9->Fti7->X_v0->Wou9->Feh7->Ult8->Fjp7->Nwz8->Uwr1->Hqu4->Ey_5->Tqi5->U_j8->Cbt3->Pmk8->Hiz7->Rpr5->Qvp9->Zqz0->Ryk3->Fns3->Ixz5->Cqc3->Nwc1->Ete7->Srm6->Vsn8->Fhz5->Tww2->Jpm1->Wyc9
size: 31
Xod7->Zwe8->Mzu4->Pcv4->Ezu1->Jnx3->Ewa1->Wwf0->Fky1->Yqk9->K_v2->D_a1->Fyb5->Qcc9->Whl7->Hvo5->Kqw7->Wlb7->Uho3->Jzp2->Qsx9->Wrp2->Yen9->Vny8->Tao1->Ga_2->S_b7->S_r7->R_y6->Qd_9->Czu2->Wyc9
size: 30
Xod7->Qkd6->Iyn6->Git4->Pur0->Daa7->Uqa7->Udm8->Yyu0->Mld7->Si_5->Msp9->Oxs0->Pgr2->Cjl8->Mjh5->Diw0->Gkf1->Wge9->Zgc9->Srx8->Epk7->Kyh4->Tjb1->Xcz5->Vhb1->Pfq3->Pvd5->Pov4->Pvq5->Wyc9
size: 28
Xod7->Fiw8->Rro8->Ugy3->Iy_8->Ygp8->Nbb9->Edn4->Cas5->Vze1->Flu6->Chn7->Mvk6->Ipn5->H_v0->Ijl4->Fjn7->Fvx7->Owt4->Zzj9->Pvc1->Ryq4->Tso1->Fjv5->Md_0->P_p2->Ilm9->Jv_8->Wyc9
size: 27
Xod7->Vxq5->Div3->Xus5->Flg1->J_f1->C_q5->Byk3->Vzd2->Yr_4->Wsn2->Wqj2->Zpt2->Jms2->Zqt8->Brt2->Rjx9->Ppw5->Tfv7->V_z5->Bom3->Yjh4->Zne6->Gpn1->Hhr2->Ndn9->Eym4->Wyc9
size: 23
Xod7->Jic6->Ybj9->Ain3->Ksj0->Veg8->V_p4->P_r8->Njj5->Nzh1->Nck8->Yxp7->Pyr7->Ddw0->Rvk7->Z_n2->Rqy0->Foa0->Oev0->Zs_3->Uab8->Zco6->Png0->Wyc9
size: 22
Xod7->Asl3->Vqc4->Par4->Axg6->Tli4->Tsj7->Mza3->Bkg9->De_6->Npl1->Ybt8->Skt5->Hg_8->Mwp7->Mcw7->Wwn4->Vkr5->Jrt2->P_d8->Cdg4->Txg9->Wyc9


[0m[94m---->releasing ants...
[0m[90m-->1/14
[0m[90m-->1/15
[0m[90m-->1/17
[0m[90m-->1/18
[0m[90m-->1/19
[0m[90m-->1/22
[0m[90m-->1/23
[0m[90m-->1/25
[0m[90m-->1/26
[0m[90m-->1/30
[0m[90m-->1/31
[0mL11-Asl3 L10-Jic6 L9-Vxq5 L8-Fiw8 L7-Qkd6 L6-Zwe8 L5-Zgg1 L4-Xzg0 L3-Kwu1 L2-Bje6 L1-Ft_5
[90m-->2/14
[0m[90m-->2/15
[0m[90m-->2/17
[0m[90m-->2/18
[0m[90m-->2/19
[0m[90m-->2/22
[0m[90m-->2/23
[0m[90m-->2/25
[0m[90m-->2/26
[0m[90m-->2/30
[0m[90m-->2/31
[0mL22-Asl3 L21-Jic6 L20-Vxq5 L19-Fiw8 L18-Qkd6 L17-Zwe8 L16-Zgg1 L15-Xzg0 L14-Kwu1 L13-Bje6 L12-Ft_5 L11-Vqc4 L10-Ybj9 L9-Div3 L8-Rro8 L7-Iyn6 L6-Mzu4 L5-Zhs7 L4-Exn7 L3-Cnr8 L2-Kq_6 L1-Pdz6
[90m-->3/14
[0m[90m-->3/15
[0m[90m-->3/17
[0m[90m-->3/18
[0m[90m-->3/19
[0m[90m-->3/22
[0m[90m-->3/23
[0m[90m-->3/25
[0m[90m-->3/26
[0m[90m-->3/30
[0m[90m-->3/31
[0mL33-Asl3 L32-Jic6 L31-Vxq5 L30-Fiw8 L29-Qkd6 L28-Zwe8 L27-Zgg1 L26-Xzg0 L25-Kwu1 L24-Bje6 L23-Ft_5 L22-Vqc4 L21-Ybj9 L20-Div3 L19-Rro8 L18-Iyn6 L17-Mzu4 L16-Zhs7 L15-Exn7 L14-Cnr8 L13-Kq_6 L12-Pdz6 L11-Par4 L10-Ain3 L9-Xus5 L8-Ugy3 L7-Git4 L6-Pcv4 L5-Yyx1 L4-Ift5 L3-Ahr6 L2-Fhe7 L1-Yhy5
[90m-->4/14
[0m[90m-->4/15
[0m[90m-->4/17
[0m[90m-->4/18
[0m[90m-->4/19
[0m[90m-->4/22
[0m[90m-->4/23
[0m[90m-->4/25
[0m[90m-->4/26
[0m[90m-->4/30
[0m[90m-->4/31
[0mL44-Asl3 L43-Jic6 L42-Vxq5 L41-Fiw8 L40-Qkd6 L39-Zwe8 L38-Zgg1 L37-Xzg0 L36-Kwu1 L35-Bje6 L34-Ft_5 L33-Vqc4 L32-Ybj9 L31-Div3 L30-Rro8 L29-Iyn6 L28-Mzu4 L27-Zhs7 L26-Exn7 L25-Cnr8 L24-Kq_6 L23-Pdz6 L22-Par4 L21-Ain3 L20-Xus5 L19-Ugy3 L18-Git4 L17-Pcv4 L16-Yyx1 L15-Ift5 L14-Ahr6 L13-Fhe7 L12-Yhy5 L11-Axg6 L10-Ksj0 L9-Flg1 L8-Iy_8 L7-Pur0 L6-Ezu1 L5-Ols9 L4-Whv9 L3-Ibx1 L2-Rcj3 L1-Tg_1
[90m-->5/14
[0m[90m-->5/15
[0m[90m-->5/17
[0m[90m-->5/18
[0m[90m-->5/19
[0m[90m-->5/22
[0m[90m-->5/23
[0m[90m-->5/25
[0m[90m-->5/26
[0m[90m-->5/30
[0m[90m-->5/31
[0mL55-Asl3 L54-Jic6 L53-Vxq5 L52-Fiw8 L51-Qkd6 L50-Zwe8 L49-Zgg1 L48-Xzg0 L47-Kwu1 L46-Bje6 L45-Ft_5 L44-Vqc4 L43-Ybj9 L42-Div3 L41-Rro8 L40-Iyn6 L39-Mzu4 L38-Zhs7 L37-Exn7 L36-Cnr8 L35-Kq_6 L34-Pdz6 L33-Par4 L32-Ain3 L31-Xus5 L30-Ugy3 L29-Git4 L28-Pcv4 L27-Yyx1 L26-Ift5 L25-Ahr6 L24-Fhe7 L23-Yhy5 L22-Axg6 L21-Ksj0 L20-Flg1 L19-Iy_8 L18-Pur0 L17-Ezu1 L16-Ols9 L15-Whv9 L14-Ibx1 L13-Rcj3 L12-Tg_1 L11-Tli4 L10-Veg8 L9-J_f1 L8-Ygp8 L7-Daa7 L6-Jnx3 L5-Fti7 L4-Wio3 L3-Jdf8 L2-R_q7 L1-Xlk3
[90m-->6/14
[0m[90m-->6/15
[0m[90m-->6/17
[0m[90m-->6/18
[0m[90m-->6/19
[0m[90m-->6/22
[0m[90m-->6/23
[0m[90m-->6/25
[0m[90m-->6/26
[0m[90m-->6/30
[0m[90m-->6/31
[0mL66-Asl3 L65-Jic6 L64-Vxq5 L63-Fiw8 L62-Qkd6 L61-Zwe8 L60-Zgg1 L59-Xzg0 L58-Kwu1 L57-Bje6 L56-Ft_5 L55-Vqc4 L54-Ybj9 L53-Div3 L52-Rro8 L51-Iyn6 L50-Mzu4 L49-Zhs7 L48-Exn7 L47-Cnr8 L46-Kq_6 L45-Pdz6 L44-Par4 L43-Ain3 L42-Xus5 L41-Ugy3 L40-Git4 L39-Pcv4 L38-Yyx1 L37-Ift5 L36-Ahr6 L35-Fhe7 L34-Yhy5 L33-Axg6 L32-Ksj0 L31-Flg1 L30-Iy_8 L29-Pur0 L28-Ezu1 L27-Ols9 L26-Whv9 L25-Ibx1 L24-Rcj3 L23-Tg_1 L22-Tli4 L21-Veg8 L20-J_f1 L19-Ygp8 L18-Daa7 L17-Jnx3 L16-Fti7 L15-Wio3 L14-Jdf8 L13-R_q7 L12-Xlk3 L11-Tsj7 L10-V_p4 L9-C_q5 L8-Nbb9 L7-Uqa7 L6-Ewa1 L5-X_v0 L4-Tjg2 L3-Ryi5 L2-Xuz5 L1-Ixz9
[90m-->7/14
[0m[90m-->7/15
[0m[90m-->7/17
[0m[90m-->7/18
[0m[90m-->7/19
[0m[90m-->7/22
[0m[90m-->7/23
[0m[90m-->7/25
[0m[90m-->7/26
[0m[90m-->7/30
[0m[90m-->7/31
[0mL77-Asl3 L76-Jic6 L75-Vxq5 L74-Fiw8 L73-Qkd6 L72-Zwe8 L71-Zgg1 L70-Xzg0 L69-Kwu1 L68-Bje6 L67-Ft_5 L66-Vqc4 L65-Ybj9 L64-Div3 L63-Rro8 L62-Iyn6 L61-Mzu4 L60-Zhs7 L59-Exn7 L58-Cnr8 L57-Kq_6 L56-Pdz6 L55-Par4 L54-Ain3 L53-Xus5 L52-Ugy3 L51-Git4 L50-Pcv4 L49-Yyx1 L48-Ift5 L47-Ahr6 L46-Fhe7 L45-Yhy5 L44-Axg6 L43-Ksj0 L42-Flg1 L41-Iy_8 L40-Pur0 L39-Ezu1 L38-Ols9 L37-Whv9 L36-Ibx1 L35-Rcj3 L34-Tg_1 L33-Tli4 L32-Veg8 L31-J_f1 L30-Ygp8 L29-Daa7 L28-Jnx3 L27-Fti7 L26-Wio3 L25-Jdf8 L24-R_q7 L23-Xlk3 L22-Tsj7 L21-V_p4 L20-C_q5 L19-Nbb9 L18-Uqa7 L17-Ewa1 L16-X_v0 L15-Tjg2 L14-Ryi5 L13-Xuz5 L12-Ixz9 L11-Mza3 L10-P_r8 L9-Byk3 L8-Edn4 L7-Udm8 L6-Wwf0 L5-Wou9 L4-Bji6 L3-Bxa2 L2-Alr0 L1-Kgq2
[90m-->8/14
[0m[90m-->8/15
[0m[90m-->8/17
[0m[90m-->8/18
[0m[90m-->8/19
[0m[90m-->8/22
[0m[90m-->8/23
[0m[90m-->8/25
[0m[90m-->8/26
[0m[90m-->8/30
[0m[90m-->8/31
[0mL88-Asl3 L87-Jic6 L86-Vxq5 L85-Fiw8 L84-Qkd6 L83-Zwe8 L82-Zgg1 L81-Xzg0 L80-Kwu1 L79-Bje6 L78-Ft_5 L77-Vqc4 L76-Ybj9 L75-Div3 L74-Rro8 L73-Iyn6 L72-Mzu4 L71-Zhs7 L70-Exn7 L69-Cnr8 L68-Kq_6 L67-Pdz6 L66-Par4 L65-Ain3 L64-Xus5 L63-Ugy3 L62-Git4 L61-Pcv4 L60-Yyx1 L59-Ift5 L58-Ahr6 L57-Fhe7 L56-Yhy5 L55-Axg6 L54-Ksj0 L53-Flg1 L52-Iy_8 L51-Pur0 L50-Ezu1 L49-Ols9 L48-Whv9 L47-Ibx1 L46-Rcj3 L45-Tg_1 L44-Tli4 L43-Veg8 L42-J_f1 L41-Ygp8 L40-Daa7 L39-Jnx3 L38-Fti7 L37-Wio3 L36-Jdf8 L35-R_q7 L34-Xlk3 L33-Tsj7 L32-V_p4 L31-C_q5 L30-Nbb9 L29-Uqa7 L28-Ewa1 L27-X_v0 L26-Tjg2 L25-Ryi5 L24-Xuz5 L23-Ixz9 L22-Mza3 L21-P_r8 L20-Byk3 L19-Edn4 L18-Udm8 L17-Wwf0 L16-Wou9 L15-Bji6 L14-Bxa2 L13-Alr0 L12-Kgq2 L11-Bkg9 L10-Njj5 L9-Vzd2 L8-Cas5 L7-Yyu0 L6-Fky1 L5-Feh7 L4-Chj4 L3-Fxg0 L2-Vzg3 L1-Ssz8
[90m-->9/14
[0m[90m-->9/15
[0m[90m-->9/17
[0m[90m-->9/18
[0m[90m-->9/19
[0m[90m-->9/22
[0m[90m-->9/23
[0m[90m-->9/25
[0m[90m-->9/26
[0m[90m-->9/30
[0m[90m-->9/31
[0mL99-Asl3 L98-Jic6 L97-Vxq5 L96-Fiw8 L95-Qkd6 L94-Zwe8 L93-Zgg1 L92-Xzg0 L91-Kwu1 L90-Bje6 L89-Ft_5 L88-Vqc4 L87-Ybj9 L86-Div3 L85-Rro8 L84-Iyn6 L83-Mzu4 L82-Zhs7 L81-Exn7 L80-Cnr8 L79-Kq_6 L78-Pdz6 L77-Par4 L76-Ain3 L75-Xus5 L74-Ugy3 L73-Git4 L72-Pcv4 L71-Yyx1 L70-Ift5 L69-Ahr6 L68-Fhe7 L67-Yhy5 L66-Axg6 L65-Ksj0 L64-Flg1 L63-Iy_8 L62-Pur0 L61-Ezu1 L60-Ols9 L59-Whv9 L58-Ibx1 L57-Rcj3 L56-Tg_1 L55-Tli4 L54-Veg8 L53-J_f1 L52-Ygp8 L51-Daa7 L50-Jnx3 L49-Fti7 L48-Wio3 L47-Jdf8 L46-R_q7 L45-Xlk3 L44-Tsj7 L43-V_p4 L42-C_q5 L41-Nbb9 L40-Uqa7 L39-Ewa1 L38-X_v0 L37-Tjg2 L36-Ryi5 L35-Xuz5 L34-Ixz9 L33-Mza3 L32-P_r8 L31-Byk3 L30-Edn4 L29-Udm8 L28-Wwf0 L27-Wou9 L26-Bji6 L25-Bxa2 L24-Alr0 L23-Kgq2 L22-Bkg9 L21-Njj5 L20-Vzd2 L19-Cas5 L18-Yyu0 L17-Fky1 L16-Feh7 L15-Chj4 L14-Fxg0 L13-Vzg3 L12-Ssz8 L11-De_6 L10-Nzh1 L9-Yr_4 L8-Vze1 L7-Mld7 L6-Yqk9 L5-Ult8 L4-Qmk7 L3-Sel8 L2-Xqv7 L1-Qcm1
[90m-->10/14
[0m[90m-->10/15
[0m[90m-->10/17
[0m[90m-->10/18
[0m[90m-->10/19
[0m[90m-->10/22
[0m[90m-->10/23
[0m[90m-->10/25
[0m[90m-->10/26
[0m[90m-->10/30
[0m[90m-->10/31
[0mL110-Asl3 L109-Jic6 L108-Vxq5 L107-Fiw8 L106-Qkd6 L105-Zwe8 L104-Zgg1 L103-Xzg0 L102-Kwu1 L101-Bje6 L100-Ft_5 L99-Vqc4 L98-Ybj9 L97-Div3 L96-Rro8 L95-Iyn6 L94-Mzu4 L93-Zhs7 L92-Exn7 L91-Cnr8 L90-Kq_6 L89-Pdz6 L88-Par4 L87-Ain3 L86-Xus5 L85-Ugy3 L84-Git4 L83-Pcv4 L82-Yyx1 L81-Ift5 L80-Ahr6 L79-Fhe7 L78-Yhy5 L77-Axg6 L76-Ksj0 L75-Flg1 L74-Iy_8 L73-Pur0 L72-Ezu1 L71-Ols9 L70-Whv9 L69-Ibx1 L68-Rcj3 L67-Tg_1 L66-Tli4 L65-Veg8 L64-J_f1 L63-Ygp8 L62-Daa7 L61-Jnx3 L60-Fti7 L59-Wio3 L58-Jdf8 L57-R_q7 L56-Xlk3 L55-Tsj7 L54-V_p4 L53-C_q5 L52-Nbb9 L51-Uqa7 L50-Ewa1 L49-X_v0 L48-Tjg2 L47-Ryi5 L46-Xuz5 L45-Ixz9 L44-Mza3 L43-P_r8 L42-Byk3 L41-Edn4 L40-Udm8 L39-Wwf0 L38-Wou9 L37-Bji6 L36-Bxa2 L35-Alr0 L34-Kgq2 L33-Bkg9 L32-Njj5 L31-Vzd2 L30-Cas5 L29-Yyu0 L28-Fky1 L27-Feh7 L26-Chj4 L25-Fxg0 L24-Vzg3 L23-Ssz8 L22-De_6 L21-Nzh1 L20-Yr_4 L19-Vze1 L18-Mld7 L17-Yqk9 L16-Ult8 L15-Qmk7 L14-Sel8 L13-Xqv7 L12-Qcm1 L11-Npl1 L10-Nck8 L9-Wsn2 L8-Flu6 L7-Si_5 L6-K_v2 L5-Fjp7 L4-M_y0 L3-Ytw4 L2-Amz5 L1-Fai4
[90m-->11/14
[0m[90m-->11/15
[0m[90m-->11/17
[0m[90m-->11/18
[0m[90m-->11/19
[0m[90m-->11/22
[0m[90m-->11/23
[0m[90m-->11/25
[0m[90m-->11/26
[0m[90m-->11/30
[0m[90m-->11/31
[0mL121-Asl3 L120-Jic6 L119-Vxq5 L118-Fiw8 L117-Qkd6 L116-Zwe8 L115-Zgg1 L114-Xzg0 L113-Kwu1 L112-Bje6 L111-Ft_5 L110-Vqc4 L109-Ybj9 L108-Div3 L107-Rro8 L106-Iyn6 L105-Mzu4 L104-Zhs7 L103-Exn7 L102-Cnr8 L101-Kq_6 L100-Pdz6 L99-Par4 L98-Ain3 L97-Xus5 L96-Ugy3 L95-Git4 L94-Pcv4 L93-Yyx1 L92-Ift5 L91-Ahr6 L90-Fhe7 L89-Yhy5 L88-Axg6 L87-Ksj0 L86-Flg1 L85-Iy_8 L84-Pur0 L83-Ezu1 L82-Ols9 L81-Whv9 L80-Ibx1 L79-Rcj3 L78-Tg_1 L77-Tli4 L76-Veg8 L75-J_f1 L74-Ygp8 L73-Daa7 L72-Jnx3 L71-Fti7 L70-Wio3 L69-Jdf8 L68-R_q7 L67-Xlk3 L66-Tsj7 L65-V_p4 L64-C_q5 L63-Nbb9 L62-Uqa7 L61-Ewa1 L60-X_v0 L59-Tjg2 L58-Ryi5 L57-Xuz5 L56-Ixz9 L55-Mza3 L54-P_r8 L53-Byk3 L52-Edn4 L51-Udm8 L50-Wwf0 L49-Wou9 L48-Bji6 L47-Bxa2 L46-Alr0 L45-Kgq2 L44-Bkg9 L43-Njj5 L42-Vzd2 L41-Cas5 L40-Yyu0 L39-Fky1 L38-Feh7 L37-Chj4 L36-Fxg0 L35-Vzg3 L34-Ssz8 L33-De_6 L32-Nzh1 L31-Yr_4 L30-Vze1 L29-Mld7 L28-Yqk9 L27-Ult8 L26-Qmk7 L25-Sel8 L24-Xqv7 L23-Qcm1 L22-Npl1 L21-Nck8 L20-Wsn2 L19-Flu6 L18-Si_5 L17-K_v2 L16-Fjp7 L15-M_y0 L14-Ytw4 L13-Amz5 L12-Fai4 L11-Ybt8 L10-Yxp7 L9-Wqj2 L8-Chn7 L7-Msp9 L6-D_a1 L5-Nwz8 L4-Ivy8 L3-Dhz6 L2-Or_1 L1-Cjk8
[90m-->12/14
[0m[90m-->12/15
[0m[90m-->12/17
[0m[90m-->12/18
[0m[90m-->12/19
[0m[90m-->12/22
[0m[90m-->12/23
[0m[90m-->12/25
[0m[90m-->12/26
[0m[90m-->12/30
[0m[90m-->12/31
[0mL132-Asl3 L131-Jic6 L130-Vxq5 L129-Fiw8 L128-Qkd6 L127-Zwe8 L126-Zgg1 L125-Xzg0 L124-Kwu1 L123-Bje6 L122-Ft_5 L121-Vqc4 L120-Ybj9 L119-Div3 L118-Rro8 L117-Iyn6 L116-Mzu4 L115-Zhs7 L114-Exn7 L113-Cnr8 L112-Kq_6 L111-Pdz6 L110-Par4 L109-Ain3 L108-Xus5 L107-Ugy3 L106-Git4 L105-Pcv4 L104-Yyx1 L103-Ift5 L102-Ahr6 L101-Fhe7 L100-Yhy5 L99-Axg6 L98-Ksj0 L97-Flg1 L96-Iy_8 L95-Pur0 L94-Ezu1 L93-Ols9 L92-Whv9 L91-Ibx1 L90-Rcj3 L89-Tg_1 L88-Tli4 L87-Veg8 L86-J_f1 L85-Ygp8 L84-Daa7 L83-Jnx3 L82-Fti7 L81-Wio3 L80-Jdf8 L79-R_q7 L78-Xlk3 L77-Tsj7 L76-V_p4 L75-C_q5 L74-Nbb9 L73-Uqa7 L72-Ewa1 L71-X_v0 L70-Tjg2 L69-Ryi5 L68-Xuz5 L67-Ixz9 L66-Mza3 L65-P_r8 L64-Byk3 L63-Edn4 L62-Udm8 L61-Wwf0 L60-Wou9 L59-Bji6 L58-Bxa2 L57-Alr0 L56-Kgq2 L55-Bkg9 L54-Njj5 L53-Vzd2 L52-Cas5 L51-Yyu0 L50-Fky1 L49-Feh7 L48-Chj4 L47-Fxg0 L46-Vzg3 L45-Ssz8 L44-De_6 L43-Nzh1 L42-Yr_4 L41-Vze1 L40-Mld7 L39-Yqk9 L38-Ult8 L37-Qmk7 L36-Sel8 L35-Xqv7 L34-Qcm1 L33-Npl1 L32-Nck8 L31-Wsn2 L30-Flu6 L29-Si_5 L28-K_v2 L27-Fjp7 L26-M_y0 L25-Ytw4 L24-Amz5 L23-Fai4 L22-Ybt8 L21-Yxp7 L20-Wqj2 L19-Chn7 L18-Msp9 L17-D_a1 L16-Nwz8 L15-Ivy8 L14-Dhz6 L13-Or_1 L12-Cjk8 L11-Skt5 L10-Pyr7 L9-Zpt2 L8-Mvk6 L7-Oxs0 L6-Fyb5 L5-Uwr1 L4-Rer1 L3-X_u7 L2-Gls0 L1-Mek7
[90m-->13/14
[0m[90m-->13/15
[0m[90m-->13/17
[0m[90m-->13/18
[0m[90m-->13/19
[0m[90m-->13/22
[0m[90m-->13/23
[0m[90m-->13/25
[0m[90m-->13/26
[0m[90m-->13/30
[0m[90m-->13/31
[0mL143-Asl3 L142-Jic6 L141-Vxq5 L140-Fiw8 L139-Qkd6 L138-Zwe8 L137-Zgg1 L136-Xzg0 L135-Kwu1 L134-Bje6 L133-Ft_5 L132-Vqc4 L131-Ybj9 L130-Div3 L129-Rro8 L128-Iyn6 L127-Mzu4 L126-Zhs7 L125-Exn7 L124-Cnr8 L123-Kq_6 L122-Pdz6 L121-Par4 L120-Ain3 L119-Xus5 L118-Ugy3 L117-Git4 L116-Pcv4 L115-Yyx1 L114-Ift5 L113-Ahr6 L112-Fhe7 L111-Yhy5 L110-Axg6 L109-Ksj0 L108-Flg1 L107-Iy_8 L106-Pur0 L105-Ezu1 L104-Ols9 L103-Whv9 L102-Ibx1 L101-Rcj3 L100-Tg_1 L99-Tli4 L98-Veg8 L97-J_f1 L96-Ygp8 L95-Daa7 L94-Jnx3 L93-Fti7 L92-Wio3 L91-Jdf8 L90-R_q7 L89-Xlk3 L88-Tsj7 L87-V_p4 L86-C_q5 L85-Nbb9 L84-Uqa7 L83-Ewa1 L82-X_v0 L81-Tjg2 L80-Ryi5 L79-Xuz5 L78-Ixz9 L77-Mza3 L76-P_r8 L75-Byk3 L74-Edn4 L73-Udm8 L72-Wwf0 L71-Wou9 L70-Bji6 L69-Bxa2 L68-Alr0 L67-Kgq2 L66-Bkg9 L65-Njj5 L64-Vzd2 L63-Cas5 L62-Yyu0 L61-Fky1 L60-Feh7 L59-Chj4 L58-Fxg0 L57-Vzg3 L56-Ssz8 L55-De_6 L54-Nzh1 L53-Yr_4 L52-Vze1 L51-Mld7 L50-Yqk9 L49-Ult8 L48-Qmk7 L47-Sel8 L46-Xqv7 L45-Qcm1 L44-Npl1 L43-Nck8 L42-Wsn2 L41-Flu6 L40-Si_5 L39-K_v2 L38-Fjp7 L37-M_y0 L36-Ytw4 L35-Amz5 L34-Fai4 L33-Ybt8 L32-Yxp7 L31-Wqj2 L30-Chn7 L29-Msp9 L28-D_a1 L27-Nwz8 L26-Ivy8 L25-Dhz6 L24-Or_1 L23-Cjk8 L22-Skt5 L21-Pyr7 L20-Zpt2 L19-Mvk6 L18-Oxs0 L17-Fyb5 L16-Uwr1 L15-Rer1 L14-X_u7 L13-Gls0 L12-Mek7 L11-Hg_8 L10-Ddw0 L9-Jms2 L8-Ipn5 L7-Pgr2 L6-Qcc9 L5-Hqu4 L4-Deq7 L3-Mjb9 L2-Gsk1 L1-Yjs7
[90m-->14/14
[0m[90m-->14/15
[0m[90m-->14/17
[0m[90m-->14/18
[0m[90m-->14/19
[0m[90m-->14/22
[0m[90m-->14/23
[0m[90m-->14/25
[0m[90m-->14/26
[0m[90m-->14/30
[0m[90m-->14/31
[0mL154-Asl3 L153-Jic6 L152-Vxq5 L151-Fiw8 L150-Qkd6 L149-Zwe8 L148-Zgg1 L147-Xzg0 L146-Kwu1 L145-Bje6 L144-Ft_5 L143-Vqc4 L142-Ybj9 L141-Div3 L140-Rro8 L139-Iyn6 L138-Mzu4 L137-Zhs7 L136-Exn7 L135-Cnr8 L134-Kq_6 L133-Pdz6 L132-Par4 L131-Ain3 L130-Xus5 L129-Ugy3 L128-Git4 L127-Pcv4 L126-Yyx1 L125-Ift5 L124-Ahr6 L123-Fhe7 L122-Yhy5 L121-Axg6 L120-Ksj0 L119-Flg1 L118-Iy_8 L117-Pur0 L116-Ezu1 L115-Ols9 L114-Whv9 L113-Ibx1 L112-Rcj3 L111-Tg_1 L110-Tli4 L109-Veg8 L108-J_f1 L107-Ygp8 L106-Daa7 L105-Jnx3 L104-Fti7 L103-Wio3 L102-Jdf8 L101-R_q7 L100-Xlk3 L99-Tsj7 L98-V_p4 L97-C_q5 L96-Nbb9 L95-Uqa7 L94-Ewa1 L93-X_v0 L92-Tjg2 L91-Ryi5 L90-Xuz5 L89-Ixz9 L88-Mza3 L87-P_r8 L86-Byk3 L85-Edn4 L84-Udm8 L83-Wwf0 L82-Wou9 L81-Bji6 L80-Bxa2 L79-Alr0 L78-Kgq2 L77-Bkg9 L76-Njj5 L75-Vzd2 L74-Cas5 L73-Yyu0 L72-Fky1 L71-Feh7 L70-Chj4 L69-Fxg0 L68-Vzg3 L67-Ssz8 L66-De_6 L65-Nzh1 L64-Yr_4 L63-Vze1 L62-Mld7 L61-Yqk9 L60-Ult8 L59-Qmk7 L58-Sel8 L57-Xqv7 L56-Qcm1 L55-Npl1 L54-Nck8 L53-Wsn2 L52-Flu6 L51-Si_5 L50-K_v2 L49-Fjp7 L48-M_y0 L47-Ytw4 L46-Amz5 L45-Fai4 L44-Ybt8 L43-Yxp7 L42-Wqj2 L41-Chn7 L40-Msp9 L39-D_a1 L38-Nwz8 L37-Ivy8 L36-Dhz6 L35-Or_1 L34-Cjk8 L33-Skt5 L32-Pyr7 L31-Zpt2 L30-Mvk6 L29-Oxs0 L28-Fyb5 L27-Uwr1 L26-Rer1 L25-X_u7 L24-Gls0 L23-Mek7 L22-Hg_8 L21-Ddw0 L20-Jms2 L19-Ipn5 L18-Pgr2 L17-Qcc9 L16-Hqu4 L15-Deq7 L14-Mjb9 L13-Gsk1 L12-Yjs7 L11-Mwp7 L10-Rvk7 L9-Zqt8 L8-H_v0 L7-Cjl8 L6-Whl7 L5-Ey_5 L4-Two5 L3-D__8 L2-Kme0 L1-Vvj9
[90m-->14/14
[0m[90m-->15/15
[0m[90m-->15/17
[0m[90m-->15/18
[0m[90m-->15/19
[0m[90m-->15/22
[0m[90m-->15/23
[0m[90m-->15/25
[0m[90m-->15/26
[0m[90m-->15/30
[0m[90m-->15/31
[0mL164-Asl3 L163-Jic6 L162-Vxq5 L161-Fiw8 L160-Qkd6 L159-Zwe8 L158-Zgg1 L157-Xzg0 L156-Kwu1 L155-Bje6 L154-Vqc4 L153-Ybj9 L152-Div3 L151-Rro8 L150-Iyn6 L149-Mzu4 L148-Zhs7 L147-Exn7 L146-Cnr8 L145-Kq_6 L144-Pdz6 L143-Par4 L142-Ain3 L141-Xus5 L140-Ugy3 L139-Git4 L138-Pcv4 L137-Yyx1 L136-Ift5 L135-Ahr6 L134-Fhe7 L133-Yhy5 L132-Axg6 L131-Ksj0 L130-Flg1 L129-Iy_8 L128-Pur0 L127-Ezu1 L126-Ols9 L125-Whv9 L124-Ibx1 L123-Rcj3 L122-Tg_1 L121-Tli4 L120-Veg8 L119-J_f1 L118-Ygp8 L117-Daa7 L116-Jnx3 L115-Fti7 L114-Wio3 L113-Jdf8 L112-R_q7 L111-Xlk3 L110-Tsj7 L109-V_p4 L108-C_q5 L107-Nbb9 L106-Uqa7 L105-Ewa1 L104-X_v0 L103-Tjg2 L102-Ryi5 L101-Xuz5 L100-Ixz9 L99-Mza3 L98-P_r8 L97-Byk3 L96-Edn4 L95-Udm8 L94-Wwf0 L93-Wou9 L92-Bji6 L91-Bxa2 L90-Alr0 L89-Kgq2 L88-Bkg9 L87-Njj5 L86-Vzd2 L85-Cas5 L84-Yyu0 L83-Fky1 L82-Feh7 L81-Chj4 L80-Fxg0 L79-Vzg3 L78-Ssz8 L77-De_6 L76-Nzh1 L75-Yr_4 L74-Vze1 L73-Mld7 L72-Yqk9 L71-Ult8 L70-Qmk7 L69-Sel8 L68-Xqv7 L67-Qcm1 L66-Npl1 L65-Nck8 L64-Wsn2 L63-Flu6 L62-Si_5 L61-K_v2 L60-Fjp7 L59-M_y0 L58-Ytw4 L57-Amz5 L56-Fai4 L55-Ybt8 L54-Yxp7 L53-Wqj2 L52-Chn7 L51-Msp9 L50-D_a1 L49-Nwz8 L48-Ivy8 L47-Dhz6 L46-Or_1 L45-Cjk8 L44-Skt5 L43-Pyr7 L42-Zpt2 L41-Mvk6 L40-Oxs0 L39-Fyb5 L38-Uwr1 L37-Rer1 L36-X_u7 L35-Gls0 L34-Mek7 L33-Hg_8 L32-Ddw0 L31-Jms2 L30-Ipn5 L29-Pgr2 L28-Qcc9 L27-Hqu4 L26-Deq7 L25-Mjb9 L24-Gsk1 L23-Yjs7 L22-Mwp7 L21-Rvk7 L20-Zqt8 L19-H_v0 L18-Cjl8 L17-Whl7 L16-Ey_5 L15-Two5 L14-D__8 L13-Kme0 L12-Vvj9 L11-Mcw7 L10-Z_n2 L9-Brt2 L8-Ijl4 L7-Mjh5 L6-Hvo5 L5-Tqi5 L4-Inx0 L3-Kae5 L2-Kuv6 L1-Wg_7
[90m-->14/14
[0m[90m-->15/15
[0m[90m-->16/17
[0m[90m-->16/18
[0m[90m-->16/19
[0m[90m-->16/22
[0m[90m-->16/23
[0m[90m-->16/25
[0m[90m-->16/26
[0m[90m-->16/30
[0m[90m-->16/31
[0mL173-Asl3 L172-Jic6 L171-Vxq5 L170-Fiw8 L169-Qkd6 L168-Zwe8 L167-Zgg1 L166-Xzg0 L165-Kwu1 L164-Vqc4 L163-Ybj9 L162-Div3 L161-Rro8 L160-Iyn6 L159-Mzu4 L158-Zhs7 L157-Exn7 L156-Cnr8 L155-Kq_6 L154-Par4 L153-Ain3 L152-Xus5 L151-Ugy3 L150-Git4 L149-Pcv4 L148-Yyx1 L147-Ift5 L146-Ahr6 L145-Fhe7 L144-Yhy5 L143-Axg6 L142-Ksj0 L141-Flg1 L140-Iy_8 L139-Pur0 L138-Ezu1 L137-Ols9 L136-Whv9 L135-Ibx1 L134-Rcj3 L133-Tg_1 L132-Tli4 L131-Veg8 L130-J_f1 L129-Ygp8 L128-Daa7 L127-Jnx3 L126-Fti7 L125-Wio3 L124-Jdf8 L123-R_q7 L122-Xlk3 L121-Tsj7 L120-V_p4 L119-C_q5 L118-Nbb9 L117-Uqa7 L116-Ewa1 L115-X_v0 L114-Tjg2 L113-Ryi5 L112-Xuz5 L111-Ixz9 L110-Mza3 L109-P_r8 L108-Byk3 L107-Edn4 L106-Udm8 L105-Wwf0 L104-Wou9 L103-Bji6 L102-Bxa2 L101-Alr0 L100-Kgq2 L99-Bkg9 L98-Njj5 L97-Vzd2 L96-Cas5 L95-Yyu0 L94-Fky1 L93-Feh7 L92-Chj4 L91-Fxg0 L90-Vzg3 L89-Ssz8 L88-De_6 L87-Nzh1 L86-Yr_4 L85-Vze1 L84-Mld7 L83-Yqk9 L82-Ult8 L81-Qmk7 L80-Sel8 L79-Xqv7 L78-Qcm1 L77-Npl1 L76-Nck8 L75-Wsn2 L74-Flu6 L73-Si_5 L72-K_v2 L71-Fjp7 L70-M_y0 L69-Ytw4 L68-Amz5 L67-Fai4 L66-Ybt8 L65-Yxp7 L64-Wqj2 L63-Chn7 L62-Msp9 L61-D_a1 L60-Nwz8 L59-Ivy8 L58-Dhz6 L57-Or_1 L56-Cjk8 L55-Skt5 L54-Pyr7 L53-Zpt2 L52-Mvk6 L51-Oxs0 L50-Fyb5 L49-Uwr1 L48-Rer1 L47-X_u7 L46-Gls0 L45-Mek7 L44-Hg_8 L43-Ddw0 L42-Jms2 L41-Ipn5 L40-Pgr2 L39-Qcc9 L38-Hqu4 L37-Deq7 L36-Mjb9 L35-Gsk1 L34-Yjs7 L33-Mwp7 L32-Rvk7 L31-Zqt8 L30-H_v0 L29-Cjl8 L28-Whl7 L27-Ey_5 L26-Two5 L25-D__8 L24-Kme0 L23-Vvj9 L22-Mcw7 L21-Z_n2 L20-Brt2 L19-Ijl4 L18-Mjh5 L17-Hvo5 L16-Tqi5 L15-Inx0 L14-Kae5 L13-Kuv6 L12-Wg_7 L11-Wwn4 L10-Rqy0 L9-Rjx9 L8-Fjn7 L7-Diw0 L6-Kqw7 L5-U_j8 L4-Fyr9 L3-Sa_0 L2-Xfv1 L1-Odo4
[90m-->14/14
[0m[90m-->15/15
[0m[90m-->17/17
[0m[90m-->17/18
[0m[90m-->17/19
[0m[90m-->17/22
[0m[90m-->17/23
[0m[90m-->17/25
[0m[90m-->17/26
[0m[90m-->17/30
[0m[90m-->17/31
[0mL182-Asl3 L181-Jic6 L180-Vxq5 L179-Fiw8 L178-Qkd6 L177-Zwe8 L176-Zgg1 L175-Xzg0 L174-Kwu1 L173-Vqc4 L172-Ybj9 L171-Div3 L170-Rro8 L169-Iyn6 L168-Mzu4 L167-Zhs7 L166-Exn7 L165-Cnr8 L164-Par4 L163-Ain3 L162-Xus5 L161-Ugy3 L160-Git4 L159-Pcv4 L158-Yyx1 L157-Ift5 L156-Ahr6 L155-Fhe7 L154-Axg6 L153-Ksj0 L152-Flg1 L151-Iy_8 L150-Pur0 L149-Ezu1 L148-Ols9 L147-Whv9 L146-Ibx1 L145-Rcj3 L144-Tg_1 L143-Tli4 L142-Veg8 L141-J_f1 L140-Ygp8 L139-Daa7 L138-Jnx3 L137-Fti7 L136-Wio3 L135-Jdf8 L134-R_q7 L133-Xlk3 L132-Tsj7 L131-V_p4 L130-C_q5 L129-Nbb9 L128-Uqa7 L127-Ewa1 L126-X_v0 L125-Tjg2 L124-Ryi5 L123-Xuz5 L122-Ixz9 L121-Mza3 L120-P_r8 L119-Byk3 L118-Edn4 L117-Udm8 L116-Wwf0 L115-Wou9 L114-Bji6 L113-Bxa2 L112-Alr0 L111-Kgq2 L110-Bkg9 L109-Njj5 L108-Vzd2 L107-Cas5 L106-Yyu0 L105-Fky1 L104-Feh7 L103-Chj4 L102-Fxg0 L101-Vzg3 L100-Ssz8 L99-De_6 L98-Nzh1 L97-Yr_4 L96-Vze1 L95-Mld7 L94-Yqk9 L93-Ult8 L92-Qmk7 L91-Sel8 L90-Xqv7 L89-Qcm1 L88-Npl1 L87-Nck8 L86-Wsn2 L85-Flu6 L84-Si_5 L83-K_v2 L82-Fjp7 L81-M_y0 L80-Ytw4 L79-Amz5 L78-Fai4 L77-Ybt8 L76-Yxp7 L75-Wqj2 L74-Chn7 L73-Msp9 L72-D_a1 L71-Nwz8 L70-Ivy8 L69-Dhz6 L68-Or_1 L67-Cjk8 L66-Skt5 L65-Pyr7 L64-Zpt2 L63-Mvk6 L62-Oxs0 L61-Fyb5 L60-Uwr1 L59-Rer1 L58-X_u7 L57-Gls0 L56-Mek7 L55-Hg_8 L54-Ddw0 L53-Jms2 L52-Ipn5 L51-Pgr2 L50-Qcc9 L49-Hqu4 L48-Deq7 L47-Mjb9 L46-Gsk1 L45-Yjs7 L44-Mwp7 L43-Rvk7 L42-Zqt8 L41-H_v0 L40-Cjl8 L39-Whl7 L38-Ey_5 L37-Two5 L36-D__8 L35-Kme0 L34-Vvj9 L33-Mcw7 L32-Z_n2 L31-Brt2 L30-Ijl4 L29-Mjh5 L28-Hvo5 L27-Tqi5 L26-Inx0 L25-Kae5 L24-Kuv6 L23-Wg_7 L22-Wwn4 L21-Rqy0 L20-Rjx9 L19-Fjn7 L18-Diw0 L17-Kqw7 L16-U_j8 L15-Fyr9 L14-Sa_0 L13-Xfv1 L12-Odo4 L11-Vkr5 L10-Foa0 L9-Ppw5 L8-Fvx7 L7-Gkf1 L6-Wlb7 L5-Cbt3 L4-Hbc2 L3-Ojs8 L2-Nip2 L1-Xt_5
[90m-->14/14
[0m[90m-->15/15
[0m[90m-->17/17
[0m[90m-->18/18
[0m[90m-->18/19
[0m[90m-->18/22
[0m[90m-->18/23
[0m[90m-->18/25
[0m[90m-->18/26
[0m[90m-->18/30
[0m[90m-->18/31
[0mL190-Asl3 L189-Jic6 L188-Vxq5 L187-Fiw8 L186-Qkd6 L185-Zwe8 L184-Zgg1 L183-Xzg0 L182-Vqc4 L181-Ybj9 L180-Div3 L179-Rro8 L178-Iyn6 L177-Mzu4 L176-Zhs7 L175-Exn7 L174-Cnr8 L173-Par4 L172-Ain3 L171-Xus5 L170-Ugy3 L169-Git4 L168-Pcv4 L167-Yyx1 L166-Ift5 L165-Ahr6 L164-Axg6 L163-Ksj0 L162-Flg1 L161-Iy_8 L160-Pur0 L159-Ezu1 L158-Ols9 L157-Whv9 L156-Ibx1 L155-Rcj3 L154-Tli4 L153-Veg8 L152-J_f1 L151-Ygp8 L150-Daa7 L149-Jnx3 L148-Fti7 L147-Wio3 L146-Jdf8 L145-R_q7 L144-Xlk3 L143-Tsj7 L142-V_p4 L141-C_q5 L140-Nbb9 L139-Uqa7 L138-Ewa1 L137-X_v0 L136-Tjg2 L135-Ryi5 L134-Xuz5 L133-Ixz9 L132-Mza3 L131-P_r8 L130-Byk3 L129-Edn4 L128-Udm8 L127-Wwf0 L126-Wou9 L125-Bji6 L124-Bxa2 L123-Alr0 L122-Kgq2 L121-Bkg9 L120-Njj5 L119-Vzd2 L118-Cas5 L117-Yyu0 L116-Fky1 L115-Feh7 L114-Chj4 L113-Fxg0 L112-Vzg3 L111-Ssz8 L110-De_6 L109-Nzh1 L108-Yr_4 L107-Vze1 L106-Mld7 L105-Yqk9 L104-Ult8 L103-Qmk7 L102-Sel8 L101-Xqv7 L100-Qcm1 L99-Npl1 L98-Nck8 L97-Wsn2 L96-Flu6 L95-Si_5 L94-K_v2 L93-Fjp7 L92-M_y0 L91-Ytw4 L90-Amz5 L89-Fai4 L88-Ybt8 L87-Yxp7 L86-Wqj2 L85-Chn7 L84-Msp9 L83-D_a1 L82-Nwz8 L81-Ivy8 L80-Dhz6 L79-Or_1 L78-Cjk8 L77-Skt5 L76-Pyr7 L75-Zpt2 L74-Mvk6 L73-Oxs0 L72-Fyb5 L71-Uwr1 L70-Rer1 L69-X_u7 L68-Gls0 L67-Mek7 L66-Hg_8 L65-Ddw0 L64-Jms2 L63-Ipn5 L62-Pgr2 L61-Qcc9 L60-Hqu4 L59-Deq7 L58-Mjb9 L57-Gsk1 L56-Yjs7 L55-Mwp7 L54-Rvk7 L53-Zqt8 L52-H_v0 L51-Cjl8 L50-Whl7 L49-Ey_5 L48-Two5 L47-D__8 L46-Kme0 L45-Vvj9 L44-Mcw7 L43-Z_n2 L42-Brt2 L41-Ijl4 L40-Mjh5 L39-Hvo5 L38-Tqi5 L37-Inx0 L36-Kae5 L35-Kuv6 L34-Wg_7 L33-Wwn4 L32-Rqy0 L31-Rjx9 L30-Fjn7 L29-Diw0 L28-Kqw7 L27-U_j8 L26-Fyr9 L25-Sa_0 L24-Xfv1 L23-Odo4 L22-Vkr5 L21-Foa0 L20-Ppw5 L19-Fvx7 L18-Gkf1 L17-Wlb7 L16-Cbt3 L15-Hbc2 L14-Ojs8 L13-Nip2 L12-Xt_5 L11-Jrt2 L10-Oev0 L9-Tfv7 L8-Owt4 L7-Wge9 L6-Uho3 L5-Pmk8 L4-Kmh3 L3-T_k8 L2-Qmh0 L1-O_d3
[90m-->14/14
[0m[90m-->15/15
[0m[90m-->17/17
[0m[90m-->18/18
[0m[90m-->19/19
[0m[90m-->19/22
[0m[90m-->19/23
[0m[90m-->19/25
[0m[90m-->19/26
[0m[90m-->19/30
[0m[90m-->19/31
[0mL197-Asl3 L196-Jic6 L195-Vxq5 L194-Fiw8 L193-Qkd6 L192-Zwe8 L191-Zgg1 L190-Vqc4 L189-Ybj9 L188-Div3 L187-Rro8 L186-Iyn6 L185-Mzu4 L184-Zhs7 L183-Exn7 L182-Par4 L181-Ain3 L180-Xus5 L179-Ugy3 L178-Git4 L177-Pcv4 L176-Yyx1 L175-Ift5 L174-Ahr6 L173-Axg6 L172-Ksj0 L171-Flg1 L170-Iy_8 L169-Pur0 L168-Ezu1 L167-Ols9 L166-Whv9 L165-Ibx1 L164-Tli4 L163-Veg8 L162-J_f1 L161-Ygp8 L160-Daa7 L159-Jnx3 L158-Fti7 L157-Wio3 L156-Jdf8 L155-R_q7 L154-Tsj7 L153-V_p4 L152-C_q5 L151-Nbb9 L150-Uqa7 L149-Ewa1 L148-X_v0 L147-Tjg2 L146-Ryi5 L145-Xuz5 L144-Ixz9 L143-Mza3 L142-P_r8 L141-Byk3 L140-Edn4 L139-Udm8 L138-Wwf0 L137-Wou9 L136-Bji6 L135-Bxa2 L134-Alr0 L133-Kgq2 L132-Bkg9 L131-Njj5 L130-Vzd2 L129-Cas5 L128-Yyu0 L127-Fky1 L126-Feh7 L125-Chj4 L124-Fxg0 L123-Vzg3 L122-Ssz8 L121-De_6 L120-Nzh1 L119-Yr_4 L118-Vze1 L117-Mld7 L116-Yqk9 L115-Ult8 L114-Qmk7 L113-Sel8 L112-Xqv7 L111-Qcm1 L110-Npl1 L109-Nck8 L108-Wsn2 L107-Flu6 L106-Si_5 L105-K_v2 L104-Fjp7 L103-M_y0 L102-Ytw4 L101-Amz5 L100-Fai4 L99-Ybt8 L98-Yxp7 L97-Wqj2 L96-Chn7 L95-Msp9 L94-D_a1 L93-Nwz8 L92-Ivy8 L91-Dhz6 L90-Or_1 L89-Cjk8 L88-Skt5 L87-Pyr7 L86-Zpt2 L85-Mvk6 L84-Oxs0 L83-Fyb5 L82-Uwr1 L81-Rer1 L80-X_u7 L79-Gls0 L78-Mek7 L77-Hg_8 L76-Ddw0 L75-Jms2 L74-Ipn5 L73-Pgr2 L72-Qcc9 L71-Hqu4 L70-Deq7 L69-Mjb9 L68-Gsk1 L67-Yjs7 L66-Mwp7 L65-Rvk7 L64-Zqt8 L63-H_v0 L62-Cjl8 L61-Whl7 L60-Ey_5 L59-Two5 L58-D__8 L57-Kme0 L56-Vvj9 L55-Mcw7 L54-Z_n2 L53-Brt2 L52-Ijl4 L51-Mjh5 L50-Hvo5 L49-Tqi5 L48-Inx0 L47-Kae5 L46-Kuv6 L45-Wg_7 L44-Wwn4 L43-Rqy0 L42-Rjx9 L41-Fjn7 L40-Diw0 L39-Kqw7 L38-U_j8 L37-Fyr9 L36-Sa_0 L35-Xfv1 L34-Odo4 L33-Vkr5 L32-Foa0 L31-Ppw5 L30-Fvx7 L29-Gkf1 L28-Wlb7 L27-Cbt3 L26-Hbc2 L25-Ojs8 L24-Nip2 L23-Xt_5 L22-Jrt2 L21-Oev0 L20-Tfv7 L19-Owt4 L18-Wge9 L17-Uho3 L16-Pmk8 L15-Kmh3 L14-T_k8 L13-Qmh0 L12-O_d3 L11-P_d8 L10-Zs_3 L9-V_z5 L8-Zzj9 L7-Zgc9 L6-Jzp2 L5-Hiz7 L4-Fuy9 L3-Xe_8 L2-H_q5 L1-Zgs1
[90m-->14/14
[0m[90m-->15/15
[0m[90m-->17/17
[0m[90m-->18/18
[0m[90m-->19/19
[0m[90m-->20/22
[0m[90m-->20/23
[0m[90m-->20/25
[0m[90m-->20/26
[0m[90m-->20/30
[0m[90m-->20/31
[0mL203-Asl3 L202-Jic6 L201-Vxq5 L200-Fiw8 L199-Qkd6 L198-Zwe8 L197-Vqc4 L196-Ybj9 L195-Div3 L194-Rro8 L193-Iyn6 L192-Mzu4 L191-Zhs7 L190-Par4 L189-Ain3 L188-Xus5 L187-Ugy3 L186-Git4 L185-Pcv4 L184-Yyx1 L183-Ift5 L182-Axg6 L181-Ksj0 L180-Flg1 L179-Iy_8 L178-Pur0 L177-Ezu1 L176-Ols9 L175-Whv9 L174-Ibx1 L173-Tli4 L172-Veg8 L171-J_f1 L170-Ygp8 L169-Daa7 L168-Jnx3 L167-Fti7 L166-Wio3 L165-Jdf8 L164-Tsj7 L163-V_p4 L162-C_q5 L161-Nbb9 L160-Uqa7 L159-Ewa1 L158-X_v0 L157-Tjg2 L156-Ryi5 L155-Xuz5 L154-Mza3 L153-P_r8 L152-Byk3 L151-Edn4 L150-Udm8 L149-Wwf0 L148-Wou9 L147-Bji6 L146-Bxa2 L145-Alr0 L144-Kgq2 L143-Bkg9 L142-Njj5 L141-Vzd2 L140-Cas5 L139-Yyu0 L138-Fky1 L137-Feh7 L136-Chj4 L135-Fxg0 L134-Vzg3 L133-Ssz8 L132-De_6 L131-Nzh1 L130-Yr_4 L129-Vze1 L128-Mld7 L127-Yqk9 L126-Ult8 L125-Qmk7 L124-Sel8 L123-Xqv7 L122-Qcm1 L121-Npl1 L120-Nck8 L119-Wsn2 L118-Flu6 L117-Si_5 L116-K_v2 L115-Fjp7 L114-M_y0 L113-Ytw4 L112-Amz5 L111-Fai4 L110-Ybt8 L109-Yxp7 L108-Wqj2 L107-Chn7 L106-Msp9 L105-D_a1 L104-Nwz8 L103-Ivy8 L102-Dhz6 L101-Or_1 L100-Cjk8 L99-Skt5 L98-Pyr7 L97-Zpt2 L96-Mvk6 L95-Oxs0 L94-Fyb5 L93-Uwr1 L92-Rer1 L91-X_u7 L90-Gls0 L89-Mek7 L88-Hg_8 L87-Ddw0 L86-Jms2 L85-Ipn5 L84-Pgr2 L83-Qcc9 L82-Hqu4 L81-Deq7 L80-Mjb9 L79-Gsk1 L78-Yjs7 L77-Mwp7 L76-Rvk7 L75-Zqt8 L74-H_v0 L73-Cjl8 L72-Whl7 L71-Ey_5 L70-Two5 L69-D__8 L68-Kme0 L67-Vvj9 L66-Mcw7 L65-Z_n2 L64-Brt2 L63-Ijl4 L62-Mjh5 L61-Hvo5 L60-Tqi5 L59-Inx0 L58-Kae5 L57-Kuv6 L56-Wg_7 L55-Wwn4 L54-Rqy0 L53-Rjx9 L52-Fjn7 L51-Diw0 L50-Kqw7 L49-U_j8 L48-Fyr9 L47-Sa_0 L46-Xfv1 L45-Odo4 L44-Vkr5 L43-Foa0 L42-Ppw5 L41-Fvx7 L40-Gkf1 L39-Wlb7 L38-Cbt3 L37-Hbc2 L36-Ojs8 L35-Nip2 L34-Xt_5 L33-Jrt2 L32-Oev0 L31-Tfv7 L30-Owt4 L29-Wge9 L28-Uho3 L27-Pmk8 L26-Kmh3 L25-T_k8 L24-Qmh0 L23-O_d3 L22-P_d8 L21-Zs_3 L20-V_z5 L19-Zzj9 L18-Zgc9 L17-Jzp2 L16-Hiz7 L15-Fuy9 L14-Xe_8 L13-H_q5 L12-Zgs1 L11-Cdg4 L10-Uab8 L9-Bom3 L8-Pvc1 L7-Srx8 L6-Qsx9 L5-Rpr5 L4-Wfz4 L3-B_j0 L2-Xzw3 L1-Jgo5
[90m-->14/14
[0m[90m-->15/15
[0m[90m-->17/17
[0m[90m-->18/18
[0m[90m-->19/19
[0m[90m-->21/22
[0m[90m-->21/23
[0m[90m-->21/25
[0m[90m-->21/26
[0m[90m-->21/30
[0m[90m-->21/31
[0mL209-Asl3 L208-Jic6 L207-Vxq5 L206-Fiw8 L205-Qkd6 L204-Zwe8 L203-Vqc4 L202-Ybj9 L201-Div3 L200-Rro8 L199-Iyn6 L198-Mzu4 L197-Par4 L196-Ain3 L195-Xus5 L194-Ugy3 L193-Git4 L192-Pcv4 L191-Yyx1 L190-Axg6 L189-Ksj0 L188-Flg1 L187-Iy_8 L186-Pur0 L185-Ezu1 L184-Ols9 L183-Whv9 L182-Tli4 L181-Veg8 L180-J_f1 L179-Ygp8 L178-Daa7 L177-Jnx3 L176-Fti7 L175-Wio3 L174-Jdf8 L173-Tsj7 L172-V_p4 L171-C_q5 L170-Nbb9 L169-Uqa7 L168-Ewa1 L167-X_v0 L166-Tjg2 L165-Ryi5 L164-Mza3 L163-P_r8 L162-Byk3 L161-Edn4 L160-Udm8 L159-Wwf0 L158-Wou9 L157-Bji6 L156-Bxa2 L155-Alr0 L154-Bkg9 L153-Njj5 L152-Vzd2 L151-Cas5 L150-Yyu0 L149-Fky1 L148-Feh7 L147-Chj4 L146-Fxg0 L145-Vzg3 L144-Ssz8 L143-De_6 L142-Nzh1 L141-Yr_4 L140-Vze1 L139-Mld7 L138-Yqk9 L137-Ult8 L136-Qmk7 L135-Sel8 L134-Xqv7 L133-Qcm1 L132-Npl1 L131-Nck8 L130-Wsn2 L129-Flu6 L128-Si_5 L127-K_v2 L126-Fjp7 L125-M_y0 L124-Ytw4 L123-Amz5 L122-Fai4 L121-Ybt8 L120-Yxp7 L119-Wqj2 L118-Chn7 L117-Msp9 L116-D_a1 L115-Nwz8 L114-Ivy8 L113-Dhz6 L112-Or_1 L111-Cjk8 L110-Skt5 L109-Pyr7 L108-Zpt2 L107-Mvk6 L106-Oxs0 L105-Fyb5 L104-Uwr1 L103-Rer1 L102-X_u7 L101-Gls0 L100-Mek7 L99-Hg_8 L98-Ddw0 L97-Jms2 L96-Ipn5 L95-Pgr2 L94-Qcc9 L93-Hqu4 L92-Deq7 L91-Mjb9 L90-Gsk1 L89-Yjs7 L88-Mwp7 L87-Rvk7 L86-Zqt8 L85-H_v0 L84-Cjl8 L83-Whl7 L82-Ey_5 L81-Two5 L80-D__8 L79-Kme0 L78-Vvj9 L77-Mcw7 L76-Z_n2 L75-Brt2 L74-Ijl4 L73-Mjh5 L72-Hvo5 L71-Tqi5 L70-Inx0 L69-Kae5 L68-Kuv6 L67-Wg_7 L66-Wwn4 L65-Rqy0 L64-Rjx9 L63-Fjn7 L62-Diw0 L61-Kqw7 L60-U_j8 L59-Fyr9 L58-Sa_0 L57-Xfv1 L56-Odo4 L55-Vkr5 L54-Foa0 L53-Ppw5 L52-Fvx7 L51-Gkf1 L50-Wlb7 L49-Cbt3 L48-Hbc2 L47-Ojs8 L46-Nip2 L45-Xt_5 L44-Jrt2 L43-Oev0 L42-Tfv7 L41-Owt4 L40-Wge9 L39-Uho3 L38-Pmk8 L37-Kmh3 L36-T_k8 L35-Qmh0 L34-O_d3 L33-P_d8 L32-Zs_3 L31-V_z5 L30-Zzj9 L29-Zgc9 L28-Jzp2 L27-Hiz7 L26-Fuy9 L25-Xe_8 L24-H_q5 L23-Zgs1 L22-Cdg4 L21-Uab8 L20-Bom3 L19-Pvc1 L18-Srx8 L17-Qsx9 L16-Rpr5 L15-Wfz4 L14-B_j0 L13-Xzw3 L12-Jgo5 L11-Txg9 L10-Zco6 L9-Yjh4 L8-Ryq4 L7-Epk7 L6-Wrp2 L5-Qvp9 L4-Yrr0 L3-Kcm6 L2-Ggl2 L1-Uzq1
[90m-->14/14
[0m[90m-->15/15
[0m[90m-->17/17
[0m[90m-->18/18
[0m[90m-->19/19
[0m[90m-->22/22
[0m[90m-->22/23
[0m[90m-->22/25
[0m[90m-->22/26
[0m[90m-->22/30
[0m[90m-->22/31
[0mL215-Asl3 L214-Jic6 L213-Vxq5 L212-Fiw8 L211-Qkd6 L210-Zwe8 L209-Vqc4 L208-Ybj9 L207-Div3 L206-Rro8 L205-Iyn6 L204-Mzu4 L203-Par4 L202-Ain3 L201-Xus5 L200-Ugy3 L199-Git4 L198-Pcv4 L197-Axg6 L196-Ksj0 L195-Flg1 L194-Iy_8 L193-Pur0 L192-Ezu1 L191-Ols9 L190-Tli4 L189-Veg8 L188-J_f1 L187-Ygp8 L186-Daa7 L185-Jnx3 L184-Fti7 L183-Wio3 L182-Tsj7 L181-V_p4 L180-C_q5 L179-Nbb9 L178-Uqa7 L177-Ewa1 L176-X_v0 L175-Tjg2 L174-Ryi5 L173-Mza3 L172-P_r8 L171-Byk3 L170-Edn4 L169-Udm8 L168-Wwf0 L167-Wou9 L166-Bji6 L165-Bxa2 L164-Bkg9 L163-Njj5 L162-Vzd2 L161-Cas5 L160-Yyu0 L159-Fky1 L158-Feh7 L157-Chj4 L156-Fxg0 L155-Vzg3 L154-De_6 L153-Nzh1 L152-Yr_4 L151-Vze1 L150-Mld7 L149-Yqk9 L148-Ult8 L147-Qmk7 L146-Sel8 L145-Xqv7 L144-Qcm1 L143-Npl1 L142-Nck8 L141-Wsn2 L140-Flu6 L139-Si_5 L138-K_v2 L137-Fjp7 L136-M_y0 L135-Ytw4 L134-Amz5 L133-Fai4 L132-Ybt8 L131-Yxp7 L130-Wqj2 L129-Chn7 L128-Msp9 L127-D_a1 L126-Nwz8 L125-Ivy8 L124-Dhz6 L123-Or_1 L122-Cjk8 L121-Skt5 L120-Pyr7 L119-Zpt2 L118-Mvk6 L117-Oxs0 L116-Fyb5 L115-Uwr1 L114-Rer1 L113-X_u7 L112-Gls0 L111-Mek7 L110-Hg_8 L109-Ddw0 L108-Jms2 L107-Ipn5 L106-Pgr2 L105-Qcc9 L104-Hqu4 L103-Deq7 L102-Mjb9 L101-Gsk1 L100-Yjs7 L99-Mwp7 L98-Rvk7 L97-Zqt8 L96-H_v0 L95-Cjl8 L94-Whl7 L93-Ey_5 L92-Two5 L91-D__8 L90-Kme0 L89-Vvj9 L88-Mcw7 L87-Z_n2 L86-Brt2 L85-Ijl4 L84-Mjh5 L83-Hvo5 L82-Tqi5 L81-Inx0 L80-Kae5 L79-Kuv6 L78-Wg_7 L77-Wwn4 L76-Rqy0 L75-Rjx9 L74-Fjn7 L73-Diw0 L72-Kqw7 L71-U_j8 L70-Fyr9 L69-Sa_0 L68-Xfv1 L67-Odo4 L66-Vkr5 L65-Foa0 L64-Ppw5 L63-Fvx7 L62-Gkf1 L61-Wlb7 L60-Cbt3 L59-Hbc2 L58-Ojs8 L57-Nip2 L56-Xt_5 L55-Jrt2 L54-Oev0 L53-Tfv7 L52-Owt4 L51-Wge9 L50-Uho3 L49-Pmk8 L48-Kmh3 L47-T_k8 L46-Qmh0 L45-O_d3 L44-P_d8 L43-Zs_3 L42-V_z5 L41-Zzj9 L40-Zgc9 L39-Jzp2 L38-Hiz7 L37-Fuy9 L36-Xe_8 L35-H_q5 L34-Zgs1 L33-Cdg4 L32-Uab8 L31-Bom3 L30-Pvc1 L29-Srx8 L28-Qsx9 L27-Rpr5 L26-Wfz4 L25-B_j0 L24-Xzw3 L23-Jgo5 L22-Txg9 L21-Zco6 L20-Yjh4 L19-Ryq4 L18-Epk7 L17-Wrp2 L16-Qvp9 L15-Yrr0 L14-Kcm6 L13-Ggl2 L12-Uzq1 L11-Wyc9 L10-Png0 L9-Zne6 L8-Tso1 L7-Kyh4 L6-Yen9 L5-Zqz0 L4-Yqa2 L3-U_y5 L2-Jsc5 L1-Pa_7
[90m-->14/14
[0m[90m-->15/15
[0m[90m-->17/17
[0m[90m-->18/18
[0m[90m-->19/19
[0m[90m-->22/22
[0m[90m-->23/23
[0m[90m-->23/25
[0m[90m-->23/26
[0m[90m-->23/30
[0m[90m-->23/31
[0mL220-Asl3 L219-Jic6 L218-Vxq5 L217-Fiw8 L216-Qkd6 L215-Vqc4 L214-Ybj9 L213-Div3 L212-Rro8 L211-Iyn6 L210-Mzu4 L209-Par4 L208-Ain3 L207-Xus5 L206-Ugy3 L205-Git4 L204-Pcv4 L203-Axg6 L202-Ksj0 L201-Flg1 L200-Iy_8 L199-Pur0 L198-Ezu1 L197-Tli4 L196-Veg8 L195-J_f1 L194-Ygp8 L193-Daa7 L192-Jnx3 L191-Fti7 L190-Tsj7 L189-V_p4 L188-C_q5 L187-Nbb9 L186-Uqa7 L185-Ewa1 L184-X_v0 L183-Tjg2 L182-Mza3 L181-P_r8 L180-Byk3 L179-Edn4 L178-Udm8 L177-Wwf0 L176-Wou9 L175-Bji6 L174-Bxa2 L173-Bkg9 L172-Njj5 L171-Vzd2 L170-Cas5 L169-Yyu0 L168-Fky1 L167-Feh7 L166-Chj4 L165-Fxg0 L164-De_6 L163-Nzh1 L162-Yr_4 L161-Vze1 L160-Mld7 L159-Yqk9 L158-Ult8 L157-Qmk7 L156-Sel8 L155-Xqv7 L154-Npl1 L153-Nck8 L152-Wsn2 L151-Flu6 L150-Si_5 L149-K_v2 L148-Fjp7 L147-M_y0 L146-Ytw4 L145-Amz5 L144-Fai4 L143-Ybt8 L142-Yxp7 L141-Wqj2 L140-Chn7 L139-Msp9 L138-D_a1 L137-Nwz8 L136-Ivy8 L135-Dhz6 L134-Or_1 L133-Cjk8 L132-Skt5 L131-Pyr7 L130-Zpt2 L129-Mvk6 L128-Oxs0 L127-Fyb5 L126-Uwr1 L125-Rer1 L124-X_u7 L123-Gls0 L122-Mek7 L121-Hg_8 L120-Ddw0 L119-Jms2 L118-Ipn5 L117-Pgr2 L116-Qcc9 L115-Hqu4 L114-Deq7 L113-Mjb9 L112-Gsk1 L111-Yjs7 L110-Mwp7 L109-Rvk7 L108-Zqt8 L107-H_v0 L106-Cjl8 L105-Whl7 L104-Ey_5 L103-Two5 L102-D__8 L101-Kme0 L100-Vvj9 L99-Mcw7 L98-Z_n2 L97-Brt2 L96-Ijl4 L95-Mjh5 L94-Hvo5 L93-Tqi5 L92-Inx0 L91-Kae5 L90-Kuv6 L89-Wg_7 L88-Wwn4 L87-Rqy0 L86-Rjx9 L85-Fjn7 L84-Diw0 L83-Kqw7 L82-U_j8 L81-Fyr9 L80-Sa_0 L79-Xfv1 L78-Odo4 L77-Vkr5 L76-Foa0 L75-Ppw5 L74-Fvx7 L73-Gkf1 L72-Wlb7 L71-Cbt3 L70-Hbc2 L69-Ojs8 L68-Nip2 L67-Xt_5 L66-Jrt2 L65-Oev0 L64-Tfv7 L63-Owt4 L62-Wge9 L61-Uho3 L60-Pmk8 L59-Kmh3 L58-T_k8 L57-Qmh0 L56-O_d3 L55-P_d8 L54-Zs_3 L53-V_z5 L52-Zzj9 L51-Zgc9 L50-Jzp2 L49-Hiz7 L48-Fuy9 L47-Xe_8 L46-H_q5 L45-Zgs1 L44-Cdg4 L43-Uab8 L42-Bom3 L41-Pvc1 L40-Srx8 L39-Qsx9 L38-Rpr5 L37-Wfz4 L36-B_j0 L35-Xzw3 L34-Jgo5 L33-Txg9 L32-Zco6 L31-Yjh4 L30-Ryq4 L29-Epk7 L28-Wrp2 L27-Qvp9 L26-Yrr0 L25-Kcm6 L24-Ggl2 L23-Uzq1 L22-Wyc9 L21-Png0 L20-Zne6 L19-Tso1 L18-Kyh4 L17-Yen9 L16-Zqz0 L15-Yqa2 L14-U_y5 L13-Jsc5 L12-Pa_7 L10-Wyc9 L9-Gpn1 L8-Fjv5 L7-Tjb1 L6-Vny8 L5-Ryk3 L4-Gey2 L3-Zn_4 L2-Rgu9 L1-Zyp6
[90m-->14/14
[0m[90m-->15/15
[0m[90m-->17/17
[0m[90m-->18/18
[0m[90m-->19/19
[0m[90m-->22/22
[0m[90m-->23/23
[0m[90m-->24/25
[0m[90m-->24/26
[0m[90m-->24/30
[0m[90m-->24/31
[0mL224-Asl3 L223-Jic6 L222-Vxq5 L221-Fiw8 L220-Vqc4 L219-Ybj9 L218-Div3 L217-Rro8 L216-Iyn6 L215-Par4 L214-Ain3 L213-Xus5 L212-Ugy3 L211-Git4 L210-Pcv4 L209-Axg6 L208-Ksj0 L207-Flg1 L206-Iy_8 L205-Pur0 L204-Ezu1 L203-Tli4 L202-Veg8 L201-J_f1 L200-Ygp8 L199-Daa7 L198-Jnx3 L197-Tsj7 L196-V_p4 L195-C_q5 L194-Nbb9 L193-Uqa7 L192-Ewa1 L191-X_v0 L190-Mza3 L189-P_r8 L188-Byk3 L187-Edn4 L186-Udm8 L185-Wwf0 L184-Wou9 L183-Bji6 L182-Bkg9 L181-Njj5 L180-Vzd2 L179-Cas5 L178-Yyu0 L177-Fky1 L176-Feh7 L175-Chj4 L174-Fxg0 L173-De_6 L172-Nzh1 L171-Yr_4 L170-Vze1 L169-Mld7 L168-Yqk9 L167-Ult8 L166-Qmk7 L165-Sel8 L164-Npl1 L163-Nck8 L162-Wsn2 L161-Flu6 L160-Si_5 L159-K_v2 L158-Fjp7 L157-M_y0 L156-Ytw4 L155-Amz5 L154-Ybt8 L153-Yxp7 L152-Wqj2 L151-Chn7 L150-Msp9 L149-D_a1 L148-Nwz8 L147-Ivy8 L146-Dhz6 L145-Or_1 L144-Cjk8 L143-Skt5 L142-Pyr7 L141-Zpt2 L140-Mvk6 L139-Oxs0 L138-Fyb5 L137-Uwr1 L136-Rer1 L135-X_u7 L134-Gls0 L133-Mek7 L132-Hg_8 L131-Ddw0 L130-Jms2 L129-Ipn5 L128-Pgr2 L127-Qcc9 L126-Hqu4 L125-Deq7 L124-Mjb9 L123-Gsk1 L122-Yjs7 L121-Mwp7 L120-Rvk7 L119-Zqt8 L118-H_v0 L117-Cjl8 L116-Whl7 L115-Ey_5 L114-Two5 L113-D__8 L112-Kme0 L111-Vvj9 L110-Mcw7 L109-Z_n2 L108-Brt2 L107-Ijl4 L106-Mjh5 L105-Hvo5 L104-Tqi5 L103-Inx0 L102-Kae5 L101-Kuv6 L100-Wg_7 L99-Wwn4 L98-Rqy0 L97-Rjx9 L96-Fjn7 L95-Diw0 L94-Kqw7 L93-U_j8 L92-Fyr9 L91-Sa_0 L90-Xfv1 L89-Odo4 L88-Vkr5 L87-Foa0 L86-Ppw5 L85-Fvx7 L84-Gkf1 L83-Wlb7 L82-Cbt3 L81-Hbc2 L80-Ojs8 L79-Nip2 L78-Xt_5 L77-Jrt2 L76-Oev0 L75-Tfv7 L74-Owt4 L73-Wge9 L72-Uho3 L71-Pmk8 L70-Kmh3 L69-T_k8 L68-Qmh0 L67-O_d3 L66-P_d8 L65-Zs_3 L64-V_z5 L63-Zzj9 L62-Zgc9 L61-Jzp2 L60-Hiz7 L59-Fuy9 L58-Xe_8 L57-H_q5 L56-Zgs1 L55-Cdg4 L54-Uab8 L53-Bom3 L52-Pvc1 L51-Srx8 L50-Qsx9 L49-Rpr5 L48-Wfz4 L47-B_j0 L46-Xzw3 L45-Jgo5 L44-Txg9 L43-Zco6 L42-Yjh4 L41-Ryq4 L40-Epk7 L39-Wrp2 L38-Qvp9 L37-Yrr0 L36-Kcm6 L35-Ggl2 L34-Uzq1 L33-Wyc9 L32-Png0 L31-Zne6 L30-Tso1 L29-Kyh4 L28-Yen9 L27-Zqz0 L26-Yqa2 L25-U_y5 L24-Jsc5 L23-Pa_7 L21-Wyc9 L20-Gpn1 L19-Fjv5 L18-Tjb1 L17-Vny8 L16-Ryk3 L15-Gey2 L14-Zn_4 L13-Rgu9 L12-Zyp6 L9-Hhr2 L8-Md_0 L7-Xcz5 L6-Tao1 L5-Fns3 L4-Tor6 L3-Ntd5 L2-Hym2 L1-Rir1
[90m-->14/14
[0m[90m-->15/15
[0m[90m-->17/17
[0m[90m-->18/18
[0m[90m-->19/19
[0m[90m-->22/22
[0m[90m-->23/23
[0m[90m-->25/25
[0m[90m-->25/26
[0m[90m-->25/30
[0m[90m-->25/31
[0mL228-Asl3 L227-Jic6 L226-Vxq5 L225-Fiw8 L224-Vqc4 L223-Ybj9 L222-Div3 L221-Rro8 L220-Par4 L219-Ain3 L218-Xus5 L217-Ugy3 L216-Git4 L215-Axg6 L214-Ksj0 L213-Flg1 L212-Iy_8 L211-Pur0 L210-Ezu1 L209-Tli4 L208-Veg8 L207-J_f1 L206-Ygp8 L205-Daa7 L204-Jnx3 L203-Tsj7 L202-V_p4 L201-C_q5 L200-Nbb9 L199-Uqa7 L198-Ewa1 L197-Mza3 L196-P_r8 L195-Byk3 L194-Edn4 L193-Udm8 L192-Wwf0 L191-Wou9 L190-Bkg9 L189-Njj5 L188-Vzd2 L187-Cas5 L186-Yyu0 L185-Fky1 L184-Feh7 L183-Chj4 L182-De_6 L181-Nzh1 L180-Yr_4 L179-Vze1 L178-Mld7 L177-Yqk9 L176-Ult8 L175-Qmk7 L174-Sel8 L173-Npl1 L172-Nck8 L171-Wsn2 L170-Flu6 L169-Si_5 L168-K_v2 L167-Fjp7 L166-M_y0 L165-Ytw4 L164-Ybt8 L163-Yxp7 L162-Wqj2 L161-Chn7 L160-Msp9 L159-D_a1 L158-Nwz8 L157-Ivy8 L156-Dhz6 L155-Or_1 L154-Skt5 L153-Pyr7 L152-Zpt2 L151-Mvk6 L150-Oxs0 L149-Fyb5 L148-Uwr1 L147-Rer1 L146-X_u7 L145-Gls0 L144-Mek7 L143-Hg_8 L142-Ddw0 L141-Jms2 L140-Ipn5 L139-Pgr2 L138-Qcc9 L137-Hqu4 L136-Deq7 L135-Mjb9 L134-Gsk1 L133-Yjs7 L132-Mwp7 L131-Rvk7 L130-Zqt8 L129-H_v0 L128-Cjl8 L127-Whl7 L126-Ey_5 L125-Two5 L124-D__8 L123-Kme0 L122-Vvj9 L121-Mcw7 L120-Z_n2 L119-Brt2 L118-Ijl4 L117-Mjh5 L116-Hvo5 L115-Tqi5 L114-Inx0 L113-Kae5 L112-Kuv6 L111-Wg_7 L110-Wwn4 L109-Rqy0 L108-Rjx9 L107-Fjn7 L106-Diw0 L105-Kqw7 L104-U_j8 L103-Fyr9 L102-Sa_0 L101-Xfv1 L100-Odo4 L99-Vkr5 L98-Foa0 L97-Ppw5 L96-Fvx7 L95-Gkf1 L94-Wlb7 L93-Cbt3 L92-Hbc2 L91-Ojs8 L90-Nip2 L89-Xt_5 L88-Jrt2 L87-Oev0 L86-Tfv7 L85-Owt4 L84-Wge9 L83-Uho3 L82-Pmk8 L81-Kmh3 L80-T_k8 L79-Qmh0 L78-O_d3 L77-P_d8 L76-Zs_3 L75-V_z5 L74-Zzj9 L73-Zgc9 L72-Jzp2 L71-Hiz7 L70-Fuy9 L69-Xe_8 L68-H_q5 L67-Zgs1 L66-Cdg4 L65-Uab8 L64-Bom3 L63-Pvc1 L62-Srx8 L61-Qsx9 L60-Rpr5 L59-Wfz4 L58-B_j0 L57-Xzw3 L56-Jgo5 L55-Txg9 L54-Zco6 L53-Yjh4 L52-Ryq4 L51-Epk7 L50-Wrp2 L49-Qvp9 L48-Yrr0 L47-Kcm6 L46-Ggl2 L45-Uzq1 L44-Wyc9 L43-Png0 L42-Zne6 L41-Tso1 L40-Kyh4 L39-Yen9 L38-Zqz0 L37-Yqa2 L36-U_y5 L35-Jsc5 L34-Pa_7 L32-Wyc9 L31-Gpn1 L30-Fjv5 L29-Tjb1 L28-Vny8 L27-Ryk3 L26-Gey2 L25-Zn_4 L24-Rgu9 L23-Zyp6 L20-Hhr2 L19-Md_0 L18-Xcz5 L17-Tao1 L16-Fns3 L15-Tor6 L14-Ntd5 L13-Hym2 L12-Rir1 L9-Ndn9 L8-P_p2 L7-Vhb1 L6-Ga_2 L5-Ixz5 L4-Omg3 L3-Czl0 L2-Orn3 L1-Wk_5
[90m-->14/14
[0m[90m-->15/15
[0m[90m-->17/17
[0m[90m-->18/18
[0m[90m-->19/19
[0m[90m-->22/22
[0m[90m-->23/23
[0m[90m-->25/25
[0m[90m-->26/26
[0m[90m-->26/30
[0m[90m-->26/31
[0mL231-Asl3 L230-Jic6 L229-Vxq5 L228-Vqc4 L227-Ybj9 L226-Div3 L225-Rro8 L224-Par4 L223-Ain3 L222-Xus5 L221-Ugy3 L220-Axg6 L219-Ksj0 L218-Flg1 L217-Iy_8 L216-Pur0 L215-Tli4 L214-Veg8 L213-J_f1 L212-Ygp8 L211-Daa7 L210-Jnx3 L209-Tsj7 L208-V_p4 L207-C_q5 L206-Nbb9 L205-Uqa7 L204-Ewa1 L203-Mza3 L202-P_r8 L201-Byk3 L200-Edn4 L199-Udm8 L198-Wwf0 L197-Bkg9 L196-Njj5 L195-Vzd2 L194-Cas5 L193-Yyu0 L192-Fky1 L191-Feh7 L190-De_6 L189-Nzh1 L188-Yr_4 L187-Vze1 L186-Mld7 L185-Yqk9 L184-Ult8 L183-Qmk7 L182-Npl1 L181-Nck8 L180-Wsn2 L179-Flu6 L178-Si_5 L177-K_v2 L176-Fjp7 L175-M_y0 L174-Ytw4 L173-Ybt8 L172-Yxp7 L171-Wqj2 L170-Chn7 L169-Msp9 L168-D_a1 L167-Nwz8 L166-Ivy8 L165-Dhz6 L164-Skt5 L163-Pyr7 L162-Zpt2 L161-Mvk6 L160-Oxs0 L159-Fyb5 L158-Uwr1 L157-Rer1 L156-X_u7 L155-Gls0 L154-Hg_8 L153-Ddw0 L152-Jms2 L151-Ipn5 L150-Pgr2 L149-Qcc9 L148-Hqu4 L147-Deq7 L146-Mjb9 L145-Gsk1 L144-Yjs7 L143-Mwp7 L142-Rvk7 L141-Zqt8 L140-H_v0 L139-Cjl8 L138-Whl7 L137-Ey_5 L136-Two5 L135-D__8 L134-Kme0 L133-Vvj9 L132-Mcw7 L131-Z_n2 L130-Brt2 L129-Ijl4 L128-Mjh5 L127-Hvo5 L126-Tqi5 L125-Inx0 L124-Kae5 L123-Kuv6 L122-Wg_7 L121-Wwn4 L120-Rqy0 L119-Rjx9 L118-Fjn7 L117-Diw0 L116-Kqw7 L115-U_j8 L114-Fyr9 L113-Sa_0 L112-Xfv1 L111-Odo4 L110-Vkr5 L109-Foa0 L108-Ppw5 L107-Fvx7 L106-Gkf1 L105-Wlb7 L104-Cbt3 L103-Hbc2 L102-Ojs8 L101-Nip2 L100-Xt_5 L99-Jrt2 L98-Oev0 L97-Tfv7 L96-Owt4 L95-Wge9 L94-Uho3 L93-Pmk8 L92-Kmh3 L91-T_k8 L90-Qmh0 L89-O_d3 L88-P_d8 L87-Zs_3 L86-V_z5 L85-Zzj9 L84-Zgc9 L83-Jzp2 L82-Hiz7 L81-Fuy9 L80-Xe_8 L79-H_q5 L78-Zgs1 L77-Cdg4 L76-Uab8 L75-Bom3 L74-Pvc1 L73-Srx8 L72-Qsx9 L71-Rpr5 L70-Wfz4 L69-B_j0 L68-Xzw3 L67-Jgo5 L66-Txg9 L65-Zco6 L64-Yjh4 L63-Ryq4 L62-Epk7 L61-Wrp2 L60-Qvp9 L59-Yrr0 L58-Kcm6 L57-Ggl2 L56-Uzq1 L55-Wyc9 L54-Png0 L53-Zne6 L52-Tso1 L51-Kyh4 L50-Yen9 L49-Zqz0 L48-Yqa2 L47-U_y5 L46-Jsc5 L45-Pa_7 L43-Wyc9 L42-Gpn1 L41-Fjv5 L40-Tjb1 L39-Vny8 L38-Ryk3 L37-Gey2 L36-Zn_4 L35-Rgu9 L34-Zyp6 L31-Hhr2 L30-Md_0 L29-Xcz5 L28-Tao1 L27-Fns3 L26-Tor6 L25-Ntd5 L24-Hym2 L23-Rir1 L20-Ndn9 L19-P_p2 L18-Vhb1 L17-Ga_2 L16-Ixz5 L15-Omg3 L14-Czl0 L13-Orn3 L12-Wk_5 L9-Eym4 L8-Ilm9 L7-Pfq3 L6-S_b7 L5-Cqc3 L4-Idv4 L3-Zzk4 L2-Tza5 L1-Tki9
L231-Vqc4 L230-Ybj9 L229-Div3 L228-Par4 L227-Ain3 L226-Xus5 L225-Ugy3 L224-Axg6 L223-Ksj0 L222-Flg1 L221-Iy_8 L220-Tli4 L219-Veg8 L218-J_f1 L217-Ygp8 L216-Daa7 L215-Tsj7 L214-V_p4 L213-C_q5 L212-Nbb9 L211-Uqa7 L210-Ewa1 L209-Mza3 L208-P_r8 L207-Byk3 L206-Edn4 L205-Udm8 L204-Wwf0 L203-Bkg9 L202-Njj5 L201-Vzd2 L200-Cas5 L199-Yyu0 L198-Fky1 L197-De_6 L196-Nzh1 L195-Yr_4 L194-Vze1 L193-Mld7 L192-Yqk9 L191-Ult8 L190-Npl1 L189-Nck8 L188-Wsn2 L187-Flu6 L186-Si_5 L185-K_v2 L184-Fjp7 L183-M_y0 L182-Ybt8 L181-Yxp7 L180-Wqj2 L179-Chn7 L178-Msp9 L177-D_a1 L176-Nwz8 L175-Ivy8 L174-Dhz6 L173-Skt5 L172-Pyr7 L171-Zpt2 L170-Mvk6 L169-Oxs0 L168-Fyb5 L167-Uwr1 L166-Rer1 L165-X_u7 L164-Hg_8 L163-Ddw0 L162-Jms2 L161-Ipn5 L160-Pgr2 L159-Qcc9 L158-Hqu4 L157-Deq7 L156-Mjb9 L155-Gsk1 L154-Mwp7 L153-Rvk7 L152-Zqt8 L151-H_v0 L150-Cjl8 L149-Whl7 L148-Ey_5 L147-Two5 L146-D__8 L145-Kme0 L144-Vvj9 L143-Mcw7 L142-Z_n2 L141-Brt2 L140-Ijl4 L139-Mjh5 L138-Hvo5 L137-Tqi5 L136-Inx0 L135-Kae5 L134-Kuv6 L133-Wg_7 L132-Wwn4 L131-Rqy0 L130-Rjx9 L129-Fjn7 L128-Diw0 L127-Kqw7 L126-U_j8 L125-Fyr9 L124-Sa_0 L123-Xfv1 L122-Odo4 L121-Vkr5 L120-Foa0 L119-Ppw5 L118-Fvx7 L117-Gkf1 L116-Wlb7 L115-Cbt3 L114-Hbc2 L113-Ojs8 L112-Nip2 L111-Xt_5 L110-Jrt2 L109-Oev0 L108-Tfv7 L107-Owt4 L106-Wge9 L105-Uho3 L104-Pmk8 L103-Kmh3 L102-T_k8 L101-Qmh0 L100-O_d3 L99-P_d8 L98-Zs_3 L97-V_z5 L96-Zzj9 L95-Zgc9 L94-Jzp2 L93-Hiz7 L92-Fuy9 L91-Xe_8 L90-H_q5 L89-Zgs1 L88-Cdg4 L87-Uab8 L86-Bom3 L85-Pvc1 L84-Srx8 L83-Qsx9 L82-Rpr5 L81-Wfz4 L80-B_j0 L79-Xzw3 L78-Jgo5 L77-Txg9 L76-Zco6 L75-Yjh4 L74-Ryq4 L73-Epk7 L72-Wrp2 L71-Qvp9 L70-Yrr0 L69-Kcm6 L68-Ggl2 L67-Uzq1 L66-Wyc9 L65-Png0 L64-Zne6 L63-Tso1 L62-Kyh4 L61-Yen9 L60-Zqz0 L59-Yqa2 L58-U_y5 L57-Jsc5 L56-Pa_7 L54-Wyc9 L53-Gpn1 L52-Fjv5 L51-Tjb1 L50-Vny8 L49-Ryk3 L48-Gey2 L47-Zn_4 L46-Rgu9 L45-Zyp6 L42-Hhr2 L41-Md_0 L40-Xcz5 L39-Tao1 L38-Fns3 L37-Tor6 L36-Ntd5 L35-Hym2 L34-Rir1 L31-Ndn9 L30-P_p2 L29-Vhb1 L28-Ga_2 L27-Ixz5 L26-Omg3 L25-Czl0 L24-Orn3 L23-Wk_5 L20-Eym4 L19-Ilm9 L18-Pfq3 L17-S_b7 L16-Cqc3 L15-Idv4 L14-Zzk4 L13-Tza5 L12-Tki9 L9-Wyc9 L8-Jv_8 L7-Pvd5 L6-S_r7 L5-Nwc1 L4-Ptf1 L3-Skb3 L2-H_n0 L1-Thu7
L231-Par4 L230-Ain3 L229-Xus5 L228-Axg6 L227-Ksj0 L226-Flg1 L225-Iy_8 L224-Tli4 L223-Veg8 L222-J_f1 L221-Ygp8 L220-Tsj7 L219-V_p4 L218-C_q5 L217-Nbb9 L216-Uqa7 L215-Mza3 L214-P_r8 L213-Byk3 L212-Edn4 L211-Udm8 L210-Wwf0 L209-Bkg9 L208-Njj5 L207-Vzd2 L206-Cas5 L205-Yyu0 L204-Fky1 L203-De_6 L202-Nzh1 L201-Yr_4 L200-Vze1 L199-Mld7 L198-Yqk9 L197-Npl1 L196-Nck8 L195-Wsn2 L194-Flu6 L193-Si_5 L192-K_v2 L191-Fjp7 L190-Ybt8 L189-Yxp7 L188-Wqj2 L187-Chn7 L186-Msp9 L185-D_a1 L184-Nwz8 L183-Ivy8 L182-Skt5 L181-Pyr7 L180-Zpt2 L179-Mvk6 L178-Oxs0 L177-Fyb5 L176-Uwr1 L175-Rer1 L174-X_u7 L173-Hg_8 L172-Ddw0 L171-Jms2 L170-Ipn5 L169-Pgr2 L168-Qcc9 L167-Hqu4 L166-Deq7 L165-Mjb9 L164-Mwp7 L163-Rvk7 L162-Zqt8 L161-H_v0 L160-Cjl8 L159-Whl7 L158-Ey_5 L157-Two5 L156-D__8 L155-Kme0 L154-Mcw7 L153-Z_n2 L152-Brt2 L151-Ijl4 L150-Mjh5 L149-Hvo5 L148-Tqi5 L147-Inx0 L146-Kae5 L145-Kuv6 L144-Wg_7 L143-Wwn4 L142-Rqy0 L141-Rjx9 L140-Fjn7 L139-Diw0 L138-Kqw7 L137-U_j8 L136-Fyr9 L135-Sa_0 L134-Xfv1 L133-Odo4 L132-Vkr5 L131-Foa0 L130-Ppw5 L129-Fvx7 L128-Gkf1 L127-Wlb7 L126-Cbt3 L125-Hbc2 L124-Ojs8 L123-Nip2 L122-Xt_5 L121-Jrt2 L120-Oev0 L119-Tfv7 L118-Owt4 L117-Wge9 L116-Uho3 L115-Pmk8 L114-Kmh3 L113-T_k8 L112-Qmh0 L111-O_d3 L110-P_d8 L109-Zs_3 L108-V_z5 L107-Zzj9 L106-Zgc9 L105-Jzp2 L104-Hiz7 L103-Fuy9 L102-Xe_8 L101-H_q5 L100-Zgs1 L99-Cdg4 L98-Uab8 L97-Bom3 L96-Pvc1 L95-Srx8 L94-Qsx9 L93-Rpr5 L92-Wfz4 L91-B_j0 L90-Xzw3 L89-Jgo5 L88-Txg9 L87-Zco6 L86-Yjh4 L85-Ryq4 L84-Epk7 L83-Wrp2 L82-Qvp9 L81-Yrr0 L80-Kcm6 L79-Ggl2 L78-Uzq1 L77-Wyc9 L76-Png0 L75-Zne6 L74-Tso1 L73-Kyh4 L72-Yen9 L71-Zqz0 L70-Yqa2 L69-U_y5 L68-Jsc5 L67-Pa_7 L65-Wyc9 L64-Gpn1 L63-Fjv5 L62-Tjb1 L61-Vny8 L60-Ryk3 L59-Gey2 L58-Zn_4 L57-Rgu9 L56-Zyp6 L53-Hhr2 L52-Md_0 L51-Xcz5 L50-Tao1 L49-Fns3 L48-Tor6 L47-Ntd5 L46-Hym2 L45-Rir1 L42-Ndn9 L41-P_p2 L40-Vhb1 L39-Ga_2 L38-Ixz5 L37-Omg3 L36-Czl0 L35-Orn3 L34-Wk_5 L31-Eym4 L30-Ilm9 L29-Pfq3 L28-S_b7 L27-Cqc3 L26-Idv4 L25-Zzk4 L24-Tza5 L23-Tki9 L20-Wyc9 L19-Jv_8 L18-Pvd5 L17-S_r7 L16-Nwc1 L15-Ptf1 L14-Skb3 L13-H_n0 L12-Thu7 L8-Wyc9 L7-Pov4 L6-R_y6 L5-Ete7 L4-Mll7 L3-Djd5 L2-Y__1 L1-Jz_1
L231-Axg6 L230-Ksj0 L229-Flg1 L228-Tli4 L227-Veg8 L226-J_f1 L225-Ygp8 L224-Tsj7 L223-V_p4 L222-C_q5 L221-Nbb9 L220-Mza3 L219-P_r8 L218-Byk3 L217-Edn4 L216-Udm8 L215-Bkg9 L214-Njj5 L213-Vzd2 L212-Cas5 L211-Yyu0 L210-Fky1 L209-De_6 L208-Nzh1 L207-Yr_4 L206-Vze1 L205-Mld7 L204-Yqk9 L203-Npl1 L202-Nck8 L201-Wsn2 L200-Flu6 L199-Si_5 L198-K_v2 L197-Ybt8 L196-Yxp7 L195-Wqj2 L194-Chn7 L193-Msp9 L192-D_a1 L191-Nwz8 L190-Skt5 L189-Pyr7 L188-Zpt2 L187-Mvk6 L186-Oxs0 L185-Fyb5 L184-Uwr1 L183-Rer1 L182-Hg_8 L181-Ddw0 L180-Jms2 L179-Ipn5 L178-Pgr2 L177-Qcc9 L176-Hqu4 L175-Deq7 L174-Mjb9 L173-Mwp7 L172-Rvk7 L171-Zqt8 L170-H_v0 L169-Cjl8 L168-Whl7 L167-Ey_5 L166-Two5 L165-D__8 L164-Mcw7 L163-Z_n2 L162-Brt2 L161-Ijl4 L160-Mjh5 L159-Hvo5 L158-Tqi5 L157-Inx0 L156-Kae5 L155-Kuv6 L154-Wwn4 L153-Rqy0 L152-Rjx9 L151-Fjn7 L150-Diw0 L149-Kqw7 L148-U_j8 L147-Fyr9 L146-Sa_0 L145-Xfv1 L144-Odo4 L143-Vkr5 L142-Foa0 L141-Ppw5 L140-Fvx7 L139-Gkf1 L138-Wlb7 L137-Cbt3 L136-Hbc2 L135-Ojs8 L134-Nip2 L133-Xt_5 L132-Jrt2 L131-Oev0 L130-Tfv7 L129-Owt4 L128-Wge9 L127-Uho3 L126-Pmk8 L125-Kmh3 L124-T_k8 L123-Qmh0 L122-O_d3 L121-P_d8 L120-Zs_3 L119-V_z5 L118-Zzj9 L117-Zgc9 L116-Jzp2 L115-Hiz7 L114-Fuy9 L113-Xe_8 L112-H_q5 L111-Zgs1 L110-Cdg4 L109-Uab8 L108-Bom3 L107-Pvc1 L106-Srx8 L105-Qsx9 L104-Rpr5 L103-Wfz4 L102-B_j0 L101-Xzw3 L100-Jgo5 L99-Txg9 L98-Zco6 L97-Yjh4 L96-Ryq4 L95-Epk7 L94-Wrp2 L93-Qvp9 L92-Yrr0 L91-Kcm6 L90-Ggl2 L89-Uzq1 L88-Wyc9 L87-Png0 L86-Zne6 L85-Tso1 L84-Kyh4 L83-Yen9 L82-Zqz0 L81-Yqa2 L80-U_y5 L79-Jsc5 L78-Pa_7 L76-Wyc9 L75-Gpn1 L74-Fjv5 L73-Tjb1 L72-Vny8 L71-Ryk3 L70-Gey2 L69-Zn_4 L68-Rgu9 L67-Zyp6 L64-Hhr2 L63-Md_0 L62-Xcz5 L61-Tao1 L60-Fns3 L59-Tor6 L58-Ntd5 L57-Hym2 L56-Rir1 L53-Ndn9 L52-P_p2 L51-Vhb1 L50-Ga_2 L49-Ixz5 L48-Omg3 L47-Czl0 L46-Orn3 L45-Wk_5 L42-Eym4 L41-Ilm9 L40-Pfq3 L39-S_b7 L38-Cqc3 L37-Idv4 L36-Zzk4 L35-Tza5 L34-Tki9 L31-Wyc9 L30-Jv_8 L29-Pvd5 L28-S_r7 L27-Nwc1 L26-Ptf1 L25-Skb3 L24-H_n0 L23-Thu7 L19-Wyc9 L18-Pov4 L17-R_y6 L16-Ete7 L15-Mll7 L14-Djd5 L13-Y__1 L12-Jz_1 L7-Pvq5 L6-Qd_9 L5-Srm6 L4-Tjp3 L3-Euf5 L2-Pxn7 L1-Zgs4
L231-Tli4 L230-Veg8 L229-J_f1 L228-Tsj7 L227-V_p4 L226-C_q5 L225-Nbb9 L224-Mza3 L223-P_r8 L222-Byk3 L221-Edn4 L220-Bkg9 L219-Njj5 L218-Vzd2 L217-Cas5 L216-Yyu0 L215-De_6 L214-Nzh1 L213-Yr_4 L212-Vze1 L211-Mld7 L210-Yqk9 L209-Npl1 L208-Nck8 L207-Wsn2 L206-Flu6 L205-Si_5 L204-K_v2 L203-Ybt8 L202-Yxp7 L201-Wqj2 L200-Chn7 L199-Msp9 L198-D_a1 L197-Skt5 L196-Pyr7 L195-Zpt2 L194-Mvk6 L193-Oxs0 L192-Fyb5 L191-Uwr1 L190-Hg_8 L189-Ddw0 L188-Jms2 L187-Ipn5 L186-Pgr2 L185-Qcc9 L184-Hqu4 L183-Deq7 L182-Mwp7 L181-Rvk7 L180-Zqt8 L179-H_v0 L178-Cjl8 L177-Whl7 L176-Ey_5 L175-Two5 L174-D__8 L173-Mcw7 L172-Z_n2 L171-Brt2 L170-Ijl4 L169-Mjh5 L168-Hvo5 L167-Tqi5 L166-Inx0 L165-Kae5 L164-Wwn4 L163-Rqy0 L162-Rjx9 L161-Fjn7 L160-Diw0 L159-Kqw7 L158-U_j8 L157-Fyr9 L156-Sa_0 L155-Xfv1 L154-Vkr5 L153-Foa0 L152-Ppw5 L151-Fvx7 L150-Gkf1 L149-Wlb7 L148-Cbt3 L147-Hbc2 L146-Ojs8 L145-Nip2 L144-Xt_5 L143-Jrt2 L142-Oev0 L141-Tfv7 L140-Owt4 L139-Wge9 L138-Uho3 L137-Pmk8 L136-Kmh3 L135-T_k8 L134-Qmh0 L133-O_d3 L132-P_d8 L131-Zs_3 L130-V_z5 L129-Zzj9 L128-Zgc9 L127-Jzp2 L126-Hiz7 L125-Fuy9 L124-Xe_8 L123-H_q5 L122-Zgs1 L121-Cdg4 L120-Uab8 L119-Bom3 L118-Pvc1 L117-Srx8 L116-Qsx9 L115-Rpr5 L114-Wfz4 L113-B_j0 L112-Xzw3 L111-Jgo5 L110-Txg9 L109-Zco6 L108-Yjh4 L107-Ryq4 L106-Epk7 L105-Wrp2 L104-Qvp9 L103-Yrr0 L102-Kcm6 L101-Ggl2 L100-Uzq1 L99-Wyc9 L98-Png0 L97-Zne6 L96-Tso1 L95-Kyh4 L94-Yen9 L93-Zqz0 L92-Yqa2 L91-U_y5 L90-Jsc5 L89-Pa_7 L87-Wyc9 L86-Gpn1 L85-Fjv5 L84-Tjb1 L83-Vny8 L82-Ryk3 L81-Gey2 L80-Zn_4 L79-Rgu9 L78-Zyp6 L75-Hhr2 L74-Md_0 L73-Xcz5 L72-Tao1 L71-Fns3 L70-Tor6 L69-Ntd5 L68-Hym2 L67-Rir1 L64-Ndn9 L63-P_p2 L62-Vhb1 L61-Ga_2 L60-Ixz5 L59-Omg3 L58-Czl0 L57-Orn3 L56-Wk_5 L53-Eym4 L52-Ilm9 L51-Pfq3 L50-S_b7 L49-Cqc3 L48-Idv4 L47-Zzk4 L46-Tza5 L45-Tki9 L42-Wyc9 L41-Jv_8 L40-Pvd5 L39-S_r7 L38-Nwc1 L37-Ptf1 L36-Skb3 L35-H_n0 L34-Thu7 L30-Wyc9 L29-Pov4 L28-R_y6 L27-Ete7 L26-Mll7 L25-Djd5 L24-Y__1 L23-Jz_1 L18-Pvq5 L17-Qd_9 L16-Srm6 L15-Tjp3 L14-Euf5 L13-Pxn7 L12-Zgs4 L7-Wyc9 L6-Czu2 L5-Vsn8 L4-Gek7 L3-Tax7 L2-Nhm8 L1-Zuc0
L231-Tsj7 L230-V_p4 L229-C_q5 L228-Mza3 L227-P_r8 L226-Byk3 L225-Edn4 L224-Bkg9 L223-Njj5 L222-Vzd2 L221-Cas5 L220-De_6 L219-Nzh1 L218-Yr_4 L217-Vze1 L216-Mld7 L215-Npl1 L214-Nck8 L213-Wsn2 L212-Flu6 L211-Si_5 L210-K_v2 L209-Ybt8 L208-Yxp7 L207-Wqj2 L206-Chn7 L205-Msp9 L204-D_a1 L203-Skt5 L202-Pyr7 L201-Zpt2 L200-Mvk6 L199-Oxs0 L198-Fyb5 L197-Hg_8 L196-Ddw0 L195-Jms2 L194-Ipn5 L193-Pgr2 L192-Qcc9 L191-Hqu4 L190-Mwp7 L189-Rvk7 L188-Zqt8 L187-H_v0 L186-Cjl8 L185-Whl7 L184-Ey_5 L183-Two5 L182-Mcw7 L181-Z_n2 L180-Brt2 L179-Ijl4 L178-Mjh5 L177-Hvo5 L176-Tqi5 L175-Inx0 L174-Kae5 L173-Wwn4 L172-Rqy0 L171-Rjx9 L170-Fjn7 L169-Diw0 L168-Kqw7 L167-U_j8 L166-Fyr9 L165-Sa_0 L164-Vkr5 L163-Foa0 L162-Ppw5 L161-Fvx7 L160-Gkf1 L159-Wlb7 L158-Cbt3 L157-Hbc2 L156-Ojs8 L155-Nip2 L154-Jrt2 L153-Oev0 L152-Tfv7 L151-Owt4 L150-Wge9 L149-Uho3 L148-Pmk8 L147-Kmh3 L146-T_k8 L145-Qmh0 L144-O_d3 L143-P_d8 L142-Zs_3 L141-V_z5 L140-Zzj9 L139-Zgc9 L138-Jzp2 L137-Hiz7 L136-Fuy9 L135-Xe_8 L134-H_q5 L133-Zgs1 L132-Cdg4 L131-Uab8 L130-Bom3 L129-Pvc1 L128-Srx8 L127-Qsx9 L126-Rpr5 L125-Wfz4 L124-B_j0 L123-Xzw3 L122-Jgo5 L121-Txg9 L120-Zco6 L119-Yjh4 L118-Ryq4 L117-Epk7 L116-Wrp2 L115-Qvp9 L114-Yrr0 L113-Kcm6 L112-Ggl2 L111-Uzq1 L110-Wyc9 L109-Png0 L108-Zne6 L107-Tso1 L106-Kyh4 L105-Yen9 L104-Zqz0 L103-Yqa2 L102-U_y5 L101-Jsc5 L100-Pa_7 L98-Wyc9 L97-Gpn1 L96-Fjv5 L95-Tjb1 L94-Vny8 L93-Ryk3 L92-Gey2 L91-Zn_4 L90-Rgu9 L89-Zyp6 L86-Hhr2 L85-Md_0 L84-Xcz5 L83-Tao1 L82-Fns3 L81-Tor6 L80-Ntd5 L79-Hym2 L78-Rir1 L75-Ndn9 L74-P_p2 L73-Vhb1 L72-Ga_2 L71-Ixz5 L70-Omg3 L69-Czl0 L68-Orn3 L67-Wk_5 L64-Eym4 L63-Ilm9 L62-Pfq3 L61-S_b7 L60-Cqc3 L59-Idv4 L58-Zzk4 L57-Tza5 L56-Tki9 L53-Wyc9 L52-Jv_8 L51-Pvd5 L50-S_r7 L49-Nwc1 L48-Ptf1 L47-Skb3 L46-H_n0 L45-Thu7 L41-Wyc9 L40-Pov4 L39-R_y6 L38-Ete7 L37-Mll7 L36-Djd5 L35-Y__1 L34-Jz_1 L29-Pvq5 L28-Qd_9 L27-Srm6 L26-Tjp3 L25-Euf5 L24-Pxn7 L23-Zgs4 L18-Wyc9 L17-Czu2 L16-Vsn8 L15-Gek7 L14-Tax7 L13-Nhm8 L12-Zuc0 L6-Wyc9 L5-Fhz5 L4-Ehj7 L3-Apw1 L2-Nge0 L1-Igo6
L231-Mza3 L230-P_r8 L229-Byk3 L228-Bkg9 L227-Njj5 L226-Vzd2 L225-Cas5 L224-De_6 L223-Nzh1 L222-Yr_4 L221-Vze1 L220-Npl1 L219-Nck8 L218-Wsn2 L217-Flu6 L216-Si_5 L215-Ybt8 L214-Yxp7 L213-Wqj2 L212-Chn7 L211-Msp9 L210-D_a1 L209-Skt5 L208-Pyr7 L207-Zpt2 L206-Mvk6 L205-Oxs0 L204-Fyb5 L203-Hg_8 L202-Ddw0 L201-Jms2 L200-Ipn5 L199-Pgr2 L198-Qcc9 L197-Mwp7 L196-Rvk7 L195-Zqt8 L194-H_v0 L193-Cjl8 L192-Whl7 L191-Ey_5 L190-Mcw7 L189-Z_n2 L188-Brt2 L187-Ijl4 L186-Mjh5 L185-Hvo5 L184-Tqi5 L183-Inx0 L182-Wwn4 L181-Rqy0 L180-Rjx9 L179-Fjn7 L178-Diw0 L177-Kqw7 L176-U_j8 L175-Fyr9 L174-Sa_0 L173-Vkr5 L172-Foa0 L171-Ppw5 L170-Fvx7 L169-Gkf1 L168-Wlb7 L167-Cbt3 L166-Hbc2 L165-Ojs8 L164-Jrt2 L163-Oev0 L162-Tfv7 L161-Owt4 L160-Wge9 L159-Uho3 L158-Pmk8 L157-Kmh3 L156-T_k8 L155-Qmh0 L154-P_d8 L153-Zs_3 L152-V_z5 L151-Zzj9 L150-Zgc9 L149-Jzp2 L148-Hiz7 L147-Fuy9 L146-Xe_8 L145-H_q5 L144-Zgs1 L143-Cdg4 L142-Uab8 L141-Bom3 L140-Pvc1 L139-Srx8 L138-Qsx9 L137-Rpr5 L136-Wfz4 L135-B_j0 L134-Xzw3 L133-Jgo5 L132-Txg9 L131-Zco6 L130-Yjh4 L129-Ryq4 L128-Epk7 L127-Wrp2 L126-Qvp9 L125-Yrr0 L124-Kcm6 L123-Ggl2 L122-Uzq1 L121-Wyc9 L120-Png0 L119-Zne6 L118-Tso1 L117-Kyh4 L116-Yen9 L115-Zqz0 L114-Yqa2 L113-U_y5 L112-Jsc5 L111-Pa_7 L109-Wyc9 L108-Gpn1 L107-Fjv5 L106-Tjb1 L105-Vny8 L104-Ryk3 L103-Gey2 L102-Zn_4 L101-Rgu9 L100-Zyp6 L97-Hhr2 L96-Md_0 L95-Xcz5 L94-Tao1 L93-Fns3 L92-Tor6 L91-Ntd5 L90-Hym2 L89-Rir1 L86-Ndn9 L85-P_p2 L84-Vhb1 L83-Ga_2 L82-Ixz5 L81-Omg3 L80-Czl0 L79-Orn3 L78-Wk_5 L75-Eym4 L74-Ilm9 L73-Pfq3 L72-S_b7 L71-Cqc3 L70-Idv4 L69-Zzk4 L68-Tza5 L67-Tki9 L64-Wyc9 L63-Jv_8 L62-Pvd5 L61-S_r7 L60-Nwc1 L59-Ptf1 L58-Skb3 L57-H_n0 L56-Thu7 L52-Wyc9 L51-Pov4 L50-R_y6 L49-Ete7 L48-Mll7 L47-Djd5 L46-Y__1 L45-Jz_1 L40-Pvq5 L39-Qd_9 L38-Srm6 L37-Tjp3 L36-Euf5 L35-Pxn7 L34-Zgs4 L29-Wyc9 L28-Czu2 L27-Vsn8 L26-Gek7 L25-Tax7 L24-Nhm8 L23-Zuc0 L17-Wyc9 L16-Fhz5 L15-Ehj7 L14-Apw1 L13-Nge0 L12-Igo6 L5-Tww2 L4-Zow6 L3-Mwt8 L2-Vr_1 L1-Krr6
L231-Bkg9 L230-Njj5 L229-Vzd2 L228-De_6 L227-Nzh1 L226-Yr_4 L225-Vze1 L224-Npl1 L223-Nck8 L222-Wsn2 L221-Flu6 L220-Ybt8 L219-Yxp7 L218-Wqj2 L217-Chn7 L216-Msp9 L215-Skt5 L214-Pyr7 L213-Zpt2 L212-Mvk6 L211-Oxs0 L210-Fyb5 L209-Hg_8 L208-Ddw0 L207-Jms2 L206-Ipn5 L205-Pgr2 L204-Qcc9 L203-Mwp7 L202-Rvk7 L201-Zqt8 L200-H_v0 L199-Cjl8 L198-Whl7 L197-Mcw7 L196-Z_n2 L195-Brt2 L194-Ijl4 L193-Mjh5 L192-Hvo5 L191-Tqi5 L190-Wwn4 L189-Rqy0 L188-Rjx9 L187-Fjn7 L186-Diw0 L185-Kqw7 L184-U_j8 L183-Fyr9 L182-Vkr5 L181-Foa0 L180-Ppw5 L179-Fvx7 L178-Gkf1 L177-Wlb7 L176-Cbt3 L175-Hbc2 L174-Ojs8 L173-Jrt2 L172-Oev0 L171-Tfv7 L170-Owt4 L169-Wge9 L168-Uho3 L167-Pmk8 L166-Kmh3 L165-T_k8 L164-P_d8 L163-Zs_3 L162-V_z5 L161-Zzj9 L160-Zgc9 L159-Jzp2 L158-Hiz7 L157-Fuy9 L156-Xe_8 L155-H_q5 L154-Cdg4 L153-Uab8 L152-Bom3 L151-Pvc1 L150-Srx8 L149-Qsx9 L148-Rpr5 L147-Wfz4 L146-B_j0 L145-Xzw3 L144-Jgo5 L143-Txg9 L142-Zco6 L141-Yjh4 L140-Ryq4 L139-Epk7 L138-Wrp2 L137-Qvp9 L136-Yrr0 L135-Kcm6 L134-Ggl2 L133-Uzq1 L132-Wyc9 L131-Png0 L130-Zne6 L129-Tso1 L128-Kyh4 L127-Yen9 L126-Zqz0 L125-Yqa2 L124-U_y5 L123-Jsc5 L122-Pa_7 L120-Wyc9 L119-Gpn1 L118-Fjv5 L117-Tjb1 L116-Vny8 L115-Ryk3 L114-Gey2 L113-Zn_4 L112-Rgu9 L111-Zyp6 L108-Hhr2 L107-Md_0 L106-Xcz5 L105-Tao1 L104-Fns3 L103-Tor6 L102-Ntd5 L101-Hym2 L100-Rir1 L97-Ndn9 L96-P_p2 L95-Vhb1 L94-Ga_2 L93-Ixz5 L92-Omg3 L91-Czl0 L90-Orn3 L89-Wk_5 L86-Eym4 L85-Ilm9 L84-Pfq3 L83-S_b7 L82-Cqc3 L81-Idv4 L80-Zzk4 L79-Tza5 L78-Tki9 L75-Wyc9 L74-Jv_8 L73-Pvd5 L72-S_r7 L71-Nwc1 L70-Ptf1 L69-Skb3 L68-H_n0 L67-Thu7 L63-Wyc9 L62-Pov4 L61-R_y6 L60-Ete7 L59-Mll7 L58-Djd5 L57-Y__1 L56-Jz_1 L51-Pvq5 L50-Qd_9 L49-Srm6 L48-Tjp3 L47-Euf5 L46-Pxn7 L45-Zgs4 L40-Wyc9 L39-Czu2 L38-Vsn8 L37-Gek7 L36-Tax7 L35-Nhm8 L34-Zuc0 L28-Wyc9 L27-Fhz5 L26-Ehj7 L25-Apw1 L24-Nge0 L23-Igo6 L16-Tww2 L15-Zow6 L14-Mwt8 L13-Vr_1 L12-Krr6 L5-Jpm1 L4-Tgo8 L3-Uvv5 L2-Wni2 L1-X_i4
L231-De_6 L230-Nzh1 L229-Yr_4 L228-Npl1 L227-Nck8 L226-Wsn2 L225-Flu6 L224-Ybt8 L223-Yxp7 L222-Wqj2 L221-Chn7 L220-Skt5 L219-Pyr7 L218-Zpt2 L217-Mvk6 L216-Oxs0 L215-Hg_8 L214-Ddw0 L213-Jms2 L212-Ipn5 L211-Pgr2 L210-Qcc9 L209-Mwp7 L208-Rvk7 L207-Zqt8 L206-H_v0 L205-Cjl8 L204-Whl7 L203-Mcw7 L202-Z_n2 L201-Brt2 L200-Ijl4 L199-Mjh5 L198-Hvo5 L197-Wwn4 L196-Rqy0 L195-Rjx9 L194-Fjn7 L193-Diw0 L192-Kqw7 L191-U_j8 L190-Vkr5 L189-Foa0 L188-Ppw5 L187-Fvx7 L186-Gkf1 L185-Wlb7 L184-Cbt3 L183-Hbc2 L182-Jrt2 L181-Oev0 L180-Tfv7 L179-Owt4 L178-Wge9 L177-Uho3 L176-Pmk8 L175-Kmh3 L174-T_k8 L173-P_d8 L172-Zs_3 L171-V_z5 L170-Zzj9 L169-Zgc9 L168-Jzp2 L167-Hiz7 L166-Fuy9 L165-Xe_8 L164-Cdg4 L163-Uab8 L162-Bom3 L161-Pvc1 L160-Srx8 L159-Qsx9 L158-Rpr5 L157-Wfz4 L156-B_j0 L155-Xzw3 L154-Txg9 L153-Zco6 L152-Yjh4 L151-Ryq4 L150-Epk7 L149-Wrp2 L148-Qvp9 L147-Yrr0 L146-Kcm6 L145-Ggl2 L144-Uzq1 L143-Wyc9 L142-Png0 L141-Zne6 L140-Tso1 L139-Kyh4 L138-Yen9 L137-Zqz0 L136-Yqa2 L135-U_y5 L134-Jsc5 L133-Pa_7 L131-Wyc9 L130-Gpn1 L129-Fjv5 L128-Tjb1 L127-Vny8 L126-Ryk3 L125-Gey2 L124-Zn_4 L123-Rgu9 L122-Zyp6 L119-Hhr2 L118-Md_0 L117-Xcz5 L116-Tao1 L115-Fns3 L114-Tor6 L113-Ntd5 L112-Hym2 L111-Rir1 L108-Ndn9 L107-P_p2 L106-Vhb1 L105-Ga_2 L104-Ixz5 L103-Omg3 L102-Czl0 L101-Orn3 L100-Wk_5 L97-Eym4 L96-Ilm9 L95-Pfq3 L94-S_b7 L93-Cqc3 L92-Idv4 L91-Zzk4 L90-Tza5 L89-Tki9 L86-Wyc9 L85-Jv_8 L84-Pvd5 L83-S_r7 L82-Nwc1 L81-Ptf1 L80-Skb3 L79-H_n0 L78-Thu7 L74-Wyc9 L73-Pov4 L72-R_y6 L71-Ete7 L70-Mll7 L69-Djd5 L68-Y__1 L67-Jz_1 L62-Pvq5 L61-Qd_9 L60-Srm6 L59-Tjp3 L58-Euf5 L57-Pxn7 L56-Zgs4 L51-Wyc9 L50-Czu2 L49-Vsn8 L48-Gek7 L47-Tax7 L46-Nhm8 L45-Zuc0 L39-Wyc9 L38-Fhz5 L37-Ehj7 L36-Apw1 L35-Nge0 L34-Igo6 L27-Tww2 L26-Zow6 L25-Mwt8 L24-Vr_1 L23-Krr6 L16-Jpm1 L15-Tgo8 L14-Uvv5 L13-Wni2 L12-X_i4 L5-Wyc9 L4-Kls8 L3-Qwz5 L2-Umr4 L1-Ttd6
L231-Npl1 L230-Nck8 L229-Wsn2 L228-Ybt8 L227-Yxp7 L226-Wqj2 L225-Chn7 L224-Skt5 L223-Pyr7 L222-Zpt2 L221-Mvk6 L220-Hg_8 L219-Ddw0 L218-Jms2 L217-Ipn5 L216-Pgr2 L215-Mwp7 L214-Rvk7 L213-Zqt8 L212-H_v0 L211-Cjl8 L210-Whl7 L209-Mcw7 L208-Z_n2 L207-Brt2 L206-Ijl4 L205-Mjh5 L204-Hvo5 L203-Wwn4 L202-Rqy0 L201-Rjx9 L200-Fjn7 L199-Diw0 L198-Kqw7 L197-Vkr5 L196-Foa0 L195-Ppw5 L194-Fvx7 L193-Gkf1 L192-Wlb7 L191-Cbt3 L190-Jrt2 L189-Oev0 L188-Tfv7 L187-Owt4 L186-Wge9 L185-Uho3 L184-Pmk8 L183-Kmh3 L182-P_d8 L181-Zs_3 L180-V_z5 L179-Zzj9 L178-Zgc9 L177-Jzp2 L176-Hiz7 L175-Fuy9 L174-Xe_8 L173-Cdg4 L172-Uab8 L171-Bom3 L170-Pvc1 L169-Srx8 L168-Qsx9 L167-Rpr5 L166-Wfz4 L165-B_j0 L164-Txg9 L163-Zco6 L162-Yjh4 L161-Ryq4 L160-Epk7 L159-Wrp2 L158-Qvp9 L157-Yrr0 L156-Kcm6 L155-Ggl2 L154-Wyc9 L153-Png0 L152-Zne6 L151-Tso1 L150-Kyh4 L149-Yen9 L148-Zqz0 L147-Yqa2 L146-U_y5 L145-Jsc5 L144-Pa_7 L142-Wyc9 L141-Gpn1 L140-Fjv5 L139-Tjb1 L138-Vny8 L137-Ryk3 L136-Gey2 L135-Zn_4 L134-Rgu9 L133-Zyp6 L130-Hhr2 L129-Md_0 L128-Xcz5 L127-Tao1 L126-Fns3 L125-Tor6 L124-Ntd5 L123-Hym2 L122-Rir1 L119-Ndn9 L118-P_p2 L117-Vhb1 L116-Ga_2 L115-Ixz5 L114-Omg3 L113-Czl0 L112-Orn3 L111-Wk_5 L108-Eym4 L107-Ilm9 L106-Pfq3 L105-S_b7 L104-Cqc3 L103-Idv4 L102-Zzk4 L101-Tza5 L100-Tki9 L97-Wyc9 L96-Jv_8 L95-Pvd5 L94-S_r7 L93-Nwc1 L92-Ptf1 L91-Skb3 L90-H_n0 L89-Thu7 L85-Wyc9 L84-Pov4 L83-R_y6 L82-Ete7 L81-Mll7 L80-Djd5 L79-Y__1 L78-Jz_1 L73-Pvq5 L72-Qd_9 L71-Srm6 L70-Tjp3 L69-Euf5 L68-Pxn7 L67-Zgs4 L62-Wyc9 L61-Czu2 L60-Vsn8 L59-Gek7 L58-Tax7 L57-Nhm8 L56-Zuc0 L50-Wyc9 L49-Fhz5 L48-Ehj7 L47-Apw1 L46-Nge0 L45-Igo6 L38-Tww2 L37-Zow6 L36-Mwt8 L35-Vr_1 L34-Krr6 L27-Jpm1 L26-Tgo8 L25-Uvv5 L24-Wni2 L23-X_i4 L16-Wyc9 L15-Kls8 L14-Qwz5 L13-Umr4 L12-Ttd6 L4-Wyc9 L3-Xvk2 L2-Vpj4 L1-Yh_7
L231-Ybt8 L230-Yxp7 L229-Wqj2 L228-Skt5 L227-Pyr7 L226-Zpt2 L225-Mvk6 L224-Hg_8 L223-Ddw0 L222-Jms2 L221-Ipn5 L220-Mwp7 L219-Rvk7 L218-Zqt8 L217-H_v0 L216-Cjl8 L215-Mcw7 L214-Z_n2 L213-Brt2 L212-Ijl4 L211-Mjh5 L210-Hvo5 L209-Wwn4 L208-Rqy0 L207-Rjx9 L206-Fjn7 L205-Diw0 L204-Kqw7 L203-Vkr5 L202-Foa0 L201-Ppw5 L200-Fvx7 L199-Gkf1 L198-Wlb7 L197-Jrt2 L196-Oev0 L195-Tfv7 L194-Owt4 L193-Wge9 L192-Uho3 L191-Pmk8 L190-P_d8 L189-Zs_3 L188-V_z5 L187-Zzj9 L186-Zgc9 L185-Jzp2 L184-Hiz7 L183-Fuy9 L182-Cdg4 L181-Uab8 L180-Bom3 L179-Pvc1 L178-Srx8 L177-Qsx9 L176-Rpr5 L175-Wfz4 L174-B_j0 L173-Txg9 L172-Zco6 L171-Yjh4 L170-Ryq4 L169-Epk7 L168-Wrp2 L167-Qvp9 L166-Yrr0 L165-Kcm6 L164-Wyc9 L163-Png0 L162-Zne6 L161-Tso1 L160-Kyh4 L159-Yen9 L158-Zqz0 L157-Yqa2 L156-U_y5 L155-Jsc5 L153-Wyc9 L152-Gpn1 L151-Fjv5 L150-Tjb1 L149-Vny8 L148-Ryk3 L147-Gey2 L146-Zn_4 L145-Rgu9 L144-Zyp6 L141-Hhr2 L140-Md_0 L139-Xcz5 L138-Tao1 L137-Fns3 L136-Tor6 L135-Ntd5 L134-Hym2 L133-Rir1 L130-Ndn9 L129-P_p2 L128-Vhb1 L127-Ga_2 L126-Ixz5 L125-Omg3 L124-Czl0 L123-Orn3 L122-Wk_5 L119-Eym4 L118-Ilm9 L117-Pfq3 L116-S_b7 L115-Cqc3 L114-Idv4 L113-Zzk4 L112-Tza5 L111-Tki9 L108-Wyc9 L107-Jv_8 L106-Pvd5 L105-S_r7 L104-Nwc1 L103-Ptf1 L102-Skb3 L101-H_n0 L100-Thu7 L96-Wyc9 L95-Pov4 L94-R_y6 L93-Ete7 L92-Mll7 L91-Djd5 L90-Y__1 L89-Jz_1 L84-Pvq5 L83-Qd_9 L82-Srm6 L81-Tjp3 L80-Euf5 L79-Pxn7 L78-Zgs4 L73-Wyc9 L72-Czu2 L71-Vsn8 L70-Gek7 L69-Tax7 L68-Nhm8 L67-Zuc0 L61-Wyc9 L60-Fhz5 L59-Ehj7 L58-Apw1 L57-Nge0 L56-Igo6 L49-Tww2 L48-Zow6 L47-Mwt8 L46-Vr_1 L45-Krr6 L38-Jpm1 L37-Tgo8 L36-Uvv5 L35-Wni2 L34-X_i4 L27-Wyc9 L26-Kls8 L25-Qwz5 L24-Umr4 L23-Ttd6 L15-Wyc9 L14-Xvk2 L13-Vpj4 L12-Yh_7 L3-Wyc9 L2-Ozw0 L1-Vna4
L231-Skt5 L230-Pyr7 L229-Zpt2 L228-Hg_8 L227-Ddw0 L226-Jms2 L225-Ipn5 L224-Mwp7 L223-Rvk7 L222-Zqt8 L221-H_v0 L220-Mcw7 L219-Z_n2 L218-Brt2 L217-Ijl4 L216-Mjh5 L215-Wwn4 L214-Rqy0 L213-Rjx9 L212-Fjn7 L211-Diw0 L210-Kqw7 L209-Vkr5 L208-Foa0 L207-Ppw5 L206-Fvx7 L205-Gkf1 L204-Wlb7 L203-Jrt2 L202-Oev0 L201-Tfv7 L200-Owt4 L199-Wge9 L198-Uho3 L197-P_d8 L196-Zs_3 L195-V_z5 L194-Zzj9 L193-Zgc9 L192-Jzp2 L191-Hiz7 L190-Cdg4 L189-Uab8 L188-Bom3 L187-Pvc1 L186-Srx8 L185-Qsx9 L184-Rpr5 L183-Wfz4 L182-Txg9 L181-Zco6 L180-Yjh4 L179-Ryq4 L178-Epk7 L177-Wrp2 L176-Qvp9 L175-Yrr0 L174-Kcm6 L173-Wyc9 L172-Png0 L171-Zne6 L170-Tso1 L169-Kyh4 L168-Yen9 L167-Zqz0 L166-Yqa2 L165-U_y5 L163-Wyc9 L162-Gpn1 L161-Fjv5 L160-Tjb1 L159-Vny8 L158-Ryk3 L157-Gey2 L156-Zn_4 L155-Rgu9 L152-Hhr2 L151-Md_0 L150-Xcz5 L149-Tao1 L148-Fns3 L147-Tor6 L146-Ntd5 L145-Hym2 L144-Rir1 L141-Ndn9 L140-P_p2 L139-Vhb1 L138-Ga_2 L137-Ixz5 L136-Omg3 L135-Czl0 L134-Orn3 L133-Wk_5 L130-Eym4 L129-Ilm9 L128-Pfq3 L127-S_b7 L126-Cqc3 L125-Idv4 L124-Zzk4 L123-Tza5 L122-Tki9 L119-Wyc9 L118-Jv_8 L117-Pvd5 L116-S_r7 L115-Nwc1 L114-Ptf1 L113-Skb3 L112-H_n0 L111-Thu7 L107-Wyc9 L106-Pov4 L105-R_y6 L104-Ete7 L103-Mll7 L102-Djd5 L101-Y__1 L100-Jz_1 L95-Pvq5 L94-Qd_9 L93-Srm6 L92-Tjp3 L91-Euf5 L90-Pxn7 L89-Zgs4 L84-Wyc9 L83-Czu2 L82-Vsn8 L81-Gek7 L80-Tax7 L79-Nhm8 L78-Zuc0 L72-Wyc9 L71-Fhz5 L70-Ehj7 L69-Apw1 L68-Nge0 L67-Igo6 L60-Tww2 L59-Zow6 L58-Mwt8 L57-Vr_1 L56-Krr6 L49-Jpm1 L48-Tgo8 L47-Uvv5 L46-Wni2 L45-X_i4 L38-Wyc9 L37-Kls8 L36-Qwz5 L35-Umr4 L34-Ttd6 L26-Wyc9 L25-Xvk2 L24-Vpj4 L23-Yh_7 L14-Wyc9 L13-Ozw0 L12-Vna4 L2-Vun5 L1-Zpp5
L231-Hg_8 L230-Ddw0 L229-Jms2 L228-Mwp7 L227-Rvk7 L226-Zqt8 L225-H_v0 L224-Mcw7 L223-Z_n2 L222-Brt2 L221-Ijl4 L220-Wwn4 L219-Rqy0 L218-Rjx9 L217-Fjn7 L216-Diw0 L215-Vkr5 L214-Foa0 L213-Ppw5 L212-Fvx7 L211-Gkf1 L210-Wlb7 L209-Jrt2 L208-Oev0 L207-Tfv7 L206-Owt4 L205-Wge9 L204-Uho3 L203-P_d8 L202-Zs_3 L201-V_z5 L200-Zzj9 L199-Zgc9 L198-Jzp2 L197-Cdg4 L196-Uab8 L195-Bom3 L194-Pvc1 L193-Srx8 L192-Qsx9 L191-Rpr5 L190-Txg9 L189-Zco6 L188-Yjh4 L187-Ryq4 L186-Epk7 L185-Wrp2 L184-Qvp9 L183-Yrr0 L182-Wyc9 L181-Png0 L180-Zne6 L179-Tso1 L178-Kyh4 L177-Yen9 L176-Zqz0 L175-Yqa2 L174-U_y5 L172-Wyc9 L171-Gpn1 L170-Fjv5 L169-Tjb1 L168-Vny8 L167-Ryk3 L166-Gey2 L165-Zn_4 L162-Hhr2 L161-Md_0 L160-Xcz5 L159-Tao1 L158-Fns3 L157-Tor6 L156-Ntd5 L155-Hym2 L152-Ndn9 L151-P_p2 L150-Vhb1 L149-Ga_2 L148-Ixz5 L147-Omg3 L146-Czl0 L145-Orn3 L144-Wk_5 L141-Eym4 L140-Ilm9 L139-Pfq3 L138-S_b7 L137-Cqc3 L136-Idv4 L135-Zzk4 L134-Tza5 L133-Tki9 L130-Wyc9 L129-Jv_8 L128-Pvd5 L127-S_r7 L126-Nwc1 L125-Ptf1 L124-Skb3 L123-H_n0 L122-Thu7 L118-Wyc9 L117-Pov4 L116-R_y6 L115-Ete7 L114-Mll7 L113-Djd5 L112-Y__1 L111-Jz_1 L106-Pvq5 L105-Qd_9 L104-Srm6 L103-Tjp3 L102-Euf5 L101-Pxn7 L100-Zgs4 L95-Wyc9 L94-Czu2 L93-Vsn8 L92-Gek7 L91-Tax7 L90-Nhm8 L89-Zuc0 L83-Wyc9 L82-Fhz5 L81-Ehj7 L80-Apw1 L79-Nge0 L78-Igo6 L71-Tww2 L70-Zow6 L69-Mwt8 L68-Vr_1 L67-Krr6 L60-Jpm1 L59-Tgo8 L58-Uvv5 L57-Wni2 L56-X_i4 L49-Wyc9 L48-Kls8 L47-Qwz5 L46-Umr4 L45-Ttd6 L37-Wyc9 L36-Xvk2 L35-Vpj4 L34-Yh_7 L25-Wyc9 L24-Ozw0 L23-Vna4 L13-Vun5 L12-Zpp5 L2-Wyc9 L1-Yma6
L231-Mwp7 L230-Rvk7 L229-Zqt8 L228-Mcw7 L227-Z_n2 L226-Brt2 L225-Ijl4 L224-Wwn4 L223-Rqy0 L222-Rjx9 L221-Fjn7 L220-Vkr5 L219-Foa0 L218-Ppw5 L217-Fvx7 L216-Gkf1 L215-Jrt2 L214-Oev0 L213-Tfv7 L212-Owt4 L211-Wge9 L210-Uho3 L209-P_d8 L208-Zs_3 L207-V_z5 L206-Zzj9 L205-Zgc9 L204-Jzp2 L203-Cdg4 L202-Uab8 L201-Bom3 L200-Pvc1 L199-Srx8 L198-Qsx9 L197-Txg9 L196-Zco6 L195-Yjh4 L194-Ryq4 L193-Epk7 L192-Wrp2 L191-Qvp9 L190-Wyc9 L189-Png0 L188-Zne6 L187-Tso1 L186-Kyh4 L185-Yen9 L184-Zqz0 L183-Yqa2 L181-Wyc9 L180-Gpn1 L179-Fjv5 L178-Tjb1 L177-Vny8 L176-Ryk3 L175-Gey2 L174-Zn_4 L171-Hhr2 L170-Md_0 L169-Xcz5 L168-Tao1 L167-Fns3 L166-Tor6 L165-Ntd5 L162-Ndn9 L161-P_p2 L160-Vhb1 L159-Ga_2 L158-Ixz5 L157-Omg3 L156-Czl0 L155-Orn3 L152-Eym4 L151-Ilm9 L150-Pfq3 L149-S_b7 L148-Cqc3 L147-Idv4 L146-Zzk4 L145-Tza5 L144-Tki9 L141-Wyc9 L140-Jv_8 L139-Pvd5 L138-S_r7 L137-Nwc1 L136-Ptf1 L135-Skb3 L134-H_n0 L133-Thu7 L129-Wyc9 L128-Pov4 L127-R_y6 L126-Ete7 L125-Mll7 L124-Djd5 L123-Y__1 L122-Jz_1 L117-Pvq5 L116-Qd_9 L115-Srm6 L114-Tjp3 L113-Euf5 L112-Pxn7 L111-Zgs4 L106-Wyc9 L105-Czu2 L104-Vsn8 L103-Gek7 L102-Tax7 L101-Nhm8 L100-Zuc0 L94-Wyc9 L93-Fhz5 L92-Ehj7 L91-Apw1 L90-Nge0 L89-Igo6 L82-Tww2 L81-Zow6 L80-Mwt8 L79-Vr_1 L78-Krr6 L71-Jpm1 L70-Tgo8 L69-Uvv5 L68-Wni2 L67-X_i4 L60-Wyc9 L59-Kls8 L58-Qwz5 L57-Umr4 L56-Ttd6 L48-Wyc9 L47-Xvk2 L46-Vpj4 L45-Yh_7 L36-Wyc9 L35-Ozw0 L34-Vna4 L24-Vun5 L23-Zpp5 L13-Wyc9 L12-Yma6 L1-Wyc9
L231-Mcw7 L230-Z_n2 L229-Brt2 L228-Wwn4 L227-Rqy0 L226-Rjx9 L225-Fjn7 L224-Vkr5 L223-Foa0 L222-Ppw5 L221-Fvx7 L220-Jrt2 L219-Oev0 L218-Tfv7 L217-Owt4 L216-Wge9 L215-P_d8 L214-Zs_3 L213-V_z5 L212-Zzj9 L211-Zgc9 L210-Jzp2 L209-Cdg4 L208-Uab8 L207-Bom3 L206-Pvc1 L205-Srx8 L204-Qsx9 L203-Txg9 L202-Zco6 L201-Yjh4 L200-Ryq4 L199-Epk7 L198-Wrp2 L197-Wyc9 L196-Png0 L195-Zne6 L194-Tso1 L193-Kyh4 L192-Yen9 L191-Zqz0 L189-Wyc9 L188-Gpn1 L187-Fjv5 L186-Tjb1 L185-Vny8 L184-Ryk3 L183-Gey2 L180-Hhr2 L179-Md_0 L178-Xcz5 L177-Tao1 L176-Fns3 L175-Tor6 L174-Ntd5 L171-Ndn9 L170-P_p2 L169-Vhb1 L168-Ga_2 L167-Ixz5 L166-Omg3 L165-Czl0 L162-Eym4 L161-Ilm9 L160-Pfq3 L159-S_b7 L158-Cqc3 L157-Idv4 L156-Zzk4 L155-Tza5 L152-Wyc9 L151-Jv_8 L150-Pvd5 L149-S_r7 L148-Nwc1 L147-Ptf1 L146-Skb3 L145-H_n0 L144-Thu7 L140-Wyc9 L139-Pov4 L138-R_y6 L137-Ete7 L136-Mll7 L135-Djd5 L134-Y__1 L133-Jz_1 L128-Pvq5 L127-Qd_9 L126-Srm6 L125-Tjp3 L124-Euf5 L123-Pxn7 L122-Zgs4 L117-Wyc9 L116-Czu2 L115-Vsn8 L114-Gek7 L113-Tax7 L112-Nhm8 L111-Zuc0 L105-Wyc9 L104-Fhz5 L103-Ehj7 L102-Apw1 L101-Nge0 L100-Igo6 L93-Tww2 L92-Zow6 L91-Mwt8 L90-Vr_1 L89-Krr6 L82-Jpm1 L81-Tgo8 L80-Uvv5 L79-Wni2 L78-X_i4 L71-Wyc9 L70-Kls8 L69-Qwz5 L68-Umr4 L67-Ttd6 L59-Wyc9 L58-Xvk2 L57-Vpj4 L56-Yh_7 L47-Wyc9 L46-Ozw0 L45-Vna4 L35-Vun5 L34-Zpp5 L24-Wyc9 L23-Yma6 L12-Wyc9
L231-Wwn4 L230-Rqy0 L229-Rjx9 L228-Vkr5 L227-Foa0 L226-Ppw5 L225-Fvx7 L224-Jrt2 L223-Oev0 L222-Tfv7 L221-Owt4 L220-P_d8 L219-Zs_3 L218-V_z5 L217-Zzj9 L216-Zgc9 L215-Cdg4 L214-Uab8 L213-Bom3 L212-Pvc1 L211-Srx8 L210-Qsx9 L209-Txg9 L208-Zco6 L207-Yjh4 L206-Ryq4 L205-Epk7 L204-Wrp2 L203-Wyc9 L202-Png0 L201-Zne6 L200-Tso1 L199-Kyh4 L198-Yen9 L196-Wyc9 L195-Gpn1 L194-Fjv5 L193-Tjb1 L192-Vny8 L191-Ryk3 L188-Hhr2 L187-Md_0 L186-Xcz5 L185-Tao1 L184-Fns3 L183-Tor6 L180-Ndn9 L179-P_p2 L178-Vhb1 L177-Ga_2 L176-Ixz5 L175-Omg3 L174-Czl0 L171-Eym4 L170-Ilm9 L169-Pfq3 L168-S_b7 L167-Cqc3 L166-Idv4 L165-Zzk4 L162-Wyc9 L161-Jv_8 L160-Pvd5 L159-S_r7 L158-Nwc1 L157-Ptf1 L156-Skb3 L155-H_n0 L151-Wyc9 L150-Pov4 L149-R_y6 L148-Ete7 L147-Mll7 L146-Djd5 L145-Y__1 L144-Jz_1 L139-Pvq5 L138-Qd_9 L137-Srm6 L136-Tjp3 L135-Euf5 L134-Pxn7 L133-Zgs4 L128-Wyc9 L127-Czu2 L126-Vsn8 L125-Gek7 L124-Tax7 L123-Nhm8 L122-Zuc0 L116-Wyc9 L115-Fhz5 L114-Ehj7 L113-Apw1 L112-Nge0 L111-Igo6 L104-Tww2 L103-Zow6 L102-Mwt8 L101-Vr_1 L100-Krr6 L93-Jpm1 L92-Tgo8 L91-Uvv5 L90-Wni2 L89-X_i4 L82-Wyc9 L81-Kls8 L80-Qwz5 L79-Umr4 L78-Ttd6 L70-Wyc9 L69-Xvk2 L68-Vpj4 L67-Yh_7 L58-Wyc9 L57-Ozw0 L56-Vna4 L46-Vun5 L45-Zpp5 L35-Wyc9 L34-Yma6 L23-Wyc9
L231-Vkr5 L230-Foa0 L229-Ppw5 L228-Jrt2 L227-Oev0 L226-Tfv7 L225-Owt4 L224-P_d8 L223-Zs_3 L222-V_z5 L221-Zzj9 L220-Cdg4 L219-Uab8 L218-Bom3 L217-Pvc1 L216-Srx8 L215-Txg9 L214-Zco6 L213-Yjh4 L212-Ryq4 L211-Epk7 L210-Wrp2 L209-Wyc9 L208-Png0 L207-Zne6 L206-Tso1 L205-Kyh4 L204-Yen9 L202-Wyc9 L201-Gpn1 L200-Fjv5 L199-Tjb1 L198-Vny8 L195-Hhr2 L194-Md_0 L193-Xcz5 L192-Tao1 L191-Fns3 L188-Ndn9 L187-P_p2 L186-Vhb1 L185-Ga_2 L184-Ixz5 L183-Omg3 L180-Eym4 L179-Ilm9 L178-Pfq3 L177-S_b7 L176-Cqc3 L175-Idv4 L174-Zzk4 L171-Wyc9 L170-Jv_8 L169-Pvd5 L168-S_r7 L167-Nwc1 L166-Ptf1 L165-Skb3 L161-Wyc9 L160-Pov4 L159-R_y6 L158-Ete7 L157-Mll7 L156-Djd5 L155-Y__1 L150-Pvq5 L149-Qd_9 L148-Srm6 L147-Tjp3 L146-Euf5 L145-Pxn7 L144-Zgs4 L139-Wyc9 L138-Czu2 L137-Vsn8 L136-Gek7 L135-Tax7 L134-Nhm8 L133-Zuc0 L127-Wyc9 L126-Fhz5 L125-Ehj7 L124-Apw1 L123-Nge0 L122-Igo6 L115-Tww2 L114-Zow6 L113-Mwt8 L112-Vr_1 L111-Krr6 L104-Jpm1 L103-Tgo8 L102-Uvv5 L101-Wni2 L100-X_i4 L93-Wyc9 L92-Kls8 L91-Qwz5 L90-Umr4 L89-Ttd6 L81-Wyc9 L80-Xvk2 L79-Vpj4 L78-Yh_7 L69-Wyc9 L68-Ozw0 L67-Vna4 L57-Vun5 L56-Zpp5 L46-Wyc9 L45-Yma6 L34-Wyc9
L231-Jrt2 L230-Oev0 L229-Tfv7 L228-P_d8 L227-Zs_3 L226-V_z5 L225-Zzj9 L224-Cdg4 L223-Uab8 L222-Bom3 L221-Pvc1 L220-Txg9 L219-Zco6 L218-Yjh4 L217-Ryq4 L216-Epk7 L215-Wyc9 L214-Png0 L213-Zne6 L212-Tso1 L211-Kyh4 L210-Yen9 L208-Wyc9 L207-Gpn1 L206-Fjv5 L205-Tjb1 L204-Vny8 L201-Hhr2 L200-Md_0 L199-Xcz5 L198-Tao1 L195-Ndn9 L194-P_p2 L193-Vhb1 L192-Ga_2 L191-Ixz5 L188-Eym4 L187-Ilm9 L186-Pfq3 L185-S_b7 L184-Cqc3 L183-Idv4 L180-Wyc9 L179-Jv_8 L178-Pvd5 L177-S_r7 L176-Nwc1 L175-Ptf1 L174-Skb3 L170-Wyc9 L169-Pov4 L168-R_y6 L167-Ete7 L166-Mll7 L165-Djd5 L160-Pvq5 L159-Qd_9 L158-Srm6 L157-Tjp3 L156-Euf5 L155-Pxn7 L150-Wyc9 L149-Czu2 L148-Vsn8 L147-Gek7 L146-Tax7 L145-Nhm8 L144-Zuc0 L138-Wyc9 L137-Fhz5 L136-Ehj7 L135-Apw1 L134-Nge0 L133-Igo6 L126-Tww2 L125-Zow6 L124-Mwt8 L123-Vr_1 L122-Krr6 L115-Jpm1 L114-Tgo8 L113-Uvv5 L112-Wni2 L111-X_i4 L104-Wyc9 L103-Kls8 L102-Qwz5 L101-Umr4 L100-Ttd6 L92-Wyc9 L91-Xvk2 L90-Vpj4 L89-Yh_7 L80-Wyc9 L79-Ozw0 L78-Vna4 L68-Vun5 L67-Zpp5 L57-Wyc9 L56-Yma6 L45-Wyc9
L231-P_d8 L230-Zs_3 L229-V_z5 L228-Cdg4 L227-Uab8 L226-Bom3 L225-Pvc1 L224-Txg9 L223-Zco6 L222-Yjh4 L221-Ryq4 L220-Wyc9 L219-Png0 L218-Zne6 L217-Tso1 L216-Kyh4 L214-Wyc9 L213-Gpn1 L212-Fjv5 L211-Tjb1 L210-Vny8 L207-Hhr2 L206-Md_0 L205-Xcz5 L204-Tao1 L201-Ndn9 L200-P_p2 L199-Vhb1 L198-Ga_2 L195-Eym4 L194-Ilm9 L193-Pfq3 L192-S_b7 L191-Cqc3 L188-Wyc9 L187-Jv_8 L186-Pvd5 L185-S_r7 L184-Nwc1 L183-Ptf1 L179-Wyc9 L178-Pov4 L177-R_y6 L176-Ete7 L175-Mll7 L174-Djd5 L169-Pvq5 L168-Qd_9 L167-Srm6 L166-Tjp3 L165-Euf5 L160-Wyc9 L159-Czu2 L158-Vsn8 L157-Gek7 L156-Tax7 L155-Nhm8 L149-Wyc9 L148-Fhz5 L147-Ehj7 L146-Apw1 L145-Nge0 L144-Igo6 L137-Tww2 L136-Zow6 L135-Mwt8 L134-Vr_1 L133-Krr6 L126-Jpm1 L125-Tgo8 L124-Uvv5 L123-Wni2 L122-X_i4 L115-Wyc9 L114-Kls8 L113-Qwz5 L112-Umr4 L111-Ttd6 L103-Wyc9 L102-Xvk2 L101-Vpj4 L100-Yh_7 L91-Wyc9 L90-Ozw0 L89-Vna4 L79-Vun5 L78-Zpp5 L68-Wyc9 L67-Yma6 L56-Wyc9
L231-Cdg4 L230-Uab8 L229-Bom3 L228-Txg9 L227-Zco6 L226-Yjh4 L225-Ryq4 L224-Wyc9 L223-Png0 L222-Zne6 L221-Tso1 L219-Wyc9 L218-Gpn1 L217-Fjv5 L216-Tjb1 L213-Hhr2 L212-Md_0 L211-Xcz5 L210-Tao1 L207-Ndn9 L206-P_p2 L205-Vhb1 L204-Ga_2 L201-Eym4 L200-Ilm9 L199-Pfq3 L198-S_b7 L195-Wyc9 L194-Jv_8 L193-Pvd5 L192-S_r7 L191-Nwc1 L187-Wyc9 L186-Pov4 L185-R_y6 L184-Ete7 L183-Mll7 L178-Pvq5 L177-Qd_9 L176-Srm6 L175-Tjp3 L174-Euf5 L169-Wyc9 L168-Czu2 L167-Vsn8 L166-Gek7 L165-Tax7 L159-Wyc9 L158-Fhz5 L157-Ehj7 L156-Apw1 L155-Nge0 L148-Tww2 L147-Zow6 L146-Mwt8 L145-Vr_1 L144-Krr6 L137-Jpm1 L136-Tgo8 L135-Uvv5 L134-Wni2 L133-X_i4 L126-Wyc9 L125-Kls8 L124-Qwz5 L123-Umr4 L122-Ttd6 L114-Wyc9 L113-Xvk2 L112-Vpj4 L111-Yh_7 L102-Wyc9 L101-Ozw0 L100-Vna4 L90-Vun5 L89-Zpp5 L79-Wyc9 L78-Yma6 L67-Wyc9
L231-Txg9 L230-Zco6 L229-Yjh4 L228-Wyc9 L227-Png0 L226-Zne6 L225-Tso1 L223-Wyc9 L222-Gpn1 L221-Fjv5 L218-Hhr2 L217-Md_0 L216-Xcz5 L213-Ndn9 L212-P_p2 L211-Vhb1 L210-Ga_2 L207-Eym4 L206-Ilm9 L205-Pfq3 L204-S_b7 L201-Wyc9 L200-Jv_8 L199-Pvd5 L198-S_r7 L194-Wyc9 L193-Pov4 L192-R_y6 L191-Ete7 L186-Pvq5 L185-Qd_9 L184-Srm6 L183-Tjp3 L178-Wyc9 L177-Czu2 L176-Vsn8 L175-Gek7 L174-Tax7 L168-Wyc9 L167-Fhz5 L166-Ehj7 L165-Apw1 L158-Tww2 L157-Zow6 L156-Mwt8 L155-Vr_1 L148-Jpm1 L147-Tgo8 L146-Uvv5 L145-Wni2 L144-X_i4 L137-Wyc9 L136-Kls8 L135-Qwz5 L134-Umr4 L133-Ttd6 L125-Wyc9 L124-Xvk2 L123-Vpj4 L122-Yh_7 L113-Wyc9 L112-Ozw0 L111-Vna4 L101-Vun5 L100-Zpp5 L90-Wyc9 L89-Yma6 L78-Wyc9
L231-Wyc9 L230-Png0 L229-Zne6 L227-Wyc9 L226-Gpn1 L225-Fjv5 L222-Hhr2 L221-Md_0 L218-Ndn9 L217-P_p2 L216-Vhb1 L213-Eym4 L212-Ilm9 L211-Pfq3 L210-S_b7 L207-Wyc9 L206-Jv_8 L205-Pvd5 L204-S_r7 L200-Wyc9 L199-Pov4 L198-R_y6 L193-Pvq5 L192-Qd_9 L191-Srm6 L186-Wyc9 L185-Czu2 L184-Vsn8 L183-Gek7 L177-Wyc9 L176-Fhz5 L175-Ehj7 L174-Apw1 L167-Tww2 L166-Zow6 L165-Mwt8 L158-Jpm1 L157-Tgo8 L156-Uvv5 L155-Wni2 L148-Wyc9 L147-Kls8 L146-Qwz5 L145-Umr4 L144-Ttd6 L136-Wyc9 L135-Xvk2 L134-Vpj4 L133-Yh_7 L124-Wyc9 L123-Ozw0 L122-Vna4 L112-Vun5 L111-Zpp5 L101-Wyc9 L100-Yma6 L89-Wyc9
L230-Wyc9 L229-Gpn1 L226-Hhr2 L225-Md_0 L222-Ndn9 L221-P_p2 L218-Eym4 L217-Ilm9 L216-Pfq3 L213-Wyc9 L212-Jv_8 L211-Pvd5 L210-S_r7 L206-Wyc9 L205-Pov4 L204-R_y6 L199-Pvq5 L198-Qd_9 L193-Wyc9 L192-Czu2 L191-Vsn8 L185-Wyc9 L184-Fhz5 L183-Ehj7 L176-Tww2 L175-Zow6 L174-Mwt8 L167-Jpm1 L166-Tgo8 L165-Uvv5 L158-Wyc9 L157-Kls8 L156-Qwz5 L155-Umr4 L147-Wyc9 L146-Xvk2 L145-Vpj4 L144-Yh_7 L135-Wyc9 L134-Ozw0 L133-Vna4 L123-Vun5 L122-Zpp5 L112-Wyc9 L111-Yma6 L100-Wyc9
L229-Hhr2 L226-Ndn9 L225-P_p2 L222-Eym4 L221-Ilm9 L218-Wyc9 L217-Jv_8 L216-Pvd5 L212-Wyc9 L211-Pov4 L210-R_y6 L205-Pvq5 L204-Qd_9 L199-Wyc9 L198-Czu2 L192-Wyc9 L191-Fhz5 L184-Tww2 L183-Zow6 L176-Jpm1 L175-Tgo8 L174-Uvv5 L167-Wyc9 L166-Kls8 L165-Qwz5 L157-Wyc9 L156-Xvk2 L155-Vpj4 L146-Wyc9 L145-Ozw0 L144-Vna4 L134-Vun5 L133-Zpp5 L123-Wyc9 L122-Yma6 L111-Wyc9
L229-Ndn9 L226-Eym4 L225-Ilm9 L222-Wyc9 L221-Jv_8 L217-Wyc9 L216-Pov4 L211-Pvq5 L210-Qd_9 L205-Wyc9 L204-Czu2 L198-Wyc9 L191-Tww2 L184-Jpm1 L183-Tgo8 L176-Wyc9 L175-Kls8 L174-Qwz5 L166-Wyc9 L165-Xvk2 L156-Wyc9 L155-Ozw0 L145-Vun5 L144-Zpp5 L134-Wyc9 L133-Yma6 L122-Wyc9
L229-Eym4 L226-Wyc9 L225-Jv_8 L221-Wyc9 L216-Pvq5 L211-Wyc9 L210-Czu2 L204-Wyc9 L191-Jpm1 L184-Wyc9 L183-Kls8 L175-Wyc9 L174-Xvk2 L165-Wyc9 L155-Vun5 L145-Wyc9 L144-Yma6 L133-Wyc9
L229-Wyc9 L225-Wyc9 L216-Wyc9 L210-Wyc9 L191-Wyc9 L183-Wyc9 L174-Wyc9 L155-Wyc9 L144-Wyc9
[92m->lines number: 52
[0m
