all
[94m->finding paths...
[0m[94m-->starting edm_karp...
[0m[94m--->starting bfs...
[0m[94m--->finish bfs.
[0m[90mPaths:
size: 16
Czj1->Exs0->Nft2->B_t8->Rzh4->Np_2->Utx7->Ihc7->Wvl7->Sqp9->Cyu7->Bki1->Fpf1->Fvq3->Hjj6->Qyd9->Ysl0


[0m[94m--->starting bfs...
[0m[94m--->finish bfs.
[0m[90mPaths:
size: 17
Czj1->Swu9->Qpf7->Fvv3->Ii_5->Mxd8->Zmj4->Ykg4->Aaw1->Knj7->Hd_2->Hbi7->Jyv5->Rxg1->Ojf3->Ohd4->Sbx1->Ysl0
size: 16
Czj1->Exs0->Nft2->B_t8->Rzh4->Np_2->Utx7->Ihc7->Wvl7->Sqp9->Cyu7->Bki1->Fpf1->Fvq3->Hjj6->Qyd9->Ysl0


[0m[94m--->starting bfs...
[0m[94m--->finish bfs.
[0m[90mPaths:
size: 18
Czj1->Fri7->Bhx4->Rlx5->Yh_8->Zls0->Tr_4->Yfs1->Pxs5->Ucn4->Fhe5->Eku9->Tti6->Ni_3->Vxe5->Bbg1->Rgm7->Zv_4->Ysl0
size: 17
Czj1->Swu9->Qpf7->Fvv3->Ii_5->Mxd8->Zmj4->Ykg4->Aaw1->Knj7->Hd_2->Hbi7->Jyv5->Rxg1->Ojf3->Ohd4->Sbx1->Ysl0
size: 16
Czj1->Exs0->Nft2->B_t8->Rzh4->Np_2->Utx7->Ihc7->Wvl7->Sqp9->Cyu7->Bki1->Fpf1->Fvq3->Hjj6->Qyd9->Ysl0


[0m[94m--->starting bfs...
[0m[94m--->finish bfs.
[0m[90mPaths:
size: 23
Czj1->Xuw0->Gpc1->Br_4->Phr1->Fva4->Euq9->Qqq2->Asd8->Ggr4->Kem7->Khe4->Cha2->Ezw7->Duq8->Pgk1->Tcq1->Emk3->Rzk9->Kkl6->Vpq9->Sv_5->Uvf8->Ysl0
size: 18
Czj1->Fri7->Bhx4->Rlx5->Yh_8->Zls0->Tr_4->Yfs1->Pxs5->Ucn4->Fhe5->Eku9->Tti6->Ni_3->Vxe5->Bbg1->Rgm7->Zv_4->Ysl0
size: 17
Czj1->Swu9->Qpf7->Fvv3->Ii_5->Mxd8->Zmj4->Ykg4->Aaw1->Knj7->Hd_2->Hbi7->Jyv5->Rxg1->Ojf3->Ohd4->Sbx1->Ysl0
size: 16
Czj1->Exs0->Nft2->B_t8->Rzh4->Np_2->Utx7->Ihc7->Wvl7->Sqp9->Cyu7->Bki1->Fpf1->Fvq3->Hjj6->Qyd9->Ysl0


[0m[94m--->starting bfs...
[0m[94m--->finish bfs.
[0m[90mPaths:
size: 26
Czj1->Bbl2->Tl_8->Zch9->Ftp8->Nwf4->Djz6->Fou7->Unc6->Ot_9->Hmn1->Dod5->Gqu4->Zsq3->Wdu0->Qfc2->Mlo5->Qkj6->Rym9->Iug6->Ffw1->Q_z8->Sq_2->Csg2->Drg8->Sge4->Ysl0
size: 23
Czj1->Xuw0->Gpc1->Br_4->Phr1->Fva4->Euq9->Qqq2->Asd8->Ggr4->Kem7->Khe4->Cha2->Ezw7->Duq8->Pgk1->Tcq1->Emk3->Rzk9->Kkl6->Vpq9->Sv_5->Uvf8->Ysl0
size: 18
Czj1->Fri7->Bhx4->Rlx5->Yh_8->Zls0->Tr_4->Yfs1->Pxs5->Ucn4->Fhe5->Eku9->Tti6->Ni_3->Vxe5->Bbg1->Rgm7->Zv_4->Ysl0
size: 17
Czj1->Swu9->Qpf7->Fvv3->Ii_5->Mxd8->Zmj4->Ykg4->Aaw1->Knj7->Hd_2->Hbi7->Jyv5->Rxg1->Ojf3->Ohd4->Sbx1->Ysl0
size: 16
Czj1->Exs0->Nft2->B_t8->Rzh4->Np_2->Utx7->Ihc7->Wvl7->Sqp9->Cyu7->Bki1->Fpf1->Fvq3->Hjj6->Qyd9->Ysl0


[0m[94m--->starting bfs...
[0m[94m--->finish bfs.
[0m[90mPaths:
size: 28
Czj1->Iaf0->Ypx3->Wqd1->Rlb5->Rrj4->Qd_9->Msq8->Jzv9->Jr_2->Xgz5->Aiy2->Sqo5->Bpb0->Tnr8->Qkr4->Sfq2->Oux4->Aej4->Uqr5->Trx6->Vrb7->Wfe0->Dvq3->Hfv0->Qgi0->Vcj1->Ocb3->Ysl0
size: 26
Czj1->Bbl2->Tl_8->Zch9->Ftp8->Nwf4->Djz6->Fou7->Unc6->Ot_9->Hmn1->Dod5->Gqu4->Zsq3->Wdu0->Qfc2->Mlo5->Qkj6->Rym9->Iug6->Ffw1->Q_z8->Sq_2->Csg2->Drg8->Sge4->Ysl0
size: 23
Czj1->Xuw0->Gpc1->Br_4->Phr1->Fva4->Euq9->Qqq2->Asd8->Ggr4->Kem7->Khe4->Cha2->Ezw7->Duq8->Pgk1->Tcq1->Emk3->Rzk9->Kkl6->Vpq9->Sv_5->Uvf8->Ysl0
size: 18
Czj1->Fri7->Bhx4->Rlx5->Yh_8->Zls0->Tr_4->Yfs1->Pxs5->Ucn4->Fhe5->Eku9->Tti6->Ni_3->Vxe5->Bbg1->Rgm7->Zv_4->Ysl0
size: 17
Czj1->Swu9->Qpf7->Fvv3->Ii_5->Mxd8->Zmj4->Ykg4->Aaw1->Knj7->Hd_2->Hbi7->Jyv5->Rxg1->Ojf3->Ohd4->Sbx1->Ysl0
size: 16
Czj1->Exs0->Nft2->B_t8->Rzh4->Np_2->Utx7->Ihc7->Wvl7->Sqp9->Cyu7->Bki1->Fpf1->Fvq3->Hjj6->Qyd9->Ysl0


[0m[94m--->starting bfs...
[0m[94m--->finish bfs.
[0m[90mPaths:
size: 29
Czj1->Zec5->Qxm5->Fln5->Qe_8->Vjf1->Het4->Gye9->Fod2->Hok0->Xni9->U_x0->Ean3->Yag5->Mtw2->Pm_2->Dt_6->Yqz7->Vda4->Miu7->U_j7->Vat3->Acx4->T_n1->Rsv1->Jwn1->Xgr7->Yps7->W_c7->Ysl0
size: 28
Czj1->Iaf0->Ypx3->Wqd1->Rlb5->Rrj4->Qd_9->Msq8->Jzv9->Jr_2->Xgz5->Aiy2->Sqo5->Bpb0->Tnr8->Qkr4->Sfq2->Oux4->Aej4->Uqr5->Trx6->Vrb7->Wfe0->Dvq3->Hfv0->Qgi0->Vcj1->Ocb3->Ysl0
size: 26
Czj1->Bbl2->Tl_8->Zch9->Ftp8->Nwf4->Djz6->Fou7->Unc6->Ot_9->Hmn1->Dod5->Gqu4->Zsq3->Wdu0->Qfc2->Mlo5->Qkj6->Rym9->Iug6->Ffw1->Q_z8->Sq_2->Csg2->Drg8->Sge4->Ysl0
size: 23
Czj1->Xuw0->Gpc1->Br_4->Phr1->Fva4->Euq9->Qqq2->Asd8->Ggr4->Kem7->Khe4->Cha2->Ezw7->Duq8->Pgk1->Tcq1->Emk3->Rzk9->Kkl6->Vpq9->Sv_5->Uvf8->Ysl0
size: 18
Czj1->Fri7->Bhx4->Rlx5->Yh_8->Zls0->Tr_4->Yfs1->Pxs5->Ucn4->Fhe5->Eku9->Tti6->Ni_3->Vxe5->Bbg1->Rgm7->Zv_4->Ysl0
size: 17
Czj1->Swu9->Qpf7->Fvv3->Ii_5->Mxd8->Zmj4->Ykg4->Aaw1->Knj7->Hd_2->Hbi7->Jyv5->Rxg1->Ojf3->Ohd4->Sbx1->Ysl0
size: 16
Czj1->Exs0->Nft2->B_t8->Rzh4->Np_2->Utx7->Ihc7->Wvl7->Sqp9->Cyu7->Bki1->Fpf1->Fvq3->Hjj6->Qyd9->Ysl0


[0m[94m--->starting bfs...
[0m[94m--->finish bfs.
[0m[90mPaths:
size: 34
Czj1->Izo6->Dwc1->Z_e5->Vyq2->Vf_8->Gjq3->Hxg2->Snr5->Iwq2->Uaw4->Rka7->Tcs5->Qdx2->Ofz7->Hdj0->Biu4->Yh_2->Jp_8->Ukb6->Mks7->Pce0->Xcc3->Qsj8->Ykc6->B_s1->Ewh5->Fk_8->Ao_9->Jwo1->K_i9->Mho4->Kbs5->G_w1->Ysl0
size: 29
Czj1->Zec5->Qxm5->Fln5->Qe_8->Vjf1->Het4->Gye9->Fod2->Hok0->Xni9->U_x0->Ean3->Yag5->Mtw2->Pm_2->Dt_6->Yqz7->Vda4->Miu7->U_j7->Vat3->Acx4->T_n1->Rsv1->Jwn1->Xgr7->Yps7->W_c7->Ysl0
size: 28
Czj1->Iaf0->Ypx3->Wqd1->Rlb5->Rrj4->Qd_9->Msq8->Jzv9->Jr_2->Xgz5->Aiy2->Sqo5->Bpb0->Tnr8->Qkr4->Sfq2->Oux4->Aej4->Uqr5->Trx6->Vrb7->Wfe0->Dvq3->Hfv0->Qgi0->Vcj1->Ocb3->Ysl0
size: 26
Czj1->Bbl2->Tl_8->Zch9->Ftp8->Nwf4->Djz6->Fou7->Unc6->Ot_9->Hmn1->Dod5->Gqu4->Zsq3->Wdu0->Qfc2->Mlo5->Qkj6->Rym9->Iug6->Ffw1->Q_z8->Sq_2->Csg2->Drg8->Sge4->Ysl0
size: 23
Czj1->Xuw0->Gpc1->Br_4->Phr1->Fva4->Euq9->Qqq2->Asd8->Ggr4->Kem7->Khe4->Cha2->Ezw7->Duq8->Pgk1->Tcq1->Emk3->Rzk9->Kkl6->Vpq9->Sv_5->Uvf8->Ysl0
size: 18
Czj1->Fri7->Bhx4->Rlx5->Yh_8->Zls0->Tr_4->Yfs1->Pxs5->Ucn4->Fhe5->Eku9->Tti6->Ni_3->Vxe5->Bbg1->Rgm7->Zv_4->Ysl0
size: 17
Czj1->Swu9->Qpf7->Fvv3->Ii_5->Mxd8->Zmj4->Ykg4->Aaw1->Knj7->Hd_2->Hbi7->Jyv5->Rxg1->Ojf3->Ohd4->Sbx1->Ysl0
size: 16
Czj1->Exs0->Nft2->B_t8->Rzh4->Np_2->Utx7->Ihc7->Wvl7->Sqp9->Cyu7->Bki1->Fpf1->Fvq3->Hjj6->Qyd9->Ysl0


[0m[94m--->starting bfs...
[0m[94m--->finish bfs.
[0m[90mPaths:
size: 34
Czj1->Mhc9->Vsl8->V__8->Apf9->Qwv9->Gop4->W_f6->Zrx7->Wdy1->Kmb6->Sgp8->Fb_9->Sfs6->Kg_0->Ye_5->Fmd1->Czl9->Kai9->Fqi0->Kau7->E_g9->Atj5->Vgv3->Uoh0->Jwd0->If_8->Uce7->Rhh0->Tcx1->Dcz6->Fwe6->Ftv2->Bas0->Ysl0
size: 34
Czj1->Izo6->Dwc1->Z_e5->Vyq2->Vf_8->Gjq3->Hxg2->Snr5->Iwq2->Uaw4->Rka7->Tcs5->Qdx2->Ofz7->Hdj0->Biu4->Yh_2->Jp_8->Ukb6->Mks7->Pce0->Xcc3->Qsj8->Ykc6->B_s1->Ewh5->Fk_8->Ao_9->Jwo1->K_i9->Mho4->Kbs5->G_w1->Ysl0
size: 29
Czj1->Zec5->Qxm5->Fln5->Qe_8->Vjf1->Het4->Gye9->Fod2->Hok0->Xni9->U_x0->Ean3->Yag5->Mtw2->Pm_2->Dt_6->Yqz7->Vda4->Miu7->U_j7->Vat3->Acx4->T_n1->Rsv1->Jwn1->Xgr7->Yps7->W_c7->Ysl0
size: 28
Czj1->Iaf0->Ypx3->Wqd1->Rlb5->Rrj4->Qd_9->Msq8->Jzv9->Jr_2->Xgz5->Aiy2->Sqo5->Bpb0->Tnr8->Qkr4->Sfq2->Oux4->Aej4->Uqr5->Trx6->Vrb7->Wfe0->Dvq3->Hfv0->Qgi0->Vcj1->Ocb3->Ysl0
size: 26
Czj1->Bbl2->Tl_8->Zch9->Ftp8->Nwf4->Djz6->Fou7->Unc6->Ot_9->Hmn1->Dod5->Gqu4->Zsq3->Wdu0->Qfc2->Mlo5->Qkj6->Rym9->Iug6->Ffw1->Q_z8->Sq_2->Csg2->Drg8->Sge4->Ysl0
size: 23
Czj1->Xuw0->Gpc1->Br_4->Phr1->Fva4->Euq9->Qqq2->Asd8->Ggr4->Kem7->Khe4->Cha2->Ezw7->Duq8->Pgk1->Tcq1->Emk3->Rzk9->Kkl6->Vpq9->Sv_5->Uvf8->Ysl0
size: 18
Czj1->Fri7->Bhx4->Rlx5->Yh_8->Zls0->Tr_4->Yfs1->Pxs5->Ucn4->Fhe5->Eku9->Tti6->Ni_3->Vxe5->Bbg1->Rgm7->Zv_4->Ysl0
size: 17
Czj1->Swu9->Qpf7->Fvv3->Ii_5->Mxd8->Zmj4->Ykg4->Aaw1->Knj7->Hd_2->Hbi7->Jyv5->Rxg1->Ojf3->Ohd4->Sbx1->Ysl0
size: 16
Czj1->Exs0->Nft2->B_t8->Rzh4->Np_2->Utx7->Ihc7->Wvl7->Sqp9->Cyu7->Bki1->Fpf1->Fvq3->Hjj6->Qyd9->Ysl0


[0m[94m--->starting bfs...
[0m[94m--->finish bfs.
[0m[90mPaths:
size: 36
Czj1->Hjs4->Ike8->Fpb9->P__3->Yst4->Rtg8->Vue5->Awd3->Js_6->Cjy6->Jpd6->Tfr6->Je_3->Bxp0->U_h6->Jjd9->Gow6->Qch1->Qwa4->Rzd5->Sx_8->Gdk9->Jmo0->Dcm1->Soq8->Tpf1->Bcs9->Mnj0->Bnw6->Fgp0->Wl_0->Zkn0->Dbv8->Urn5->Hwu5->Ysl0
size: 34
Czj1->Mhc9->Vsl8->V__8->Apf9->Qwv9->Gop4->W_f6->Zrx7->Wdy1->Kmb6->Sgp8->Fb_9->Sfs6->Kg_0->Ye_5->Fmd1->Czl9->Kai9->Fqi0->Kau7->E_g9->Atj5->Vgv3->Uoh0->Jwd0->If_8->Uce7->Rhh0->Tcx1->Dcz6->Fwe6->Ftv2->Bas0->Ysl0
size: 34
Czj1->Izo6->Dwc1->Z_e5->Vyq2->Vf_8->Gjq3->Hxg2->Snr5->Iwq2->Uaw4->Rka7->Tcs5->Qdx2->Ofz7->Hdj0->Biu4->Yh_2->Jp_8->Ukb6->Mks7->Pce0->Xcc3->Qsj8->Ykc6->B_s1->Ewh5->Fk_8->Ao_9->Jwo1->K_i9->Mho4->Kbs5->G_w1->Ysl0
size: 29
Czj1->Zec5->Qxm5->Fln5->Qe_8->Vjf1->Het4->Gye9->Fod2->Hok0->Xni9->U_x0->Ean3->Yag5->Mtw2->Pm_2->Dt_6->Yqz7->Vda4->Miu7->U_j7->Vat3->Acx4->T_n1->Rsv1->Jwn1->Xgr7->Yps7->W_c7->Ysl0
size: 28
Czj1->Iaf0->Ypx3->Wqd1->Rlb5->Rrj4->Qd_9->Msq8->Jzv9->Jr_2->Xgz5->Aiy2->Sqo5->Bpb0->Tnr8->Qkr4->Sfq2->Oux4->Aej4->Uqr5->Trx6->Vrb7->Wfe0->Dvq3->Hfv0->Qgi0->Vcj1->Ocb3->Ysl0
size: 26
Czj1->Bbl2->Tl_8->Zch9->Ftp8->Nwf4->Djz6->Fou7->Unc6->Ot_9->Hmn1->Dod5->Gqu4->Zsq3->Wdu0->Qfc2->Mlo5->Qkj6->Rym9->Iug6->Ffw1->Q_z8->Sq_2->Csg2->Drg8->Sge4->Ysl0
size: 23
Czj1->Xuw0->Gpc1->Br_4->Phr1->Fva4->Euq9->Qqq2->Asd8->Ggr4->Kem7->Khe4->Cha2->Ezw7->Duq8->Pgk1->Tcq1->Emk3->Rzk9->Kkl6->Vpq9->Sv_5->Uvf8->Ysl0
size: 18
Czj1->Fri7->Bhx4->Rlx5->Yh_8->Zls0->Tr_4->Yfs1->Pxs5->Ucn4->Fhe5->Eku9->Tti6->Ni_3->Vxe5->Bbg1->Rgm7->Zv_4->Ysl0
size: 17
Czj1->Swu9->Qpf7->Fvv3->Ii_5->Mxd8->Zmj4->Ykg4->Aaw1->Knj7->Hd_2->Hbi7->Jyv5->Rxg1->Ojf3->Ohd4->Sbx1->Ysl0
size: 16
Czj1->Exs0->Nft2->B_t8->Rzh4->Np_2->Utx7->Ihc7->Wvl7->Sqp9->Cyu7->Bki1->Fpf1->Fvq3->Hjj6->Qyd9->Ysl0


[0m[94m--->starting bfs...
[0m[94m--->finish bfs.
[0m[94m-->finish edm_karp.
[0m[90mPaths:
size: 36
Czj1->Hjs4->Ike8->Fpb9->P__3->Yst4->Rtg8->Vue5->Awd3->Js_6->Cjy6->Jpd6->Tfr6->Je_3->Bxp0->U_h6->Jjd9->Gow6->Qch1->Qwa4->Rzd5->Sx_8->Gdk9->Jmo0->Dcm1->Soq8->Tpf1->Bcs9->Mnj0->Bnw6->Fgp0->Wl_0->Zkn0->Dbv8->Urn5->Hwu5->Ysl0
size: 34
Czj1->Mhc9->Vsl8->V__8->Apf9->Qwv9->Gop4->W_f6->Zrx7->Wdy1->Kmb6->Sgp8->Fb_9->Sfs6->Kg_0->Ye_5->Fmd1->Czl9->Kai9->Fqi0->Kau7->E_g9->Atj5->Vgv3->Uoh0->Jwd0->If_8->Uce7->Rhh0->Tcx1->Dcz6->Fwe6->Ftv2->Bas0->Ysl0
size: 34
Czj1->Izo6->Dwc1->Z_e5->Vyq2->Vf_8->Gjq3->Hxg2->Snr5->Iwq2->Uaw4->Rka7->Tcs5->Qdx2->Ofz7->Hdj0->Biu4->Yh_2->Jp_8->Ukb6->Mks7->Pce0->Xcc3->Qsj8->Ykc6->B_s1->Ewh5->Fk_8->Ao_9->Jwo1->K_i9->Mho4->Kbs5->G_w1->Ysl0
size: 29
Czj1->Zec5->Qxm5->Fln5->Qe_8->Vjf1->Het4->Gye9->Fod2->Hok0->Xni9->U_x0->Ean3->Yag5->Mtw2->Pm_2->Dt_6->Yqz7->Vda4->Miu7->U_j7->Vat3->Acx4->T_n1->Rsv1->Jwn1->Xgr7->Yps7->W_c7->Ysl0
size: 28
Czj1->Iaf0->Ypx3->Wqd1->Rlb5->Rrj4->Qd_9->Msq8->Jzv9->Jr_2->Xgz5->Aiy2->Sqo5->Bpb0->Tnr8->Qkr4->Sfq2->Oux4->Aej4->Uqr5->Trx6->Vrb7->Wfe0->Dvq3->Hfv0->Qgi0->Vcj1->Ocb3->Ysl0
size: 26
Czj1->Bbl2->Tl_8->Zch9->Ftp8->Nwf4->Djz6->Fou7->Unc6->Ot_9->Hmn1->Dod5->Gqu4->Zsq3->Wdu0->Qfc2->Mlo5->Qkj6->Rym9->Iug6->Ffw1->Q_z8->Sq_2->Csg2->Drg8->Sge4->Ysl0
size: 23
Czj1->Xuw0->Gpc1->Br_4->Phr1->Fva4->Euq9->Qqq2->Asd8->Ggr4->Kem7->Khe4->Cha2->Ezw7->Duq8->Pgk1->Tcq1->Emk3->Rzk9->Kkl6->Vpq9->Sv_5->Uvf8->Ysl0
size: 18
Czj1->Fri7->Bhx4->Rlx5->Yh_8->Zls0->Tr_4->Yfs1->Pxs5->Ucn4->Fhe5->Eku9->Tti6->Ni_3->Vxe5->Bbg1->Rgm7->Zv_4->Ysl0
size: 17
Czj1->Swu9->Qpf7->Fvv3->Ii_5->Mxd8->Zmj4->Ykg4->Aaw1->Knj7->Hd_2->Hbi7->Jyv5->Rxg1->Ojf3->Ohd4->Sbx1->Ysl0
size: 16
Czj1->Exs0->Nft2->B_t8->Rzh4->Np_2->Utx7->Ihc7->Wvl7->Sqp9->Cyu7->Bki1->Fpf1->Fvq3->Hjj6->Qyd9->Ysl0


[0m[94m---->releasing ants...
[0m[90m-->1/23
[0m[90m-->1/25
[0m[90m-->1/25
[0m[90m-->1/30
[0m[90m-->1/31
[0m[90m-->1/33
[0m[90m-->1/36
[0m[90m-->1/41
[0m[90m-->1/42
[0m[90m-->1/43
[0mL10-Exs0 L9-Swu9 L8-Fri7 L7-Xuw0 L6-Bbl2 L5-Iaf0 L4-Zec5 L3-Izo6 L2-Mhc9 L1-Hjs4
[90m-->2/23
[0m[90m-->2/25
[0m[90m-->2/25
[0m[90m-->2/30
[0m[90m-->2/31
[0m[90m-->2/33
[0m[90m-->2/36
[0m[90m-->2/41
[0m[90m-->2/42
[0m[90m-->2/43
[0mL20-Exs0 L19-Swu9 L18-Fri7 L17-Xuw0 L16-Bbl2 L15-Iaf0 L14-Zec5 L13-Izo6 L12-Mhc9 L11-Hjs4 L10-Nft2 L9-Qpf7 L8-Bhx4 L7-Gpc1 L6-Tl_8 L5-Ypx3 L4-Qxm5 L3-Dwc1 L2-Vsl8 L1-Ike8
[90m-->3/23
[0m[90m-->3/25
[0m[90m-->3/25
[0m[90m-->3/30
[0m[90m-->3/31
[0m[90m-->3/33
[0m[90m-->3/36
[0m[90m-->3/41
[0m[90m-->3/42
[0m[90m-->3/43
[0mL30-Exs0 L29-Swu9 L28-Fri7 L27-Xuw0 L26-Bbl2 L25-Iaf0 L24-Zec5 L23-Izo6 L22-Mhc9 L21-Hjs4 L20-Nft2 L19-Qpf7 L18-Bhx4 L17-Gpc1 L16-Tl_8 L15-Ypx3 L14-Qxm5 L13-Dwc1 L12-Vsl8 L11-Ike8 L10-B_t8 L9-Fvv3 L8-Rlx5 L7-Br_4 L6-Zch9 L5-Wqd1 L4-Fln5 L3-Z_e5 L2-V__8 L1-Fpb9
[90m-->4/23
[0m[90m-->4/25
[0m[90m-->4/25
[0m[90m-->4/30
[0m[90m-->4/31
[0m[90m-->4/33
[0m[90m-->4/36
[0m[90m-->4/41
[0m[90m-->4/42
[0m[90m-->4/43
[0mL40-Exs0 L39-Swu9 L38-Fri7 L37-Xuw0 L36-Bbl2 L35-Iaf0 L34-Zec5 L33-Izo6 L32-Mhc9 L31-Hjs4 L30-Nft2 L29-Qpf7 L28-Bhx4 L27-Gpc1 L26-Tl_8 L25-Ypx3 L24-Qxm5 L23-Dwc1 L22-Vsl8 L21-Ike8 L20-B_t8 L19-Fvv3 L18-Rlx5 L17-Br_4 L16-Zch9 L15-Wqd1 L14-Fln5 L13-Z_e5 L12-V__8 L11-Fpb9 L10-Rzh4 L9-Ii_5 L8-Yh_8 L7-Phr1 L6-Ftp8 L5-Rlb5 L4-Qe_8 L3-Vyq2 L2-Apf9 L1-P__3
[90m-->5/23
[0m[90m-->5/25
[0m[90m-->5/25
[0m[90m-->5/30
[0m[90m-->5/31
[0m[90m-->5/33
[0m[90m-->5/36
[0m[90m-->5/41
[0m[90m-->5/42
[0m[90m-->5/43
[0mL50-Exs0 L49-Swu9 L48-Fri7 L47-Xuw0 L46-Bbl2 L45-Iaf0 L44-Zec5 L43-Izo6 L42-Mhc9 L41-Hjs4 L40-Nft2 L39-Qpf7 L38-Bhx4 L37-Gpc1 L36-Tl_8 L35-Ypx3 L34-Qxm5 L33-Dwc1 L32-Vsl8 L31-Ike8 L30-B_t8 L29-Fvv3 L28-Rlx5 L27-Br_4 L26-Zch9 L25-Wqd1 L24-Fln5 L23-Z_e5 L22-V__8 L21-Fpb9 L20-Rzh4 L19-Ii_5 L18-Yh_8 L17-Phr1 L16-Ftp8 L15-Rlb5 L14-Qe_8 L13-Vyq2 L12-Apf9 L11-P__3 L10-Np_2 L9-Mxd8 L8-Zls0 L7-Fva4 L6-Nwf4 L5-Rrj4 L4-Vjf1 L3-Vf_8 L2-Qwv9 L1-Yst4
[90m-->6/23
[0m[90m-->6/25
[0m[90m-->6/25
[0m[90m-->6/30
[0m[90m-->6/31
[0m[90m-->6/33
[0m[90m-->6/36
[0m[90m-->6/41
[0m[90m-->6/42
[0m[90m-->6/43
[0mL60-Exs0 L59-Swu9 L58-Fri7 L57-Xuw0 L56-Bbl2 L55-Iaf0 L54-Zec5 L53-Izo6 L52-Mhc9 L51-Hjs4 L50-Nft2 L49-Qpf7 L48-Bhx4 L47-Gpc1 L46-Tl_8 L45-Ypx3 L44-Qxm5 L43-Dwc1 L42-Vsl8 L41-Ike8 L40-B_t8 L39-Fvv3 L38-Rlx5 L37-Br_4 L36-Zch9 L35-Wqd1 L34-Fln5 L33-Z_e5 L32-V__8 L31-Fpb9 L30-Rzh4 L29-Ii_5 L28-Yh_8 L27-Phr1 L26-Ftp8 L25-Rlb5 L24-Qe_8 L23-Vyq2 L22-Apf9 L21-P__3 L20-Np_2 L19-Mxd8 L18-Zls0 L17-Fva4 L16-Nwf4 L15-Rrj4 L14-Vjf1 L13-Vf_8 L12-Qwv9 L11-Yst4 L10-Utx7 L9-Zmj4 L8-Tr_4 L7-Euq9 L6-Djz6 L5-Qd_9 L4-Het4 L3-Gjq3 L2-Gop4 L1-Rtg8
[90m-->7/23
[0m[90m-->7/25
[0m[90m-->7/25
[0m[90m-->7/30
[0m[90m-->7/31
[0m[90m-->7/33
[0m[90m-->7/36
[0m[90m-->7/41
[0m[90m-->7/42
[0m[90m-->7/43
[0mL70-Exs0 L69-Swu9 L68-Fri7 L67-Xuw0 L66-Bbl2 L65-Iaf0 L64-Zec5 L63-Izo6 L62-Mhc9 L61-Hjs4 L60-Nft2 L59-Qpf7 L58-Bhx4 L57-Gpc1 L56-Tl_8 L55-Ypx3 L54-Qxm5 L53-Dwc1 L52-Vsl8 L51-Ike8 L50-B_t8 L49-Fvv3 L48-Rlx5 L47-Br_4 L46-Zch9 L45-Wqd1 L44-Fln5 L43-Z_e5 L42-V__8 L41-Fpb9 L40-Rzh4 L39-Ii_5 L38-Yh_8 L37-Phr1 L36-Ftp8 L35-Rlb5 L34-Qe_8 L33-Vyq2 L32-Apf9 L31-P__3 L30-Np_2 L29-Mxd8 L28-Zls0 L27-Fva4 L26-Nwf4 L25-Rrj4 L24-Vjf1 L23-Vf_8 L22-Qwv9 L21-Yst4 L20-Utx7 L19-Zmj4 L18-Tr_4 L17-Euq9 L16-Djz6 L15-Qd_9 L14-Het4 L13-Gjq3 L12-Gop4 L11-Rtg8 L10-Ihc7 L9-Ykg4 L8-Yfs1 L7-Qqq2 L6-Fou7 L5-Msq8 L4-Gye9 L3-Hxg2 L2-W_f6 L1-Vue5
[90m-->8/23
[0m[90m-->8/25
[0m[90m-->8/25
[0m[90m-->8/30
[0m[90m-->8/31
[0m[90m-->8/33
[0m[90m-->8/36
[0m[90m-->8/41
[0m[90m-->8/42
[0m[90m-->8/43
[0mL80-Exs0 L79-Swu9 L78-Fri7 L77-Xuw0 L76-Bbl2 L75-Iaf0 L74-Zec5 L73-Izo6 L72-Mhc9 L71-Hjs4 L70-Nft2 L69-Qpf7 L68-Bhx4 L67-Gpc1 L66-Tl_8 L65-Ypx3 L64-Qxm5 L63-Dwc1 L62-Vsl8 L61-Ike8 L60-B_t8 L59-Fvv3 L58-Rlx5 L57-Br_4 L56-Zch9 L55-Wqd1 L54-Fln5 L53-Z_e5 L52-V__8 L51-Fpb9 L50-Rzh4 L49-Ii_5 L48-Yh_8 L47-Phr1 L46-Ftp8 L45-Rlb5 L44-Qe_8 L43-Vyq2 L42-Apf9 L41-P__3 L40-Np_2 L39-Mxd8 L38-Zls0 L37-Fva4 L36-Nwf4 L35-Rrj4 L34-Vjf1 L33-Vf_8 L32-Qwv9 L31-Yst4 L30-Utx7 L29-Zmj4 L28-Tr_4 L27-Euq9 L26-Djz6 L25-Qd_9 L24-Het4 L23-Gjq3 L22-Gop4 L21-Rtg8 L20-Ihc7 L19-Ykg4 L18-Yfs1 L17-Qqq2 L16-Fou7 L15-Msq8 L14-Gye9 L13-Hxg2 L12-W_f6 L11-Vue5 L10-Wvl7 L9-Aaw1 L8-Pxs5 L7-Asd8 L6-Unc6 L5-Jzv9 L4-Fod2 L3-Snr5 L2-Zrx7 L1-Awd3
[90m-->9/23
[0m[90m-->9/25
[0m[90m-->9/25
[0m[90m-->9/30
[0m[90m-->9/31
[0m[90m-->9/33
[0m[90m-->9/36
[0m[90m-->9/41
[0m[90m-->9/42
[0m[90m-->9/43
[0mL90-Exs0 L89-Swu9 L88-Fri7 L87-Xuw0 L86-Bbl2 L85-Iaf0 L84-Zec5 L83-Izo6 L82-Mhc9 L81-Hjs4 L80-Nft2 L79-Qpf7 L78-Bhx4 L77-Gpc1 L76-Tl_8 L75-Ypx3 L74-Qxm5 L73-Dwc1 L72-Vsl8 L71-Ike8 L70-B_t8 L69-Fvv3 L68-Rlx5 L67-Br_4 L66-Zch9 L65-Wqd1 L64-Fln5 L63-Z_e5 L62-V__8 L61-Fpb9 L60-Rzh4 L59-Ii_5 L58-Yh_8 L57-Phr1 L56-Ftp8 L55-Rlb5 L54-Qe_8 L53-Vyq2 L52-Apf9 L51-P__3 L50-Np_2 L49-Mxd8 L48-Zls0 L47-Fva4 L46-Nwf4 L45-Rrj4 L44-Vjf1 L43-Vf_8 L42-Qwv9 L41-Yst4 L40-Utx7 L39-Zmj4 L38-Tr_4 L37-Euq9 L36-Djz6 L35-Qd_9 L34-Het4 L33-Gjq3 L32-Gop4 L31-Rtg8 L30-Ihc7 L29-Ykg4 L28-Yfs1 L27-Qqq2 L26-Fou7 L25-Msq8 L24-Gye9 L23-Hxg2 L22-W_f6 L21-Vue5 L20-Wvl7 L19-Aaw1 L18-Pxs5 L17-Asd8 L16-Unc6 L15-Jzv9 L14-Fod2 L13-Snr5 L12-Zrx7 L11-Awd3 L10-Sqp9 L9-Knj7 L8-Ucn4 L7-Ggr4 L6-Ot_9 L5-Jr_2 L4-Hok0 L3-Iwq2 L2-Wdy1 L1-Js_6
[90m-->10/23
[0m[90m-->10/25
[0m[90m-->10/25
[0m[90m-->10/30
[0m[90m-->10/31
[0m[90m-->10/33
[0m[90m-->10/36
[0m[90m-->10/41
[0m[90m-->10/42
[0m[90m-->10/43
[0mL100-Exs0 L99-Swu9 L98-Fri7 L97-Xuw0 L96-Bbl2 L95-Iaf0 L94-Zec5 L93-Izo6 L92-Mhc9 L91-Hjs4 L90-Nft2 L89-Qpf7 L88-Bhx4 L87-Gpc1 L86-Tl_8 L85-Ypx3 L84-Qxm5 L83-Dwc1 L82-Vsl8 L81-Ike8 L80-B_t8 L79-Fvv3 L78-Rlx5 L77-Br_4 L76-Zch9 L75-Wqd1 L74-Fln5 L73-Z_e5 L72-V__8 L71-Fpb9 L70-Rzh4 L69-Ii_5 L68-Yh_8 L67-Phr1 L66-Ftp8 L65-Rlb5 L64-Qe_8 L63-Vyq2 L62-Apf9 L61-P__3 L60-Np_2 L59-Mxd8 L58-Zls0 L57-Fva4 L56-Nwf4 L55-Rrj4 L54-Vjf1 L53-Vf_8 L52-Qwv9 L51-Yst4 L50-Utx7 L49-Zmj4 L48-Tr_4 L47-Euq9 L46-Djz6 L45-Qd_9 L44-Het4 L43-Gjq3 L42-Gop4 L41-Rtg8 L40-Ihc7 L39-Ykg4 L38-Yfs1 L37-Qqq2 L36-Fou7 L35-Msq8 L34-Gye9 L33-Hxg2 L32-W_f6 L31-Vue5 L30-Wvl7 L29-Aaw1 L28-Pxs5 L27-Asd8 L26-Unc6 L25-Jzv9 L24-Fod2 L23-Snr5 L22-Zrx7 L21-Awd3 L20-Sqp9 L19-Knj7 L18-Ucn4 L17-Ggr4 L16-Ot_9 L15-Jr_2 L14-Hok0 L13-Iwq2 L12-Wdy1 L11-Js_6 L10-Cyu7 L9-Hd_2 L8-Fhe5 L7-Kem7 L6-Hmn1 L5-Xgz5 L4-Xni9 L3-Uaw4 L2-Kmb6 L1-Cjy6
[90m-->11/23
[0m[90m-->11/25
[0m[90m-->11/25
[0m[90m-->11/30
[0m[90m-->11/31
[0m[90m-->11/33
[0m[90m-->11/36
[0m[90m-->11/41
[0m[90m-->11/42
[0m[90m-->11/43
[0mL110-Exs0 L109-Swu9 L108-Fri7 L107-Xuw0 L106-Bbl2 L105-Iaf0 L104-Zec5 L103-Izo6 L102-Mhc9 L101-Hjs4 L100-Nft2 L99-Qpf7 L98-Bhx4 L97-Gpc1 L96-Tl_8 L95-Ypx3 L94-Qxm5 L93-Dwc1 L92-Vsl8 L91-Ike8 L90-B_t8 L89-Fvv3 L88-Rlx5 L87-Br_4 L86-Zch9 L85-Wqd1 L84-Fln5 L83-Z_e5 L82-V__8 L81-Fpb9 L80-Rzh4 L79-Ii_5 L78-Yh_8 L77-Phr1 L76-Ftp8 L75-Rlb5 L74-Qe_8 L73-Vyq2 L72-Apf9 L71-P__3 L70-Np_2 L69-Mxd8 L68-Zls0 L67-Fva4 L66-Nwf4 L65-Rrj4 L64-Vjf1 L63-Vf_8 L62-Qwv9 L61-Yst4 L60-Utx7 L59-Zmj4 L58-Tr_4 L57-Euq9 L56-Djz6 L55-Qd_9 L54-Het4 L53-Gjq3 L52-Gop4 L51-Rtg8 L50-Ihc7 L49-Ykg4 L48-Yfs1 L47-Qqq2 L46-Fou7 L45-Msq8 L44-Gye9 L43-Hxg2 L42-W_f6 L41-Vue5 L40-Wvl7 L39-Aaw1 L38-Pxs5 L37-Asd8 L36-Unc6 L35-Jzv9 L34-Fod2 L33-Snr5 L32-Zrx7 L31-Awd3 L30-Sqp9 L29-Knj7 L28-Ucn4 L27-Ggr4 L26-Ot_9 L25-Jr_2 L24-Hok0 L23-Iwq2 L22-Wdy1 L21-Js_6 L20-Cyu7 L19-Hd_2 L18-Fhe5 L17-Kem7 L16-Hmn1 L15-Xgz5 L14-Xni9 L13-Uaw4 L12-Kmb6 L11-Cjy6 L10-Bki1 L9-Hbi7 L8-Eku9 L7-Khe4 L6-Dod5 L5-Aiy2 L4-U_x0 L3-Rka7 L2-Sgp8 L1-Jpd6
[90m-->12/23
[0m[90m-->12/25
[0m[90m-->12/25
[0m[90m-->12/30
[0m[90m-->12/31
[0m[90m-->12/33
[0m[90m-->12/36
[0m[90m-->12/41
[0m[90m-->12/42
[0m[90m-->12/43
[0mL120-Exs0 L119-Swu9 L118-Fri7 L117-Xuw0 L116-Bbl2 L115-Iaf0 L114-Zec5 L113-Izo6 L112-Mhc9 L111-Hjs4 L110-Nft2 L109-Qpf7 L108-Bhx4 L107-Gpc1 L106-Tl_8 L105-Ypx3 L104-Qxm5 L103-Dwc1 L102-Vsl8 L101-Ike8 L100-B_t8 L99-Fvv3 L98-Rlx5 L97-Br_4 L96-Zch9 L95-Wqd1 L94-Fln5 L93-Z_e5 L92-V__8 L91-Fpb9 L90-Rzh4 L89-Ii_5 L88-Yh_8 L87-Phr1 L86-Ftp8 L85-Rlb5 L84-Qe_8 L83-Vyq2 L82-Apf9 L81-P__3 L80-Np_2 L79-Mxd8 L78-Zls0 L77-Fva4 L76-Nwf4 L75-Rrj4 L74-Vjf1 L73-Vf_8 L72-Qwv9 L71-Yst4 L70-Utx7 L69-Zmj4 L68-Tr_4 L67-Euq9 L66-Djz6 L65-Qd_9 L64-Het4 L63-Gjq3 L62-Gop4 L61-Rtg8 L60-Ihc7 L59-Ykg4 L58-Yfs1 L57-Qqq2 L56-Fou7 L55-Msq8 L54-Gye9 L53-Hxg2 L52-W_f6 L51-Vue5 L50-Wvl7 L49-Aaw1 L48-Pxs5 L47-Asd8 L46-Unc6 L45-Jzv9 L44-Fod2 L43-Snr5 L42-Zrx7 L41-Awd3 L40-Sqp9 L39-Knj7 L38-Ucn4 L37-Ggr4 L36-Ot_9 L35-Jr_2 L34-Hok0 L33-Iwq2 L32-Wdy1 L31-Js_6 L30-Cyu7 L29-Hd_2 L28-Fhe5 L27-Kem7 L26-Hmn1 L25-Xgz5 L24-Xni9 L23-Uaw4 L22-Kmb6 L21-Cjy6 L20-Bki1 L19-Hbi7 L18-Eku9 L17-Khe4 L16-Dod5 L15-Aiy2 L14-U_x0 L13-Rka7 L12-Sgp8 L11-Jpd6 L10-Fpf1 L9-Jyv5 L8-Tti6 L7-Cha2 L6-Gqu4 L5-Sqo5 L4-Ean3 L3-Tcs5 L2-Fb_9 L1-Tfr6
[90m-->13/23
[0m[90m-->13/25
[0m[90m-->13/25
[0m[90m-->13/30
[0m[90m-->13/31
[0m[90m-->13/33
[0m[90m-->13/36
[0m[90m-->13/41
[0m[90m-->13/42
[0m[90m-->13/43
[0mL130-Exs0 L129-Swu9 L128-Fri7 L127-Xuw0 L126-Bbl2 L125-Iaf0 L124-Zec5 L123-Izo6 L122-Mhc9 L121-Hjs4 L120-Nft2 L119-Qpf7 L118-Bhx4 L117-Gpc1 L116-Tl_8 L115-Ypx3 L114-Qxm5 L113-Dwc1 L112-Vsl8 L111-Ike8 L110-B_t8 L109-Fvv3 L108-Rlx5 L107-Br_4 L106-Zch9 L105-Wqd1 L104-Fln5 L103-Z_e5 L102-V__8 L101-Fpb9 L100-Rzh4 L99-Ii_5 L98-Yh_8 L97-Phr1 L96-Ftp8 L95-Rlb5 L94-Qe_8 L93-Vyq2 L92-Apf9 L91-P__3 L90-Np_2 L89-Mxd8 L88-Zls0 L87-Fva4 L86-Nwf4 L85-Rrj4 L84-Vjf1 L83-Vf_8 L82-Qwv9 L81-Yst4 L80-Utx7 L79-Zmj4 L78-Tr_4 L77-Euq9 L76-Djz6 L75-Qd_9 L74-Het4 L73-Gjq3 L72-Gop4 L71-Rtg8 L70-Ihc7 L69-Ykg4 L68-Yfs1 L67-Qqq2 L66-Fou7 L65-Msq8 L64-Gye9 L63-Hxg2 L62-W_f6 L61-Vue5 L60-Wvl7 L59-Aaw1 L58-Pxs5 L57-Asd8 L56-Unc6 L55-Jzv9 L54-Fod2 L53-Snr5 L52-Zrx7 L51-Awd3 L50-Sqp9 L49-Knj7 L48-Ucn4 L47-Ggr4 L46-Ot_9 L45-Jr_2 L44-Hok0 L43-Iwq2 L42-Wdy1 L41-Js_6 L40-Cyu7 L39-Hd_2 L38-Fhe5 L37-Kem7 L36-Hmn1 L35-Xgz5 L34-Xni9 L33-Uaw4 L32-Kmb6 L31-Cjy6 L30-Bki1 L29-Hbi7 L28-Eku9 L27-Khe4 L26-Dod5 L25-Aiy2 L24-U_x0 L23-Rka7 L22-Sgp8 L21-Jpd6 L20-Fpf1 L19-Jyv5 L18-Tti6 L17-Cha2 L16-Gqu4 L15-Sqo5 L14-Ean3 L13-Tcs5 L12-Fb_9 L11-Tfr6 L10-Fvq3 L9-Rxg1 L8-Ni_3 L7-Ezw7 L6-Zsq3 L5-Bpb0 L4-Yag5 L3-Qdx2 L2-Sfs6 L1-Je_3
[90m-->14/23
[0m[90m-->14/25
[0m[90m-->14/25
[0m[90m-->14/30
[0m[90m-->14/31
[0m[90m-->14/33
[0m[90m-->14/36
[0m[90m-->14/41
[0m[90m-->14/42
[0m[90m-->14/43
[0mL140-Exs0 L139-Swu9 L138-Fri7 L137-Xuw0 L136-Bbl2 L135-Iaf0 L134-Zec5 L133-Izo6 L132-Mhc9 L131-Hjs4 L130-Nft2 L129-Qpf7 L128-Bhx4 L127-Gpc1 L126-Tl_8 L125-Ypx3 L124-Qxm5 L123-Dwc1 L122-Vsl8 L121-Ike8 L120-B_t8 L119-Fvv3 L118-Rlx5 L117-Br_4 L116-Zch9 L115-Wqd1 L114-Fln5 L113-Z_e5 L112-V__8 L111-Fpb9 L110-Rzh4 L109-Ii_5 L108-Yh_8 L107-Phr1 L106-Ftp8 L105-Rlb5 L104-Qe_8 L103-Vyq2 L102-Apf9 L101-P__3 L100-Np_2 L99-Mxd8 L98-Zls0 L97-Fva4 L96-Nwf4 L95-Rrj4 L94-Vjf1 L93-Vf_8 L92-Qwv9 L91-Yst4 L90-Utx7 L89-Zmj4 L88-Tr_4 L87-Euq9 L86-Djz6 L85-Qd_9 L84-Het4 L83-Gjq3 L82-Gop4 L81-Rtg8 L80-Ihc7 L79-Ykg4 L78-Yfs1 L77-Qqq2 L76-Fou7 L75-Msq8 L74-Gye9 L73-Hxg2 L72-W_f6 L71-Vue5 L70-Wvl7 L69-Aaw1 L68-Pxs5 L67-Asd8 L66-Unc6 L65-Jzv9 L64-Fod2 L63-Snr5 L62-Zrx7 L61-Awd3 L60-Sqp9 L59-Knj7 L58-Ucn4 L57-Ggr4 L56-Ot_9 L55-Jr_2 L54-Hok0 L53-Iwq2 L52-Wdy1 L51-Js_6 L50-Cyu7 L49-Hd_2 L48-Fhe5 L47-Kem7 L46-Hmn1 L45-Xgz5 L44-Xni9 L43-Uaw4 L42-Kmb6 L41-Cjy6 L40-Bki1 L39-Hbi7 L38-Eku9 L37-Khe4 L36-Dod5 L35-Aiy2 L34-U_x0 L33-Rka7 L32-Sgp8 L31-Jpd6 L30-Fpf1 L29-Jyv5 L28-Tti6 L27-Cha2 L26-Gqu4 L25-Sqo5 L24-Ean3 L23-Tcs5 L22-Fb_9 L21-Tfr6 L20-Fvq3 L19-Rxg1 L18-Ni_3 L17-Ezw7 L16-Zsq3 L15-Bpb0 L14-Yag5 L13-Qdx2 L12-Sfs6 L11-Je_3 L10-Hjj6 L9-Ojf3 L8-Vxe5 L7-Duq8 L6-Wdu0 L5-Tnr8 L4-Mtw2 L3-Ofz7 L2-Kg_0 L1-Bxp0
[90m-->15/23
[0m[90m-->15/25
[0m[90m-->15/25
[0m[90m-->15/30
[0m[90m-->15/31
[0m[90m-->15/33
[0m[90m-->15/36
[0m[90m-->15/41
[0m[90m-->15/42
[0m[90m-->15/43
[0mL150-Exs0 L149-Swu9 L148-Fri7 L147-Xuw0 L146-Bbl2 L145-Iaf0 L144-Zec5 L143-Izo6 L142-Mhc9 L141-Hjs4 L140-Nft2 L139-Qpf7 L138-Bhx4 L137-Gpc1 L136-Tl_8 L135-Ypx3 L134-Qxm5 L133-Dwc1 L132-Vsl8 L131-Ike8 L130-B_t8 L129-Fvv3 L128-Rlx5 L127-Br_4 L126-Zch9 L125-Wqd1 L124-Fln5 L123-Z_e5 L122-V__8 L121-Fpb9 L120-Rzh4 L119-Ii_5 L118-Yh_8 L117-Phr1 L116-Ftp8 L115-Rlb5 L114-Qe_8 L113-Vyq2 L112-Apf9 L111-P__3 L110-Np_2 L109-Mxd8 L108-Zls0 L107-Fva4 L106-Nwf4 L105-Rrj4 L104-Vjf1 L103-Vf_8 L102-Qwv9 L101-Yst4 L100-Utx7 L99-Zmj4 L98-Tr_4 L97-Euq9 L96-Djz6 L95-Qd_9 L94-Het4 L93-Gjq3 L92-Gop4 L91-Rtg8 L90-Ihc7 L89-Ykg4 L88-Yfs1 L87-Qqq2 L86-Fou7 L85-Msq8 L84-Gye9 L83-Hxg2 L82-W_f6 L81-Vue5 L80-Wvl7 L79-Aaw1 L78-Pxs5 L77-Asd8 L76-Unc6 L75-Jzv9 L74-Fod2 L73-Snr5 L72-Zrx7 L71-Awd3 L70-Sqp9 L69-Knj7 L68-Ucn4 L67-Ggr4 L66-Ot_9 L65-Jr_2 L64-Hok0 L63-Iwq2 L62-Wdy1 L61-Js_6 L60-Cyu7 L59-Hd_2 L58-Fhe5 L57-Kem7 L56-Hmn1 L55-Xgz5 L54-Xni9 L53-Uaw4 L52-Kmb6 L51-Cjy6 L50-Bki1 L49-Hbi7 L48-Eku9 L47-Khe4 L46-Dod5 L45-Aiy2 L44-U_x0 L43-Rka7 L42-Sgp8 L41-Jpd6 L40-Fpf1 L39-Jyv5 L38-Tti6 L37-Cha2 L36-Gqu4 L35-Sqo5 L34-Ean3 L33-Tcs5 L32-Fb_9 L31-Tfr6 L30-Fvq3 L29-Rxg1 L28-Ni_3 L27-Ezw7 L26-Zsq3 L25-Bpb0 L24-Yag5 L23-Qdx2 L22-Sfs6 L21-Je_3 L20-Hjj6 L19-Ojf3 L18-Vxe5 L17-Duq8 L16-Wdu0 L15-Tnr8 L14-Mtw2 L13-Ofz7 L12-Kg_0 L11-Bxp0 L10-Qyd9 L9-Ohd4 L8-Bbg1 L7-Pgk1 L6-Qfc2 L5-Qkr4 L4-Pm_2 L3-Hdj0 L2-Ye_5 L1-U_h6
[90m-->16/23
[0m[90m-->16/25
[0m[90m-->16/25
[0m[90m-->16/30
[0m[90m-->16/31
[0m[90m-->16/33
[0m[90m-->16/36
[0m[90m-->16/41
[0m[90m-->16/42
[0m[90m-->16/43
[0mL160-Exs0 L159-Swu9 L158-Fri7 L157-Xuw0 L156-Bbl2 L155-Iaf0 L154-Zec5 L153-Izo6 L152-Mhc9 L151-Hjs4 L150-Nft2 L149-Qpf7 L148-Bhx4 L147-Gpc1 L146-Tl_8 L145-Ypx3 L144-Qxm5 L143-Dwc1 L142-Vsl8 L141-Ike8 L140-B_t8 L139-Fvv3 L138-Rlx5 L137-Br_4 L136-Zch9 L135-Wqd1 L134-Fln5 L133-Z_e5 L132-V__8 L131-Fpb9 L130-Rzh4 L129-Ii_5 L128-Yh_8 L127-Phr1 L126-Ftp8 L125-Rlb5 L124-Qe_8 L123-Vyq2 L122-Apf9 L121-P__3 L120-Np_2 L119-Mxd8 L118-Zls0 L117-Fva4 L116-Nwf4 L115-Rrj4 L114-Vjf1 L113-Vf_8 L112-Qwv9 L111-Yst4 L110-Utx7 L109-Zmj4 L108-Tr_4 L107-Euq9 L106-Djz6 L105-Qd_9 L104-Het4 L103-Gjq3 L102-Gop4 L101-Rtg8 L100-Ihc7 L99-Ykg4 L98-Yfs1 L97-Qqq2 L96-Fou7 L95-Msq8 L94-Gye9 L93-Hxg2 L92-W_f6 L91-Vue5 L90-Wvl7 L89-Aaw1 L88-Pxs5 L87-Asd8 L86-Unc6 L85-Jzv9 L84-Fod2 L83-Snr5 L82-Zrx7 L81-Awd3 L80-Sqp9 L79-Knj7 L78-Ucn4 L77-Ggr4 L76-Ot_9 L75-Jr_2 L74-Hok0 L73-Iwq2 L72-Wdy1 L71-Js_6 L70-Cyu7 L69-Hd_2 L68-Fhe5 L67-Kem7 L66-Hmn1 L65-Xgz5 L64-Xni9 L63-Uaw4 L62-Kmb6 L61-Cjy6 L60-Bki1 L59-Hbi7 L58-Eku9 L57-Khe4 L56-Dod5 L55-Aiy2 L54-U_x0 L53-Rka7 L52-Sgp8 L51-Jpd6 L50-Fpf1 L49-Jyv5 L48-Tti6 L47-Cha2 L46-Gqu4 L45-Sqo5 L44-Ean3 L43-Tcs5 L42-Fb_9 L41-Tfr6 L40-Fvq3 L39-Rxg1 L38-Ni_3 L37-Ezw7 L36-Zsq3 L35-Bpb0 L34-Yag5 L33-Qdx2 L32-Sfs6 L31-Je_3 L30-Hjj6 L29-Ojf3 L28-Vxe5 L27-Duq8 L26-Wdu0 L25-Tnr8 L24-Mtw2 L23-Ofz7 L22-Kg_0 L21-Bxp0 L20-Qyd9 L19-Ohd4 L18-Bbg1 L17-Pgk1 L16-Qfc2 L15-Qkr4 L14-Pm_2 L13-Hdj0 L12-Ye_5 L11-U_h6 L10-Ysl0 L9-Sbx1 L8-Rgm7 L7-Tcq1 L6-Mlo5 L5-Sfq2 L4-Dt_6 L3-Biu4 L2-Fmd1 L1-Jjd9
[90m-->17/23
[0m[90m-->17/25
[0m[90m-->17/25
[0m[90m-->17/30
[0m[90m-->17/31
[0m[90m-->17/33
[0m[90m-->17/36
[0m[90m-->17/41
[0m[90m-->17/42
[0m[90m-->17/43
[0mL170-Exs0 L169-Swu9 L168-Fri7 L167-Xuw0 L166-Bbl2 L165-Iaf0 L164-Zec5 L163-Izo6 L162-Mhc9 L161-Hjs4 L160-Nft2 L159-Qpf7 L158-Bhx4 L157-Gpc1 L156-Tl_8 L155-Ypx3 L154-Qxm5 L153-Dwc1 L152-Vsl8 L151-Ike8 L150-B_t8 L149-Fvv3 L148-Rlx5 L147-Br_4 L146-Zch9 L145-Wqd1 L144-Fln5 L143-Z_e5 L142-V__8 L141-Fpb9 L140-Rzh4 L139-Ii_5 L138-Yh_8 L137-Phr1 L136-Ftp8 L135-Rlb5 L134-Qe_8 L133-Vyq2 L132-Apf9 L131-P__3 L130-Np_2 L129-Mxd8 L128-Zls0 L127-Fva4 L126-Nwf4 L125-Rrj4 L124-Vjf1 L123-Vf_8 L122-Qwv9 L121-Yst4 L120-Utx7 L119-Zmj4 L118-Tr_4 L117-Euq9 L116-Djz6 L115-Qd_9 L114-Het4 L113-Gjq3 L112-Gop4 L111-Rtg8 L110-Ihc7 L109-Ykg4 L108-Yfs1 L107-Qqq2 L106-Fou7 L105-Msq8 L104-Gye9 L103-Hxg2 L102-W_f6 L101-Vue5 L100-Wvl7 L99-Aaw1 L98-Pxs5 L97-Asd8 L96-Unc6 L95-Jzv9 L94-Fod2 L93-Snr5 L92-Zrx7 L91-Awd3 L90-Sqp9 L89-Knj7 L88-Ucn4 L87-Ggr4 L86-Ot_9 L85-Jr_2 L84-Hok0 L83-Iwq2 L82-Wdy1 L81-Js_6 L80-Cyu7 L79-Hd_2 L78-Fhe5 L77-Kem7 L76-Hmn1 L75-Xgz5 L74-Xni9 L73-Uaw4 L72-Kmb6 L71-Cjy6 L70-Bki1 L69-Hbi7 L68-Eku9 L67-Khe4 L66-Dod5 L65-Aiy2 L64-U_x0 L63-Rka7 L62-Sgp8 L61-Jpd6 L60-Fpf1 L59-Jyv5 L58-Tti6 L57-Cha2 L56-Gqu4 L55-Sqo5 L54-Ean3 L53-Tcs5 L52-Fb_9 L51-Tfr6 L50-Fvq3 L49-Rxg1 L48-Ni_3 L47-Ezw7 L46-Zsq3 L45-Bpb0 L44-Yag5 L43-Qdx2 L42-Sfs6 L41-Je_3 L40-Hjj6 L39-Ojf3 L38-Vxe5 L37-Duq8 L36-Wdu0 L35-Tnr8 L34-Mtw2 L33-Ofz7 L32-Kg_0 L31-Bxp0 L30-Qyd9 L29-Ohd4 L28-Bbg1 L27-Pgk1 L26-Qfc2 L25-Qkr4 L24-Pm_2 L23-Hdj0 L22-Ye_5 L21-U_h6 L20-Ysl0 L19-Sbx1 L18-Rgm7 L17-Tcq1 L16-Mlo5 L15-Sfq2 L14-Dt_6 L13-Biu4 L12-Fmd1 L11-Jjd9 L9-Ysl0 L8-Zv_4 L7-Emk3 L6-Qkj6 L5-Oux4 L4-Yqz7 L3-Yh_2 L2-Czl9 L1-Gow6
[90m-->18/23
[0m[90m-->18/25
[0m[90m-->18/25
[0m[90m-->18/30
[0m[90m-->18/31
[0m[90m-->18/33
[0m[90m-->18/36
[0m[90m-->18/41
[0m[90m-->18/42
[0m[90m-->18/43
[0mL180-Exs0 L179-Swu9 L178-Fri7 L177-Xuw0 L176-Bbl2 L175-Iaf0 L174-Zec5 L173-Izo6 L172-Mhc9 L171-Hjs4 L170-Nft2 L169-Qpf7 L168-Bhx4 L167-Gpc1 L166-Tl_8 L165-Ypx3 L164-Qxm5 L163-Dwc1 L162-Vsl8 L161-Ike8 L160-B_t8 L159-Fvv3 L158-Rlx5 L157-Br_4 L156-Zch9 L155-Wqd1 L154-Fln5 L153-Z_e5 L152-V__8 L151-Fpb9 L150-Rzh4 L149-Ii_5 L148-Yh_8 L147-Phr1 L146-Ftp8 L145-Rlb5 L144-Qe_8 L143-Vyq2 L142-Apf9 L141-P__3 L140-Np_2 L139-Mxd8 L138-Zls0 L137-Fva4 L136-Nwf4 L135-Rrj4 L134-Vjf1 L133-Vf_8 L132-Qwv9 L131-Yst4 L130-Utx7 L129-Zmj4 L128-Tr_4 L127-Euq9 L126-Djz6 L125-Qd_9 L124-Het4 L123-Gjq3 L122-Gop4 L121-Rtg8 L120-Ihc7 L119-Ykg4 L118-Yfs1 L117-Qqq2 L116-Fou7 L115-Msq8 L114-Gye9 L113-Hxg2 L112-W_f6 L111-Vue5 L110-Wvl7 L109-Aaw1 L108-Pxs5 L107-Asd8 L106-Unc6 L105-Jzv9 L104-Fod2 L103-Snr5 L102-Zrx7 L101-Awd3 L100-Sqp9 L99-Knj7 L98-Ucn4 L97-Ggr4 L96-Ot_9 L95-Jr_2 L94-Hok0 L93-Iwq2 L92-Wdy1 L91-Js_6 L90-Cyu7 L89-Hd_2 L88-Fhe5 L87-Kem7 L86-Hmn1 L85-Xgz5 L84-Xni9 L83-Uaw4 L82-Kmb6 L81-Cjy6 L80-Bki1 L79-Hbi7 L78-Eku9 L77-Khe4 L76-Dod5 L75-Aiy2 L74-U_x0 L73-Rka7 L72-Sgp8 L71-Jpd6 L70-Fpf1 L69-Jyv5 L68-Tti6 L67-Cha2 L66-Gqu4 L65-Sqo5 L64-Ean3 L63-Tcs5 L62-Fb_9 L61-Tfr6 L60-Fvq3 L59-Rxg1 L58-Ni_3 L57-Ezw7 L56-Zsq3 L55-Bpb0 L54-Yag5 L53-Qdx2 L52-Sfs6 L51-Je_3 L50-Hjj6 L49-Ojf3 L48-Vxe5 L47-Duq8 L46-Wdu0 L45-Tnr8 L44-Mtw2 L43-Ofz7 L42-Kg_0 L41-Bxp0 L40-Qyd9 L39-Ohd4 L38-Bbg1 L37-Pgk1 L36-Qfc2 L35-Qkr4 L34-Pm_2 L33-Hdj0 L32-Ye_5 L31-U_h6 L30-Ysl0 L29-Sbx1 L28-Rgm7 L27-Tcq1 L26-Mlo5 L25-Sfq2 L24-Dt_6 L23-Biu4 L22-Fmd1 L21-Jjd9 L19-Ysl0 L18-Zv_4 L17-Emk3 L16-Qkj6 L15-Oux4 L14-Yqz7 L13-Yh_2 L12-Czl9 L11-Gow6 L8-Ysl0 L7-Rzk9 L6-Rym9 L5-Aej4 L4-Vda4 L3-Jp_8 L2-Kai9 L1-Qch1
[90m-->19/23
[0m[90m-->19/25
[0m[90m-->19/25
[0m[90m-->19/30
[0m[90m-->19/31
[0m[90m-->19/33
[0m[90m-->19/36
[0m[90m-->19/41
[0m[90m-->19/42
[0m[90m-->19/43
[0mL190-Exs0 L189-Swu9 L188-Fri7 L187-Xuw0 L186-Bbl2 L185-Iaf0 L184-Zec5 L183-Izo6 L182-Mhc9 L181-Hjs4 L180-Nft2 L179-Qpf7 L178-Bhx4 L177-Gpc1 L176-Tl_8 L175-Ypx3 L174-Qxm5 L173-Dwc1 L172-Vsl8 L171-Ike8 L170-B_t8 L169-Fvv3 L168-Rlx5 L167-Br_4 L166-Zch9 L165-Wqd1 L164-Fln5 L163-Z_e5 L162-V__8 L161-Fpb9 L160-Rzh4 L159-Ii_5 L158-Yh_8 L157-Phr1 L156-Ftp8 L155-Rlb5 L154-Qe_8 L153-Vyq2 L152-Apf9 L151-P__3 L150-Np_2 L149-Mxd8 L148-Zls0 L147-Fva4 L146-Nwf4 L145-Rrj4 L144-Vjf1 L143-Vf_8 L142-Qwv9 L141-Yst4 L140-Utx7 L139-Zmj4 L138-Tr_4 L137-Euq9 L136-Djz6 L135-Qd_9 L134-Het4 L133-Gjq3 L132-Gop4 L131-Rtg8 L130-Ihc7 L129-Ykg4 L128-Yfs1 L127-Qqq2 L126-Fou7 L125-Msq8 L124-Gye9 L123-Hxg2 L122-W_f6 L121-Vue5 L120-Wvl7 L119-Aaw1 L118-Pxs5 L117-Asd8 L116-Unc6 L115-Jzv9 L114-Fod2 L113-Snr5 L112-Zrx7 L111-Awd3 L110-Sqp9 L109-Knj7 L108-Ucn4 L107-Ggr4 L106-Ot_9 L105-Jr_2 L104-Hok0 L103-Iwq2 L102-Wdy1 L101-Js_6 L100-Cyu7 L99-Hd_2 L98-Fhe5 L97-Kem7 L96-Hmn1 L95-Xgz5 L94-Xni9 L93-Uaw4 L92-Kmb6 L91-Cjy6 L90-Bki1 L89-Hbi7 L88-Eku9 L87-Khe4 L86-Dod5 L85-Aiy2 L84-U_x0 L83-Rka7 L82-Sgp8 L81-Jpd6 L80-Fpf1 L79-Jyv5 L78-Tti6 L77-Cha2 L76-Gqu4 L75-Sqo5 L74-Ean3 L73-Tcs5 L72-Fb_9 L71-Tfr6 L70-Fvq3 L69-Rxg1 L68-Ni_3 L67-Ezw7 L66-Zsq3 L65-Bpb0 L64-Yag5 L63-Qdx2 L62-Sfs6 L61-Je_3 L60-Hjj6 L59-Ojf3 L58-Vxe5 L57-Duq8 L56-Wdu0 L55-Tnr8 L54-Mtw2 L53-Ofz7 L52-Kg_0 L51-Bxp0 L50-Qyd9 L49-Ohd4 L48-Bbg1 L47-Pgk1 L46-Qfc2 L45-Qkr4 L44-Pm_2 L43-Hdj0 L42-Ye_5 L41-U_h6 L40-Ysl0 L39-Sbx1 L38-Rgm7 L37-Tcq1 L36-Mlo5 L35-Sfq2 L34-Dt_6 L33-Biu4 L32-Fmd1 L31-Jjd9 L29-Ysl0 L28-Zv_4 L27-Emk3 L26-Qkj6 L25-Oux4 L24-Yqz7 L23-Yh_2 L22-Czl9 L21-Gow6 L18-Ysl0 L17-Rzk9 L16-Rym9 L15-Aej4 L14-Vda4 L13-Jp_8 L12-Kai9 L11-Qch1 L7-Kkl6 L6-Iug6 L5-Uqr5 L4-Miu7 L3-Ukb6 L2-Fqi0 L1-Qwa4
[90m-->20/23
[0m[90m-->20/25
[0m[90m-->20/25
[0m[90m-->20/30
[0m[90m-->20/31
[0m[90m-->20/33
[0m[90m-->20/36
[0m[90m-->20/41
[0m[90m-->20/42
[0m[90m-->20/43
[0mL200-Exs0 L199-Swu9 L198-Fri7 L197-Xuw0 L196-Bbl2 L195-Iaf0 L194-Zec5 L193-Izo6 L192-Mhc9 L191-Hjs4 L190-Nft2 L189-Qpf7 L188-Bhx4 L187-Gpc1 L186-Tl_8 L185-Ypx3 L184-Qxm5 L183-Dwc1 L182-Vsl8 L181-Ike8 L180-B_t8 L179-Fvv3 L178-Rlx5 L177-Br_4 L176-Zch9 L175-Wqd1 L174-Fln5 L173-Z_e5 L172-V__8 L171-Fpb9 L170-Rzh4 L169-Ii_5 L168-Yh_8 L167-Phr1 L166-Ftp8 L165-Rlb5 L164-Qe_8 L163-Vyq2 L162-Apf9 L161-P__3 L160-Np_2 L159-Mxd8 L158-Zls0 L157-Fva4 L156-Nwf4 L155-Rrj4 L154-Vjf1 L153-Vf_8 L152-Qwv9 L151-Yst4 L150-Utx7 L149-Zmj4 L148-Tr_4 L147-Euq9 L146-Djz6 L145-Qd_9 L144-Het4 L143-Gjq3 L142-Gop4 L141-Rtg8 L140-Ihc7 L139-Ykg4 L138-Yfs1 L137-Qqq2 L136-Fou7 L135-Msq8 L134-Gye9 L133-Hxg2 L132-W_f6 L131-Vue5 L130-Wvl7 L129-Aaw1 L128-Pxs5 L127-Asd8 L126-Unc6 L125-Jzv9 L124-Fod2 L123-Snr5 L122-Zrx7 L121-Awd3 L120-Sqp9 L119-Knj7 L118-Ucn4 L117-Ggr4 L116-Ot_9 L115-Jr_2 L114-Hok0 L113-Iwq2 L112-Wdy1 L111-Js_6 L110-Cyu7 L109-Hd_2 L108-Fhe5 L107-Kem7 L106-Hmn1 L105-Xgz5 L104-Xni9 L103-Uaw4 L102-Kmb6 L101-Cjy6 L100-Bki1 L99-Hbi7 L98-Eku9 L97-Khe4 L96-Dod5 L95-Aiy2 L94-U_x0 L93-Rka7 L92-Sgp8 L91-Jpd6 L90-Fpf1 L89-Jyv5 L88-Tti6 L87-Cha2 L86-Gqu4 L85-Sqo5 L84-Ean3 L83-Tcs5 L82-Fb_9 L81-Tfr6 L80-Fvq3 L79-Rxg1 L78-Ni_3 L77-Ezw7 L76-Zsq3 L75-Bpb0 L74-Yag5 L73-Qdx2 L72-Sfs6 L71-Je_3 L70-Hjj6 L69-Ojf3 L68-Vxe5 L67-Duq8 L66-Wdu0 L65-Tnr8 L64-Mtw2 L63-Ofz7 L62-Kg_0 L61-Bxp0 L60-Qyd9 L59-Ohd4 L58-Bbg1 L57-Pgk1 L56-Qfc2 L55-Qkr4 L54-Pm_2 L53-Hdj0 L52-Ye_5 L51-U_h6 L50-Ysl0 L49-Sbx1 L48-Rgm7 L47-Tcq1 L46-Mlo5 L45-Sfq2 L44-Dt_6 L43-Biu4 L42-Fmd1 L41-Jjd9 L39-Ysl0 L38-Zv_4 L37-Emk3 L36-Qkj6 L35-Oux4 L34-Yqz7 L33-Yh_2 L32-Czl9 L31-Gow6 L28-Ysl0 L27-Rzk9 L26-Rym9 L25-Aej4 L24-Vda4 L23-Jp_8 L22-Kai9 L21-Qch1 L17-Kkl6 L16-Iug6 L15-Uqr5 L14-Miu7 L13-Ukb6 L12-Fqi0 L11-Qwa4 L7-Vpq9 L6-Ffw1 L5-Trx6 L4-U_j7 L3-Mks7 L2-Kau7 L1-Rzd5
[90m-->21/23
[0m[90m-->21/25
[0m[90m-->21/25
[0m[90m-->21/30
[0m[90m-->21/31
[0m[90m-->21/33
[0m[90m-->21/36
[0m[90m-->21/41
[0m[90m-->21/42
[0m[90m-->21/43
[0mL210-Exs0 L209-Swu9 L208-Fri7 L207-Xuw0 L206-Bbl2 L205-Iaf0 L204-Zec5 L203-Izo6 L202-Mhc9 L201-Hjs4 L200-Nft2 L199-Qpf7 L198-Bhx4 L197-Gpc1 L196-Tl_8 L195-Ypx3 L194-Qxm5 L193-Dwc1 L192-Vsl8 L191-Ike8 L190-B_t8 L189-Fvv3 L188-Rlx5 L187-Br_4 L186-Zch9 L185-Wqd1 L184-Fln5 L183-Z_e5 L182-V__8 L181-Fpb9 L180-Rzh4 L179-Ii_5 L178-Yh_8 L177-Phr1 L176-Ftp8 L175-Rlb5 L174-Qe_8 L173-Vyq2 L172-Apf9 L171-P__3 L170-Np_2 L169-Mxd8 L168-Zls0 L167-Fva4 L166-Nwf4 L165-Rrj4 L164-Vjf1 L163-Vf_8 L162-Qwv9 L161-Yst4 L160-Utx7 L159-Zmj4 L158-Tr_4 L157-Euq9 L156-Djz6 L155-Qd_9 L154-Het4 L153-Gjq3 L152-Gop4 L151-Rtg8 L150-Ihc7 L149-Ykg4 L148-Yfs1 L147-Qqq2 L146-Fou7 L145-Msq8 L144-Gye9 L143-Hxg2 L142-W_f6 L141-Vue5 L140-Wvl7 L139-Aaw1 L138-Pxs5 L137-Asd8 L136-Unc6 L135-Jzv9 L134-Fod2 L133-Snr5 L132-Zrx7 L131-Awd3 L130-Sqp9 L129-Knj7 L128-Ucn4 L127-Ggr4 L126-Ot_9 L125-Jr_2 L124-Hok0 L123-Iwq2 L122-Wdy1 L121-Js_6 L120-Cyu7 L119-Hd_2 L118-Fhe5 L117-Kem7 L116-Hmn1 L115-Xgz5 L114-Xni9 L113-Uaw4 L112-Kmb6 L111-Cjy6 L110-Bki1 L109-Hbi7 L108-Eku9 L107-Khe4 L106-Dod5 L105-Aiy2 L104-U_x0 L103-Rka7 L102-Sgp8 L101-Jpd6 L100-Fpf1 L99-Jyv5 L98-Tti6 L97-Cha2 L96-Gqu4 L95-Sqo5 L94-Ean3 L93-Tcs5 L92-Fb_9 L91-Tfr6 L90-Fvq3 L89-Rxg1 L88-Ni_3 L87-Ezw7 L86-Zsq3 L85-Bpb0 L84-Yag5 L83-Qdx2 L82-Sfs6 L81-Je_3 L80-Hjj6 L79-Ojf3 L78-Vxe5 L77-Duq8 L76-Wdu0 L75-Tnr8 L74-Mtw2 L73-Ofz7 L72-Kg_0 L71-Bxp0 L70-Qyd9 L69-Ohd4 L68-Bbg1 L67-Pgk1 L66-Qfc2 L65-Qkr4 L64-Pm_2 L63-Hdj0 L62-Ye_5 L61-U_h6 L60-Ysl0 L59-Sbx1 L58-Rgm7 L57-Tcq1 L56-Mlo5 L55-Sfq2 L54-Dt_6 L53-Biu4 L52-Fmd1 L51-Jjd9 L49-Ysl0 L48-Zv_4 L47-Emk3 L46-Qkj6 L45-Oux4 L44-Yqz7 L43-Yh_2 L42-Czl9 L41-Gow6 L38-Ysl0 L37-Rzk9 L36-Rym9 L35-Aej4 L34-Vda4 L33-Jp_8 L32-Kai9 L31-Qch1 L27-Kkl6 L26-Iug6 L25-Uqr5 L24-Miu7 L23-Ukb6 L22-Fqi0 L21-Qwa4 L17-Vpq9 L16-Ffw1 L15-Trx6 L14-U_j7 L13-Mks7 L12-Kau7 L11-Rzd5 L7-Sv_5 L6-Q_z8 L5-Vrb7 L4-Vat3 L3-Pce0 L2-E_g9 L1-Sx_8
[90m-->22/23
[0m[90m-->22/25
[0m[90m-->22/25
[0m[90m-->22/30
[0m[90m-->22/31
[0m[90m-->22/33
[0m[90m-->22/36
[0m[90m-->22/41
[0m[90m-->22/42
[0m[90m-->22/43
[0mL220-Exs0 L219-Swu9 L218-Fri7 L217-Xuw0 L216-Bbl2 L215-Iaf0 L214-Zec5 L213-Izo6 L212-Mhc9 L211-Hjs4 L210-Nft2 L209-Qpf7 L208-Bhx4 L207-Gpc1 L206-Tl_8 L205-Ypx3 L204-Qxm5 L203-Dwc1 L202-Vsl8 L201-Ike8 L200-B_t8 L199-Fvv3 L198-Rlx5 L197-Br_4 L196-Zch9 L195-Wqd1 L194-Fln5 L193-Z_e5 L192-V__8 L191-Fpb9 L190-Rzh4 L189-Ii_5 L188-Yh_8 L187-Phr1 L186-Ftp8 L185-Rlb5 L184-Qe_8 L183-Vyq2 L182-Apf9 L181-P__3 L180-Np_2 L179-Mxd8 L178-Zls0 L177-Fva4 L176-Nwf4 L175-Rrj4 L174-Vjf1 L173-Vf_8 L172-Qwv9 L171-Yst4 L170-Utx7 L169-Zmj4 L168-Tr_4 L167-Euq9 L166-Djz6 L165-Qd_9 L164-Het4 L163-Gjq3 L162-Gop4 L161-Rtg8 L160-Ihc7 L159-Ykg4 L158-Yfs1 L157-Qqq2 L156-Fou7 L155-Msq8 L154-Gye9 L153-Hxg2 L152-W_f6 L151-Vue5 L150-Wvl7 L149-Aaw1 L148-Pxs5 L147-Asd8 L146-Unc6 L145-Jzv9 L144-Fod2 L143-Snr5 L142-Zrx7 L141-Awd3 L140-Sqp9 L139-Knj7 L138-Ucn4 L137-Ggr4 L136-Ot_9 L135-Jr_2 L134-Hok0 L133-Iwq2 L132-Wdy1 L131-Js_6 L130-Cyu7 L129-Hd_2 L128-Fhe5 L127-Kem7 L126-Hmn1 L125-Xgz5 L124-Xni9 L123-Uaw4 L122-Kmb6 L121-Cjy6 L120-Bki1 L119-Hbi7 L118-Eku9 L117-Khe4 L116-Dod5 L115-Aiy2 L114-U_x0 L113-Rka7 L112-Sgp8 L111-Jpd6 L110-Fpf1 L109-Jyv5 L108-Tti6 L107-Cha2 L106-Gqu4 L105-Sqo5 L104-Ean3 L103-Tcs5 L102-Fb_9 L101-Tfr6 L100-Fvq3 L99-Rxg1 L98-Ni_3 L97-Ezw7 L96-Zsq3 L95-Bpb0 L94-Yag5 L93-Qdx2 L92-Sfs6 L91-Je_3 L90-Hjj6 L89-Ojf3 L88-Vxe5 L87-Duq8 L86-Wdu0 L85-Tnr8 L84-Mtw2 L83-Ofz7 L82-Kg_0 L81-Bxp0 L80-Qyd9 L79-Ohd4 L78-Bbg1 L77-Pgk1 L76-Qfc2 L75-Qkr4 L74-Pm_2 L73-Hdj0 L72-Ye_5 L71-U_h6 L70-Ysl0 L69-Sbx1 L68-Rgm7 L67-Tcq1 L66-Mlo5 L65-Sfq2 L64-Dt_6 L63-Biu4 L62-Fmd1 L61-Jjd9 L59-Ysl0 L58-Zv_4 L57-Emk3 L56-Qkj6 L55-Oux4 L54-Yqz7 L53-Yh_2 L52-Czl9 L51-Gow6 L48-Ysl0 L47-Rzk9 L46-Rym9 L45-Aej4 L44-Vda4 L43-Jp_8 L42-Kai9 L41-Qch1 L37-Kkl6 L36-Iug6 L35-Uqr5 L34-Miu7 L33-Ukb6 L32-Fqi0 L31-Qwa4 L27-Vpq9 L26-Ffw1 L25-Trx6 L24-U_j7 L23-Mks7 L22-Kau7 L21-Rzd5 L17-Sv_5 L16-Q_z8 L15-Vrb7 L14-Vat3 L13-Pce0 L12-E_g9 L11-Sx_8 L7-Uvf8 L6-Sq_2 L5-Wfe0 L4-Acx4 L3-Xcc3 L2-Atj5 L1-Gdk9
[90m-->23/23
[0m[90m-->23/25
[0m[90m-->23/25
[0m[90m-->23/30
[0m[90m-->23/31
[0m[90m-->23/33
[0m[90m-->23/36
[0m[90m-->23/41
[0m[90m-->23/42
[0m[90m-->23/43
[0mL230-Exs0 L229-Swu9 L228-Fri7 L227-Xuw0 L226-Bbl2 L225-Iaf0 L224-Zec5 L223-Izo6 L222-Mhc9 L221-Hjs4 L220-Nft2 L219-Qpf7 L218-Bhx4 L217-Gpc1 L216-Tl_8 L215-Ypx3 L214-Qxm5 L213-Dwc1 L212-Vsl8 L211-Ike8 L210-B_t8 L209-Fvv3 L208-Rlx5 L207-Br_4 L206-Zch9 L205-Wqd1 L204-Fln5 L203-Z_e5 L202-V__8 L201-Fpb9 L200-Rzh4 L199-Ii_5 L198-Yh_8 L197-Phr1 L196-Ftp8 L195-Rlb5 L194-Qe_8 L193-Vyq2 L192-Apf9 L191-P__3 L190-Np_2 L189-Mxd8 L188-Zls0 L187-Fva4 L186-Nwf4 L185-Rrj4 L184-Vjf1 L183-Vf_8 L182-Qwv9 L181-Yst4 L180-Utx7 L179-Zmj4 L178-Tr_4 L177-Euq9 L176-Djz6 L175-Qd_9 L174-Het4 L173-Gjq3 L172-Gop4 L171-Rtg8 L170-Ihc7 L169-Ykg4 L168-Yfs1 L167-Qqq2 L166-Fou7 L165-Msq8 L164-Gye9 L163-Hxg2 L162-W_f6 L161-Vue5 L160-Wvl7 L159-Aaw1 L158-Pxs5 L157-Asd8 L156-Unc6 L155-Jzv9 L154-Fod2 L153-Snr5 L152-Zrx7 L151-Awd3 L150-Sqp9 L149-Knj7 L148-Ucn4 L147-Ggr4 L146-Ot_9 L145-Jr_2 L144-Hok0 L143-Iwq2 L142-Wdy1 L141-Js_6 L140-Cyu7 L139-Hd_2 L138-Fhe5 L137-Kem7 L136-Hmn1 L135-Xgz5 L134-Xni9 L133-Uaw4 L132-Kmb6 L131-Cjy6 L130-Bki1 L129-Hbi7 L128-Eku9 L127-Khe4 L126-Dod5 L125-Aiy2 L124-U_x0 L123-Rka7 L122-Sgp8 L121-Jpd6 L120-Fpf1 L119-Jyv5 L118-Tti6 L117-Cha2 L116-Gqu4 L115-Sqo5 L114-Ean3 L113-Tcs5 L112-Fb_9 L111-Tfr6 L110-Fvq3 L109-Rxg1 L108-Ni_3 L107-Ezw7 L106-Zsq3 L105-Bpb0 L104-Yag5 L103-Qdx2 L102-Sfs6 L101-Je_3 L100-Hjj6 L99-Ojf3 L98-Vxe5 L97-Duq8 L96-Wdu0 L95-Tnr8 L94-Mtw2 L93-Ofz7 L92-Kg_0 L91-Bxp0 L90-Qyd9 L89-Ohd4 L88-Bbg1 L87-Pgk1 L86-Qfc2 L85-Qkr4 L84-Pm_2 L83-Hdj0 L82-Ye_5 L81-U_h6 L80-Ysl0 L79-Sbx1 L78-Rgm7 L77-Tcq1 L76-Mlo5 L75-Sfq2 L74-Dt_6 L73-Biu4 L72-Fmd1 L71-Jjd9 L69-Ysl0 L68-Zv_4 L67-Emk3 L66-Qkj6 L65-Oux4 L64-Yqz7 L63-Yh_2 L62-Czl9 L61-Gow6 L58-Ysl0 L57-Rzk9 L56-Rym9 L55-Aej4 L54-Vda4 L53-Jp_8 L52-Kai9 L51-Qch1 L47-Kkl6 L46-Iug6 L45-Uqr5 L44-Miu7 L43-Ukb6 L42-Fqi0 L41-Qwa4 L37-Vpq9 L36-Ffw1 L35-Trx6 L34-U_j7 L33-Mks7 L32-Kau7 L31-Rzd5 L27-Sv_5 L26-Q_z8 L25-Vrb7 L24-Vat3 L23-Pce0 L22-E_g9 L21-Sx_8 L17-Uvf8 L16-Sq_2 L15-Wfe0 L14-Acx4 L13-Xcc3 L12-Atj5 L11-Gdk9 L7-Ysl0 L6-Csg2 L5-Dvq3 L4-T_n1 L3-Qsj8 L2-Vgv3 L1-Jmo0
[90m-->23/23
[0m[90m-->24/25
[0m[90m-->24/25
[0m[90m-->24/30
[0m[90m-->24/31
[0m[90m-->24/33
[0m[90m-->24/36
[0m[90m-->24/41
[0m[90m-->24/42
[0m[90m-->24/43
[0mL239-Exs0 L238-Swu9 L237-Fri7 L236-Xuw0 L235-Bbl2 L234-Iaf0 L233-Zec5 L232-Izo6 L231-Mhc9 L230-Nft2 L229-Qpf7 L228-Bhx4 L227-Gpc1 L226-Tl_8 L225-Ypx3 L224-Qxm5 L223-Dwc1 L222-Vsl8 L221-Ike8 L220-B_t8 L219-Fvv3 L218-Rlx5 L217-Br_4 L216-Zch9 L215-Wqd1 L214-Fln5 L213-Z_e5 L212-V__8 L211-Fpb9 L210-Rzh4 L209-Ii_5 L208-Yh_8 L207-Phr1 L206-Ftp8 L205-Rlb5 L204-Qe_8 L203-Vyq2 L202-Apf9 L201-P__3 L200-Np_2 L199-Mxd8 L198-Zls0 L197-Fva4 L196-Nwf4 L195-Rrj4 L194-Vjf1 L193-Vf_8 L192-Qwv9 L191-Yst4 L190-Utx7 L189-Zmj4 L188-Tr_4 L187-Euq9 L186-Djz6 L185-Qd_9 L184-Het4 L183-Gjq3 L182-Gop4 L181-Rtg8 L180-Ihc7 L179-Ykg4 L178-Yfs1 L177-Qqq2 L176-Fou7 L175-Msq8 L174-Gye9 L173-Hxg2 L172-W_f6 L171-Vue5 L170-Wvl7 L169-Aaw1 L168-Pxs5 L167-Asd8 L166-Unc6 L165-Jzv9 L164-Fod2 L163-Snr5 L162-Zrx7 L161-Awd3 L160-Sqp9 L159-Knj7 L158-Ucn4 L157-Ggr4 L156-Ot_9 L155-Jr_2 L154-Hok0 L153-Iwq2 L152-Wdy1 L151-Js_6 L150-Cyu7 L149-Hd_2 L148-Fhe5 L147-Kem7 L146-Hmn1 L145-Xgz5 L144-Xni9 L143-Uaw4 L142-Kmb6 L141-Cjy6 L140-Bki1 L139-Hbi7 L138-Eku9 L137-Khe4 L136-Dod5 L135-Aiy2 L134-U_x0 L133-Rka7 L132-Sgp8 L131-Jpd6 L130-Fpf1 L129-Jyv5 L128-Tti6 L127-Cha2 L126-Gqu4 L125-Sqo5 L124-Ean3 L123-Tcs5 L122-Fb_9 L121-Tfr6 L120-Fvq3 L119-Rxg1 L118-Ni_3 L117-Ezw7 L116-Zsq3 L115-Bpb0 L114-Yag5 L113-Qdx2 L112-Sfs6 L111-Je_3 L110-Hjj6 L109-Ojf3 L108-Vxe5 L107-Duq8 L106-Wdu0 L105-Tnr8 L104-Mtw2 L103-Ofz7 L102-Kg_0 L101-Bxp0 L100-Qyd9 L99-Ohd4 L98-Bbg1 L97-Pgk1 L96-Qfc2 L95-Qkr4 L94-Pm_2 L93-Hdj0 L92-Ye_5 L91-U_h6 L90-Ysl0 L89-Sbx1 L88-Rgm7 L87-Tcq1 L86-Mlo5 L85-Sfq2 L84-Dt_6 L83-Biu4 L82-Fmd1 L81-Jjd9 L79-Ysl0 L78-Zv_4 L77-Emk3 L76-Qkj6 L75-Oux4 L74-Yqz7 L73-Yh_2 L72-Czl9 L71-Gow6 L68-Ysl0 L67-Rzk9 L66-Rym9 L65-Aej4 L64-Vda4 L63-Jp_8 L62-Kai9 L61-Qch1 L57-Kkl6 L56-Iug6 L55-Uqr5 L54-Miu7 L53-Ukb6 L52-Fqi0 L51-Qwa4 L47-Vpq9 L46-Ffw1 L45-Trx6 L44-U_j7 L43-Mks7 L42-Kau7 L41-Rzd5 L37-Sv_5 L36-Q_z8 L35-Vrb7 L34-Vat3 L33-Pce0 L32-E_g9 L31-Sx_8 L27-Uvf8 L26-Sq_2 L25-Wfe0 L24-Acx4 L23-Xcc3 L22-Atj5 L21-Gdk9 L17-Ysl0 L16-Csg2 L15-Dvq3 L14-T_n1 L13-Qsj8 L12-Vgv3 L11-Jmo0 L6-Drg8 L5-Hfv0 L4-Rsv1 L3-Ykc6 L2-Uoh0 L1-Dcm1
[90m-->23/23
[0m[90m-->25/25
[0m[90m-->25/25
[0m[90m-->25/30
[0m[90m-->25/31
[0m[90m-->25/33
[0m[90m-->25/36
[0m[90m-->25/41
[0m[90m-->25/42
[0m[90m-->25/43
[0mL248-Exs0 L247-Swu9 L246-Fri7 L245-Xuw0 L244-Bbl2 L243-Iaf0 L242-Zec5 L241-Izo6 L240-Mhc9 L239-Nft2 L238-Qpf7 L237-Bhx4 L236-Gpc1 L235-Tl_8 L234-Ypx3 L233-Qxm5 L232-Dwc1 L231-Vsl8 L230-B_t8 L229-Fvv3 L228-Rlx5 L227-Br_4 L226-Zch9 L225-Wqd1 L224-Fln5 L223-Z_e5 L222-V__8 L221-Fpb9 L220-Rzh4 L219-Ii_5 L218-Yh_8 L217-Phr1 L216-Ftp8 L215-Rlb5 L214-Qe_8 L213-Vyq2 L212-Apf9 L211-P__3 L210-Np_2 L209-Mxd8 L208-Zls0 L207-Fva4 L206-Nwf4 L205-Rrj4 L204-Vjf1 L203-Vf_8 L202-Qwv9 L201-Yst4 L200-Utx7 L199-Zmj4 L198-Tr_4 L197-Euq9 L196-Djz6 L195-Qd_9 L194-Het4 L193-Gjq3 L192-Gop4 L191-Rtg8 L190-Ihc7 L189-Ykg4 L188-Yfs1 L187-Qqq2 L186-Fou7 L185-Msq8 L184-Gye9 L183-Hxg2 L182-W_f6 L181-Vue5 L180-Wvl7 L179-Aaw1 L178-Pxs5 L177-Asd8 L176-Unc6 L175-Jzv9 L174-Fod2 L173-Snr5 L172-Zrx7 L171-Awd3 L170-Sqp9 L169-Knj7 L168-Ucn4 L167-Ggr4 L166-Ot_9 L165-Jr_2 L164-Hok0 L163-Iwq2 L162-Wdy1 L161-Js_6 L160-Cyu7 L159-Hd_2 L158-Fhe5 L157-Kem7 L156-Hmn1 L155-Xgz5 L154-Xni9 L153-Uaw4 L152-Kmb6 L151-Cjy6 L150-Bki1 L149-Hbi7 L148-Eku9 L147-Khe4 L146-Dod5 L145-Aiy2 L144-U_x0 L143-Rka7 L142-Sgp8 L141-Jpd6 L140-Fpf1 L139-Jyv5 L138-Tti6 L137-Cha2 L136-Gqu4 L135-Sqo5 L134-Ean3 L133-Tcs5 L132-Fb_9 L131-Tfr6 L130-Fvq3 L129-Rxg1 L128-Ni_3 L127-Ezw7 L126-Zsq3 L125-Bpb0 L124-Yag5 L123-Qdx2 L122-Sfs6 L121-Je_3 L120-Hjj6 L119-Ojf3 L118-Vxe5 L117-Duq8 L116-Wdu0 L115-Tnr8 L114-Mtw2 L113-Ofz7 L112-Kg_0 L111-Bxp0 L110-Qyd9 L109-Ohd4 L108-Bbg1 L107-Pgk1 L106-Qfc2 L105-Qkr4 L104-Pm_2 L103-Hdj0 L102-Ye_5 L101-U_h6 L100-Ysl0 L99-Sbx1 L98-Rgm7 L97-Tcq1 L96-Mlo5 L95-Sfq2 L94-Dt_6 L93-Biu4 L92-Fmd1 L91-Jjd9 L89-Ysl0 L88-Zv_4 L87-Emk3 L86-Qkj6 L85-Oux4 L84-Yqz7 L83-Yh_2 L82-Czl9 L81-Gow6 L78-Ysl0 L77-Rzk9 L76-Rym9 L75-Aej4 L74-Vda4 L73-Jp_8 L72-Kai9 L71-Qch1 L67-Kkl6 L66-Iug6 L65-Uqr5 L64-Miu7 L63-Ukb6 L62-Fqi0 L61-Qwa4 L57-Vpq9 L56-Ffw1 L55-Trx6 L54-U_j7 L53-Mks7 L52-Kau7 L51-Rzd5 L47-Sv_5 L46-Q_z8 L45-Vrb7 L44-Vat3 L43-Pce0 L42-E_g9 L41-Sx_8 L37-Uvf8 L36-Sq_2 L35-Wfe0 L34-Acx4 L33-Xcc3 L32-Atj5 L31-Gdk9 L27-Ysl0 L26-Csg2 L25-Dvq3 L24-T_n1 L23-Qsj8 L22-Vgv3 L21-Jmo0 L16-Drg8 L15-Hfv0 L14-Rsv1 L13-Ykc6 L12-Uoh0 L11-Dcm1 L6-Sge4 L5-Qgi0 L4-Jwn1 L3-B_s1 L2-Jwd0 L1-Soq8
[90m-->23/23
[0m[90m-->25/25
[0m[90m-->25/25
[0m[90m-->26/30
[0m[90m-->26/31
[0m[90m-->26/33
[0m[90m-->26/36
[0m[90m-->26/41
[0m[90m-->26/42
[0m[90m-->26/43
[0mL255-Exs0 L254-Swu9 L253-Fri7 L252-Xuw0 L251-Bbl2 L250-Iaf0 L249-Zec5 L248-Nft2 L247-Qpf7 L246-Bhx4 L245-Gpc1 L244-Tl_8 L243-Ypx3 L242-Qxm5 L241-Dwc1 L240-Vsl8 L239-B_t8 L238-Fvv3 L237-Rlx5 L236-Br_4 L235-Zch9 L234-Wqd1 L233-Fln5 L232-Z_e5 L231-V__8 L230-Rzh4 L229-Ii_5 L228-Yh_8 L227-Phr1 L226-Ftp8 L225-Rlb5 L224-Qe_8 L223-Vyq2 L222-Apf9 L221-P__3 L220-Np_2 L219-Mxd8 L218-Zls0 L217-Fva4 L216-Nwf4 L215-Rrj4 L214-Vjf1 L213-Vf_8 L212-Qwv9 L211-Yst4 L210-Utx7 L209-Zmj4 L208-Tr_4 L207-Euq9 L206-Djz6 L205-Qd_9 L204-Het4 L203-Gjq3 L202-Gop4 L201-Rtg8 L200-Ihc7 L199-Ykg4 L198-Yfs1 L197-Qqq2 L196-Fou7 L195-Msq8 L194-Gye9 L193-Hxg2 L192-W_f6 L191-Vue5 L190-Wvl7 L189-Aaw1 L188-Pxs5 L187-Asd8 L186-Unc6 L185-Jzv9 L184-Fod2 L183-Snr5 L182-Zrx7 L181-Awd3 L180-Sqp9 L179-Knj7 L178-Ucn4 L177-Ggr4 L176-Ot_9 L175-Jr_2 L174-Hok0 L173-Iwq2 L172-Wdy1 L171-Js_6 L170-Cyu7 L169-Hd_2 L168-Fhe5 L167-Kem7 L166-Hmn1 L165-Xgz5 L164-Xni9 L163-Uaw4 L162-Kmb6 L161-Cjy6 L160-Bki1 L159-Hbi7 L158-Eku9 L157-Khe4 L156-Dod5 L155-Aiy2 L154-U_x0 L153-Rka7 L152-Sgp8 L151-Jpd6 L150-Fpf1 L149-Jyv5 L148-Tti6 L147-Cha2 L146-Gqu4 L145-Sqo5 L144-Ean3 L143-Tcs5 L142-Fb_9 L141-Tfr6 L140-Fvq3 L139-Rxg1 L138-Ni_3 L137-Ezw7 L136-Zsq3 L135-Bpb0 L134-Yag5 L133-Qdx2 L132-Sfs6 L131-Je_3 L130-Hjj6 L129-Ojf3 L128-Vxe5 L127-Duq8 L126-Wdu0 L125-Tnr8 L124-Mtw2 L123-Ofz7 L122-Kg_0 L121-Bxp0 L120-Qyd9 L119-Ohd4 L118-Bbg1 L117-Pgk1 L116-Qfc2 L115-Qkr4 L114-Pm_2 L113-Hdj0 L112-Ye_5 L111-U_h6 L110-Ysl0 L109-Sbx1 L108-Rgm7 L107-Tcq1 L106-Mlo5 L105-Sfq2 L104-Dt_6 L103-Biu4 L102-Fmd1 L101-Jjd9 L99-Ysl0 L98-Zv_4 L97-Emk3 L96-Qkj6 L95-Oux4 L94-Yqz7 L93-Yh_2 L92-Czl9 L91-Gow6 L88-Ysl0 L87-Rzk9 L86-Rym9 L85-Aej4 L84-Vda4 L83-Jp_8 L82-Kai9 L81-Qch1 L77-Kkl6 L76-Iug6 L75-Uqr5 L74-Miu7 L73-Ukb6 L72-Fqi0 L71-Qwa4 L67-Vpq9 L66-Ffw1 L65-Trx6 L64-U_j7 L63-Mks7 L62-Kau7 L61-Rzd5 L57-Sv_5 L56-Q_z8 L55-Vrb7 L54-Vat3 L53-Pce0 L52-E_g9 L51-Sx_8 L47-Uvf8 L46-Sq_2 L45-Wfe0 L44-Acx4 L43-Xcc3 L42-Atj5 L41-Gdk9 L37-Ysl0 L36-Csg2 L35-Dvq3 L34-T_n1 L33-Qsj8 L32-Vgv3 L31-Jmo0 L26-Drg8 L25-Hfv0 L24-Rsv1 L23-Ykc6 L22-Uoh0 L21-Dcm1 L16-Sge4 L15-Qgi0 L14-Jwn1 L13-B_s1 L12-Jwd0 L11-Soq8 L6-Ysl0 L5-Vcj1 L4-Xgr7 L3-Ewh5 L2-If_8 L1-Tpf1
[90m-->23/23
[0m[90m-->25/25
[0m[90m-->25/25
[0m[90m-->27/30
[0m[90m-->27/31
[0m[90m-->27/33
[0m[90m-->27/36
[0m[90m-->27/41
[0m[90m-->27/42
[0m[90m-->27/43
[0mL262-Exs0 L261-Swu9 L260-Fri7 L259-Xuw0 L258-Bbl2 L257-Iaf0 L256-Zec5 L255-Nft2 L254-Qpf7 L253-Bhx4 L252-Gpc1 L251-Tl_8 L250-Ypx3 L249-Qxm5 L248-B_t8 L247-Fvv3 L246-Rlx5 L245-Br_4 L244-Zch9 L243-Wqd1 L242-Fln5 L241-Z_e5 L240-V__8 L239-Rzh4 L238-Ii_5 L237-Yh_8 L236-Phr1 L235-Ftp8 L234-Rlb5 L233-Qe_8 L232-Vyq2 L231-Apf9 L230-Np_2 L229-Mxd8 L228-Zls0 L227-Fva4 L226-Nwf4 L225-Rrj4 L224-Vjf1 L223-Vf_8 L222-Qwv9 L221-Yst4 L220-Utx7 L219-Zmj4 L218-Tr_4 L217-Euq9 L216-Djz6 L215-Qd_9 L214-Het4 L213-Gjq3 L212-Gop4 L211-Rtg8 L210-Ihc7 L209-Ykg4 L208-Yfs1 L207-Qqq2 L206-Fou7 L205-Msq8 L204-Gye9 L203-Hxg2 L202-W_f6 L201-Vue5 L200-Wvl7 L199-Aaw1 L198-Pxs5 L197-Asd8 L196-Unc6 L195-Jzv9 L194-Fod2 L193-Snr5 L192-Zrx7 L191-Awd3 L190-Sqp9 L189-Knj7 L188-Ucn4 L187-Ggr4 L186-Ot_9 L185-Jr_2 L184-Hok0 L183-Iwq2 L182-Wdy1 L181-Js_6 L180-Cyu7 L179-Hd_2 L178-Fhe5 L177-Kem7 L176-Hmn1 L175-Xgz5 L174-Xni9 L173-Uaw4 L172-Kmb6 L171-Cjy6 L170-Bki1 L169-Hbi7 L168-Eku9 L167-Khe4 L166-Dod5 L165-Aiy2 L164-U_x0 L163-Rka7 L162-Sgp8 L161-Jpd6 L160-Fpf1 L159-Jyv5 L158-Tti6 L157-Cha2 L156-Gqu4 L155-Sqo5 L154-Ean3 L153-Tcs5 L152-Fb_9 L151-Tfr6 L150-Fvq3 L149-Rxg1 L148-Ni_3 L147-Ezw7 L146-Zsq3 L145-Bpb0 L144-Yag5 L143-Qdx2 L142-Sfs6 L141-Je_3 L140-Hjj6 L139-Ojf3 L138-Vxe5 L137-Duq8 L136-Wdu0 L135-Tnr8 L134-Mtw2 L133-Ofz7 L132-Kg_0 L131-Bxp0 L130-Qyd9 L129-Ohd4 L128-Bbg1 L127-Pgk1 L126-Qfc2 L125-Qkr4 L124-Pm_2 L123-Hdj0 L122-Ye_5 L121-U_h6 L120-Ysl0 L119-Sbx1 L118-Rgm7 L117-Tcq1 L116-Mlo5 L115-Sfq2 L114-Dt_6 L113-Biu4 L112-Fmd1 L111-Jjd9 L109-Ysl0 L108-Zv_4 L107-Emk3 L106-Qkj6 L105-Oux4 L104-Yqz7 L103-Yh_2 L102-Czl9 L101-Gow6 L98-Ysl0 L97-Rzk9 L96-Rym9 L95-Aej4 L94-Vda4 L93-Jp_8 L92-Kai9 L91-Qch1 L87-Kkl6 L86-Iug6 L85-Uqr5 L84-Miu7 L83-Ukb6 L82-Fqi0 L81-Qwa4 L77-Vpq9 L76-Ffw1 L75-Trx6 L74-U_j7 L73-Mks7 L72-Kau7 L71-Rzd5 L67-Sv_5 L66-Q_z8 L65-Vrb7 L64-Vat3 L63-Pce0 L62-E_g9 L61-Sx_8 L57-Uvf8 L56-Sq_2 L55-Wfe0 L54-Acx4 L53-Xcc3 L52-Atj5 L51-Gdk9 L47-Ysl0 L46-Csg2 L45-Dvq3 L44-T_n1 L43-Qsj8 L42-Vgv3 L41-Jmo0 L36-Drg8 L35-Hfv0 L34-Rsv1 L33-Ykc6 L32-Uoh0 L31-Dcm1 L26-Sge4 L25-Qgi0 L24-Jwn1 L23-B_s1 L22-Jwd0 L21-Soq8 L16-Ysl0 L15-Vcj1 L14-Xgr7 L13-Ewh5 L12-If_8 L11-Tpf1 L5-Ocb3 L4-Yps7 L3-Fk_8 L2-Uce7 L1-Bcs9
[90m-->23/23
[0m[90m-->25/25
[0m[90m-->25/25
[0m[90m-->28/30
[0m[90m-->28/31
[0m[90m-->28/33
[0m[90m-->28/36
[0m[90m-->28/41
[0m[90m-->28/42
[0m[90m-->28/43
[0mL269-Exs0 L268-Swu9 L267-Fri7 L266-Xuw0 L265-Bbl2 L264-Iaf0 L263-Zec5 L262-Nft2 L261-Qpf7 L260-Bhx4 L259-Gpc1 L258-Tl_8 L257-Ypx3 L256-Qxm5 L255-B_t8 L254-Fvv3 L253-Rlx5 L252-Br_4 L251-Zch9 L250-Wqd1 L249-Fln5 L248-Rzh4 L247-Ii_5 L246-Yh_8 L245-Phr1 L244-Ftp8 L243-Rlb5 L242-Qe_8 L241-Vyq2 L240-Apf9 L239-Np_2 L238-Mxd8 L237-Zls0 L236-Fva4 L235-Nwf4 L234-Rrj4 L233-Vjf1 L232-Vf_8 L231-Qwv9 L230-Utx7 L229-Zmj4 L228-Tr_4 L227-Euq9 L226-Djz6 L225-Qd_9 L224-Het4 L223-Gjq3 L222-Gop4 L221-Rtg8 L220-Ihc7 L219-Ykg4 L218-Yfs1 L217-Qqq2 L216-Fou7 L215-Msq8 L214-Gye9 L213-Hxg2 L212-W_f6 L211-Vue5 L210-Wvl7 L209-Aaw1 L208-Pxs5 L207-Asd8 L206-Unc6 L205-Jzv9 L204-Fod2 L203-Snr5 L202-Zrx7 L201-Awd3 L200-Sqp9 L199-Knj7 L198-Ucn4 L197-Ggr4 L196-Ot_9 L195-Jr_2 L194-Hok0 L193-Iwq2 L192-Wdy1 L191-Js_6 L190-Cyu7 L189-Hd_2 L188-Fhe5 L187-Kem7 L186-Hmn1 L185-Xgz5 L184-Xni9 L183-Uaw4 L182-Kmb6 L181-Cjy6 L180-Bki1 L179-Hbi7 L178-Eku9 L177-Khe4 L176-Dod5 L175-Aiy2 L174-U_x0 L173-Rka7 L172-Sgp8 L171-Jpd6 L170-Fpf1 L169-Jyv5 L168-Tti6 L167-Cha2 L166-Gqu4 L165-Sqo5 L164-Ean3 L163-Tcs5 L162-Fb_9 L161-Tfr6 L160-Fvq3 L159-Rxg1 L158-Ni_3 L157-Ezw7 L156-Zsq3 L155-Bpb0 L154-Yag5 L153-Qdx2 L152-Sfs6 L151-Je_3 L150-Hjj6 L149-Ojf3 L148-Vxe5 L147-Duq8 L146-Wdu0 L145-Tnr8 L144-Mtw2 L143-Ofz7 L142-Kg_0 L141-Bxp0 L140-Qyd9 L139-Ohd4 L138-Bbg1 L137-Pgk1 L136-Qfc2 L135-Qkr4 L134-Pm_2 L133-Hdj0 L132-Ye_5 L131-U_h6 L130-Ysl0 L129-Sbx1 L128-Rgm7 L127-Tcq1 L126-Mlo5 L125-Sfq2 L124-Dt_6 L123-Biu4 L122-Fmd1 L121-Jjd9 L119-Ysl0 L118-Zv_4 L117-Emk3 L116-Qkj6 L115-Oux4 L114-Yqz7 L113-Yh_2 L112-Czl9 L111-Gow6 L108-Ysl0 L107-Rzk9 L106-Rym9 L105-Aej4 L104-Vda4 L103-Jp_8 L102-Kai9 L101-Qch1 L97-Kkl6 L96-Iug6 L95-Uqr5 L94-Miu7 L93-Ukb6 L92-Fqi0 L91-Qwa4 L87-Vpq9 L86-Ffw1 L85-Trx6 L84-U_j7 L83-Mks7 L82-Kau7 L81-Rzd5 L77-Sv_5 L76-Q_z8 L75-Vrb7 L74-Vat3 L73-Pce0 L72-E_g9 L71-Sx_8 L67-Uvf8 L66-Sq_2 L65-Wfe0 L64-Acx4 L63-Xcc3 L62-Atj5 L61-Gdk9 L57-Ysl0 L56-Csg2 L55-Dvq3 L54-T_n1 L53-Qsj8 L52-Vgv3 L51-Jmo0 L46-Drg8 L45-Hfv0 L44-Rsv1 L43-Ykc6 L42-Uoh0 L41-Dcm1 L36-Sge4 L35-Qgi0 L34-Jwn1 L33-B_s1 L32-Jwd0 L31-Soq8 L26-Ysl0 L25-Vcj1 L24-Xgr7 L23-Ewh5 L22-If_8 L21-Tpf1 L15-Ocb3 L14-Yps7 L13-Fk_8 L12-Uce7 L11-Bcs9 L5-Ysl0 L4-W_c7 L3-Ao_9 L2-Rhh0 L1-Mnj0
[90m-->23/23
[0m[90m-->25/25
[0m[90m-->25/25
[0m[90m-->29/30
[0m[90m-->29/31
[0m[90m-->29/33
[0m[90m-->29/36
[0m[90m-->29/41
[0m[90m-->29/42
[0m[90m-->29/43
[0mL276-Exs0 L275-Swu9 L274-Fri7 L273-Xuw0 L272-Bbl2 L271-Iaf0 L270-Zec5 L269-Nft2 L268-Qpf7 L267-Bhx4 L266-Gpc1 L265-Tl_8 L264-Ypx3 L263-Qxm5 L262-B_t8 L261-Fvv3 L260-Rlx5 L259-Br_4 L258-Zch9 L257-Wqd1 L256-Fln5 L255-Rzh4 L254-Ii_5 L253-Yh_8 L252-Phr1 L251-Ftp8 L250-Rlb5 L249-Qe_8 L248-Np_2 L247-Mxd8 L246-Zls0 L245-Fva4 L244-Nwf4 L243-Rrj4 L242-Vjf1 L241-Vf_8 L240-Qwv9 L239-Utx7 L238-Zmj4 L237-Tr_4 L236-Euq9 L235-Djz6 L234-Qd_9 L233-Het4 L232-Gjq3 L231-Gop4 L230-Ihc7 L229-Ykg4 L228-Yfs1 L227-Qqq2 L226-Fou7 L225-Msq8 L224-Gye9 L223-Hxg2 L222-W_f6 L221-Vue5 L220-Wvl7 L219-Aaw1 L218-Pxs5 L217-Asd8 L216-Unc6 L215-Jzv9 L214-Fod2 L213-Snr5 L212-Zrx7 L211-Awd3 L210-Sqp9 L209-Knj7 L208-Ucn4 L207-Ggr4 L206-Ot_9 L205-Jr_2 L204-Hok0 L203-Iwq2 L202-Wdy1 L201-Js_6 L200-Cyu7 L199-Hd_2 L198-Fhe5 L197-Kem7 L196-Hmn1 L195-Xgz5 L194-Xni9 L193-Uaw4 L192-Kmb6 L191-Cjy6 L190-Bki1 L189-Hbi7 L188-Eku9 L187-Khe4 L186-Dod5 L185-Aiy2 L184-U_x0 L183-Rka7 L182-Sgp8 L181-Jpd6 L180-Fpf1 L179-Jyv5 L178-Tti6 L177-Cha2 L176-Gqu4 L175-Sqo5 L174-Ean3 L173-Tcs5 L172-Fb_9 L171-Tfr6 L170-Fvq3 L169-Rxg1 L168-Ni_3 L167-Ezw7 L166-Zsq3 L165-Bpb0 L164-Yag5 L163-Qdx2 L162-Sfs6 L161-Je_3 L160-Hjj6 L159-Ojf3 L158-Vxe5 L157-Duq8 L156-Wdu0 L155-Tnr8 L154-Mtw2 L153-Ofz7 L152-Kg_0 L151-Bxp0 L150-Qyd9 L149-Ohd4 L148-Bbg1 L147-Pgk1 L146-Qfc2 L145-Qkr4 L144-Pm_2 L143-Hdj0 L142-Ye_5 L141-U_h6 L140-Ysl0 L139-Sbx1 L138-Rgm7 L137-Tcq1 L136-Mlo5 L135-Sfq2 L134-Dt_6 L133-Biu4 L132-Fmd1 L131-Jjd9 L129-Ysl0 L128-Zv_4 L127-Emk3 L126-Qkj6 L125-Oux4 L124-Yqz7 L123-Yh_2 L122-Czl9 L121-Gow6 L118-Ysl0 L117-Rzk9 L116-Rym9 L115-Aej4 L114-Vda4 L113-Jp_8 L112-Kai9 L111-Qch1 L107-Kkl6 L106-Iug6 L105-Uqr5 L104-Miu7 L103-Ukb6 L102-Fqi0 L101-Qwa4 L97-Vpq9 L96-Ffw1 L95-Trx6 L94-U_j7 L93-Mks7 L92-Kau7 L91-Rzd5 L87-Sv_5 L86-Q_z8 L85-Vrb7 L84-Vat3 L83-Pce0 L82-E_g9 L81-Sx_8 L77-Uvf8 L76-Sq_2 L75-Wfe0 L74-Acx4 L73-Xcc3 L72-Atj5 L71-Gdk9 L67-Ysl0 L66-Csg2 L65-Dvq3 L64-T_n1 L63-Qsj8 L62-Vgv3 L61-Jmo0 L56-Drg8 L55-Hfv0 L54-Rsv1 L53-Ykc6 L52-Uoh0 L51-Dcm1 L46-Sge4 L45-Qgi0 L44-Jwn1 L43-B_s1 L42-Jwd0 L41-Soq8 L36-Ysl0 L35-Vcj1 L34-Xgr7 L33-Ewh5 L32-If_8 L31-Tpf1 L25-Ocb3 L24-Yps7 L23-Fk_8 L22-Uce7 L21-Bcs9 L15-Ysl0 L14-W_c7 L13-Ao_9 L12-Rhh0 L11-Mnj0 L4-Ysl0 L3-Jwo1 L2-Tcx1 L1-Bnw6
[90m-->23/23
[0m[90m-->25/25
[0m[90m-->25/25
[0m[90m-->30/30
[0m[90m-->30/31
[0m[90m-->30/33
[0m[90m-->30/36
[0m[90m-->30/41
[0m[90m-->30/42
[0m[90m-->30/43
[0mL283-Exs0 L282-Swu9 L281-Fri7 L280-Xuw0 L279-Bbl2 L278-Iaf0 L277-Zec5 L276-Nft2 L275-Qpf7 L274-Bhx4 L273-Gpc1 L272-Tl_8 L271-Ypx3 L270-Qxm5 L269-B_t8 L268-Fvv3 L267-Rlx5 L266-Br_4 L265-Zch9 L264-Wqd1 L263-Fln5 L262-Rzh4 L261-Ii_5 L260-Yh_8 L259-Phr1 L258-Ftp8 L257-Rlb5 L256-Qe_8 L255-Np_2 L254-Mxd8 L253-Zls0 L252-Fva4 L251-Nwf4 L250-Rrj4 L249-Vjf1 L248-Utx7 L247-Zmj4 L246-Tr_4 L245-Euq9 L244-Djz6 L243-Qd_9 L242-Het4 L241-Gjq3 L240-Gop4 L239-Ihc7 L238-Ykg4 L237-Yfs1 L236-Qqq2 L235-Fou7 L234-Msq8 L233-Gye9 L232-Hxg2 L231-W_f6 L230-Wvl7 L229-Aaw1 L228-Pxs5 L227-Asd8 L226-Unc6 L225-Jzv9 L224-Fod2 L223-Snr5 L222-Zrx7 L221-Awd3 L220-Sqp9 L219-Knj7 L218-Ucn4 L217-Ggr4 L216-Ot_9 L215-Jr_2 L214-Hok0 L213-Iwq2 L212-Wdy1 L211-Js_6 L210-Cyu7 L209-Hd_2 L208-Fhe5 L207-Kem7 L206-Hmn1 L205-Xgz5 L204-Xni9 L203-Uaw4 L202-Kmb6 L201-Cjy6 L200-Bki1 L199-Hbi7 L198-Eku9 L197-Khe4 L196-Dod5 L195-Aiy2 L194-U_x0 L193-Rka7 L192-Sgp8 L191-Jpd6 L190-Fpf1 L189-Jyv5 L188-Tti6 L187-Cha2 L186-Gqu4 L185-Sqo5 L184-Ean3 L183-Tcs5 L182-Fb_9 L181-Tfr6 L180-Fvq3 L179-Rxg1 L178-Ni_3 L177-Ezw7 L176-Zsq3 L175-Bpb0 L174-Yag5 L173-Qdx2 L172-Sfs6 L171-Je_3 L170-Hjj6 L169-Ojf3 L168-Vxe5 L167-Duq8 L166-Wdu0 L165-Tnr8 L164-Mtw2 L163-Ofz7 L162-Kg_0 L161-Bxp0 L160-Qyd9 L159-Ohd4 L158-Bbg1 L157-Pgk1 L156-Qfc2 L155-Qkr4 L154-Pm_2 L153-Hdj0 L152-Ye_5 L151-U_h6 L150-Ysl0 L149-Sbx1 L148-Rgm7 L147-Tcq1 L146-Mlo5 L145-Sfq2 L144-Dt_6 L143-Biu4 L142-Fmd1 L141-Jjd9 L139-Ysl0 L138-Zv_4 L137-Emk3 L136-Qkj6 L135-Oux4 L134-Yqz7 L133-Yh_2 L132-Czl9 L131-Gow6 L128-Ysl0 L127-Rzk9 L126-Rym9 L125-Aej4 L124-Vda4 L123-Jp_8 L122-Kai9 L121-Qch1 L117-Kkl6 L116-Iug6 L115-Uqr5 L114-Miu7 L113-Ukb6 L112-Fqi0 L111-Qwa4 L107-Vpq9 L106-Ffw1 L105-Trx6 L104-U_j7 L103-Mks7 L102-Kau7 L101-Rzd5 L97-Sv_5 L96-Q_z8 L95-Vrb7 L94-Vat3 L93-Pce0 L92-E_g9 L91-Sx_8 L87-Uvf8 L86-Sq_2 L85-Wfe0 L84-Acx4 L83-Xcc3 L82-Atj5 L81-Gdk9 L77-Ysl0 L76-Csg2 L75-Dvq3 L74-T_n1 L73-Qsj8 L72-Vgv3 L71-Jmo0 L66-Drg8 L65-Hfv0 L64-Rsv1 L63-Ykc6 L62-Uoh0 L61-Dcm1 L56-Sge4 L55-Qgi0 L54-Jwn1 L53-B_s1 L52-Jwd0 L51-Soq8 L46-Ysl0 L45-Vcj1 L44-Xgr7 L43-Ewh5 L42-If_8 L41-Tpf1 L35-Ocb3 L34-Yps7 L33-Fk_8 L32-Uce7 L31-Bcs9 L25-Ysl0 L24-W_c7 L23-Ao_9 L22-Rhh0 L21-Mnj0 L14-Ysl0 L13-Jwo1 L12-Tcx1 L11-Bnw6 L3-K_i9 L2-Dcz6 L1-Fgp0
[90m-->23/23
[0m[90m-->25/25
[0m[90m-->25/25
[0m[90m-->30/30
[0m[90m-->31/31
[0m[90m-->31/33
[0m[90m-->31/36
[0m[90m-->31/41
[0m[90m-->31/42
[0m[90m-->31/43
[0mL289-Exs0 L288-Swu9 L287-Fri7 L286-Xuw0 L285-Bbl2 L284-Iaf0 L283-Nft2 L282-Qpf7 L281-Bhx4 L280-Gpc1 L279-Tl_8 L278-Ypx3 L277-Qxm5 L276-B_t8 L275-Fvv3 L274-Rlx5 L273-Br_4 L272-Zch9 L271-Wqd1 L270-Fln5 L269-Rzh4 L268-Ii_5 L267-Yh_8 L266-Phr1 L265-Ftp8 L264-Rlb5 L263-Qe_8 L262-Np_2 L261-Mxd8 L260-Zls0 L259-Fva4 L258-Nwf4 L257-Rrj4 L256-Vjf1 L255-Utx7 L254-Zmj4 L253-Tr_4 L252-Euq9 L251-Djz6 L250-Qd_9 L249-Het4 L248-Ihc7 L247-Ykg4 L246-Yfs1 L245-Qqq2 L244-Fou7 L243-Msq8 L242-Gye9 L241-Hxg2 L240-W_f6 L239-Wvl7 L238-Aaw1 L237-Pxs5 L236-Asd8 L235-Unc6 L234-Jzv9 L233-Fod2 L232-Snr5 L231-Zrx7 L230-Sqp9 L229-Knj7 L228-Ucn4 L227-Ggr4 L226-Ot_9 L225-Jr_2 L224-Hok0 L223-Iwq2 L222-Wdy1 L221-Js_6 L220-Cyu7 L219-Hd_2 L218-Fhe5 L217-Kem7 L216-Hmn1 L215-Xgz5 L214-Xni9 L213-Uaw4 L212-Kmb6 L211-Cjy6 L210-Bki1 L209-Hbi7 L208-Eku9 L207-Khe4 L206-Dod5 L205-Aiy2 L204-U_x0 L203-Rka7 L202-Sgp8 L201-Jpd6 L200-Fpf1 L199-Jyv5 L198-Tti6 L197-Cha2 L196-Gqu4 L195-Sqo5 L194-Ean3 L193-Tcs5 L192-Fb_9 L191-Tfr6 L190-Fvq3 L189-Rxg1 L188-Ni_3 L187-Ezw7 L186-Zsq3 L185-Bpb0 L184-Yag5 L183-Qdx2 L182-Sfs6 L181-Je_3 L180-Hjj6 L179-Ojf3 L178-Vxe5 L177-Duq8 L176-Wdu0 L175-Tnr8 L174-Mtw2 L173-Ofz7 L172-Kg_0 L171-Bxp0 L170-Qyd9 L169-Ohd4 L168-Bbg1 L167-Pgk1 L166-Qfc2 L165-Qkr4 L164-Pm_2 L163-Hdj0 L162-Ye_5 L161-U_h6 L160-Ysl0 L159-Sbx1 L158-Rgm7 L157-Tcq1 L156-Mlo5 L155-Sfq2 L154-Dt_6 L153-Biu4 L152-Fmd1 L151-Jjd9 L149-Ysl0 L148-Zv_4 L147-Emk3 L146-Qkj6 L145-Oux4 L144-Yqz7 L143-Yh_2 L142-Czl9 L141-Gow6 L138-Ysl0 L137-Rzk9 L136-Rym9 L135-Aej4 L134-Vda4 L133-Jp_8 L132-Kai9 L131-Qch1 L127-Kkl6 L126-Iug6 L125-Uqr5 L124-Miu7 L123-Ukb6 L122-Fqi0 L121-Qwa4 L117-Vpq9 L116-Ffw1 L115-Trx6 L114-U_j7 L113-Mks7 L112-Kau7 L111-Rzd5 L107-Sv_5 L106-Q_z8 L105-Vrb7 L104-Vat3 L103-Pce0 L102-E_g9 L101-Sx_8 L97-Uvf8 L96-Sq_2 L95-Wfe0 L94-Acx4 L93-Xcc3 L92-Atj5 L91-Gdk9 L87-Ysl0 L86-Csg2 L85-Dvq3 L84-T_n1 L83-Qsj8 L82-Vgv3 L81-Jmo0 L76-Drg8 L75-Hfv0 L74-Rsv1 L73-Ykc6 L72-Uoh0 L71-Dcm1 L66-Sge4 L65-Qgi0 L64-Jwn1 L63-B_s1 L62-Jwd0 L61-Soq8 L56-Ysl0 L55-Vcj1 L54-Xgr7 L53-Ewh5 L52-If_8 L51-Tpf1 L45-Ocb3 L44-Yps7 L43-Fk_8 L42-Uce7 L41-Bcs9 L35-Ysl0 L34-W_c7 L33-Ao_9 L32-Rhh0 L31-Mnj0 L24-Ysl0 L23-Jwo1 L22-Tcx1 L21-Bnw6 L13-K_i9 L12-Dcz6 L11-Fgp0 L3-Mho4 L2-Fwe6 L1-Wl_0
[90m-->23/23
[0m[90m-->25/25
[0m[90m-->25/25
[0m[90m-->30/30
[0m[90m-->31/31
[0m[90m-->32/33
[0m[90m-->32/36
[0m[90m-->32/41
[0m[90m-->32/42
[0m[90m-->32/43
[0mL294-Exs0 L293-Swu9 L292-Fri7 L291-Xuw0 L290-Bbl2 L289-Nft2 L288-Qpf7 L287-Bhx4 L286-Gpc1 L285-Tl_8 L284-Ypx3 L283-B_t8 L282-Fvv3 L281-Rlx5 L280-Br_4 L279-Zch9 L278-Wqd1 L277-Fln5 L276-Rzh4 L275-Ii_5 L274-Yh_8 L273-Phr1 L272-Ftp8 L271-Rlb5 L270-Qe_8 L269-Np_2 L268-Mxd8 L267-Zls0 L266-Fva4 L265-Nwf4 L264-Rrj4 L263-Vjf1 L262-Utx7 L261-Zmj4 L260-Tr_4 L259-Euq9 L258-Djz6 L257-Qd_9 L256-Het4 L255-Ihc7 L254-Ykg4 L253-Yfs1 L252-Qqq2 L251-Fou7 L250-Msq8 L249-Gye9 L248-Wvl7 L247-Aaw1 L246-Pxs5 L245-Asd8 L244-Unc6 L243-Jzv9 L242-Fod2 L241-Snr5 L240-Zrx7 L239-Sqp9 L238-Knj7 L237-Ucn4 L236-Ggr4 L235-Ot_9 L234-Jr_2 L233-Hok0 L232-Iwq2 L231-Wdy1 L230-Cyu7 L229-Hd_2 L228-Fhe5 L227-Kem7 L226-Hmn1 L225-Xgz5 L224-Xni9 L223-Uaw4 L222-Kmb6 L221-Cjy6 L220-Bki1 L219-Hbi7 L218-Eku9 L217-Khe4 L216-Dod5 L215-Aiy2 L214-U_x0 L213-Rka7 L212-Sgp8 L211-Jpd6 L210-Fpf1 L209-Jyv5 L208-Tti6 L207-Cha2 L206-Gqu4 L205-Sqo5 L204-Ean3 L203-Tcs5 L202-Fb_9 L201-Tfr6 L200-Fvq3 L199-Rxg1 L198-Ni_3 L197-Ezw7 L196-Zsq3 L195-Bpb0 L194-Yag5 L193-Qdx2 L192-Sfs6 L191-Je_3 L190-Hjj6 L189-Ojf3 L188-Vxe5 L187-Duq8 L186-Wdu0 L185-Tnr8 L184-Mtw2 L183-Ofz7 L182-Kg_0 L181-Bxp0 L180-Qyd9 L179-Ohd4 L178-Bbg1 L177-Pgk1 L176-Qfc2 L175-Qkr4 L174-Pm_2 L173-Hdj0 L172-Ye_5 L171-U_h6 L170-Ysl0 L169-Sbx1 L168-Rgm7 L167-Tcq1 L166-Mlo5 L165-Sfq2 L164-Dt_6 L163-Biu4 L162-Fmd1 L161-Jjd9 L159-Ysl0 L158-Zv_4 L157-Emk3 L156-Qkj6 L155-Oux4 L154-Yqz7 L153-Yh_2 L152-Czl9 L151-Gow6 L148-Ysl0 L147-Rzk9 L146-Rym9 L145-Aej4 L144-Vda4 L143-Jp_8 L142-Kai9 L141-Qch1 L137-Kkl6 L136-Iug6 L135-Uqr5 L134-Miu7 L133-Ukb6 L132-Fqi0 L131-Qwa4 L127-Vpq9 L126-Ffw1 L125-Trx6 L124-U_j7 L123-Mks7 L122-Kau7 L121-Rzd5 L117-Sv_5 L116-Q_z8 L115-Vrb7 L114-Vat3 L113-Pce0 L112-E_g9 L111-Sx_8 L107-Uvf8 L106-Sq_2 L105-Wfe0 L104-Acx4 L103-Xcc3 L102-Atj5 L101-Gdk9 L97-Ysl0 L96-Csg2 L95-Dvq3 L94-T_n1 L93-Qsj8 L92-Vgv3 L91-Jmo0 L86-Drg8 L85-Hfv0 L84-Rsv1 L83-Ykc6 L82-Uoh0 L81-Dcm1 L76-Sge4 L75-Qgi0 L74-Jwn1 L73-B_s1 L72-Jwd0 L71-Soq8 L66-Ysl0 L65-Vcj1 L64-Xgr7 L63-Ewh5 L62-If_8 L61-Tpf1 L55-Ocb3 L54-Yps7 L53-Fk_8 L52-Uce7 L51-Bcs9 L45-Ysl0 L44-W_c7 L43-Ao_9 L42-Rhh0 L41-Mnj0 L34-Ysl0 L33-Jwo1 L32-Tcx1 L31-Bnw6 L23-K_i9 L22-Dcz6 L21-Fgp0 L13-Mho4 L12-Fwe6 L11-Wl_0 L3-Kbs5 L2-Ftv2 L1-Zkn0
[90m-->23/23
[0m[90m-->25/25
[0m[90m-->25/25
[0m[90m-->30/30
[0m[90m-->31/31
[0m[90m-->33/33
[0m[90m-->33/36
[0m[90m-->33/41
[0m[90m-->33/42
[0m[90m-->33/43
[0mL299-Exs0 L298-Swu9 L297-Fri7 L296-Xuw0 L295-Bbl2 L294-Nft2 L293-Qpf7 L292-Bhx4 L291-Gpc1 L290-Tl_8 L289-B_t8 L288-Fvv3 L287-Rlx5 L286-Br_4 L285-Zch9 L284-Wqd1 L283-Rzh4 L282-Ii_5 L281-Yh_8 L280-Phr1 L279-Ftp8 L278-Rlb5 L277-Qe_8 L276-Np_2 L275-Mxd8 L274-Zls0 L273-Fva4 L272-Nwf4 L271-Rrj4 L270-Vjf1 L269-Utx7 L268-Zmj4 L267-Tr_4 L266-Euq9 L265-Djz6 L264-Qd_9 L263-Het4 L262-Ihc7 L261-Ykg4 L260-Yfs1 L259-Qqq2 L258-Fou7 L257-Msq8 L256-Gye9 L255-Wvl7 L254-Aaw1 L253-Pxs5 L252-Asd8 L251-Unc6 L250-Jzv9 L249-Fod2 L248-Sqp9 L247-Knj7 L246-Ucn4 L245-Ggr4 L244-Ot_9 L243-Jr_2 L242-Hok0 L241-Iwq2 L240-Wdy1 L239-Cyu7 L238-Hd_2 L237-Fhe5 L236-Kem7 L235-Hmn1 L234-Xgz5 L233-Xni9 L232-Uaw4 L231-Kmb6 L230-Bki1 L229-Hbi7 L228-Eku9 L227-Khe4 L226-Dod5 L225-Aiy2 L224-U_x0 L223-Rka7 L222-Sgp8 L221-Jpd6 L220-Fpf1 L219-Jyv5 L218-Tti6 L217-Cha2 L216-Gqu4 L215-Sqo5 L214-Ean3 L213-Tcs5 L212-Fb_9 L211-Tfr6 L210-Fvq3 L209-Rxg1 L208-Ni_3 L207-Ezw7 L206-Zsq3 L205-Bpb0 L204-Yag5 L203-Qdx2 L202-Sfs6 L201-Je_3 L200-Hjj6 L199-Ojf3 L198-Vxe5 L197-Duq8 L196-Wdu0 L195-Tnr8 L194-Mtw2 L193-Ofz7 L192-Kg_0 L191-Bxp0 L190-Qyd9 L189-Ohd4 L188-Bbg1 L187-Pgk1 L186-Qfc2 L185-Qkr4 L184-Pm_2 L183-Hdj0 L182-Ye_5 L181-U_h6 L180-Ysl0 L179-Sbx1 L178-Rgm7 L177-Tcq1 L176-Mlo5 L175-Sfq2 L174-Dt_6 L173-Biu4 L172-Fmd1 L171-Jjd9 L169-Ysl0 L168-Zv_4 L167-Emk3 L166-Qkj6 L165-Oux4 L164-Yqz7 L163-Yh_2 L162-Czl9 L161-Gow6 L158-Ysl0 L157-Rzk9 L156-Rym9 L155-Aej4 L154-Vda4 L153-Jp_8 L152-Kai9 L151-Qch1 L147-Kkl6 L146-Iug6 L145-Uqr5 L144-Miu7 L143-Ukb6 L142-Fqi0 L141-Qwa4 L137-Vpq9 L136-Ffw1 L135-Trx6 L134-U_j7 L133-Mks7 L132-Kau7 L131-Rzd5 L127-Sv_5 L126-Q_z8 L125-Vrb7 L124-Vat3 L123-Pce0 L122-E_g9 L121-Sx_8 L117-Uvf8 L116-Sq_2 L115-Wfe0 L114-Acx4 L113-Xcc3 L112-Atj5 L111-Gdk9 L107-Ysl0 L106-Csg2 L105-Dvq3 L104-T_n1 L103-Qsj8 L102-Vgv3 L101-Jmo0 L96-Drg8 L95-Hfv0 L94-Rsv1 L93-Ykc6 L92-Uoh0 L91-Dcm1 L86-Sge4 L85-Qgi0 L84-Jwn1 L83-B_s1 L82-Jwd0 L81-Soq8 L76-Ysl0 L75-Vcj1 L74-Xgr7 L73-Ewh5 L72-If_8 L71-Tpf1 L65-Ocb3 L64-Yps7 L63-Fk_8 L62-Uce7 L61-Bcs9 L55-Ysl0 L54-W_c7 L53-Ao_9 L52-Rhh0 L51-Mnj0 L44-Ysl0 L43-Jwo1 L42-Tcx1 L41-Bnw6 L33-K_i9 L32-Dcz6 L31-Fgp0 L23-Mho4 L22-Fwe6 L21-Wl_0 L13-Kbs5 L12-Ftv2 L11-Zkn0 L3-G_w1 L2-Bas0 L1-Dbv8
[90m-->23/23
[0m[90m-->25/25
[0m[90m-->25/25
[0m[90m-->30/30
[0m[90m-->31/31
[0m[90m-->33/33
[0m[90m-->34/36
[0m[90m-->34/41
[0m[90m-->34/42
[0m[90m-->34/43
[0mL303-Exs0 L302-Swu9 L301-Fri7 L300-Xuw0 L299-Nft2 L298-Qpf7 L297-Bhx4 L296-Gpc1 L295-Tl_8 L294-B_t8 L293-Fvv3 L292-Rlx5 L291-Br_4 L290-Zch9 L289-Rzh4 L288-Ii_5 L287-Yh_8 L286-Phr1 L285-Ftp8 L284-Rlb5 L283-Np_2 L282-Mxd8 L281-Zls0 L280-Fva4 L279-Nwf4 L278-Rrj4 L277-Vjf1 L276-Utx7 L275-Zmj4 L274-Tr_4 L273-Euq9 L272-Djz6 L271-Qd_9 L270-Het4 L269-Ihc7 L268-Ykg4 L267-Yfs1 L266-Qqq2 L265-Fou7 L264-Msq8 L263-Gye9 L262-Wvl7 L261-Aaw1 L260-Pxs5 L259-Asd8 L258-Unc6 L257-Jzv9 L256-Fod2 L255-Sqp9 L254-Knj7 L253-Ucn4 L252-Ggr4 L251-Ot_9 L250-Jr_2 L249-Hok0 L248-Cyu7 L247-Hd_2 L246-Fhe5 L245-Kem7 L244-Hmn1 L243-Xgz5 L242-Xni9 L241-Uaw4 L240-Kmb6 L239-Bki1 L238-Hbi7 L237-Eku9 L236-Khe4 L235-Dod5 L234-Aiy2 L233-U_x0 L232-Rka7 L231-Sgp8 L230-Fpf1 L229-Jyv5 L228-Tti6 L227-Cha2 L226-Gqu4 L225-Sqo5 L224-Ean3 L223-Tcs5 L222-Fb_9 L221-Tfr6 L220-Fvq3 L219-Rxg1 L218-Ni_3 L217-Ezw7 L216-Zsq3 L215-Bpb0 L214-Yag5 L213-Qdx2 L212-Sfs6 L211-Je_3 L210-Hjj6 L209-Ojf3 L208-Vxe5 L207-Duq8 L206-Wdu0 L205-Tnr8 L204-Mtw2 L203-Ofz7 L202-Kg_0 L201-Bxp0 L200-Qyd9 L199-Ohd4 L198-Bbg1 L197-Pgk1 L196-Qfc2 L195-Qkr4 L194-Pm_2 L193-Hdj0 L192-Ye_5 L191-U_h6 L190-Ysl0 L189-Sbx1 L188-Rgm7 L187-Tcq1 L186-Mlo5 L185-Sfq2 L184-Dt_6 L183-Biu4 L182-Fmd1 L181-Jjd9 L179-Ysl0 L178-Zv_4 L177-Emk3 L176-Qkj6 L175-Oux4 L174-Yqz7 L173-Yh_2 L172-Czl9 L171-Gow6 L168-Ysl0 L167-Rzk9 L166-Rym9 L165-Aej4 L164-Vda4 L163-Jp_8 L162-Kai9 L161-Qch1 L157-Kkl6 L156-Iug6 L155-Uqr5 L154-Miu7 L153-Ukb6 L152-Fqi0 L151-Qwa4 L147-Vpq9 L146-Ffw1 L145-Trx6 L144-U_j7 L143-Mks7 L142-Kau7 L141-Rzd5 L137-Sv_5 L136-Q_z8 L135-Vrb7 L134-Vat3 L133-Pce0 L132-E_g9 L131-Sx_8 L127-Uvf8 L126-Sq_2 L125-Wfe0 L124-Acx4 L123-Xcc3 L122-Atj5 L121-Gdk9 L117-Ysl0 L116-Csg2 L115-Dvq3 L114-T_n1 L113-Qsj8 L112-Vgv3 L111-Jmo0 L106-Drg8 L105-Hfv0 L104-Rsv1 L103-Ykc6 L102-Uoh0 L101-Dcm1 L96-Sge4 L95-Qgi0 L94-Jwn1 L93-B_s1 L92-Jwd0 L91-Soq8 L86-Ysl0 L85-Vcj1 L84-Xgr7 L83-Ewh5 L82-If_8 L81-Tpf1 L75-Ocb3 L74-Yps7 L73-Fk_8 L72-Uce7 L71-Bcs9 L65-Ysl0 L64-W_c7 L63-Ao_9 L62-Rhh0 L61-Mnj0 L54-Ysl0 L53-Jwo1 L52-Tcx1 L51-Bnw6 L43-K_i9 L42-Dcz6 L41-Fgp0 L33-Mho4 L32-Fwe6 L31-Wl_0 L23-Kbs5 L22-Ftv2 L21-Zkn0 L13-G_w1 L12-Bas0 L11-Dbv8 L3-Ysl0 L2-Ysl0 L1-Urn5
[90m-->23/23
[0m[90m-->25/25
[0m[90m-->25/25
[0m[90m-->30/30
[0m[90m-->31/31
[0m[90m-->33/33
[0m[90m-->35/36
[0m[90m-->35/41
[0m[90m-->35/42
[0m[90m-->35/43
[0mL307-Exs0 L306-Swu9 L305-Fri7 L304-Xuw0 L303-Nft2 L302-Qpf7 L301-Bhx4 L300-Gpc1 L299-B_t8 L298-Fvv3 L297-Rlx5 L296-Br_4 L295-Zch9 L294-Rzh4 L293-Ii_5 L292-Yh_8 L291-Phr1 L290-Ftp8 L289-Np_2 L288-Mxd8 L287-Zls0 L286-Fva4 L285-Nwf4 L284-Rrj4 L283-Utx7 L282-Zmj4 L281-Tr_4 L280-Euq9 L279-Djz6 L278-Qd_9 L277-Het4 L276-Ihc7 L275-Ykg4 L274-Yfs1 L273-Qqq2 L272-Fou7 L271-Msq8 L270-Gye9 L269-Wvl7 L268-Aaw1 L267-Pxs5 L266-Asd8 L265-Unc6 L264-Jzv9 L263-Fod2 L262-Sqp9 L261-Knj7 L260-Ucn4 L259-Ggr4 L258-Ot_9 L257-Jr_2 L256-Hok0 L255-Cyu7 L254-Hd_2 L253-Fhe5 L252-Kem7 L251-Hmn1 L250-Xgz5 L249-Xni9 L248-Bki1 L247-Hbi7 L246-Eku9 L245-Khe4 L244-Dod5 L243-Aiy2 L242-U_x0 L241-Rka7 L240-Sgp8 L239-Fpf1 L238-Jyv5 L237-Tti6 L236-Cha2 L235-Gqu4 L234-Sqo5 L233-Ean3 L232-Tcs5 L231-Fb_9 L230-Fvq3 L229-Rxg1 L228-Ni_3 L227-Ezw7 L226-Zsq3 L225-Bpb0 L224-Yag5 L223-Qdx2 L222-Sfs6 L221-Je_3 L220-Hjj6 L219-Ojf3 L218-Vxe5 L217-Duq8 L216-Wdu0 L215-Tnr8 L214-Mtw2 L213-Ofz7 L212-Kg_0 L211-Bxp0 L210-Qyd9 L209-Ohd4 L208-Bbg1 L207-Pgk1 L206-Qfc2 L205-Qkr4 L204-Pm_2 L203-Hdj0 L202-Ye_5 L201-U_h6 L200-Ysl0 L199-Sbx1 L198-Rgm7 L197-Tcq1 L196-Mlo5 L195-Sfq2 L194-Dt_6 L193-Biu4 L192-Fmd1 L191-Jjd9 L189-Ysl0 L188-Zv_4 L187-Emk3 L186-Qkj6 L185-Oux4 L184-Yqz7 L183-Yh_2 L182-Czl9 L181-Gow6 L178-Ysl0 L177-Rzk9 L176-Rym9 L175-Aej4 L174-Vda4 L173-Jp_8 L172-Kai9 L171-Qch1 L167-Kkl6 L166-Iug6 L165-Uqr5 L164-Miu7 L163-Ukb6 L162-Fqi0 L161-Qwa4 L157-Vpq9 L156-Ffw1 L155-Trx6 L154-U_j7 L153-Mks7 L152-Kau7 L151-Rzd5 L147-Sv_5 L146-Q_z8 L145-Vrb7 L144-Vat3 L143-Pce0 L142-E_g9 L141-Sx_8 L137-Uvf8 L136-Sq_2 L135-Wfe0 L134-Acx4 L133-Xcc3 L132-Atj5 L131-Gdk9 L127-Ysl0 L126-Csg2 L125-Dvq3 L124-T_n1 L123-Qsj8 L122-Vgv3 L121-Jmo0 L116-Drg8 L115-Hfv0 L114-Rsv1 L113-Ykc6 L112-Uoh0 L111-Dcm1 L106-Sge4 L105-Qgi0 L104-Jwn1 L103-B_s1 L102-Jwd0 L101-Soq8 L96-Ysl0 L95-Vcj1 L94-Xgr7 L93-Ewh5 L92-If_8 L91-Tpf1 L85-Ocb3 L84-Yps7 L83-Fk_8 L82-Uce7 L81-Bcs9 L75-Ysl0 L74-W_c7 L73-Ao_9 L72-Rhh0 L71-Mnj0 L64-Ysl0 L63-Jwo1 L62-Tcx1 L61-Bnw6 L53-K_i9 L52-Dcz6 L51-Fgp0 L43-Mho4 L42-Fwe6 L41-Wl_0 L33-Kbs5 L32-Ftv2 L31-Zkn0 L23-G_w1 L22-Bas0 L21-Dbv8 L13-Ysl0 L12-Ysl0 L11-Urn5 L1-Hwu5
[90m-->23/23
[0m[90m-->25/25
[0m[90m-->25/25
[0m[90m-->30/30
[0m[90m-->31/31
[0m[90m-->33/33
[0m[90m-->36/36
[0m[90m-->36/41
[0m[90m-->36/42
[0m[90m-->36/43
[0mL311-Exs0 L310-Swu9 L309-Fri7 L308-Xuw0 L307-Nft2 L306-Qpf7 L305-Bhx4 L304-Gpc1 L303-B_t8 L302-Fvv3 L301-Rlx5 L300-Br_4 L299-Rzh4 L298-Ii_5 L297-Yh_8 L296-Phr1 L295-Ftp8 L294-Np_2 L293-Mxd8 L292-Zls0 L291-Fva4 L290-Nwf4 L289-Utx7 L288-Zmj4 L287-Tr_4 L286-Euq9 L285-Djz6 L284-Qd_9 L283-Ihc7 L282-Ykg4 L281-Yfs1 L280-Qqq2 L279-Fou7 L278-Msq8 L277-Gye9 L276-Wvl7 L275-Aaw1 L274-Pxs5 L273-Asd8 L272-Unc6 L271-Jzv9 L270-Fod2 L269-Sqp9 L268-Knj7 L267-Ucn4 L266-Ggr4 L265-Ot_9 L264-Jr_2 L263-Hok0 L262-Cyu7 L261-Hd_2 L260-Fhe5 L259-Kem7 L258-Hmn1 L257-Xgz5 L256-Xni9 L255-Bki1 L254-Hbi7 L253-Eku9 L252-Khe4 L251-Dod5 L250-Aiy2 L249-U_x0 L248-Fpf1 L247-Jyv5 L246-Tti6 L245-Cha2 L244-Gqu4 L243-Sqo5 L242-Ean3 L241-Tcs5 L240-Fb_9 L239-Fvq3 L238-Rxg1 L237-Ni_3 L236-Ezw7 L235-Zsq3 L234-Bpb0 L233-Yag5 L232-Qdx2 L231-Sfs6 L230-Hjj6 L229-Ojf3 L228-Vxe5 L227-Duq8 L226-Wdu0 L225-Tnr8 L224-Mtw2 L223-Ofz7 L222-Kg_0 L221-Bxp0 L220-Qyd9 L219-Ohd4 L218-Bbg1 L217-Pgk1 L216-Qfc2 L215-Qkr4 L214-Pm_2 L213-Hdj0 L212-Ye_5 L211-U_h6 L210-Ysl0 L209-Sbx1 L208-Rgm7 L207-Tcq1 L206-Mlo5 L205-Sfq2 L204-Dt_6 L203-Biu4 L202-Fmd1 L201-Jjd9 L199-Ysl0 L198-Zv_4 L197-Emk3 L196-Qkj6 L195-Oux4 L194-Yqz7 L193-Yh_2 L192-Czl9 L191-Gow6 L188-Ysl0 L187-Rzk9 L186-Rym9 L185-Aej4 L184-Vda4 L183-Jp_8 L182-Kai9 L181-Qch1 L177-Kkl6 L176-Iug6 L175-Uqr5 L174-Miu7 L173-Ukb6 L172-Fqi0 L171-Qwa4 L167-Vpq9 L166-Ffw1 L165-Trx6 L164-U_j7 L163-Mks7 L162-Kau7 L161-Rzd5 L157-Sv_5 L156-Q_z8 L155-Vrb7 L154-Vat3 L153-Pce0 L152-E_g9 L151-Sx_8 L147-Uvf8 L146-Sq_2 L145-Wfe0 L144-Acx4 L143-Xcc3 L142-Atj5 L141-Gdk9 L137-Ysl0 L136-Csg2 L135-Dvq3 L134-T_n1 L133-Qsj8 L132-Vgv3 L131-Jmo0 L126-Drg8 L125-Hfv0 L124-Rsv1 L123-Ykc6 L122-Uoh0 L121-Dcm1 L116-Sge4 L115-Qgi0 L114-Jwn1 L113-B_s1 L112-Jwd0 L111-Soq8 L106-Ysl0 L105-Vcj1 L104-Xgr7 L103-Ewh5 L102-If_8 L101-Tpf1 L95-Ocb3 L94-Yps7 L93-Fk_8 L92-Uce7 L91-Bcs9 L85-Ysl0 L84-W_c7 L83-Ao_9 L82-Rhh0 L81-Mnj0 L74-Ysl0 L73-Jwo1 L72-Tcx1 L71-Bnw6 L63-K_i9 L62-Dcz6 L61-Fgp0 L53-Mho4 L52-Fwe6 L51-Wl_0 L43-Kbs5 L42-Ftv2 L41-Zkn0 L33-G_w1 L32-Bas0 L31-Dbv8 L23-Ysl0 L22-Ysl0 L21-Urn5 L11-Hwu5 L1-Ysl0
[90m-->23/23
[0m[90m-->25/25
[0m[90m-->25/25
[0m[90m-->30/30
[0m[90m-->31/31
[0m[90m-->33/33
[0m[90m-->36/36
[0m[90m-->37/41
[0m[90m-->37/42
[0m[90m-->37/43
[0mL314-Exs0 L313-Swu9 L312-Fri7 L311-Nft2 L310-Qpf7 L309-Bhx4 L308-Gpc1 L307-B_t8 L306-Fvv3 L305-Rlx5 L304-Br_4 L303-Rzh4 L302-Ii_5 L301-Yh_8 L300-Phr1 L299-Np_2 L298-Mxd8 L297-Zls0 L296-Fva4 L295-Nwf4 L294-Utx7 L293-Zmj4 L292-Tr_4 L291-Euq9 L290-Djz6 L289-Ihc7 L288-Ykg4 L287-Yfs1 L286-Qqq2 L285-Fou7 L284-Msq8 L283-Wvl7 L282-Aaw1 L281-Pxs5 L280-Asd8 L279-Unc6 L278-Jzv9 L277-Fod2 L276-Sqp9 L275-Knj7 L274-Ucn4 L273-Ggr4 L272-Ot_9 L271-Jr_2 L270-Hok0 L269-Cyu7 L268-Hd_2 L267-Fhe5 L266-Kem7 L265-Hmn1 L264-Xgz5 L263-Xni9 L262-Bki1 L261-Hbi7 L260-Eku9 L259-Khe4 L258-Dod5 L257-Aiy2 L256-U_x0 L255-Fpf1 L254-Jyv5 L253-Tti6 L252-Cha2 L251-Gqu4 L250-Sqo5 L249-Ean3 L248-Fvq3 L247-Rxg1 L246-Ni_3 L245-Ezw7 L244-Zsq3 L243-Bpb0 L242-Yag5 L241-Qdx2 L240-Sfs6 L239-Hjj6 L238-Ojf3 L237-Vxe5 L236-Duq8 L235-Wdu0 L234-Tnr8 L233-Mtw2 L232-Ofz7 L231-Kg_0 L230-Qyd9 L229-Ohd4 L228-Bbg1 L227-Pgk1 L226-Qfc2 L225-Qkr4 L224-Pm_2 L223-Hdj0 L222-Ye_5 L221-U_h6 L220-Ysl0 L219-Sbx1 L218-Rgm7 L217-Tcq1 L216-Mlo5 L215-Sfq2 L214-Dt_6 L213-Biu4 L212-Fmd1 L211-Jjd9 L209-Ysl0 L208-Zv_4 L207-Emk3 L206-Qkj6 L205-Oux4 L204-Yqz7 L203-Yh_2 L202-Czl9 L201-Gow6 L198-Ysl0 L197-Rzk9 L196-Rym9 L195-Aej4 L194-Vda4 L193-Jp_8 L192-Kai9 L191-Qch1 L187-Kkl6 L186-Iug6 L185-Uqr5 L184-Miu7 L183-Ukb6 L182-Fqi0 L181-Qwa4 L177-Vpq9 L176-Ffw1 L175-Trx6 L174-U_j7 L173-Mks7 L172-Kau7 L171-Rzd5 L167-Sv_5 L166-Q_z8 L165-Vrb7 L164-Vat3 L163-Pce0 L162-E_g9 L161-Sx_8 L157-Uvf8 L156-Sq_2 L155-Wfe0 L154-Acx4 L153-Xcc3 L152-Atj5 L151-Gdk9 L147-Ysl0 L146-Csg2 L145-Dvq3 L144-T_n1 L143-Qsj8 L142-Vgv3 L141-Jmo0 L136-Drg8 L135-Hfv0 L134-Rsv1 L133-Ykc6 L132-Uoh0 L131-Dcm1 L126-Sge4 L125-Qgi0 L124-Jwn1 L123-B_s1 L122-Jwd0 L121-Soq8 L116-Ysl0 L115-Vcj1 L114-Xgr7 L113-Ewh5 L112-If_8 L111-Tpf1 L105-Ocb3 L104-Yps7 L103-Fk_8 L102-Uce7 L101-Bcs9 L95-Ysl0 L94-W_c7 L93-Ao_9 L92-Rhh0 L91-Mnj0 L84-Ysl0 L83-Jwo1 L82-Tcx1 L81-Bnw6 L73-K_i9 L72-Dcz6 L71-Fgp0 L63-Mho4 L62-Fwe6 L61-Wl_0 L53-Kbs5 L52-Ftv2 L51-Zkn0 L43-G_w1 L42-Bas0 L41-Dbv8 L33-Ysl0 L32-Ysl0 L31-Urn5 L21-Hwu5 L11-Ysl0
[90m-->23/23
[0m[90m-->25/25
[0m[90m-->25/25
[0m[90m-->30/30
[0m[90m-->31/31
[0m[90m-->33/33
[0m[90m-->36/36
[0m[90m-->38/41
[0m[90m-->38/42
[0m[90m-->38/43
[0mL317-Exs0 L316-Swu9 L315-Fri7 L314-Nft2 L313-Qpf7 L312-Bhx4 L311-B_t8 L310-Fvv3 L309-Rlx5 L308-Br_4 L307-Rzh4 L306-Ii_5 L305-Yh_8 L304-Phr1 L303-Np_2 L302-Mxd8 L301-Zls0 L300-Fva4 L299-Utx7 L298-Zmj4 L297-Tr_4 L296-Euq9 L295-Djz6 L294-Ihc7 L293-Ykg4 L292-Yfs1 L291-Qqq2 L290-Fou7 L289-Wvl7 L288-Aaw1 L287-Pxs5 L286-Asd8 L285-Unc6 L284-Jzv9 L283-Sqp9 L282-Knj7 L281-Ucn4 L280-Ggr4 L279-Ot_9 L278-Jr_2 L277-Hok0 L276-Cyu7 L275-Hd_2 L274-Fhe5 L273-Kem7 L272-Hmn1 L271-Xgz5 L270-Xni9 L269-Bki1 L268-Hbi7 L267-Eku9 L266-Khe4 L265-Dod5 L264-Aiy2 L263-U_x0 L262-Fpf1 L261-Jyv5 L260-Tti6 L259-Cha2 L258-Gqu4 L257-Sqo5 L256-Ean3 L255-Fvq3 L254-Rxg1 L253-Ni_3 L252-Ezw7 L251-Zsq3 L250-Bpb0 L249-Yag5 L248-Hjj6 L247-Ojf3 L246-Vxe5 L245-Duq8 L244-Wdu0 L243-Tnr8 L242-Mtw2 L241-Ofz7 L240-Kg_0 L239-Qyd9 L238-Ohd4 L237-Bbg1 L236-Pgk1 L235-Qfc2 L234-Qkr4 L233-Pm_2 L232-Hdj0 L231-Ye_5 L230-Ysl0 L229-Sbx1 L228-Rgm7 L227-Tcq1 L226-Mlo5 L225-Sfq2 L224-Dt_6 L223-Biu4 L222-Fmd1 L221-Jjd9 L219-Ysl0 L218-Zv_4 L217-Emk3 L216-Qkj6 L215-Oux4 L214-Yqz7 L213-Yh_2 L212-Czl9 L211-Gow6 L208-Ysl0 L207-Rzk9 L206-Rym9 L205-Aej4 L204-Vda4 L203-Jp_8 L202-Kai9 L201-Qch1 L197-Kkl6 L196-Iug6 L195-Uqr5 L194-Miu7 L193-Ukb6 L192-Fqi0 L191-Qwa4 L187-Vpq9 L186-Ffw1 L185-Trx6 L184-U_j7 L183-Mks7 L182-Kau7 L181-Rzd5 L177-Sv_5 L176-Q_z8 L175-Vrb7 L174-Vat3 L173-Pce0 L172-E_g9 L171-Sx_8 L167-Uvf8 L166-Sq_2 L165-Wfe0 L164-Acx4 L163-Xcc3 L162-Atj5 L161-Gdk9 L157-Ysl0 L156-Csg2 L155-Dvq3 L154-T_n1 L153-Qsj8 L152-Vgv3 L151-Jmo0 L146-Drg8 L145-Hfv0 L144-Rsv1 L143-Ykc6 L142-Uoh0 L141-Dcm1 L136-Sge4 L135-Qgi0 L134-Jwn1 L133-B_s1 L132-Jwd0 L131-Soq8 L126-Ysl0 L125-Vcj1 L124-Xgr7 L123-Ewh5 L122-If_8 L121-Tpf1 L115-Ocb3 L114-Yps7 L113-Fk_8 L112-Uce7 L111-Bcs9 L105-Ysl0 L104-W_c7 L103-Ao_9 L102-Rhh0 L101-Mnj0 L94-Ysl0 L93-Jwo1 L92-Tcx1 L91-Bnw6 L83-K_i9 L82-Dcz6 L81-Fgp0 L73-Mho4 L72-Fwe6 L71-Wl_0 L63-Kbs5 L62-Ftv2 L61-Zkn0 L53-G_w1 L52-Bas0 L51-Dbv8 L43-Ysl0 L42-Ysl0 L41-Urn5 L31-Hwu5 L21-Ysl0
[90m-->23/23
[0m[90m-->25/25
[0m[90m-->25/25
[0m[90m-->30/30
[0m[90m-->31/31
[0m[90m-->33/33
[0m[90m-->36/36
[0m[90m-->39/41
[0m[90m-->39/42
[0m[90m-->39/43
[0mL320-Exs0 L319-Swu9 L318-Fri7 L317-Nft2 L316-Qpf7 L315-Bhx4 L314-B_t8 L313-Fvv3 L312-Rlx5 L311-Rzh4 L310-Ii_5 L309-Yh_8 L308-Phr1 L307-Np_2 L306-Mxd8 L305-Zls0 L304-Fva4 L303-Utx7 L302-Zmj4 L301-Tr_4 L300-Euq9 L299-Ihc7 L298-Ykg4 L297-Yfs1 L296-Qqq2 L295-Fou7 L294-Wvl7 L293-Aaw1 L292-Pxs5 L291-Asd8 L290-Unc6 L289-Sqp9 L288-Knj7 L287-Ucn4 L286-Ggr4 L285-Ot_9 L284-Jr_2 L283-Cyu7 L282-Hd_2 L281-Fhe5 L280-Kem7 L279-Hmn1 L278-Xgz5 L277-Xni9 L276-Bki1 L275-Hbi7 L274-Eku9 L273-Khe4 L272-Dod5 L271-Aiy2 L270-U_x0 L269-Fpf1 L268-Jyv5 L267-Tti6 L266-Cha2 L265-Gqu4 L264-Sqo5 L263-Ean3 L262-Fvq3 L261-Rxg1 L260-Ni_3 L259-Ezw7 L258-Zsq3 L257-Bpb0 L256-Yag5 L255-Hjj6 L254-Ojf3 L253-Vxe5 L252-Duq8 L251-Wdu0 L250-Tnr8 L249-Mtw2 L248-Qyd9 L247-Ohd4 L246-Bbg1 L245-Pgk1 L244-Qfc2 L243-Qkr4 L242-Pm_2 L241-Hdj0 L240-Ye_5 L239-Ysl0 L238-Sbx1 L237-Rgm7 L236-Tcq1 L235-Mlo5 L234-Sfq2 L233-Dt_6 L232-Biu4 L231-Fmd1 L229-Ysl0 L228-Zv_4 L227-Emk3 L226-Qkj6 L225-Oux4 L224-Yqz7 L223-Yh_2 L222-Czl9 L221-Gow6 L218-Ysl0 L217-Rzk9 L216-Rym9 L215-Aej4 L214-Vda4 L213-Jp_8 L212-Kai9 L211-Qch1 L207-Kkl6 L206-Iug6 L205-Uqr5 L204-Miu7 L203-Ukb6 L202-Fqi0 L201-Qwa4 L197-Vpq9 L196-Ffw1 L195-Trx6 L194-U_j7 L193-Mks7 L192-Kau7 L191-Rzd5 L187-Sv_5 L186-Q_z8 L185-Vrb7 L184-Vat3 L183-Pce0 L182-E_g9 L181-Sx_8 L177-Uvf8 L176-Sq_2 L175-Wfe0 L174-Acx4 L173-Xcc3 L172-Atj5 L171-Gdk9 L167-Ysl0 L166-Csg2 L165-Dvq3 L164-T_n1 L163-Qsj8 L162-Vgv3 L161-Jmo0 L156-Drg8 L155-Hfv0 L154-Rsv1 L153-Ykc6 L152-Uoh0 L151-Dcm1 L146-Sge4 L145-Qgi0 L144-Jwn1 L143-B_s1 L142-Jwd0 L141-Soq8 L136-Ysl0 L135-Vcj1 L134-Xgr7 L133-Ewh5 L132-If_8 L131-Tpf1 L125-Ocb3 L124-Yps7 L123-Fk_8 L122-Uce7 L121-Bcs9 L115-Ysl0 L114-W_c7 L113-Ao_9 L112-Rhh0 L111-Mnj0 L104-Ysl0 L103-Jwo1 L102-Tcx1 L101-Bnw6 L93-K_i9 L92-Dcz6 L91-Fgp0 L83-Mho4 L82-Fwe6 L81-Wl_0 L73-Kbs5 L72-Ftv2 L71-Zkn0 L63-G_w1 L62-Bas0 L61-Dbv8 L53-Ysl0 L52-Ysl0 L51-Urn5 L41-Hwu5 L31-Ysl0
[90m-->23/23
[0m[90m-->25/25
[0m[90m-->25/25
[0m[90m-->30/30
[0m[90m-->31/31
[0m[90m-->33/33
[0m[90m-->36/36
[0m[90m-->40/41
[0m[90m-->40/42
[0m[90m-->40/43
[0mL323-Exs0 L322-Swu9 L321-Fri7 L320-Nft2 L319-Qpf7 L318-Bhx4 L317-B_t8 L316-Fvv3 L315-Rlx5 L314-Rzh4 L313-Ii_5 L312-Yh_8 L311-Np_2 L310-Mxd8 L309-Zls0 L308-Fva4 L307-Utx7 L306-Zmj4 L305-Tr_4 L304-Euq9 L303-Ihc7 L302-Ykg4 L301-Yfs1 L300-Qqq2 L299-Wvl7 L298-Aaw1 L297-Pxs5 L296-Asd8 L295-Unc6 L294-Sqp9 L293-Knj7 L292-Ucn4 L291-Ggr4 L290-Ot_9 L289-Cyu7 L288-Hd_2 L287-Fhe5 L286-Kem7 L285-Hmn1 L284-Xgz5 L283-Bki1 L282-Hbi7 L281-Eku9 L280-Khe4 L279-Dod5 L278-Aiy2 L277-U_x0 L276-Fpf1 L275-Jyv5 L274-Tti6 L273-Cha2 L272-Gqu4 L271-Sqo5 L270-Ean3 L269-Fvq3 L268-Rxg1 L267-Ni_3 L266-Ezw7 L265-Zsq3 L264-Bpb0 L263-Yag5 L262-Hjj6 L261-Ojf3 L260-Vxe5 L259-Duq8 L258-Wdu0 L257-Tnr8 L256-Mtw2 L255-Qyd9 L254-Ohd4 L253-Bbg1 L252-Pgk1 L251-Qfc2 L250-Qkr4 L249-Pm_2 L248-Ysl0 L247-Sbx1 L246-Rgm7 L245-Tcq1 L244-Mlo5 L243-Sfq2 L242-Dt_6 L241-Biu4 L240-Fmd1 L238-Ysl0 L237-Zv_4 L236-Emk3 L235-Qkj6 L234-Oux4 L233-Yqz7 L232-Yh_2 L231-Czl9 L228-Ysl0 L227-Rzk9 L226-Rym9 L225-Aej4 L224-Vda4 L223-Jp_8 L222-Kai9 L221-Qch1 L217-Kkl6 L216-Iug6 L215-Uqr5 L214-Miu7 L213-Ukb6 L212-Fqi0 L211-Qwa4 L207-Vpq9 L206-Ffw1 L205-Trx6 L204-U_j7 L203-Mks7 L202-Kau7 L201-Rzd5 L197-Sv_5 L196-Q_z8 L195-Vrb7 L194-Vat3 L193-Pce0 L192-E_g9 L191-Sx_8 L187-Uvf8 L186-Sq_2 L185-Wfe0 L184-Acx4 L183-Xcc3 L182-Atj5 L181-Gdk9 L177-Ysl0 L176-Csg2 L175-Dvq3 L174-T_n1 L173-Qsj8 L172-Vgv3 L171-Jmo0 L166-Drg8 L165-Hfv0 L164-Rsv1 L163-Ykc6 L162-Uoh0 L161-Dcm1 L156-Sge4 L155-Qgi0 L154-Jwn1 L153-B_s1 L152-Jwd0 L151-Soq8 L146-Ysl0 L145-Vcj1 L144-Xgr7 L143-Ewh5 L142-If_8 L141-Tpf1 L135-Ocb3 L134-Yps7 L133-Fk_8 L132-Uce7 L131-Bcs9 L125-Ysl0 L124-W_c7 L123-Ao_9 L122-Rhh0 L121-Mnj0 L114-Ysl0 L113-Jwo1 L112-Tcx1 L111-Bnw6 L103-K_i9 L102-Dcz6 L101-Fgp0 L93-Mho4 L92-Fwe6 L91-Wl_0 L83-Kbs5 L82-Ftv2 L81-Zkn0 L73-G_w1 L72-Bas0 L71-Dbv8 L63-Ysl0 L62-Ysl0 L61-Urn5 L51-Hwu5 L41-Ysl0
L323-Nft2 L322-Qpf7 L321-Bhx4 L320-B_t8 L319-Fvv3 L318-Rlx5 L317-Rzh4 L316-Ii_5 L315-Yh_8 L314-Np_2 L313-Mxd8 L312-Zls0 L311-Utx7 L310-Zmj4 L309-Tr_4 L308-Euq9 L307-Ihc7 L306-Ykg4 L305-Yfs1 L304-Qqq2 L303-Wvl7 L302-Aaw1 L301-Pxs5 L300-Asd8 L299-Sqp9 L298-Knj7 L297-Ucn4 L296-Ggr4 L295-Ot_9 L294-Cyu7 L293-Hd_2 L292-Fhe5 L291-Kem7 L290-Hmn1 L289-Bki1 L288-Hbi7 L287-Eku9 L286-Khe4 L285-Dod5 L284-Aiy2 L283-Fpf1 L282-Jyv5 L281-Tti6 L280-Cha2 L279-Gqu4 L278-Sqo5 L277-Ean3 L276-Fvq3 L275-Rxg1 L274-Ni_3 L273-Ezw7 L272-Zsq3 L271-Bpb0 L270-Yag5 L269-Hjj6 L268-Ojf3 L267-Vxe5 L266-Duq8 L265-Wdu0 L264-Tnr8 L263-Mtw2 L262-Qyd9 L261-Ohd4 L260-Bbg1 L259-Pgk1 L258-Qfc2 L257-Qkr4 L256-Pm_2 L255-Ysl0 L254-Sbx1 L253-Rgm7 L252-Tcq1 L251-Mlo5 L250-Sfq2 L249-Dt_6 L247-Ysl0 L246-Zv_4 L245-Emk3 L244-Qkj6 L243-Oux4 L242-Yqz7 L241-Yh_2 L240-Czl9 L237-Ysl0 L236-Rzk9 L235-Rym9 L234-Aej4 L233-Vda4 L232-Jp_8 L231-Kai9 L227-Kkl6 L226-Iug6 L225-Uqr5 L224-Miu7 L223-Ukb6 L222-Fqi0 L221-Qwa4 L217-Vpq9 L216-Ffw1 L215-Trx6 L214-U_j7 L213-Mks7 L212-Kau7 L211-Rzd5 L207-Sv_5 L206-Q_z8 L205-Vrb7 L204-Vat3 L203-Pce0 L202-E_g9 L201-Sx_8 L197-Uvf8 L196-Sq_2 L195-Wfe0 L194-Acx4 L193-Xcc3 L192-Atj5 L191-Gdk9 L187-Ysl0 L186-Csg2 L185-Dvq3 L184-T_n1 L183-Qsj8 L182-Vgv3 L181-Jmo0 L176-Drg8 L175-Hfv0 L174-Rsv1 L173-Ykc6 L172-Uoh0 L171-Dcm1 L166-Sge4 L165-Qgi0 L164-Jwn1 L163-B_s1 L162-Jwd0 L161-Soq8 L156-Ysl0 L155-Vcj1 L154-Xgr7 L153-Ewh5 L152-If_8 L151-Tpf1 L145-Ocb3 L144-Yps7 L143-Fk_8 L142-Uce7 L141-Bcs9 L135-Ysl0 L134-W_c7 L133-Ao_9 L132-Rhh0 L131-Mnj0 L124-Ysl0 L123-Jwo1 L122-Tcx1 L121-Bnw6 L113-K_i9 L112-Dcz6 L111-Fgp0 L103-Mho4 L102-Fwe6 L101-Wl_0 L93-Kbs5 L92-Ftv2 L91-Zkn0 L83-G_w1 L82-Bas0 L81-Dbv8 L73-Ysl0 L72-Ysl0 L71-Urn5 L61-Hwu5 L51-Ysl0
L323-B_t8 L322-Fvv3 L321-Rlx5 L320-Rzh4 L319-Ii_5 L318-Yh_8 L317-Np_2 L316-Mxd8 L315-Zls0 L314-Utx7 L313-Zmj4 L312-Tr_4 L311-Ihc7 L310-Ykg4 L309-Yfs1 L308-Qqq2 L307-Wvl7 L306-Aaw1 L305-Pxs5 L304-Asd8 L303-Sqp9 L302-Knj7 L301-Ucn4 L300-Ggr4 L299-Cyu7 L298-Hd_2 L297-Fhe5 L296-Kem7 L295-Hmn1 L294-Bki1 L293-Hbi7 L292-Eku9 L291-Khe4 L290-Dod5 L289-Fpf1 L288-Jyv5 L287-Tti6 L286-Cha2 L285-Gqu4 L284-Sqo5 L283-Fvq3 L282-Rxg1 L281-Ni_3 L280-Ezw7 L279-Zsq3 L278-Bpb0 L277-Yag5 L276-Hjj6 L275-Ojf3 L274-Vxe5 L273-Duq8 L272-Wdu0 L271-Tnr8 L270-Mtw2 L269-Qyd9 L268-Ohd4 L267-Bbg1 L266-Pgk1 L265-Qfc2 L264-Qkr4 L263-Pm_2 L262-Ysl0 L261-Sbx1 L260-Rgm7 L259-Tcq1 L258-Mlo5 L257-Sfq2 L256-Dt_6 L254-Ysl0 L253-Zv_4 L252-Emk3 L251-Qkj6 L250-Oux4 L249-Yqz7 L246-Ysl0 L245-Rzk9 L244-Rym9 L243-Aej4 L242-Vda4 L241-Jp_8 L240-Kai9 L236-Kkl6 L235-Iug6 L234-Uqr5 L233-Miu7 L232-Ukb6 L231-Fqi0 L227-Vpq9 L226-Ffw1 L225-Trx6 L224-U_j7 L223-Mks7 L222-Kau7 L221-Rzd5 L217-Sv_5 L216-Q_z8 L215-Vrb7 L214-Vat3 L213-Pce0 L212-E_g9 L211-Sx_8 L207-Uvf8 L206-Sq_2 L205-Wfe0 L204-Acx4 L203-Xcc3 L202-Atj5 L201-Gdk9 L197-Ysl0 L196-Csg2 L195-Dvq3 L194-T_n1 L193-Qsj8 L192-Vgv3 L191-Jmo0 L186-Drg8 L185-Hfv0 L184-Rsv1 L183-Ykc6 L182-Uoh0 L181-Dcm1 L176-Sge4 L175-Qgi0 L174-Jwn1 L173-B_s1 L172-Jwd0 L171-Soq8 L166-Ysl0 L165-Vcj1 L164-Xgr7 L163-Ewh5 L162-If_8 L161-Tpf1 L155-Ocb3 L154-Yps7 L153-Fk_8 L152-Uce7 L151-Bcs9 L145-Ysl0 L144-W_c7 L143-Ao_9 L142-Rhh0 L141-Mnj0 L134-Ysl0 L133-Jwo1 L132-Tcx1 L131-Bnw6 L123-K_i9 L122-Dcz6 L121-Fgp0 L113-Mho4 L112-Fwe6 L111-Wl_0 L103-Kbs5 L102-Ftv2 L101-Zkn0 L93-G_w1 L92-Bas0 L91-Dbv8 L83-Ysl0 L82-Ysl0 L81-Urn5 L71-Hwu5 L61-Ysl0
L323-Rzh4 L322-Ii_5 L321-Yh_8 L320-Np_2 L319-Mxd8 L318-Zls0 L317-Utx7 L316-Zmj4 L315-Tr_4 L314-Ihc7 L313-Ykg4 L312-Yfs1 L311-Wvl7 L310-Aaw1 L309-Pxs5 L308-Asd8 L307-Sqp9 L306-Knj7 L305-Ucn4 L304-Ggr4 L303-Cyu7 L302-Hd_2 L301-Fhe5 L300-Kem7 L299-Bki1 L298-Hbi7 L297-Eku9 L296-Khe4 L295-Dod5 L294-Fpf1 L293-Jyv5 L292-Tti6 L291-Cha2 L290-Gqu4 L289-Fvq3 L288-Rxg1 L287-Ni_3 L286-Ezw7 L285-Zsq3 L284-Bpb0 L283-Hjj6 L282-Ojf3 L281-Vxe5 L280-Duq8 L279-Wdu0 L278-Tnr8 L277-Mtw2 L276-Qyd9 L275-Ohd4 L274-Bbg1 L273-Pgk1 L272-Qfc2 L271-Qkr4 L270-Pm_2 L269-Ysl0 L268-Sbx1 L267-Rgm7 L266-Tcq1 L265-Mlo5 L264-Sfq2 L263-Dt_6 L261-Ysl0 L260-Zv_4 L259-Emk3 L258-Qkj6 L257-Oux4 L256-Yqz7 L253-Ysl0 L252-Rzk9 L251-Rym9 L250-Aej4 L249-Vda4 L245-Kkl6 L244-Iug6 L243-Uqr5 L242-Miu7 L241-Ukb6 L240-Fqi0 L236-Vpq9 L235-Ffw1 L234-Trx6 L233-U_j7 L232-Mks7 L231-Kau7 L227-Sv_5 L226-Q_z8 L225-Vrb7 L224-Vat3 L223-Pce0 L222-E_g9 L221-Sx_8 L217-Uvf8 L216-Sq_2 L215-Wfe0 L214-Acx4 L213-Xcc3 L212-Atj5 L211-Gdk9 L207-Ysl0 L206-Csg2 L205-Dvq3 L204-T_n1 L203-Qsj8 L202-Vgv3 L201-Jmo0 L196-Drg8 L195-Hfv0 L194-Rsv1 L193-Ykc6 L192-Uoh0 L191-Dcm1 L186-Sge4 L185-Qgi0 L184-Jwn1 L183-B_s1 L182-Jwd0 L181-Soq8 L176-Ysl0 L175-Vcj1 L174-Xgr7 L173-Ewh5 L172-If_8 L171-Tpf1 L165-Ocb3 L164-Yps7 L163-Fk_8 L162-Uce7 L161-Bcs9 L155-Ysl0 L154-W_c7 L153-Ao_9 L152-Rhh0 L151-Mnj0 L144-Ysl0 L143-Jwo1 L142-Tcx1 L141-Bnw6 L133-K_i9 L132-Dcz6 L131-Fgp0 L123-Mho4 L122-Fwe6 L121-Wl_0 L113-Kbs5 L112-Ftv2 L111-Zkn0 L103-G_w1 L102-Bas0 L101-Dbv8 L93-Ysl0 L92-Ysl0 L91-Urn5 L81-Hwu5 L71-Ysl0
L323-Np_2 L322-Mxd8 L321-Zls0 L320-Utx7 L319-Zmj4 L318-Tr_4 L317-Ihc7 L316-Ykg4 L315-Yfs1 L314-Wvl7 L313-Aaw1 L312-Pxs5 L311-Sqp9 L310-Knj7 L309-Ucn4 L308-Ggr4 L307-Cyu7 L306-Hd_2 L305-Fhe5 L304-Kem7 L303-Bki1 L302-Hbi7 L301-Eku9 L300-Khe4 L299-Fpf1 L298-Jyv5 L297-Tti6 L296-Cha2 L295-Gqu4 L294-Fvq3 L293-Rxg1 L292-Ni_3 L291-Ezw7 L290-Zsq3 L289-Hjj6 L288-Ojf3 L287-Vxe5 L286-Duq8 L285-Wdu0 L284-Tnr8 L283-Qyd9 L282-Ohd4 L281-Bbg1 L280-Pgk1 L279-Qfc2 L278-Qkr4 L277-Pm_2 L276-Ysl0 L275-Sbx1 L274-Rgm7 L273-Tcq1 L272-Mlo5 L271-Sfq2 L270-Dt_6 L268-Ysl0 L267-Zv_4 L266-Emk3 L265-Qkj6 L264-Oux4 L263-Yqz7 L260-Ysl0 L259-Rzk9 L258-Rym9 L257-Aej4 L256-Vda4 L252-Kkl6 L251-Iug6 L250-Uqr5 L249-Miu7 L245-Vpq9 L244-Ffw1 L243-Trx6 L242-U_j7 L241-Mks7 L240-Kau7 L236-Sv_5 L235-Q_z8 L234-Vrb7 L233-Vat3 L232-Pce0 L231-E_g9 L227-Uvf8 L226-Sq_2 L225-Wfe0 L224-Acx4 L223-Xcc3 L222-Atj5 L221-Gdk9 L217-Ysl0 L216-Csg2 L215-Dvq3 L214-T_n1 L213-Qsj8 L212-Vgv3 L211-Jmo0 L206-Drg8 L205-Hfv0 L204-Rsv1 L203-Ykc6 L202-Uoh0 L201-Dcm1 L196-Sge4 L195-Qgi0 L194-Jwn1 L193-B_s1 L192-Jwd0 L191-Soq8 L186-Ysl0 L185-Vcj1 L184-Xgr7 L183-Ewh5 L182-If_8 L181-Tpf1 L175-Ocb3 L174-Yps7 L173-Fk_8 L172-Uce7 L171-Bcs9 L165-Ysl0 L164-W_c7 L163-Ao_9 L162-Rhh0 L161-Mnj0 L154-Ysl0 L153-Jwo1 L152-Tcx1 L151-Bnw6 L143-K_i9 L142-Dcz6 L141-Fgp0 L133-Mho4 L132-Fwe6 L131-Wl_0 L123-Kbs5 L122-Ftv2 L121-Zkn0 L113-G_w1 L112-Bas0 L111-Dbv8 L103-Ysl0 L102-Ysl0 L101-Urn5 L91-Hwu5 L81-Ysl0
L323-Utx7 L322-Zmj4 L321-Tr_4 L320-Ihc7 L319-Ykg4 L318-Yfs1 L317-Wvl7 L316-Aaw1 L315-Pxs5 L314-Sqp9 L313-Knj7 L312-Ucn4 L311-Cyu7 L310-Hd_2 L309-Fhe5 L308-Kem7 L307-Bki1 L306-Hbi7 L305-Eku9 L304-Khe4 L303-Fpf1 L302-Jyv5 L301-Tti6 L300-Cha2 L299-Fvq3 L298-Rxg1 L297-Ni_3 L296-Ezw7 L295-Zsq3 L294-Hjj6 L293-Ojf3 L292-Vxe5 L291-Duq8 L290-Wdu0 L289-Qyd9 L288-Ohd4 L287-Bbg1 L286-Pgk1 L285-Qfc2 L284-Qkr4 L283-Ysl0 L282-Sbx1 L281-Rgm7 L280-Tcq1 L279-Mlo5 L278-Sfq2 L277-Dt_6 L275-Ysl0 L274-Zv_4 L273-Emk3 L272-Qkj6 L271-Oux4 L270-Yqz7 L267-Ysl0 L266-Rzk9 L265-Rym9 L264-Aej4 L263-Vda4 L259-Kkl6 L258-Iug6 L257-Uqr5 L256-Miu7 L252-Vpq9 L251-Ffw1 L250-Trx6 L249-U_j7 L245-Sv_5 L244-Q_z8 L243-Vrb7 L242-Vat3 L241-Pce0 L240-E_g9 L236-Uvf8 L235-Sq_2 L234-Wfe0 L233-Acx4 L232-Xcc3 L231-Atj5 L227-Ysl0 L226-Csg2 L225-Dvq3 L224-T_n1 L223-Qsj8 L222-Vgv3 L221-Jmo0 L216-Drg8 L215-Hfv0 L214-Rsv1 L213-Ykc6 L212-Uoh0 L211-Dcm1 L206-Sge4 L205-Qgi0 L204-Jwn1 L203-B_s1 L202-Jwd0 L201-Soq8 L196-Ysl0 L195-Vcj1 L194-Xgr7 L193-Ewh5 L192-If_8 L191-Tpf1 L185-Ocb3 L184-Yps7 L183-Fk_8 L182-Uce7 L181-Bcs9 L175-Ysl0 L174-W_c7 L173-Ao_9 L172-Rhh0 L171-Mnj0 L164-Ysl0 L163-Jwo1 L162-Tcx1 L161-Bnw6 L153-K_i9 L152-Dcz6 L151-Fgp0 L143-Mho4 L142-Fwe6 L141-Wl_0 L133-Kbs5 L132-Ftv2 L131-Zkn0 L123-G_w1 L122-Bas0 L121-Dbv8 L113-Ysl0 L112-Ysl0 L111-Urn5 L101-Hwu5 L91-Ysl0
L323-Ihc7 L322-Ykg4 L321-Yfs1 L320-Wvl7 L319-Aaw1 L318-Pxs5 L317-Sqp9 L316-Knj7 L315-Ucn4 L314-Cyu7 L313-Hd_2 L312-Fhe5 L311-Bki1 L310-Hbi7 L309-Eku9 L308-Khe4 L307-Fpf1 L306-Jyv5 L305-Tti6 L304-Cha2 L303-Fvq3 L302-Rxg1 L301-Ni_3 L300-Ezw7 L299-Hjj6 L298-Ojf3 L297-Vxe5 L296-Duq8 L295-Wdu0 L294-Qyd9 L293-Ohd4 L292-Bbg1 L291-Pgk1 L290-Qfc2 L289-Ysl0 L288-Sbx1 L287-Rgm7 L286-Tcq1 L285-Mlo5 L284-Sfq2 L282-Ysl0 L281-Zv_4 L280-Emk3 L279-Qkj6 L278-Oux4 L277-Yqz7 L274-Ysl0 L273-Rzk9 L272-Rym9 L271-Aej4 L270-Vda4 L266-Kkl6 L265-Iug6 L264-Uqr5 L263-Miu7 L259-Vpq9 L258-Ffw1 L257-Trx6 L256-U_j7 L252-Sv_5 L251-Q_z8 L250-Vrb7 L249-Vat3 L245-Uvf8 L244-Sq_2 L243-Wfe0 L242-Acx4 L241-Xcc3 L240-Atj5 L236-Ysl0 L235-Csg2 L234-Dvq3 L233-T_n1 L232-Qsj8 L231-Vgv3 L226-Drg8 L225-Hfv0 L224-Rsv1 L223-Ykc6 L222-Uoh0 L221-Dcm1 L216-Sge4 L215-Qgi0 L214-Jwn1 L213-B_s1 L212-Jwd0 L211-Soq8 L206-Ysl0 L205-Vcj1 L204-Xgr7 L203-Ewh5 L202-If_8 L201-Tpf1 L195-Ocb3 L194-Yps7 L193-Fk_8 L192-Uce7 L191-Bcs9 L185-Ysl0 L184-W_c7 L183-Ao_9 L182-Rhh0 L181-Mnj0 L174-Ysl0 L173-Jwo1 L172-Tcx1 L171-Bnw6 L163-K_i9 L162-Dcz6 L161-Fgp0 L153-Mho4 L152-Fwe6 L151-Wl_0 L143-Kbs5 L142-Ftv2 L141-Zkn0 L133-G_w1 L132-Bas0 L131-Dbv8 L123-Ysl0 L122-Ysl0 L121-Urn5 L111-Hwu5 L101-Ysl0
L323-Wvl7 L322-Aaw1 L321-Pxs5 L320-Sqp9 L319-Knj7 L318-Ucn4 L317-Cyu7 L316-Hd_2 L315-Fhe5 L314-Bki1 L313-Hbi7 L312-Eku9 L311-Fpf1 L310-Jyv5 L309-Tti6 L308-Cha2 L307-Fvq3 L306-Rxg1 L305-Ni_3 L304-Ezw7 L303-Hjj6 L302-Ojf3 L301-Vxe5 L300-Duq8 L299-Qyd9 L298-Ohd4 L297-Bbg1 L296-Pgk1 L295-Qfc2 L294-Ysl0 L293-Sbx1 L292-Rgm7 L291-Tcq1 L290-Mlo5 L288-Ysl0 L287-Zv_4 L286-Emk3 L285-Qkj6 L284-Oux4 L281-Ysl0 L280-Rzk9 L279-Rym9 L278-Aej4 L277-Vda4 L273-Kkl6 L272-Iug6 L271-Uqr5 L270-Miu7 L266-Vpq9 L265-Ffw1 L264-Trx6 L263-U_j7 L259-Sv_5 L258-Q_z8 L257-Vrb7 L256-Vat3 L252-Uvf8 L251-Sq_2 L250-Wfe0 L249-Acx4 L245-Ysl0 L244-Csg2 L243-Dvq3 L242-T_n1 L241-Qsj8 L240-Vgv3 L235-Drg8 L234-Hfv0 L233-Rsv1 L232-Ykc6 L231-Uoh0 L226-Sge4 L225-Qgi0 L224-Jwn1 L223-B_s1 L222-Jwd0 L221-Soq8 L216-Ysl0 L215-Vcj1 L214-Xgr7 L213-Ewh5 L212-If_8 L211-Tpf1 L205-Ocb3 L204-Yps7 L203-Fk_8 L202-Uce7 L201-Bcs9 L195-Ysl0 L194-W_c7 L193-Ao_9 L192-Rhh0 L191-Mnj0 L184-Ysl0 L183-Jwo1 L182-Tcx1 L181-Bnw6 L173-K_i9 L172-Dcz6 L171-Fgp0 L163-Mho4 L162-Fwe6 L161-Wl_0 L153-Kbs5 L152-Ftv2 L151-Zkn0 L143-G_w1 L142-Bas0 L141-Dbv8 L133-Ysl0 L132-Ysl0 L131-Urn5 L121-Hwu5 L111-Ysl0
L323-Sqp9 L322-Knj7 L321-Ucn4 L320-Cyu7 L319-Hd_2 L318-Fhe5 L317-Bki1 L316-Hbi7 L315-Eku9 L314-Fpf1 L313-Jyv5 L312-Tti6 L311-Fvq3 L310-Rxg1 L309-Ni_3 L308-Ezw7 L307-Hjj6 L306-Ojf3 L305-Vxe5 L304-Duq8 L303-Qyd9 L302-Ohd4 L301-Bbg1 L300-Pgk1 L299-Ysl0 L298-Sbx1 L297-Rgm7 L296-Tcq1 L295-Mlo5 L293-Ysl0 L292-Zv_4 L291-Emk3 L290-Qkj6 L287-Ysl0 L286-Rzk9 L285-Rym9 L284-Aej4 L280-Kkl6 L279-Iug6 L278-Uqr5 L277-Miu7 L273-Vpq9 L272-Ffw1 L271-Trx6 L270-U_j7 L266-Sv_5 L265-Q_z8 L264-Vrb7 L263-Vat3 L259-Uvf8 L258-Sq_2 L257-Wfe0 L256-Acx4 L252-Ysl0 L251-Csg2 L250-Dvq3 L249-T_n1 L244-Drg8 L243-Hfv0 L242-Rsv1 L241-Ykc6 L240-Uoh0 L235-Sge4 L234-Qgi0 L233-Jwn1 L232-B_s1 L231-Jwd0 L226-Ysl0 L225-Vcj1 L224-Xgr7 L223-Ewh5 L222-If_8 L221-Tpf1 L215-Ocb3 L214-Yps7 L213-Fk_8 L212-Uce7 L211-Bcs9 L205-Ysl0 L204-W_c7 L203-Ao_9 L202-Rhh0 L201-Mnj0 L194-Ysl0 L193-Jwo1 L192-Tcx1 L191-Bnw6 L183-K_i9 L182-Dcz6 L181-Fgp0 L173-Mho4 L172-Fwe6 L171-Wl_0 L163-Kbs5 L162-Ftv2 L161-Zkn0 L153-G_w1 L152-Bas0 L151-Dbv8 L143-Ysl0 L142-Ysl0 L141-Urn5 L131-Hwu5 L121-Ysl0
L323-Cyu7 L322-Hd_2 L321-Fhe5 L320-Bki1 L319-Hbi7 L318-Eku9 L317-Fpf1 L316-Jyv5 L315-Tti6 L314-Fvq3 L313-Rxg1 L312-Ni_3 L311-Hjj6 L310-Ojf3 L309-Vxe5 L308-Duq8 L307-Qyd9 L306-Ohd4 L305-Bbg1 L304-Pgk1 L303-Ysl0 L302-Sbx1 L301-Rgm7 L300-Tcq1 L298-Ysl0 L297-Zv_4 L296-Emk3 L295-Qkj6 L292-Ysl0 L291-Rzk9 L290-Rym9 L286-Kkl6 L285-Iug6 L284-Uqr5 L280-Vpq9 L279-Ffw1 L278-Trx6 L277-U_j7 L273-Sv_5 L272-Q_z8 L271-Vrb7 L270-Vat3 L266-Uvf8 L265-Sq_2 L264-Wfe0 L263-Acx4 L259-Ysl0 L258-Csg2 L257-Dvq3 L256-T_n1 L251-Drg8 L250-Hfv0 L249-Rsv1 L244-Sge4 L243-Qgi0 L242-Jwn1 L241-B_s1 L240-Jwd0 L235-Ysl0 L234-Vcj1 L233-Xgr7 L232-Ewh5 L231-If_8 L225-Ocb3 L224-Yps7 L223-Fk_8 L222-Uce7 L221-Bcs9 L215-Ysl0 L214-W_c7 L213-Ao_9 L212-Rhh0 L211-Mnj0 L204-Ysl0 L203-Jwo1 L202-Tcx1 L201-Bnw6 L193-K_i9 L192-Dcz6 L191-Fgp0 L183-Mho4 L182-Fwe6 L181-Wl_0 L173-Kbs5 L172-Ftv2 L171-Zkn0 L163-G_w1 L162-Bas0 L161-Dbv8 L153-Ysl0 L152-Ysl0 L151-Urn5 L141-Hwu5 L131-Ysl0
L323-Bki1 L322-Hbi7 L321-Eku9 L320-Fpf1 L319-Jyv5 L318-Tti6 L317-Fvq3 L316-Rxg1 L315-Ni_3 L314-Hjj6 L313-Ojf3 L312-Vxe5 L311-Qyd9 L310-Ohd4 L309-Bbg1 L308-Pgk1 L307-Ysl0 L306-Sbx1 L305-Rgm7 L304-Tcq1 L302-Ysl0 L301-Zv_4 L300-Emk3 L297-Ysl0 L296-Rzk9 L295-Rym9 L291-Kkl6 L290-Iug6 L286-Vpq9 L285-Ffw1 L284-Trx6 L280-Sv_5 L279-Q_z8 L278-Vrb7 L277-Vat3 L273-Uvf8 L272-Sq_2 L271-Wfe0 L270-Acx4 L266-Ysl0 L265-Csg2 L264-Dvq3 L263-T_n1 L258-Drg8 L257-Hfv0 L256-Rsv1 L251-Sge4 L250-Qgi0 L249-Jwn1 L244-Ysl0 L243-Vcj1 L242-Xgr7 L241-Ewh5 L240-If_8 L234-Ocb3 L233-Yps7 L232-Fk_8 L231-Uce7 L225-Ysl0 L224-W_c7 L223-Ao_9 L222-Rhh0 L221-Mnj0 L214-Ysl0 L213-Jwo1 L212-Tcx1 L211-Bnw6 L203-K_i9 L202-Dcz6 L201-Fgp0 L193-Mho4 L192-Fwe6 L191-Wl_0 L183-Kbs5 L182-Ftv2 L181-Zkn0 L173-G_w1 L172-Bas0 L171-Dbv8 L163-Ysl0 L162-Ysl0 L161-Urn5 L151-Hwu5 L141-Ysl0
L323-Fpf1 L322-Jyv5 L321-Tti6 L320-Fvq3 L319-Rxg1 L318-Ni_3 L317-Hjj6 L316-Ojf3 L315-Vxe5 L314-Qyd9 L313-Ohd4 L312-Bbg1 L311-Ysl0 L310-Sbx1 L309-Rgm7 L308-Tcq1 L306-Ysl0 L305-Zv_4 L304-Emk3 L301-Ysl0 L300-Rzk9 L296-Kkl6 L295-Iug6 L291-Vpq9 L290-Ffw1 L286-Sv_5 L285-Q_z8 L284-Vrb7 L280-Uvf8 L279-Sq_2 L278-Wfe0 L277-Acx4 L273-Ysl0 L272-Csg2 L271-Dvq3 L270-T_n1 L265-Drg8 L264-Hfv0 L263-Rsv1 L258-Sge4 L257-Qgi0 L256-Jwn1 L251-Ysl0 L250-Vcj1 L249-Xgr7 L243-Ocb3 L242-Yps7 L241-Fk_8 L240-Uce7 L234-Ysl0 L233-W_c7 L232-Ao_9 L231-Rhh0 L224-Ysl0 L223-Jwo1 L222-Tcx1 L221-Bnw6 L213-K_i9 L212-Dcz6 L211-Fgp0 L203-Mho4 L202-Fwe6 L201-Wl_0 L193-Kbs5 L192-Ftv2 L191-Zkn0 L183-G_w1 L182-Bas0 L181-Dbv8 L173-Ysl0 L172-Ysl0 L171-Urn5 L161-Hwu5 L151-Ysl0
L323-Fvq3 L322-Rxg1 L321-Ni_3 L320-Hjj6 L319-Ojf3 L318-Vxe5 L317-Qyd9 L316-Ohd4 L315-Bbg1 L314-Ysl0 L313-Sbx1 L312-Rgm7 L310-Ysl0 L309-Zv_4 L308-Emk3 L305-Ysl0 L304-Rzk9 L300-Kkl6 L296-Vpq9 L295-Ffw1 L291-Sv_5 L290-Q_z8 L286-Uvf8 L285-Sq_2 L284-Wfe0 L280-Ysl0 L279-Csg2 L278-Dvq3 L277-T_n1 L272-Drg8 L271-Hfv0 L270-Rsv1 L265-Sge4 L264-Qgi0 L263-Jwn1 L258-Ysl0 L257-Vcj1 L256-Xgr7 L250-Ocb3 L249-Yps7 L243-Ysl0 L242-W_c7 L241-Ao_9 L240-Rhh0 L233-Ysl0 L232-Jwo1 L231-Tcx1 L223-K_i9 L222-Dcz6 L221-Fgp0 L213-Mho4 L212-Fwe6 L211-Wl_0 L203-Kbs5 L202-Ftv2 L201-Zkn0 L193-G_w1 L192-Bas0 L191-Dbv8 L183-Ysl0 L182-Ysl0 L181-Urn5 L171-Hwu5 L161-Ysl0
L323-Hjj6 L322-Ojf3 L321-Vxe5 L320-Qyd9 L319-Ohd4 L318-Bbg1 L317-Ysl0 L316-Sbx1 L315-Rgm7 L313-Ysl0 L312-Zv_4 L309-Ysl0 L308-Rzk9 L304-Kkl6 L300-Vpq9 L296-Sv_5 L295-Q_z8 L291-Uvf8 L290-Sq_2 L286-Ysl0 L285-Csg2 L284-Dvq3 L279-Drg8 L278-Hfv0 L277-Rsv1 L272-Sge4 L271-Qgi0 L270-Jwn1 L265-Ysl0 L264-Vcj1 L263-Xgr7 L257-Ocb3 L256-Yps7 L250-Ysl0 L249-W_c7 L242-Ysl0 L241-Jwo1 L240-Tcx1 L232-K_i9 L231-Dcz6 L223-Mho4 L222-Fwe6 L221-Wl_0 L213-Kbs5 L212-Ftv2 L211-Zkn0 L203-G_w1 L202-Bas0 L201-Dbv8 L193-Ysl0 L192-Ysl0 L191-Urn5 L181-Hwu5 L171-Ysl0
L323-Qyd9 L322-Ohd4 L321-Bbg1 L320-Ysl0 L319-Sbx1 L318-Rgm7 L316-Ysl0 L315-Zv_4 L312-Ysl0 L308-Kkl6 L304-Vpq9 L300-Sv_5 L296-Uvf8 L295-Sq_2 L291-Ysl0 L290-Csg2 L285-Drg8 L284-Hfv0 L279-Sge4 L278-Qgi0 L277-Jwn1 L272-Ysl0 L271-Vcj1 L270-Xgr7 L264-Ocb3 L263-Yps7 L257-Ysl0 L256-W_c7 L249-Ysl0 L241-K_i9 L240-Dcz6 L232-Mho4 L231-Fwe6 L223-Kbs5 L222-Ftv2 L221-Zkn0 L213-G_w1 L212-Bas0 L211-Dbv8 L203-Ysl0 L202-Ysl0 L201-Urn5 L191-Hwu5 L181-Ysl0
L323-Ysl0 L322-Sbx1 L321-Rgm7 L319-Ysl0 L318-Zv_4 L315-Ysl0 L308-Vpq9 L304-Sv_5 L300-Uvf8 L296-Ysl0 L295-Csg2 L290-Drg8 L285-Sge4 L284-Qgi0 L279-Ysl0 L278-Vcj1 L277-Xgr7 L271-Ocb3 L270-Yps7 L264-Ysl0 L263-W_c7 L256-Ysl0 L241-Mho4 L240-Fwe6 L232-Kbs5 L231-Ftv2 L223-G_w1 L222-Bas0 L221-Dbv8 L213-Ysl0 L212-Ysl0 L211-Urn5 L201-Hwu5 L191-Ysl0
L322-Ysl0 L321-Zv_4 L318-Ysl0 L308-Sv_5 L304-Uvf8 L300-Ysl0 L295-Drg8 L290-Sge4 L285-Ysl0 L284-Vcj1 L278-Ocb3 L277-Yps7 L271-Ysl0 L270-W_c7 L263-Ysl0 L241-Kbs5 L240-Ftv2 L232-G_w1 L231-Bas0 L223-Ysl0 L222-Ysl0 L221-Urn5 L211-Hwu5 L201-Ysl0
L321-Ysl0 L308-Uvf8 L304-Ysl0 L295-Sge4 L290-Ysl0 L284-Ocb3 L278-Ysl0 L277-W_c7 L270-Ysl0 L241-G_w1 L240-Bas0 L232-Ysl0 L231-Ysl0 L221-Hwu5 L211-Ysl0
L308-Ysl0 L295-Ysl0 L284-Ysl0 L277-Ysl0 L241-Ysl0 L240-Ysl0 L221-Ysl0
[92m->lines number: 58
[0m
