all
[94m->finding paths...
[0m[94m-->starting edm_karp...
[0m[94m--->starting bfs...
[0m[94m--->finish bfs.
[0m[90mPaths:
size: 6
Qxd3->Vkw0->Dik0->Jq_0->Rdh4->Vip7->G_n0


[0m[94m--->starting bfs...
[0m[94m--->finish bfs.
[0m[90mPaths:
size: 22
Qxd3->Wuv5->Jap6->Tjm7->Ira0->Oim6->Rwn2->Fq_2->H_g1->B_v1->Tia9->Tqp5->Fsd2->V_a8->Pyt0->Trc5->Izc6->Ygz3->Azb0->Ctq9->Qun5->Cho1->G_n0
size: 6
Qxd3->Vkw0->Dik0->Jq_0->Rdh4->Vip7->G_n0


[0m[94m--->starting bfs...
[0m[94m--->finish bfs.
[0m[90mPaths:
size: 26
Qxd3->Tmq7->Rzr2->Ah_3->Nfc1->Ubm5->Pyw9->N_r0->Ghm0->M_b0->T_d0->Gjj6->Ymm8->Rf_0->Jwx2->Sca7->Jsy9->Zzd1->Kgq5->Scx1->Mfp6->Asq3->Ptk7->My_6->Riv4->Vxw4->G_n0
size: 22
Qxd3->Wuv5->Jap6->Tjm7->Ira0->Oim6->Rwn2->Fq_2->H_g1->B_v1->Tia9->Tqp5->Fsd2->V_a8->Pyt0->Trc5->Izc6->Ygz3->Azb0->Ctq9->Qun5->Cho1->G_n0
size: 6
Qxd3->Vkw0->Dik0->Jq_0->Rdh4->Vip7->G_n0


[0m[94m--->starting bfs...
[0m[94m--->finish bfs.
[0m[90mPaths:
size: 43
Qxd3->Tpt2->Hbj2->Aea1->Hak2->Cil9->Uve0->Yxy0->Ych5->Wft0->Ixx1->Wfe2->S_s5->Knr9->I_v0->Cij7->Mve2->Ioz7->Paq3->Tgk3->Svm6->Xyg0->Zpr7->Fwy3->Jhr8->Kyr2->Zca5->Ptl9->Cwg1->P_o3->Slc1->Sgj0->Qgs6->Mqk8->Tgt9->Eps7->Dsg9->Cfw8->Uw_3->Mrw0->Eti9->Fwg0->Jem9->G_n0
size: 26
Qxd3->Tmq7->Rzr2->Ah_3->Nfc1->Ubm5->Pyw9->N_r0->Ghm0->M_b0->T_d0->Gjj6->Ymm8->Rf_0->Jwx2->Sca7->Jsy9->Zzd1->Kgq5->Scx1->Mfp6->Asq3->Ptk7->My_6->Riv4->Vxw4->G_n0
size: 22
Qxd3->Wuv5->Jap6->Tjm7->Ira0->Oim6->Rwn2->Fq_2->H_g1->B_v1->Tia9->Tqp5->Fsd2->V_a8->Pyt0->Trc5->Izc6->Ygz3->Azb0->Ctq9->Qun5->Cho1->G_n0
size: 6
Qxd3->Vkw0->Dik0->Jq_0->Rdh4->Vip7->G_n0


[0m[94m--->starting bfs...
[0m[94m--->finish bfs.
[0m[90mPaths:
size: 50
Qxd3->Zer9->Ycc5->Cmu5->E_u3->Dzw4->Bin5->Rd_2->Ufg1->Ruz2->Wni2->Jtf0->Cll3->Zum6->Jbw9->X_s8->Tyi1->Rfy0->H_q9->Qwq8->Hwx0->Ins3->Pg_3->Phv6->Drm4->Ieh8->Fi_9->Zry4->Kni4->Gut0->Geh1->X_d3->Zkq6->Pfa9->Qum4->Jqh6->Ryw3->Ixm0->Hzc4->Fky1->Brc9->P_d7->Dts9->Guz0->C_q5->Je_2->Icc7->Shz6->Zja9->S_c8->G_n0
size: 43
Qxd3->Tpt2->Hbj2->Aea1->Hak2->Cil9->Uve0->Yxy0->Ych5->Wft0->Ixx1->Wfe2->S_s5->Knr9->I_v0->Cij7->Mve2->Ioz7->Paq3->Tgk3->Svm6->Xyg0->Zpr7->Fwy3->Jhr8->Kyr2->Zca5->Ptl9->Cwg1->P_o3->Slc1->Sgj0->Qgs6->Mqk8->Tgt9->Eps7->Dsg9->Cfw8->Uw_3->Mrw0->Eti9->Fwg0->Jem9->G_n0
size: 26
Qxd3->Tmq7->Rzr2->Ah_3->Nfc1->Ubm5->Pyw9->N_r0->Ghm0->M_b0->T_d0->Gjj6->Ymm8->Rf_0->Jwx2->Sca7->Jsy9->Zzd1->Kgq5->Scx1->Mfp6->Asq3->Ptk7->My_6->Riv4->Vxw4->G_n0
size: 22
Qxd3->Wuv5->Jap6->Tjm7->Ira0->Oim6->Rwn2->Fq_2->H_g1->B_v1->Tia9->Tqp5->Fsd2->V_a8->Pyt0->Trc5->Izc6->Ygz3->Azb0->Ctq9->Qun5->Cho1->G_n0
size: 6
Qxd3->Vkw0->Dik0->Jq_0->Rdh4->Vip7->G_n0


[0m[94m--->starting bfs...
[0m[94m--->finish bfs.
[0m[90mPaths:
size: 54
Qxd3->Kua7->Qxg7->Nma9->M_c1->Fw_6->Joq7->Nkv2->Gzr2->Cuo2->Ajb1->Slp4->J_t2->Jkb8->Sge4->Wux1->Nwa3->Rhe6->Nnt9->J_f2->Ipy1->Djw4->Klw0->Wsx9->Nkg3->Opl2->Gxd4->Hcq4->Ggj8->Yff9->Pkd4->O_d4->Tub1->Bdd4->Glw3->Byp7->Ubc9->O_n5->Atu4->Kzr6->Mgi7->Doa2->Bau7->Is_1->Pwr1->P_z3->Vfy0->Vhs7->Is_6->Rm_4->Gjy1->Mio8->Qow0->Nml9->G_n0
size: 50
Qxd3->Zer9->Ycc5->Cmu5->E_u3->Dzw4->Bin5->Rd_2->Ufg1->Ruz2->Wni2->Jtf0->Cll3->Zum6->Jbw9->X_s8->Tyi1->Rfy0->H_q9->Qwq8->Hwx0->Ins3->Pg_3->Phv6->Drm4->Ieh8->Fi_9->Zry4->Kni4->Gut0->Geh1->X_d3->Zkq6->Pfa9->Qum4->Jqh6->Ryw3->Ixm0->Hzc4->Fky1->Brc9->P_d7->Dts9->Guz0->C_q5->Je_2->Icc7->Shz6->Zja9->S_c8->G_n0
size: 43
Qxd3->Tpt2->Hbj2->Aea1->Hak2->Cil9->Uve0->Yxy0->Ych5->Wft0->Ixx1->Wfe2->S_s5->Knr9->I_v0->Cij7->Mve2->Ioz7->Paq3->Tgk3->Svm6->Xyg0->Zpr7->Fwy3->Jhr8->Kyr2->Zca5->Ptl9->Cwg1->P_o3->Slc1->Sgj0->Qgs6->Mqk8->Tgt9->Eps7->Dsg9->Cfw8->Uw_3->Mrw0->Eti9->Fwg0->Jem9->G_n0
size: 26
Qxd3->Tmq7->Rzr2->Ah_3->Nfc1->Ubm5->Pyw9->N_r0->Ghm0->M_b0->T_d0->Gjj6->Ymm8->Rf_0->Jwx2->Sca7->Jsy9->Zzd1->Kgq5->Scx1->Mfp6->Asq3->Ptk7->My_6->Riv4->Vxw4->G_n0
size: 22
Qxd3->Wuv5->Jap6->Tjm7->Ira0->Oim6->Rwn2->Fq_2->H_g1->B_v1->Tia9->Tqp5->Fsd2->V_a8->Pyt0->Trc5->Izc6->Ygz3->Azb0->Ctq9->Qun5->Cho1->G_n0
size: 6
Qxd3->Vkw0->Dik0->Jq_0->Rdh4->Vip7->G_n0


[0m[94m--->starting bfs...
[0m[94m--->finish bfs.
[0m[90mPaths:
size: 58
Qxd3->Vqp7->Cji5->Ele0->Cpm7->Wxq8->Jjh1->Ojs2->Kws4->Voc8->Naq1->Yri9->Ssy0->Abk4->Dgm8->Npm6->Tg_7->Ck_1->Fvq0->Ovj1->Pt_0->Dof9->Yah9->Vvc9->Cqe3->Zsn0->Csq7->Xf_9->Enc9->Xaz2->Blw1->Jgb2->Hzu7->O__4->Jsb0->Jil3->A_q2->Tne7->Rvv2->Vmc4->W_c6->Qbo8->Jou3->A_e2->Jiz0->Wzf8->Sk_7->Eba6->Hku6->Rcd4->Zvz1->Jp_9->Zr_5->M_r6->Eyi4->Gzt2->Fbm1->Alw9->G_n0
size: 54
Qxd3->Kua7->Qxg7->Nma9->M_c1->Fw_6->Joq7->Nkv2->Gzr2->Cuo2->Ajb1->Slp4->J_t2->Jkb8->Sge4->Wux1->Nwa3->Rhe6->Nnt9->J_f2->Ipy1->Djw4->Klw0->Wsx9->Nkg3->Opl2->Gxd4->Hcq4->Ggj8->Yff9->Pkd4->O_d4->Tub1->Bdd4->Glw3->Byp7->Ubc9->O_n5->Atu4->Kzr6->Mgi7->Doa2->Bau7->Is_1->Pwr1->P_z3->Vfy0->Vhs7->Is_6->Rm_4->Gjy1->Mio8->Qow0->Nml9->G_n0
size: 50
Qxd3->Zer9->Ycc5->Cmu5->E_u3->Dzw4->Bin5->Rd_2->Ufg1->Ruz2->Wni2->Jtf0->Cll3->Zum6->Jbw9->X_s8->Tyi1->Rfy0->H_q9->Qwq8->Hwx0->Ins3->Pg_3->Phv6->Drm4->Ieh8->Fi_9->Zry4->Kni4->Gut0->Geh1->X_d3->Zkq6->Pfa9->Qum4->Jqh6->Ryw3->Ixm0->Hzc4->Fky1->Brc9->P_d7->Dts9->Guz0->C_q5->Je_2->Icc7->Shz6->Zja9->S_c8->G_n0
size: 43
Qxd3->Tpt2->Hbj2->Aea1->Hak2->Cil9->Uve0->Yxy0->Ych5->Wft0->Ixx1->Wfe2->S_s5->Knr9->I_v0->Cij7->Mve2->Ioz7->Paq3->Tgk3->Svm6->Xyg0->Zpr7->Fwy3->Jhr8->Kyr2->Zca5->Ptl9->Cwg1->P_o3->Slc1->Sgj0->Qgs6->Mqk8->Tgt9->Eps7->Dsg9->Cfw8->Uw_3->Mrw0->Eti9->Fwg0->Jem9->G_n0
size: 26
Qxd3->Tmq7->Rzr2->Ah_3->Nfc1->Ubm5->Pyw9->N_r0->Ghm0->M_b0->T_d0->Gjj6->Ymm8->Rf_0->Jwx2->Sca7->Jsy9->Zzd1->Kgq5->Scx1->Mfp6->Asq3->Ptk7->My_6->Riv4->Vxw4->G_n0
size: 22
Qxd3->Wuv5->Jap6->Tjm7->Ira0->Oim6->Rwn2->Fq_2->H_g1->B_v1->Tia9->Tqp5->Fsd2->V_a8->Pyt0->Trc5->Izc6->Ygz3->Azb0->Ctq9->Qun5->Cho1->G_n0
size: 6
Qxd3->Vkw0->Dik0->Jq_0->Rdh4->Vip7->G_n0


[0m[94m--->starting bfs...
[0m[94m--->finish bfs.
[0m[90m----->found crossing edge.
[0medge: B_v1->Tia9
[90m----->found crossing edge.
[0m[90mPaths:
size: 58
Qxd3->Vqp7->Cji5->Ele0->Cpm7->Wxq8->Jjh1->Ojs2->Kws4->Voc8->Naq1->Yri9->Ssy0->Abk4->Dgm8->Npm6->Tg_7->Ck_1->Fvq0->Ovj1->Pt_0->Dof9->Yah9->Vvc9->Cqe3->Zsn0->Csq7->Xf_9->Enc9->Xaz2->Blw1->Jgb2->Hzu7->O__4->Jsb0->Jil3->A_q2->Tne7->Rvv2->Vmc4->W_c6->Qbo8->Jou3->A_e2->Jiz0->Wzf8->Sk_7->Eba6->Hku6->Rcd4->Zvz1->Jp_9->Zr_5->M_r6->Eyi4->Gzt2->Fbm1->Alw9->G_n0
size: 54
Qxd3->Kua7->Qxg7->Nma9->M_c1->Fw_6->Joq7->Nkv2->Gzr2->Cuo2->Ajb1->Slp4->J_t2->Jkb8->Sge4->Wux1->Nwa3->Rhe6->Nnt9->J_f2->Ipy1->Djw4->Klw0->Wsx9->Nkg3->Opl2->Gxd4->Hcq4->Ggj8->Yff9->Pkd4->O_d4->Tub1->Bdd4->Glw3->Byp7->Ubc9->O_n5->Atu4->Kzr6->Mgi7->Doa2->Bau7->Is_1->Pwr1->P_z3->Vfy0->Vhs7->Is_6->Rm_4->Gjy1->Mio8->Qow0->Nml9->G_n0
size: 50
Qxd3->Zer9->Ycc5->Cmu5->E_u3->Dzw4->Bin5->Rd_2->Ufg1->Ruz2->Wni2->Jtf0->Cll3->Zum6->Jbw9->X_s8->Tyi1->Rfy0->H_q9->Qwq8->Hwx0->Ins3->Pg_3->Phv6->Drm4->Ieh8->Fi_9->Zry4->Kni4->Gut0->Geh1->X_d3->Zkq6->Pfa9->Qum4->Jqh6->Ryw3->Ixm0->Hzc4->Fky1->Brc9->P_d7->Dts9->Guz0->C_q5->Je_2->Icc7->Shz6->Zja9->S_c8->G_n0
size: 43
Qxd3->Tpt2->Hbj2->Aea1->Hak2->Cil9->Uve0->Yxy0->Ych5->Wft0->Ixx1->Wfe2->S_s5->Knr9->I_v0->Cij7->Mve2->Ioz7->Paq3->Tgk3->Svm6->Xyg0->Zpr7->Fwy3->Jhr8->Kyr2->Zca5->Ptl9->Cwg1->P_o3->Slc1->Sgj0->Qgs6->Mqk8->Tgt9->Eps7->Dsg9->Cfw8->Uw_3->Mrw0->Eti9->Fwg0->Jem9->G_n0
size: 26
Qxd3->Tmq7->Rzr2->Ah_3->Nfc1->Ubm5->Pyw9->N_r0->Ghm0->M_b0->T_d0->Gjj6->Ymm8->Rf_0->Jwx2->Sca7->Jsy9->Zzd1->Kgq5->Scx1->Mfp6->Asq3->Ptk7->My_6->Riv4->Vxw4->G_n0
size: 22
Qxd3->Wuv5->Jap6->Tjm7->Ira0->Oim6->Rwn2->Fq_2->H_g1->B_v1->Tia9->Tqp5->Fsd2->V_a8->Pyt0->Trc5->Izc6->Ygz3->Azb0->Ctq9->Qun5->Cho1->G_n0
size: 6
Qxd3->Vkw0->Dik0->Jq_0->Rdh4->Vip7->G_n0


[0m[94m--->starting bfs...
[0m[94m--->finish bfs.
[0m[90mPaths:
size: 58
Qxd3->Vqp7->Cji5->Ele0->Cpm7->Wxq8->Jjh1->Ojs2->Kws4->Voc8->Naq1->Yri9->Ssy0->Abk4->Dgm8->Npm6->Tg_7->Ck_1->Fvq0->Ovj1->Pt_0->Dof9->Yah9->Vvc9->Cqe3->Zsn0->Csq7->Xf_9->Enc9->Xaz2->Blw1->Jgb2->Hzu7->O__4->Jsb0->Jil3->A_q2->Tne7->Rvv2->Vmc4->W_c6->Qbo8->Jou3->A_e2->Jiz0->Wzf8->Sk_7->Eba6->Hku6->Rcd4->Zvz1->Jp_9->Zr_5->M_r6->Eyi4->Gzt2->Fbm1->Alw9->G_n0
size: 54
Qxd3->Kua7->Qxg7->Nma9->M_c1->Fw_6->Joq7->Nkv2->Gzr2->Cuo2->Ajb1->Slp4->J_t2->Jkb8->Sge4->Wux1->Nwa3->Rhe6->Nnt9->J_f2->Ipy1->Djw4->Klw0->Wsx9->Nkg3->Opl2->Gxd4->Hcq4->Ggj8->Yff9->Pkd4->O_d4->Tub1->Bdd4->Glw3->Byp7->Ubc9->O_n5->Atu4->Kzr6->Mgi7->Doa2->Bau7->Is_1->Pwr1->P_z3->Vfy0->Vhs7->Is_6->Rm_4->Gjy1->Mio8->Qow0->Nml9->G_n0
size: 50
Qxd3->Zer9->Ycc5->Cmu5->E_u3->Dzw4->Bin5->Rd_2->Ufg1->Ruz2->Wni2->Jtf0->Cll3->Zum6->Jbw9->X_s8->Tyi1->Rfy0->H_q9->Qwq8->Hwx0->Ins3->Pg_3->Phv6->Drm4->Ieh8->Fi_9->Zry4->Kni4->Gut0->Geh1->X_d3->Zkq6->Pfa9->Qum4->Jqh6->Ryw3->Ixm0->Hzc4->Fky1->Brc9->P_d7->Dts9->Guz0->C_q5->Je_2->Icc7->Shz6->Zja9->S_c8->G_n0
size: 43
Qxd3->Tpt2->Hbj2->Aea1->Hak2->Cil9->Uve0->Yxy0->Ych5->Wft0->Ixx1->Wfe2->S_s5->Knr9->I_v0->Cij7->Mve2->Ioz7->Paq3->Tgk3->Svm6->Xyg0->Zpr7->Fwy3->Jhr8->Kyr2->Zca5->Ptl9->Cwg1->P_o3->Slc1->Sgj0->Qgs6->Mqk8->Tgt9->Eps7->Dsg9->Cfw8->Uw_3->Mrw0->Eti9->Fwg0->Jem9->G_n0
size: 26
Qxd3->Tmq7->Rzr2->Ah_3->Nfc1->Ubm5->Pyw9->N_r0->Ghm0->M_b0->T_d0->Gjj6->Ymm8->Rf_0->Jwx2->Sca7->Jsy9->Zzd1->Kgq5->Scx1->Mfp6->Asq3->Ptk7->My_6->Riv4->Vxw4->G_n0
size: 22
Qxd3->Wuv5->Jap6->Tjm7->Ira0->Oim6->Rwn2->Fq_2->H_g1->B_v1->Tia9->Tqp5->Fsd2->V_a8->Pyt0->Trc5->Izc6->Ygz3->Azb0->Ctq9->Qun5->Cho1->G_n0
size: 6
Qxd3->Vkw0->Dik0->Jq_0->Rdh4->Vip7->G_n0


[0m[94m-->finish edm_karp.
[0m[90mPaths:
size: 58
Qxd3->Vqp7->Cji5->Ele0->Cpm7->Wxq8->Jjh1->Ojs2->Kws4->Voc8->Naq1->Yri9->Ssy0->Abk4->Dgm8->Npm6->Tg_7->Ck_1->Fvq0->Ovj1->Pt_0->Dof9->Yah9->Vvc9->Cqe3->Zsn0->Csq7->Xf_9->Enc9->Xaz2->Blw1->Jgb2->Hzu7->O__4->Jsb0->Jil3->A_q2->Tne7->Rvv2->Vmc4->W_c6->Qbo8->Jou3->A_e2->Jiz0->Wzf8->Sk_7->Eba6->Hku6->Rcd4->Zvz1->Jp_9->Zr_5->M_r6->Eyi4->Gzt2->Fbm1->Alw9->G_n0
size: 54
Qxd3->Kua7->Qxg7->Nma9->M_c1->Fw_6->Joq7->Nkv2->Gzr2->Cuo2->Ajb1->Slp4->J_t2->Jkb8->Sge4->Wux1->Nwa3->Rhe6->Nnt9->J_f2->Ipy1->Djw4->Klw0->Wsx9->Nkg3->Opl2->Gxd4->Hcq4->Ggj8->Yff9->Pkd4->O_d4->Tub1->Bdd4->Glw3->Byp7->Ubc9->O_n5->Atu4->Kzr6->Mgi7->Doa2->Bau7->Is_1->Pwr1->P_z3->Vfy0->Vhs7->Is_6->Rm_4->Gjy1->Mio8->Qow0->Nml9->G_n0
size: 50
Qxd3->Zer9->Ycc5->Cmu5->E_u3->Dzw4->Bin5->Rd_2->Ufg1->Ruz2->Wni2->Jtf0->Cll3->Zum6->Jbw9->X_s8->Tyi1->Rfy0->H_q9->Qwq8->Hwx0->Ins3->Pg_3->Phv6->Drm4->Ieh8->Fi_9->Zry4->Kni4->Gut0->Geh1->X_d3->Zkq6->Pfa9->Qum4->Jqh6->Ryw3->Ixm0->Hzc4->Fky1->Brc9->P_d7->Dts9->Guz0->C_q5->Je_2->Icc7->Shz6->Zja9->S_c8->G_n0
size: 43
Qxd3->Tpt2->Hbj2->Aea1->Hak2->Cil9->Uve0->Yxy0->Ych5->Wft0->Ixx1->Wfe2->S_s5->Knr9->I_v0->Cij7->Mve2->Ioz7->Paq3->Tgk3->Svm6->Xyg0->Zpr7->Fwy3->Jhr8->Kyr2->Zca5->Ptl9->Cwg1->P_o3->Slc1->Sgj0->Qgs6->Mqk8->Tgt9->Eps7->Dsg9->Cfw8->Uw_3->Mrw0->Eti9->Fwg0->Jem9->G_n0
size: 26
Qxd3->Tmq7->Rzr2->Ah_3->Nfc1->Ubm5->Pyw9->N_r0->Ghm0->M_b0->T_d0->Gjj6->Ymm8->Rf_0->Jwx2->Sca7->Jsy9->Zzd1->Kgq5->Scx1->Mfp6->Asq3->Ptk7->My_6->Riv4->Vxw4->G_n0
size: 22
Qxd3->Wuv5->Jap6->Tjm7->Ira0->Oim6->Rwn2->Fq_2->H_g1->B_v1->Tia9->Tqp5->Fsd2->V_a8->Pyt0->Trc5->Izc6->Ygz3->Azb0->Ctq9->Qun5->Cho1->G_n0
size: 6
Qxd3->Vkw0->Dik0->Jq_0->Rdh4->Vip7->G_n0


[0m[94m-->starting edm_karp...
[0m[94m--->starting bfs...
[0m[94m--->finish bfs.
[0m[90mPaths:
size: 6
Qxd3->Vkw0->Dik0->Jq_0->Rdh4->Vip7->G_n0


[0m[94m--->starting bfs...
[0m[94m--->finish bfs.
[0m[90mPaths:
size: 26
Qxd3->Tmq7->Rzr2->Ah_3->Nfc1->Ubm5->Pyw9->N_r0->Ghm0->M_b0->T_d0->Gjj6->Ymm8->Rf_0->Jwx2->Sca7->Jsy9->Zzd1->Kgq5->Scx1->Mfp6->Asq3->Ptk7->My_6->Riv4->Vxw4->G_n0
size: 6
Qxd3->Vkw0->Dik0->Jq_0->Rdh4->Vip7->G_n0


[0m[94m--->starting bfs...
[0m[94m--->finish bfs.
[0m[90mPaths:
size: 32
Qxd3->Pfd0->Jbu1->X_f5->Hzv8->Ksa9->Yfh8->Qae5->Yez3->S__9->Ssi5->Yix2->Hpp7->Ikw9->Zki9->Q_w0->Jco6->R__2->Fp_3->Vty5->Tia9->Tqp5->Fsd2->V_a8->Pyt0->Trc5->Izc6->Ygz3->Azb0->Ctq9->Qun5->Cho1->G_n0
size: 26
Qxd3->Tmq7->Rzr2->Ah_3->Nfc1->Ubm5->Pyw9->N_r0->Ghm0->M_b0->T_d0->Gjj6->Ymm8->Rf_0->Jwx2->Sca7->Jsy9->Zzd1->Kgq5->Scx1->Mfp6->Asq3->Ptk7->My_6->Riv4->Vxw4->G_n0
size: 6
Qxd3->Vkw0->Dik0->Jq_0->Rdh4->Vip7->G_n0


[0m[94m--->starting bfs...
[0m[94m--->finish bfs.
[0m[90mPaths:
size: 43
Qxd3->Tpt2->Hbj2->Aea1->Hak2->Cil9->Uve0->Yxy0->Ych5->Wft0->Ixx1->Wfe2->S_s5->Knr9->I_v0->Cij7->Mve2->Ioz7->Paq3->Tgk3->Svm6->Xyg0->Zpr7->Fwy3->Jhr8->Kyr2->Zca5->Ptl9->Cwg1->P_o3->Slc1->Sgj0->Qgs6->Mqk8->Tgt9->Eps7->Dsg9->Cfw8->Uw_3->Mrw0->Eti9->Fwg0->Jem9->G_n0
size: 32
Qxd3->Pfd0->Jbu1->X_f5->Hzv8->Ksa9->Yfh8->Qae5->Yez3->S__9->Ssi5->Yix2->Hpp7->Ikw9->Zki9->Q_w0->Jco6->R__2->Fp_3->Vty5->Tia9->Tqp5->Fsd2->V_a8->Pyt0->Trc5->Izc6->Ygz3->Azb0->Ctq9->Qun5->Cho1->G_n0
size: 26
Qxd3->Tmq7->Rzr2->Ah_3->Nfc1->Ubm5->Pyw9->N_r0->Ghm0->M_b0->T_d0->Gjj6->Ymm8->Rf_0->Jwx2->Sca7->Jsy9->Zzd1->Kgq5->Scx1->Mfp6->Asq3->Ptk7->My_6->Riv4->Vxw4->G_n0
size: 6
Qxd3->Vkw0->Dik0->Jq_0->Rdh4->Vip7->G_n0


[0m[94m--->starting bfs...
[0m[94m--->finish bfs.
[0m[90mPaths:
size: 50
Qxd3->Zer9->Ycc5->Cmu5->E_u3->Dzw4->Bin5->Rd_2->Ufg1->Ruz2->Wni2->Jtf0->Cll3->Zum6->Jbw9->X_s8->Tyi1->Rfy0->H_q9->Qwq8->Hwx0->Ins3->Pg_3->Phv6->Drm4->Ieh8->Fi_9->Zry4->Kni4->Gut0->Geh1->X_d3->Zkq6->Pfa9->Qum4->Jqh6->Ryw3->Ixm0->Hzc4->Fky1->Brc9->P_d7->Dts9->Guz0->C_q5->Je_2->Icc7->Shz6->Zja9->S_c8->G_n0
size: 43
Qxd3->Tpt2->Hbj2->Aea1->Hak2->Cil9->Uve0->Yxy0->Ych5->Wft0->Ixx1->Wfe2->S_s5->Knr9->I_v0->Cij7->Mve2->Ioz7->Paq3->Tgk3->Svm6->Xyg0->Zpr7->Fwy3->Jhr8->Kyr2->Zca5->Ptl9->Cwg1->P_o3->Slc1->Sgj0->Qgs6->Mqk8->Tgt9->Eps7->Dsg9->Cfw8->Uw_3->Mrw0->Eti9->Fwg0->Jem9->G_n0
size: 32
Qxd3->Pfd0->Jbu1->X_f5->Hzv8->Ksa9->Yfh8->Qae5->Yez3->S__9->Ssi5->Yix2->Hpp7->Ikw9->Zki9->Q_w0->Jco6->R__2->Fp_3->Vty5->Tia9->Tqp5->Fsd2->V_a8->Pyt0->Trc5->Izc6->Ygz3->Azb0->Ctq9->Qun5->Cho1->G_n0
size: 26
Qxd3->Tmq7->Rzr2->Ah_3->Nfc1->Ubm5->Pyw9->N_r0->Ghm0->M_b0->T_d0->Gjj6->Ymm8->Rf_0->Jwx2->Sca7->Jsy9->Zzd1->Kgq5->Scx1->Mfp6->Asq3->Ptk7->My_6->Riv4->Vxw4->G_n0
size: 6
Qxd3->Vkw0->Dik0->Jq_0->Rdh4->Vip7->G_n0


[0m[94m--->starting bfs...
[0m[94m--->finish bfs.
[0m[90mPaths:
size: 54
Qxd3->Kua7->Qxg7->Nma9->M_c1->Fw_6->Joq7->Nkv2->Gzr2->Cuo2->Ajb1->Slp4->J_t2->Jkb8->Sge4->Wux1->Nwa3->Rhe6->Nnt9->J_f2->Ipy1->Djw4->Klw0->Wsx9->Nkg3->Opl2->Gxd4->Hcq4->Ggj8->Yff9->Pkd4->O_d4->Tub1->Bdd4->Glw3->Byp7->Ubc9->O_n5->Atu4->Kzr6->Mgi7->Doa2->Bau7->Is_1->Pwr1->P_z3->Vfy0->Vhs7->Is_6->Rm_4->Gjy1->Mio8->Qow0->Nml9->G_n0
size: 50
Qxd3->Zer9->Ycc5->Cmu5->E_u3->Dzw4->Bin5->Rd_2->Ufg1->Ruz2->Wni2->Jtf0->Cll3->Zum6->Jbw9->X_s8->Tyi1->Rfy0->H_q9->Qwq8->Hwx0->Ins3->Pg_3->Phv6->Drm4->Ieh8->Fi_9->Zry4->Kni4->Gut0->Geh1->X_d3->Zkq6->Pfa9->Qum4->Jqh6->Ryw3->Ixm0->Hzc4->Fky1->Brc9->P_d7->Dts9->Guz0->C_q5->Je_2->Icc7->Shz6->Zja9->S_c8->G_n0
size: 43
Qxd3->Tpt2->Hbj2->Aea1->Hak2->Cil9->Uve0->Yxy0->Ych5->Wft0->Ixx1->Wfe2->S_s5->Knr9->I_v0->Cij7->Mve2->Ioz7->Paq3->Tgk3->Svm6->Xyg0->Zpr7->Fwy3->Jhr8->Kyr2->Zca5->Ptl9->Cwg1->P_o3->Slc1->Sgj0->Qgs6->Mqk8->Tgt9->Eps7->Dsg9->Cfw8->Uw_3->Mrw0->Eti9->Fwg0->Jem9->G_n0
size: 32
Qxd3->Pfd0->Jbu1->X_f5->Hzv8->Ksa9->Yfh8->Qae5->Yez3->S__9->Ssi5->Yix2->Hpp7->Ikw9->Zki9->Q_w0->Jco6->R__2->Fp_3->Vty5->Tia9->Tqp5->Fsd2->V_a8->Pyt0->Trc5->Izc6->Ygz3->Azb0->Ctq9->Qun5->Cho1->G_n0
size: 26
Qxd3->Tmq7->Rzr2->Ah_3->Nfc1->Ubm5->Pyw9->N_r0->Ghm0->M_b0->T_d0->Gjj6->Ymm8->Rf_0->Jwx2->Sca7->Jsy9->Zzd1->Kgq5->Scx1->Mfp6->Asq3->Ptk7->My_6->Riv4->Vxw4->G_n0
size: 6
Qxd3->Vkw0->Dik0->Jq_0->Rdh4->Vip7->G_n0


[0m[94m--->starting bfs...
[0m[94m--->finish bfs.
[0m[90mPaths:
size: 58
Qxd3->Vqp7->Cji5->Ele0->Cpm7->Wxq8->Jjh1->Ojs2->Kws4->Voc8->Naq1->Yri9->Ssy0->Abk4->Dgm8->Npm6->Tg_7->Ck_1->Fvq0->Ovj1->Pt_0->Dof9->Yah9->Vvc9->Cqe3->Zsn0->Csq7->Xf_9->Enc9->Xaz2->Blw1->Jgb2->Hzu7->O__4->Jsb0->Jil3->A_q2->Tne7->Rvv2->Vmc4->W_c6->Qbo8->Jou3->A_e2->Jiz0->Wzf8->Sk_7->Eba6->Hku6->Rcd4->Zvz1->Jp_9->Zr_5->M_r6->Eyi4->Gzt2->Fbm1->Alw9->G_n0
size: 54
Qxd3->Kua7->Qxg7->Nma9->M_c1->Fw_6->Joq7->Nkv2->Gzr2->Cuo2->Ajb1->Slp4->J_t2->Jkb8->Sge4->Wux1->Nwa3->Rhe6->Nnt9->J_f2->Ipy1->Djw4->Klw0->Wsx9->Nkg3->Opl2->Gxd4->Hcq4->Ggj8->Yff9->Pkd4->O_d4->Tub1->Bdd4->Glw3->Byp7->Ubc9->O_n5->Atu4->Kzr6->Mgi7->Doa2->Bau7->Is_1->Pwr1->P_z3->Vfy0->Vhs7->Is_6->Rm_4->Gjy1->Mio8->Qow0->Nml9->G_n0
size: 50
Qxd3->Zer9->Ycc5->Cmu5->E_u3->Dzw4->Bin5->Rd_2->Ufg1->Ruz2->Wni2->Jtf0->Cll3->Zum6->Jbw9->X_s8->Tyi1->Rfy0->H_q9->Qwq8->Hwx0->Ins3->Pg_3->Phv6->Drm4->Ieh8->Fi_9->Zry4->Kni4->Gut0->Geh1->X_d3->Zkq6->Pfa9->Qum4->Jqh6->Ryw3->Ixm0->Hzc4->Fky1->Brc9->P_d7->Dts9->Guz0->C_q5->Je_2->Icc7->Shz6->Zja9->S_c8->G_n0
size: 43
Qxd3->Tpt2->Hbj2->Aea1->Hak2->Cil9->Uve0->Yxy0->Ych5->Wft0->Ixx1->Wfe2->S_s5->Knr9->I_v0->Cij7->Mve2->Ioz7->Paq3->Tgk3->Svm6->Xyg0->Zpr7->Fwy3->Jhr8->Kyr2->Zca5->Ptl9->Cwg1->P_o3->Slc1->Sgj0->Qgs6->Mqk8->Tgt9->Eps7->Dsg9->Cfw8->Uw_3->Mrw0->Eti9->Fwg0->Jem9->G_n0
size: 32
Qxd3->Pfd0->Jbu1->X_f5->Hzv8->Ksa9->Yfh8->Qae5->Yez3->S__9->Ssi5->Yix2->Hpp7->Ikw9->Zki9->Q_w0->Jco6->R__2->Fp_3->Vty5->Tia9->Tqp5->Fsd2->V_a8->Pyt0->Trc5->Izc6->Ygz3->Azb0->Ctq9->Qun5->Cho1->G_n0
size: 26
Qxd3->Tmq7->Rzr2->Ah_3->Nfc1->Ubm5->Pyw9->N_r0->Ghm0->M_b0->T_d0->Gjj6->Ymm8->Rf_0->Jwx2->Sca7->Jsy9->Zzd1->Kgq5->Scx1->Mfp6->Asq3->Ptk7->My_6->Riv4->Vxw4->G_n0
size: 6
Qxd3->Vkw0->Dik0->Jq_0->Rdh4->Vip7->G_n0


[0m[94m--->starting bfs...
[0m[94m--->finish bfs.
[0m[90mPaths:
size: 59
Qxd3->Wuv5->Jap6->Tjm7->Ira0->Oim6->Rwn2->Fq_2->H_g1->B_v1->Htb8->Wue7->Mde0->Qdu4->W_w8->C__6->Ctz1->Ecv3->Zzd5->Mtl0->Emk4->Cec2->Vww0->X_r7->Xgq5->Uyg7->N__7->Kwf1->Pid7->Umm2->Uli0->Xkk8->Yli9->Owq6->Qdr4->Qnm9->Xdi4->Cgo2->Exp5->Qz_4->Gmd7->Spr3->Uxq5->U__8->Jt_3->Jzv2->Sdg9->Rg_5->Tes5->Xgm2->Pex6->Rgp1->Cqw7->D_n6->Qcl5->Ern6->Bmj1->Vkv8->Igy2->G_n0
size: 58
Qxd3->Vqp7->Cji5->Ele0->Cpm7->Wxq8->Jjh1->Ojs2->Kws4->Voc8->Naq1->Yri9->Ssy0->Abk4->Dgm8->Npm6->Tg_7->Ck_1->Fvq0->Ovj1->Pt_0->Dof9->Yah9->Vvc9->Cqe3->Zsn0->Csq7->Xf_9->Enc9->Xaz2->Blw1->Jgb2->Hzu7->O__4->Jsb0->Jil3->A_q2->Tne7->Rvv2->Vmc4->W_c6->Qbo8->Jou3->A_e2->Jiz0->Wzf8->Sk_7->Eba6->Hku6->Rcd4->Zvz1->Jp_9->Zr_5->M_r6->Eyi4->Gzt2->Fbm1->Alw9->G_n0
size: 54
Qxd3->Kua7->Qxg7->Nma9->M_c1->Fw_6->Joq7->Nkv2->Gzr2->Cuo2->Ajb1->Slp4->J_t2->Jkb8->Sge4->Wux1->Nwa3->Rhe6->Nnt9->J_f2->Ipy1->Djw4->Klw0->Wsx9->Nkg3->Opl2->Gxd4->Hcq4->Ggj8->Yff9->Pkd4->O_d4->Tub1->Bdd4->Glw3->Byp7->Ubc9->O_n5->Atu4->Kzr6->Mgi7->Doa2->Bau7->Is_1->Pwr1->P_z3->Vfy0->Vhs7->Is_6->Rm_4->Gjy1->Mio8->Qow0->Nml9->G_n0
size: 50
Qxd3->Zer9->Ycc5->Cmu5->E_u3->Dzw4->Bin5->Rd_2->Ufg1->Ruz2->Wni2->Jtf0->Cll3->Zum6->Jbw9->X_s8->Tyi1->Rfy0->H_q9->Qwq8->Hwx0->Ins3->Pg_3->Phv6->Drm4->Ieh8->Fi_9->Zry4->Kni4->Gut0->Geh1->X_d3->Zkq6->Pfa9->Qum4->Jqh6->Ryw3->Ixm0->Hzc4->Fky1->Brc9->P_d7->Dts9->Guz0->C_q5->Je_2->Icc7->Shz6->Zja9->S_c8->G_n0
size: 43
Qxd3->Tpt2->Hbj2->Aea1->Hak2->Cil9->Uve0->Yxy0->Ych5->Wft0->Ixx1->Wfe2->S_s5->Knr9->I_v0->Cij7->Mve2->Ioz7->Paq3->Tgk3->Svm6->Xyg0->Zpr7->Fwy3->Jhr8->Kyr2->Zca5->Ptl9->Cwg1->P_o3->Slc1->Sgj0->Qgs6->Mqk8->Tgt9->Eps7->Dsg9->Cfw8->Uw_3->Mrw0->Eti9->Fwg0->Jem9->G_n0
size: 32
Qxd3->Pfd0->Jbu1->X_f5->Hzv8->Ksa9->Yfh8->Qae5->Yez3->S__9->Ssi5->Yix2->Hpp7->Ikw9->Zki9->Q_w0->Jco6->R__2->Fp_3->Vty5->Tia9->Tqp5->Fsd2->V_a8->Pyt0->Trc5->Izc6->Ygz3->Azb0->Ctq9->Qun5->Cho1->G_n0
size: 26
Qxd3->Tmq7->Rzr2->Ah_3->Nfc1->Ubm5->Pyw9->N_r0->Ghm0->M_b0->T_d0->Gjj6->Ymm8->Rf_0->Jwx2->Sca7->Jsy9->Zzd1->Kgq5->Scx1->Mfp6->Asq3->Ptk7->My_6->Riv4->Vxw4->G_n0
size: 6
Qxd3->Vkw0->Dik0->Jq_0->Rdh4->Vip7->G_n0


[0m[94m--->starting bfs...
[0m[94m--->finish bfs.
[0m[90mPaths:
size: 59
Qxd3->Wuv5->Jap6->Tjm7->Ira0->Oim6->Rwn2->Fq_2->H_g1->B_v1->Htb8->Wue7->Mde0->Qdu4->W_w8->C__6->Ctz1->Ecv3->Zzd5->Mtl0->Emk4->Cec2->Vww0->X_r7->Xgq5->Uyg7->N__7->Kwf1->Pid7->Umm2->Uli0->Xkk8->Yli9->Owq6->Qdr4->Qnm9->Xdi4->Cgo2->Exp5->Qz_4->Gmd7->Spr3->Uxq5->U__8->Jt_3->Jzv2->Sdg9->Rg_5->Tes5->Xgm2->Pex6->Rgp1->Cqw7->D_n6->Qcl5->Ern6->Bmj1->Vkv8->Igy2->G_n0
size: 58
Qxd3->Vqp7->Cji5->Ele0->Cpm7->Wxq8->Jjh1->Ojs2->Kws4->Voc8->Naq1->Yri9->Ssy0->Abk4->Dgm8->Npm6->Tg_7->Ck_1->Fvq0->Ovj1->Pt_0->Dof9->Yah9->Vvc9->Cqe3->Zsn0->Csq7->Xf_9->Enc9->Xaz2->Blw1->Jgb2->Hzu7->O__4->Jsb0->Jil3->A_q2->Tne7->Rvv2->Vmc4->W_c6->Qbo8->Jou3->A_e2->Jiz0->Wzf8->Sk_7->Eba6->Hku6->Rcd4->Zvz1->Jp_9->Zr_5->M_r6->Eyi4->Gzt2->Fbm1->Alw9->G_n0
size: 54
Qxd3->Kua7->Qxg7->Nma9->M_c1->Fw_6->Joq7->Nkv2->Gzr2->Cuo2->Ajb1->Slp4->J_t2->Jkb8->Sge4->Wux1->Nwa3->Rhe6->Nnt9->J_f2->Ipy1->Djw4->Klw0->Wsx9->Nkg3->Opl2->Gxd4->Hcq4->Ggj8->Yff9->Pkd4->O_d4->Tub1->Bdd4->Glw3->Byp7->Ubc9->O_n5->Atu4->Kzr6->Mgi7->Doa2->Bau7->Is_1->Pwr1->P_z3->Vfy0->Vhs7->Is_6->Rm_4->Gjy1->Mio8->Qow0->Nml9->G_n0
size: 50
Qxd3->Zer9->Ycc5->Cmu5->E_u3->Dzw4->Bin5->Rd_2->Ufg1->Ruz2->Wni2->Jtf0->Cll3->Zum6->Jbw9->X_s8->Tyi1->Rfy0->H_q9->Qwq8->Hwx0->Ins3->Pg_3->Phv6->Drm4->Ieh8->Fi_9->Zry4->Kni4->Gut0->Geh1->X_d3->Zkq6->Pfa9->Qum4->Jqh6->Ryw3->Ixm0->Hzc4->Fky1->Brc9->P_d7->Dts9->Guz0->C_q5->Je_2->Icc7->Shz6->Zja9->S_c8->G_n0
size: 43
Qxd3->Tpt2->Hbj2->Aea1->Hak2->Cil9->Uve0->Yxy0->Ych5->Wft0->Ixx1->Wfe2->S_s5->Knr9->I_v0->Cij7->Mve2->Ioz7->Paq3->Tgk3->Svm6->Xyg0->Zpr7->Fwy3->Jhr8->Kyr2->Zca5->Ptl9->Cwg1->P_o3->Slc1->Sgj0->Qgs6->Mqk8->Tgt9->Eps7->Dsg9->Cfw8->Uw_3->Mrw0->Eti9->Fwg0->Jem9->G_n0
size: 32
Qxd3->Pfd0->Jbu1->X_f5->Hzv8->Ksa9->Yfh8->Qae5->Yez3->S__9->Ssi5->Yix2->Hpp7->Ikw9->Zki9->Q_w0->Jco6->R__2->Fp_3->Vty5->Tia9->Tqp5->Fsd2->V_a8->Pyt0->Trc5->Izc6->Ygz3->Azb0->Ctq9->Qun5->Cho1->G_n0
size: 26
Qxd3->Tmq7->Rzr2->Ah_3->Nfc1->Ubm5->Pyw9->N_r0->Ghm0->M_b0->T_d0->Gjj6->Ymm8->Rf_0->Jwx2->Sca7->Jsy9->Zzd1->Kgq5->Scx1->Mfp6->Asq3->Ptk7->My_6->Riv4->Vxw4->G_n0
size: 6
Qxd3->Vkw0->Dik0->Jq_0->Rdh4->Vip7->G_n0


[0m[94m-->finish edm_karp.
[0m[90mPaths:
size: 59
Qxd3->Wuv5->Jap6->Tjm7->Ira0->Oim6->Rwn2->Fq_2->H_g1->B_v1->Htb8->Wue7->Mde0->Qdu4->W_w8->C__6->Ctz1->Ecv3->Zzd5->Mtl0->Emk4->Cec2->Vww0->X_r7->Xgq5->Uyg7->N__7->Kwf1->Pid7->Umm2->Uli0->Xkk8->Yli9->Owq6->Qdr4->Qnm9->Xdi4->Cgo2->Exp5->Qz_4->Gmd7->Spr3->Uxq5->U__8->Jt_3->Jzv2->Sdg9->Rg_5->Tes5->Xgm2->Pex6->Rgp1->Cqw7->D_n6->Qcl5->Ern6->Bmj1->Vkv8->Igy2->G_n0
size: 58
Qxd3->Vqp7->Cji5->Ele0->Cpm7->Wxq8->Jjh1->Ojs2->Kws4->Voc8->Naq1->Yri9->Ssy0->Abk4->Dgm8->Npm6->Tg_7->Ck_1->Fvq0->Ovj1->Pt_0->Dof9->Yah9->Vvc9->Cqe3->Zsn0->Csq7->Xf_9->Enc9->Xaz2->Blw1->Jgb2->Hzu7->O__4->Jsb0->Jil3->A_q2->Tne7->Rvv2->Vmc4->W_c6->Qbo8->Jou3->A_e2->Jiz0->Wzf8->Sk_7->Eba6->Hku6->Rcd4->Zvz1->Jp_9->Zr_5->M_r6->Eyi4->Gzt2->Fbm1->Alw9->G_n0
size: 54
Qxd3->Kua7->Qxg7->Nma9->M_c1->Fw_6->Joq7->Nkv2->Gzr2->Cuo2->Ajb1->Slp4->J_t2->Jkb8->Sge4->Wux1->Nwa3->Rhe6->Nnt9->J_f2->Ipy1->Djw4->Klw0->Wsx9->Nkg3->Opl2->Gxd4->Hcq4->Ggj8->Yff9->Pkd4->O_d4->Tub1->Bdd4->Glw3->Byp7->Ubc9->O_n5->Atu4->Kzr6->Mgi7->Doa2->Bau7->Is_1->Pwr1->P_z3->Vfy0->Vhs7->Is_6->Rm_4->Gjy1->Mio8->Qow0->Nml9->G_n0
size: 50
Qxd3->Zer9->Ycc5->Cmu5->E_u3->Dzw4->Bin5->Rd_2->Ufg1->Ruz2->Wni2->Jtf0->Cll3->Zum6->Jbw9->X_s8->Tyi1->Rfy0->H_q9->Qwq8->Hwx0->Ins3->Pg_3->Phv6->Drm4->Ieh8->Fi_9->Zry4->Kni4->Gut0->Geh1->X_d3->Zkq6->Pfa9->Qum4->Jqh6->Ryw3->Ixm0->Hzc4->Fky1->Brc9->P_d7->Dts9->Guz0->C_q5->Je_2->Icc7->Shz6->Zja9->S_c8->G_n0
size: 43
Qxd3->Tpt2->Hbj2->Aea1->Hak2->Cil9->Uve0->Yxy0->Ych5->Wft0->Ixx1->Wfe2->S_s5->Knr9->I_v0->Cij7->Mve2->Ioz7->Paq3->Tgk3->Svm6->Xyg0->Zpr7->Fwy3->Jhr8->Kyr2->Zca5->Ptl9->Cwg1->P_o3->Slc1->Sgj0->Qgs6->Mqk8->Tgt9->Eps7->Dsg9->Cfw8->Uw_3->Mrw0->Eti9->Fwg0->Jem9->G_n0
size: 32
Qxd3->Pfd0->Jbu1->X_f5->Hzv8->Ksa9->Yfh8->Qae5->Yez3->S__9->Ssi5->Yix2->Hpp7->Ikw9->Zki9->Q_w0->Jco6->R__2->Fp_3->Vty5->Tia9->Tqp5->Fsd2->V_a8->Pyt0->Trc5->Izc6->Ygz3->Azb0->Ctq9->Qun5->Cho1->G_n0
size: 26
Qxd3->Tmq7->Rzr2->Ah_3->Nfc1->Ubm5->Pyw9->N_r0->Ghm0->M_b0->T_d0->Gjj6->Ymm8->Rf_0->Jwx2->Sca7->Jsy9->Zzd1->Kgq5->Scx1->Mfp6->Asq3->Ptk7->My_6->Riv4->Vxw4->G_n0
size: 6
Qxd3->Vkw0->Dik0->Jq_0->Rdh4->Vip7->G_n0


[0m[94m---->releasing ants...
[0m[90m-->1/3
[0m[90m-->1/4
[0m[90m-->1/8
[0m[90m-->1/12
[0m[90m-->1/19
[0m[90m-->1/30
[0m[90m-->1/36
[0m[90m-->1/56
[0mL8-Vkw0 L7-Tmq7 L6-Pfd0 L5-Tpt2 L4-Zer9 L3-Kua7 L2-Vqp7 L1-Wuv5
[90m-->2/3
[0m[90m-->2/4
[0m[90m-->2/8
[0m[90m-->2/12
[0m[90m-->2/19
[0m[90m-->2/30
[0m[90m-->2/36
[0m[90m-->2/56
[0mL16-Vkw0 L15-Tmq7 L14-Pfd0 L13-Tpt2 L12-Zer9 L11-Kua7 L10-Vqp7 L9-Wuv5 L8-Dik0 L7-Rzr2 L6-Jbu1 L5-Hbj2 L4-Ycc5 L3-Qxg7 L2-Cji5 L1-Jap6
[90m-->3/3
[0m[90m-->3/4
[0m[90m-->3/8
[0m[90m-->3/12
[0m[90m-->3/19
[0m[90m-->3/30
[0m[90m-->3/36
[0m[90m-->3/56
[0mL24-Vkw0 L23-Tmq7 L22-Pfd0 L21-Tpt2 L20-Zer9 L19-Kua7 L18-Vqp7 L17-Wuv5 L16-Dik0 L15-Rzr2 L14-Jbu1 L13-Hbj2 L12-Ycc5 L11-Qxg7 L10-Cji5 L9-Jap6 L8-Jq_0 L7-Ah_3 L6-X_f5 L5-Aea1 L4-Cmu5 L3-Nma9 L2-Ele0 L1-Tjm7
[90m-->3/3
[0m[90m-->4/4
[0m[90m-->4/8
[0m[90m-->4/12
[0m[90m-->4/19
[0m[90m-->4/30
[0m[90m-->4/36
[0m[90m-->4/56
[0mL31-Vkw0 L30-Tmq7 L29-Pfd0 L28-Tpt2 L27-Zer9 L26-Kua7 L25-Vqp7 L24-Dik0 L23-Rzr2 L22-Jbu1 L21-Hbj2 L20-Ycc5 L19-Qxg7 L18-Cji5 L17-Jap6 L16-Jq_0 L15-Ah_3 L14-X_f5 L13-Aea1 L12-Cmu5 L11-Nma9 L10-Ele0 L9-Tjm7 L8-Rdh4 L7-Nfc1 L6-Hzv8 L5-Hak2 L4-E_u3 L3-M_c1 L2-Cpm7 L1-Ira0
[90m-->3/3
[0m[90m-->4/4
[0m[90m-->5/8
[0m[90m-->5/12
[0m[90m-->5/19
[0m[90m-->5/30
[0m[90m-->5/36
[0m[90m-->5/56
[0mL37-Vkw0 L36-Tmq7 L35-Pfd0 L34-Tpt2 L33-Zer9 L32-Kua7 L31-Dik0 L30-Rzr2 L29-Jbu1 L28-Hbj2 L27-Ycc5 L26-Qxg7 L25-Cji5 L24-Jq_0 L23-Ah_3 L22-X_f5 L21-Aea1 L20-Cmu5 L19-Nma9 L18-Ele0 L17-Tjm7 L16-Rdh4 L15-Nfc1 L14-Hzv8 L13-Hak2 L12-E_u3 L11-M_c1 L10-Cpm7 L9-Ira0 L8-Vip7 L7-Ubm5 L6-Ksa9 L5-Cil9 L4-Dzw4 L3-Fw_6 L2-Wxq8 L1-Oim6
[90m-->3/3
[0m[90m-->4/4
[0m[90m-->6/8
[0m[90m-->6/12
[0m[90m-->6/19
[0m[90m-->6/30
[0m[90m-->6/36
[0m[90m-->6/56
[0mL43-Vkw0 L42-Tmq7 L41-Pfd0 L40-Tpt2 L39-Zer9 L38-Kua7 L37-Dik0 L36-Rzr2 L35-Jbu1 L34-Hbj2 L33-Ycc5 L32-Qxg7 L31-Jq_0 L30-Ah_3 L29-X_f5 L28-Aea1 L27-Cmu5 L26-Nma9 L25-Ele0 L24-Rdh4 L23-Nfc1 L22-Hzv8 L21-Hak2 L20-E_u3 L19-M_c1 L18-Cpm7 L17-Ira0 L16-Vip7 L15-Ubm5 L14-Ksa9 L13-Cil9 L12-Dzw4 L11-Fw_6 L10-Wxq8 L9-Oim6 L8-G_n0 L7-Pyw9 L6-Yfh8 L5-Uve0 L4-Bin5 L3-Joq7 L2-Jjh1 L1-Rwn2
[90m-->3/3
[0m[90m-->4/4
[0m[90m-->7/8
[0m[90m-->7/12
[0m[90m-->7/19
[0m[90m-->7/30
[0m[90m-->7/36
[0m[90m-->7/56
[0mL49-Vkw0 L48-Tmq7 L47-Pfd0 L46-Tpt2 L45-Zer9 L44-Kua7 L43-Dik0 L42-Rzr2 L41-Jbu1 L40-Hbj2 L39-Ycc5 L38-Qxg7 L37-Jq_0 L36-Ah_3 L35-X_f5 L34-Aea1 L33-Cmu5 L32-Nma9 L31-Rdh4 L30-Nfc1 L29-Hzv8 L28-Hak2 L27-E_u3 L26-M_c1 L25-Cpm7 L24-Vip7 L23-Ubm5 L22-Ksa9 L21-Cil9 L20-Dzw4 L19-Fw_6 L18-Wxq8 L17-Oim6 L16-G_n0 L15-Pyw9 L14-Yfh8 L13-Uve0 L12-Bin5 L11-Joq7 L10-Jjh1 L9-Rwn2 L7-N_r0 L6-Qae5 L5-Yxy0 L4-Rd_2 L3-Nkv2 L2-Ojs2 L1-Fq_2
[90m-->3/3
[0m[90m-->4/4
[0m[90m-->8/8
[0m[90m-->8/12
[0m[90m-->8/19
[0m[90m-->8/30
[0m[90m-->8/36
[0m[90m-->8/56
[0mL55-Vkw0 L54-Tmq7 L53-Pfd0 L52-Tpt2 L51-Zer9 L50-Kua7 L49-Dik0 L48-Rzr2 L47-Jbu1 L46-Hbj2 L45-Ycc5 L44-Qxg7 L43-Jq_0 L42-Ah_3 L41-X_f5 L40-Aea1 L39-Cmu5 L38-Nma9 L37-Rdh4 L36-Nfc1 L35-Hzv8 L34-Hak2 L33-E_u3 L32-M_c1 L31-Vip7 L30-Ubm5 L29-Ksa9 L28-Cil9 L27-Dzw4 L26-Fw_6 L25-Wxq8 L24-G_n0 L23-Pyw9 L22-Yfh8 L21-Uve0 L20-Bin5 L19-Joq7 L18-Jjh1 L17-Rwn2 L15-N_r0 L14-Qae5 L13-Yxy0 L12-Rd_2 L11-Nkv2 L10-Ojs2 L9-Fq_2 L7-Ghm0 L6-Yez3 L5-Ych5 L4-Ufg1 L3-Gzr2 L2-Kws4 L1-H_g1
[90m-->3/3
[0m[90m-->4/4
[0m[90m-->8/8
[0m[90m-->9/12
[0m[90m-->9/19
[0m[90m-->9/30
[0m[90m-->9/36
[0m[90m-->9/56
[0mL60-Vkw0 L59-Tmq7 L58-Pfd0 L57-Tpt2 L56-Zer9 L55-Dik0 L54-Rzr2 L53-Jbu1 L52-Hbj2 L51-Ycc5 L50-Qxg7 L49-Jq_0 L48-Ah_3 L47-X_f5 L46-Aea1 L45-Cmu5 L44-Nma9 L43-Rdh4 L42-Nfc1 L41-Hzv8 L40-Hak2 L39-E_u3 L38-M_c1 L37-Vip7 L36-Ubm5 L35-Ksa9 L34-Cil9 L33-Dzw4 L32-Fw_6 L31-G_n0 L30-Pyw9 L29-Yfh8 L28-Uve0 L27-Bin5 L26-Joq7 L25-Jjh1 L23-N_r0 L22-Qae5 L21-Yxy0 L20-Rd_2 L19-Nkv2 L18-Ojs2 L17-Fq_2 L15-Ghm0 L14-Yez3 L13-Ych5 L12-Ufg1 L11-Gzr2 L10-Kws4 L9-H_g1 L7-M_b0 L6-S__9 L5-Wft0 L4-Ruz2 L3-Cuo2 L2-Voc8 L1-B_v1
[90m-->3/3
[0m[90m-->4/4
[0m[90m-->8/8
[0m[90m-->10/12
[0m[90m-->10/19
[0m[90m-->10/30
[0m[90m-->10/36
[0m[90m-->10/56
[0mL65-Vkw0 L64-Tmq7 L63-Pfd0 L62-Tpt2 L61-Zer9 L60-Dik0 L59-Rzr2 L58-Jbu1 L57-Hbj2 L56-Ycc5 L55-Jq_0 L54-Ah_3 L53-X_f5 L52-Aea1 L51-Cmu5 L50-Nma9 L49-Rdh4 L48-Nfc1 L47-Hzv8 L46-Hak2 L45-E_u3 L44-M_c1 L43-Vip7 L42-Ubm5 L41-Ksa9 L40-Cil9 L39-Dzw4 L38-Fw_6 L37-G_n0 L36-Pyw9 L35-Yfh8 L34-Uve0 L33-Bin5 L32-Joq7 L30-N_r0 L29-Qae5 L28-Yxy0 L27-Rd_2 L26-Nkv2 L25-Ojs2 L23-Ghm0 L22-Yez3 L21-Ych5 L20-Ufg1 L19-Gzr2 L18-Kws4 L17-H_g1 L15-M_b0 L14-S__9 L13-Wft0 L12-Ruz2 L11-Cuo2 L10-Voc8 L9-B_v1 L7-T_d0 L6-Ssi5 L5-Ixx1 L4-Wni2 L3-Ajb1 L2-Naq1 L1-Htb8
[90m-->3/3
[0m[90m-->4/4
[0m[90m-->8/8
[0m[90m-->11/12
[0m[90m-->11/19
[0m[90m-->11/30
[0m[90m-->11/36
[0m[90m-->11/56
[0mL70-Vkw0 L69-Tmq7 L68-Pfd0 L67-Tpt2 L66-Zer9 L65-Dik0 L64-Rzr2 L63-Jbu1 L62-Hbj2 L61-Ycc5 L60-Jq_0 L59-Ah_3 L58-X_f5 L57-Aea1 L56-Cmu5 L55-Rdh4 L54-Nfc1 L53-Hzv8 L52-Hak2 L51-E_u3 L50-M_c1 L49-Vip7 L48-Ubm5 L47-Ksa9 L46-Cil9 L45-Dzw4 L44-Fw_6 L43-G_n0 L42-Pyw9 L41-Yfh8 L40-Uve0 L39-Bin5 L38-Joq7 L36-N_r0 L35-Qae5 L34-Yxy0 L33-Rd_2 L32-Nkv2 L30-Ghm0 L29-Yez3 L28-Ych5 L27-Ufg1 L26-Gzr2 L25-Kws4 L23-M_b0 L22-S__9 L21-Wft0 L20-Ruz2 L19-Cuo2 L18-Voc8 L17-B_v1 L15-T_d0 L14-Ssi5 L13-Ixx1 L12-Wni2 L11-Ajb1 L10-Naq1 L9-Htb8 L7-Gjj6 L6-Yix2 L5-Wfe2 L4-Jtf0 L3-Slp4 L2-Yri9 L1-Wue7
[90m-->3/3
[0m[90m-->4/4
[0m[90m-->8/8
[0m[90m-->12/12
[0m[90m-->12/19
[0m[90m-->12/30
[0m[90m-->12/36
[0m[90m-->12/56
[0mL75-Vkw0 L74-Tmq7 L73-Pfd0 L72-Tpt2 L71-Zer9 L70-Dik0 L69-Rzr2 L68-Jbu1 L67-Hbj2 L66-Ycc5 L65-Jq_0 L64-Ah_3 L63-X_f5 L62-Aea1 L61-Cmu5 L60-Rdh4 L59-Nfc1 L58-Hzv8 L57-Hak2 L56-E_u3 L55-Vip7 L54-Ubm5 L53-Ksa9 L52-Cil9 L51-Dzw4 L50-Fw_6 L49-G_n0 L48-Pyw9 L47-Yfh8 L46-Uve0 L45-Bin5 L44-Joq7 L42-N_r0 L41-Qae5 L40-Yxy0 L39-Rd_2 L38-Nkv2 L36-Ghm0 L35-Yez3 L34-Ych5 L33-Ufg1 L32-Gzr2 L30-M_b0 L29-S__9 L28-Wft0 L27-Ruz2 L26-Cuo2 L25-Voc8 L23-T_d0 L22-Ssi5 L21-Ixx1 L20-Wni2 L19-Ajb1 L18-Naq1 L17-Htb8 L15-Gjj6 L14-Yix2 L13-Wfe2 L12-Jtf0 L11-Slp4 L10-Yri9 L9-Wue7 L7-Ymm8 L6-Hpp7 L5-S_s5 L4-Cll3 L3-J_t2 L2-Ssy0 L1-Mde0
[90m-->3/3
[0m[90m-->4/4
[0m[90m-->8/8
[0m[90m-->12/12
[0m[90m-->13/19
[0m[90m-->13/30
[0m[90m-->13/36
[0m[90m-->13/56
[0mL79-Vkw0 L78-Tmq7 L77-Pfd0 L76-Tpt2 L75-Dik0 L74-Rzr2 L73-Jbu1 L72-Hbj2 L71-Ycc5 L70-Jq_0 L69-Ah_3 L68-X_f5 L67-Aea1 L66-Cmu5 L65-Rdh4 L64-Nfc1 L63-Hzv8 L62-Hak2 L61-E_u3 L60-Vip7 L59-Ubm5 L58-Ksa9 L57-Cil9 L56-Dzw4 L55-G_n0 L54-Pyw9 L53-Yfh8 L52-Uve0 L51-Bin5 L50-Joq7 L48-N_r0 L47-Qae5 L46-Yxy0 L45-Rd_2 L44-Nkv2 L42-Ghm0 L41-Yez3 L40-Ych5 L39-Ufg1 L38-Gzr2 L36-M_b0 L35-S__9 L34-Wft0 L33-Ruz2 L32-Cuo2 L30-T_d0 L29-Ssi5 L28-Ixx1 L27-Wni2 L26-Ajb1 L25-Naq1 L23-Gjj6 L22-Yix2 L21-Wfe2 L20-Jtf0 L19-Slp4 L18-Yri9 L17-Wue7 L15-Ymm8 L14-Hpp7 L13-S_s5 L12-Cll3 L11-J_t2 L10-Ssy0 L9-Mde0 L7-Rf_0 L6-Ikw9 L5-Knr9 L4-Zum6 L3-Jkb8 L2-Abk4 L1-Qdu4
[90m-->3/3
[0m[90m-->4/4
[0m[90m-->8/8
[0m[90m-->12/12
[0m[90m-->14/19
[0m[90m-->14/30
[0m[90m-->14/36
[0m[90m-->14/56
[0mL83-Vkw0 L82-Tmq7 L81-Pfd0 L80-Tpt2 L79-Dik0 L78-Rzr2 L77-Jbu1 L76-Hbj2 L75-Jq_0 L74-Ah_3 L73-X_f5 L72-Aea1 L71-Cmu5 L70-Rdh4 L69-Nfc1 L68-Hzv8 L67-Hak2 L66-E_u3 L65-Vip7 L64-Ubm5 L63-Ksa9 L62-Cil9 L61-Dzw4 L60-G_n0 L59-Pyw9 L58-Yfh8 L57-Uve0 L56-Bin5 L54-N_r0 L53-Qae5 L52-Yxy0 L51-Rd_2 L50-Nkv2 L48-Ghm0 L47-Yez3 L46-Ych5 L45-Ufg1 L44-Gzr2 L42-M_b0 L41-S__9 L40-Wft0 L39-Ruz2 L38-Cuo2 L36-T_d0 L35-Ssi5 L34-Ixx1 L33-Wni2 L32-Ajb1 L30-Gjj6 L29-Yix2 L28-Wfe2 L27-Jtf0 L26-Slp4 L25-Yri9 L23-Ymm8 L22-Hpp7 L21-S_s5 L20-Cll3 L19-J_t2 L18-Ssy0 L17-Mde0 L15-Rf_0 L14-Ikw9 L13-Knr9 L12-Zum6 L11-Jkb8 L10-Abk4 L9-Qdu4 L7-Jwx2 L6-Zki9 L5-I_v0 L4-Jbw9 L3-Sge4 L2-Dgm8 L1-W_w8
[90m-->3/3
[0m[90m-->4/4
[0m[90m-->8/8
[0m[90m-->12/12
[0m[90m-->15/19
[0m[90m-->15/30
[0m[90m-->15/36
[0m[90m-->15/56
[0mL87-Vkw0 L86-Tmq7 L85-Pfd0 L84-Tpt2 L83-Dik0 L82-Rzr2 L81-Jbu1 L80-Hbj2 L79-Jq_0 L78-Ah_3 L77-X_f5 L76-Aea1 L75-Rdh4 L74-Nfc1 L73-Hzv8 L72-Hak2 L71-E_u3 L70-Vip7 L69-Ubm5 L68-Ksa9 L67-Cil9 L66-Dzw4 L65-G_n0 L64-Pyw9 L63-Yfh8 L62-Uve0 L61-Bin5 L59-N_r0 L58-Qae5 L57-Yxy0 L56-Rd_2 L54-Ghm0 L53-Yez3 L52-Ych5 L51-Ufg1 L50-Gzr2 L48-M_b0 L47-S__9 L46-Wft0 L45-Ruz2 L44-Cuo2 L42-T_d0 L41-Ssi5 L40-Ixx1 L39-Wni2 L38-Ajb1 L36-Gjj6 L35-Yix2 L34-Wfe2 L33-Jtf0 L32-Slp4 L30-Ymm8 L29-Hpp7 L28-S_s5 L27-Cll3 L26-J_t2 L25-Ssy0 L23-Rf_0 L22-Ikw9 L21-Knr9 L20-Zum6 L19-Jkb8 L18-Abk4 L17-Qdu4 L15-Jwx2 L14-Zki9 L13-I_v0 L12-Jbw9 L11-Sge4 L10-Dgm8 L9-W_w8 L7-Sca7 L6-Q_w0 L5-Cij7 L4-X_s8 L3-Wux1 L2-Npm6 L1-C__6
[90m-->3/3
[0m[90m-->4/4
[0m[90m-->8/8
[0m[90m-->12/12
[0m[90m-->16/19
[0m[90m-->16/30
[0m[90m-->16/36
[0m[90m-->16/56
[0mL91-Vkw0 L90-Tmq7 L89-Pfd0 L88-Tpt2 L87-Dik0 L86-Rzr2 L85-Jbu1 L84-Hbj2 L83-Jq_0 L82-Ah_3 L81-X_f5 L80-Aea1 L79-Rdh4 L78-Nfc1 L77-Hzv8 L76-Hak2 L75-Vip7 L74-Ubm5 L73-Ksa9 L72-Cil9 L71-Dzw4 L70-G_n0 L69-Pyw9 L68-Yfh8 L67-Uve0 L66-Bin5 L64-N_r0 L63-Qae5 L62-Yxy0 L61-Rd_2 L59-Ghm0 L58-Yez3 L57-Ych5 L56-Ufg1 L54-M_b0 L53-S__9 L52-Wft0 L51-Ruz2 L50-Cuo2 L48-T_d0 L47-Ssi5 L46-Ixx1 L45-Wni2 L44-Ajb1 L42-Gjj6 L41-Yix2 L40-Wfe2 L39-Jtf0 L38-Slp4 L36-Ymm8 L35-Hpp7 L34-S_s5 L33-Cll3 L32-J_t2 L30-Rf_0 L29-Ikw9 L28-Knr9 L27-Zum6 L26-Jkb8 L25-Abk4 L23-Jwx2 L22-Zki9 L21-I_v0 L20-Jbw9 L19-Sge4 L18-Dgm8 L17-W_w8 L15-Sca7 L14-Q_w0 L13-Cij7 L12-X_s8 L11-Wux1 L10-Npm6 L9-C__6 L7-Jsy9 L6-Jco6 L5-Mve2 L4-Tyi1 L3-Nwa3 L2-Tg_7 L1-Ctz1
[90m-->3/3
[0m[90m-->4/4
[0m[90m-->8/8
[0m[90m-->12/12
[0m[90m-->17/19
[0m[90m-->17/30
[0m[90m-->17/36
[0m[90m-->17/56
[0mL95-Vkw0 L94-Tmq7 L93-Pfd0 L92-Tpt2 L91-Dik0 L90-Rzr2 L89-Jbu1 L88-Hbj2 L87-Jq_0 L86-Ah_3 L85-X_f5 L84-Aea1 L83-Rdh4 L82-Nfc1 L81-Hzv8 L80-Hak2 L79-Vip7 L78-Ubm5 L77-Ksa9 L76-Cil9 L75-G_n0 L74-Pyw9 L73-Yfh8 L72-Uve0 L71-Bin5 L69-N_r0 L68-Qae5 L67-Yxy0 L66-Rd_2 L64-Ghm0 L63-Yez3 L62-Ych5 L61-Ufg1 L59-M_b0 L58-S__9 L57-Wft0 L56-Ruz2 L54-T_d0 L53-Ssi5 L52-Ixx1 L51-Wni2 L50-Ajb1 L48-Gjj6 L47-Yix2 L46-Wfe2 L45-Jtf0 L44-Slp4 L42-Ymm8 L41-Hpp7 L40-S_s5 L39-Cll3 L38-J_t2 L36-Rf_0 L35-Ikw9 L34-Knr9 L33-Zum6 L32-Jkb8 L30-Jwx2 L29-Zki9 L28-I_v0 L27-Jbw9 L26-Sge4 L25-Dgm8 L23-Sca7 L22-Q_w0 L21-Cij7 L20-X_s8 L19-Wux1 L18-Npm6 L17-C__6 L15-Jsy9 L14-Jco6 L13-Mve2 L12-Tyi1 L11-Nwa3 L10-Tg_7 L9-Ctz1 L7-Zzd1 L6-R__2 L5-Ioz7 L4-Rfy0 L3-Rhe6 L2-Ck_1 L1-Ecv3
[90m-->3/3
[0m[90m-->4/4
[0m[90m-->8/8
[0m[90m-->12/12
[0m[90m-->18/19
[0m[90m-->18/30
[0m[90m-->18/36
[0m[90m-->18/56
[0mL99-Vkw0 L98-Tmq7 L97-Pfd0 L96-Tpt2 L95-Dik0 L94-Rzr2 L93-Jbu1 L92-Hbj2 L91-Jq_0 L90-Ah_3 L89-X_f5 L88-Aea1 L87-Rdh4 L86-Nfc1 L85-Hzv8 L84-Hak2 L83-Vip7 L82-Ubm5 L81-Ksa9 L80-Cil9 L79-G_n0 L78-Pyw9 L77-Yfh8 L76-Uve0 L74-N_r0 L73-Qae5 L72-Yxy0 L71-Rd_2 L69-Ghm0 L68-Yez3 L67-Ych5 L66-Ufg1 L64-M_b0 L63-S__9 L62-Wft0 L61-Ruz2 L59-T_d0 L58-Ssi5 L57-Ixx1 L56-Wni2 L54-Gjj6 L53-Yix2 L52-Wfe2 L51-Jtf0 L50-Slp4 L48-Ymm8 L47-Hpp7 L46-S_s5 L45-Cll3 L44-J_t2 L42-Rf_0 L41-Ikw9 L40-Knr9 L39-Zum6 L38-Jkb8 L36-Jwx2 L35-Zki9 L34-I_v0 L33-Jbw9 L32-Sge4 L30-Sca7 L29-Q_w0 L28-Cij7 L27-X_s8 L26-Wux1 L25-Npm6 L23-Jsy9 L22-Jco6 L21-Mve2 L20-Tyi1 L19-Nwa3 L18-Tg_7 L17-Ctz1 L15-Zzd1 L14-R__2 L13-Ioz7 L12-Rfy0 L11-Rhe6 L10-Ck_1 L9-Ecv3 L7-Kgq5 L6-Fp_3 L5-Paq3 L4-H_q9 L3-Nnt9 L2-Fvq0 L1-Zzd5
[90m-->3/3
[0m[90m-->4/4
[0m[90m-->8/8
[0m[90m-->12/12
[0m[90m-->19/19
[0m[90m-->19/30
[0m[90m-->19/36
[0m[90m-->19/56
[0mL103-Vkw0 L102-Tmq7 L101-Pfd0 L100-Tpt2 L99-Dik0 L98-Rzr2 L97-Jbu1 L96-Hbj2 L95-Jq_0 L94-Ah_3 L93-X_f5 L92-Aea1 L91-Rdh4 L90-Nfc1 L89-Hzv8 L88-Hak2 L87-Vip7 L86-Ubm5 L85-Ksa9 L84-Cil9 L83-G_n0 L82-Pyw9 L81-Yfh8 L80-Uve0 L78-N_r0 L77-Qae5 L76-Yxy0 L74-Ghm0 L73-Yez3 L72-Ych5 L71-Ufg1 L69-M_b0 L68-S__9 L67-Wft0 L66-Ruz2 L64-T_d0 L63-Ssi5 L62-Ixx1 L61-Wni2 L59-Gjj6 L58-Yix2 L57-Wfe2 L56-Jtf0 L54-Ymm8 L53-Hpp7 L52-S_s5 L51-Cll3 L50-J_t2 L48-Rf_0 L47-Ikw9 L46-Knr9 L45-Zum6 L44-Jkb8 L42-Jwx2 L41-Zki9 L40-I_v0 L39-Jbw9 L38-Sge4 L36-Sca7 L35-Q_w0 L34-Cij7 L33-X_s8 L32-Wux1 L30-Jsy9 L29-Jco6 L28-Mve2 L27-Tyi1 L26-Nwa3 L25-Tg_7 L23-Zzd1 L22-R__2 L21-Ioz7 L20-Rfy0 L19-Rhe6 L18-Ck_1 L17-Ecv3 L15-Kgq5 L14-Fp_3 L13-Paq3 L12-H_q9 L11-Nnt9 L10-Fvq0 L9-Zzd5 L7-Scx1 L6-Vty5 L5-Tgk3 L4-Qwq8 L3-J_f2 L2-Ovj1 L1-Mtl0
[90m-->3/3
[0m[90m-->4/4
[0m[90m-->8/8
[0m[90m-->12/12
[0m[90m-->19/19
[0m[90m-->20/30
[0m[90m-->20/36
[0m[90m-->20/56
[0mL106-Vkw0 L105-Tmq7 L104-Pfd0 L103-Dik0 L102-Rzr2 L101-Jbu1 L100-Hbj2 L99-Jq_0 L98-Ah_3 L97-X_f5 L96-Aea1 L95-Rdh4 L94-Nfc1 L93-Hzv8 L92-Hak2 L91-Vip7 L90-Ubm5 L89-Ksa9 L88-Cil9 L87-G_n0 L86-Pyw9 L85-Yfh8 L84-Uve0 L82-N_r0 L81-Qae5 L80-Yxy0 L78-Ghm0 L77-Yez3 L76-Ych5 L74-M_b0 L73-S__9 L72-Wft0 L71-Ruz2 L69-T_d0 L68-Ssi5 L67-Ixx1 L66-Wni2 L64-Gjj6 L63-Yix2 L62-Wfe2 L61-Jtf0 L59-Ymm8 L58-Hpp7 L57-S_s5 L56-Cll3 L54-Rf_0 L53-Ikw9 L52-Knr9 L51-Zum6 L50-Jkb8 L48-Jwx2 L47-Zki9 L46-I_v0 L45-Jbw9 L44-Sge4 L42-Sca7 L41-Q_w0 L40-Cij7 L39-X_s8 L38-Wux1 L36-Jsy9 L35-Jco6 L34-Mve2 L33-Tyi1 L32-Nwa3 L30-Zzd1 L29-R__2 L28-Ioz7 L27-Rfy0 L26-Rhe6 L25-Ck_1 L23-Kgq5 L22-Fp_3 L21-Paq3 L20-H_q9 L19-Nnt9 L18-Fvq0 L17-Zzd5 L15-Scx1 L14-Vty5 L13-Tgk3 L12-Qwq8 L11-J_f2 L10-Ovj1 L9-Mtl0 L7-Mfp6 L6-Tia9 L5-Svm6 L4-Hwx0 L3-Ipy1 L2-Pt_0 L1-Emk4
[90m-->3/3
[0m[90m-->4/4
[0m[90m-->8/8
[0m[90m-->12/12
[0m[90m-->19/19
[0m[90m-->21/30
[0m[90m-->21/36
[0m[90m-->21/56
[0mL109-Vkw0 L108-Tmq7 L107-Pfd0 L106-Dik0 L105-Rzr2 L104-Jbu1 L103-Jq_0 L102-Ah_3 L101-X_f5 L100-Aea1 L99-Rdh4 L98-Nfc1 L97-Hzv8 L96-Hak2 L95-Vip7 L94-Ubm5 L93-Ksa9 L92-Cil9 L91-G_n0 L90-Pyw9 L89-Yfh8 L88-Uve0 L86-N_r0 L85-Qae5 L84-Yxy0 L82-Ghm0 L81-Yez3 L80-Ych5 L78-M_b0 L77-S__9 L76-Wft0 L74-T_d0 L73-Ssi5 L72-Ixx1 L71-Wni2 L69-Gjj6 L68-Yix2 L67-Wfe2 L66-Jtf0 L64-Ymm8 L63-Hpp7 L62-S_s5 L61-Cll3 L59-Rf_0 L58-Ikw9 L57-Knr9 L56-Zum6 L54-Jwx2 L53-Zki9 L52-I_v0 L51-Jbw9 L50-Sge4 L48-Sca7 L47-Q_w0 L46-Cij7 L45-X_s8 L44-Wux1 L42-Jsy9 L41-Jco6 L40-Mve2 L39-Tyi1 L38-Nwa3 L36-Zzd1 L35-R__2 L34-Ioz7 L33-Rfy0 L32-Rhe6 L30-Kgq5 L29-Fp_3 L28-Paq3 L27-H_q9 L26-Nnt9 L25-Fvq0 L23-Scx1 L22-Vty5 L21-Tgk3 L20-Qwq8 L19-J_f2 L18-Ovj1 L17-Mtl0 L15-Mfp6 L14-Tia9 L13-Svm6 L12-Hwx0 L11-Ipy1 L10-Pt_0 L9-Emk4 L7-Asq3 L6-Tqp5 L5-Xyg0 L4-Ins3 L3-Djw4 L2-Dof9 L1-Cec2
[90m-->3/3
[0m[90m-->4/4
[0m[90m-->8/8
[0m[90m-->12/12
[0m[90m-->19/19
[0m[90m-->22/30
[0m[90m-->22/36
[0m[90m-->22/56
[0mL112-Vkw0 L111-Tmq7 L110-Pfd0 L109-Dik0 L108-Rzr2 L107-Jbu1 L106-Jq_0 L105-Ah_3 L104-X_f5 L103-Rdh4 L102-Nfc1 L101-Hzv8 L100-Hak2 L99-Vip7 L98-Ubm5 L97-Ksa9 L96-Cil9 L95-G_n0 L94-Pyw9 L93-Yfh8 L92-Uve0 L90-N_r0 L89-Qae5 L88-Yxy0 L86-Ghm0 L85-Yez3 L84-Ych5 L82-M_b0 L81-S__9 L80-Wft0 L78-T_d0 L77-Ssi5 L76-Ixx1 L74-Gjj6 L73-Yix2 L72-Wfe2 L71-Jtf0 L69-Ymm8 L68-Hpp7 L67-S_s5 L66-Cll3 L64-Rf_0 L63-Ikw9 L62-Knr9 L61-Zum6 L59-Jwx2 L58-Zki9 L57-I_v0 L56-Jbw9 L54-Sca7 L53-Q_w0 L52-Cij7 L51-X_s8 L50-Wux1 L48-Jsy9 L47-Jco6 L46-Mve2 L45-Tyi1 L44-Nwa3 L42-Zzd1 L41-R__2 L40-Ioz7 L39-Rfy0 L38-Rhe6 L36-Kgq5 L35-Fp_3 L34-Paq3 L33-H_q9 L32-Nnt9 L30-Scx1 L29-Vty5 L28-Tgk3 L27-Qwq8 L26-J_f2 L25-Ovj1 L23-Mfp6 L22-Tia9 L21-Svm6 L20-Hwx0 L19-Ipy1 L18-Pt_0 L17-Emk4 L15-Asq3 L14-Tqp5 L13-Xyg0 L12-Ins3 L11-Djw4 L10-Dof9 L9-Cec2 L7-Ptk7 L6-Fsd2 L5-Zpr7 L4-Pg_3 L3-Klw0 L2-Yah9 L1-Vww0
[90m-->3/3
[0m[90m-->4/4
[0m[90m-->8/8
[0m[90m-->12/12
[0m[90m-->19/19
[0m[90m-->23/30
[0m[90m-->23/36
[0m[90m-->23/56
[0mL115-Vkw0 L114-Tmq7 L113-Pfd0 L112-Dik0 L111-Rzr2 L110-Jbu1 L109-Jq_0 L108-Ah_3 L107-X_f5 L106-Rdh4 L105-Nfc1 L104-Hzv8 L103-Vip7 L102-Ubm5 L101-Ksa9 L100-Cil9 L99-G_n0 L98-Pyw9 L97-Yfh8 L96-Uve0 L94-N_r0 L93-Qae5 L92-Yxy0 L90-Ghm0 L89-Yez3 L88-Ych5 L86-M_b0 L85-S__9 L84-Wft0 L82-T_d0 L81-Ssi5 L80-Ixx1 L78-Gjj6 L77-Yix2 L76-Wfe2 L74-Ymm8 L73-Hpp7 L72-S_s5 L71-Cll3 L69-Rf_0 L68-Ikw9 L67-Knr9 L66-Zum6 L64-Jwx2 L63-Zki9 L62-I_v0 L61-Jbw9 L59-Sca7 L58-Q_w0 L57-Cij7 L56-X_s8 L54-Jsy9 L53-Jco6 L52-Mve2 L51-Tyi1 L50-Nwa3 L48-Zzd1 L47-R__2 L46-Ioz7 L45-Rfy0 L44-Rhe6 L42-Kgq5 L41-Fp_3 L40-Paq3 L39-H_q9 L38-Nnt9 L36-Scx1 L35-Vty5 L34-Tgk3 L33-Qwq8 L32-J_f2 L30-Mfp6 L29-Tia9 L28-Svm6 L27-Hwx0 L26-Ipy1 L25-Pt_0 L23-Asq3 L22-Tqp5 L21-Xyg0 L20-Ins3 L19-Djw4 L18-Dof9 L17-Cec2 L15-Ptk7 L14-Fsd2 L13-Zpr7 L12-Pg_3 L11-Klw0 L10-Yah9 L9-Vww0 L7-My_6 L6-V_a8 L5-Fwy3 L4-Phv6 L3-Wsx9 L2-Vvc9 L1-X_r7
[90m-->3/3
[0m[90m-->4/4
[0m[90m-->8/8
[0m[90m-->12/12
[0m[90m-->19/19
[0m[90m-->24/30
[0m[90m-->24/36
[0m[90m-->24/56
[0mL118-Vkw0 L117-Tmq7 L116-Pfd0 L115-Dik0 L114-Rzr2 L113-Jbu1 L112-Jq_0 L111-Ah_3 L110-X_f5 L109-Rdh4 L108-Nfc1 L107-Hzv8 L106-Vip7 L105-Ubm5 L104-Ksa9 L103-G_n0 L102-Pyw9 L101-Yfh8 L100-Uve0 L98-N_r0 L97-Qae5 L96-Yxy0 L94-Ghm0 L93-Yez3 L92-Ych5 L90-M_b0 L89-S__9 L88-Wft0 L86-T_d0 L85-Ssi5 L84-Ixx1 L82-Gjj6 L81-Yix2 L80-Wfe2 L78-Ymm8 L77-Hpp7 L76-S_s5 L74-Rf_0 L73-Ikw9 L72-Knr9 L71-Zum6 L69-Jwx2 L68-Zki9 L67-I_v0 L66-Jbw9 L64-Sca7 L63-Q_w0 L62-Cij7 L61-X_s8 L59-Jsy9 L58-Jco6 L57-Mve2 L56-Tyi1 L54-Zzd1 L53-R__2 L52-Ioz7 L51-Rfy0 L50-Rhe6 L48-Kgq5 L47-Fp_3 L46-Paq3 L45-H_q9 L44-Nnt9 L42-Scx1 L41-Vty5 L40-Tgk3 L39-Qwq8 L38-J_f2 L36-Mfp6 L35-Tia9 L34-Svm6 L33-Hwx0 L32-Ipy1 L30-Asq3 L29-Tqp5 L28-Xyg0 L27-Ins3 L26-Djw4 L25-Dof9 L23-Ptk7 L22-Fsd2 L21-Zpr7 L20-Pg_3 L19-Klw0 L18-Yah9 L17-Vww0 L15-My_6 L14-V_a8 L13-Fwy3 L12-Phv6 L11-Wsx9 L10-Vvc9 L9-X_r7 L7-Riv4 L6-Pyt0 L5-Jhr8 L4-Drm4 L3-Nkg3 L2-Cqe3 L1-Xgq5
[90m-->3/3
[0m[90m-->4/4
[0m[90m-->8/8
[0m[90m-->12/12
[0m[90m-->19/19
[0m[90m-->25/30
[0m[90m-->25/36
[0m[90m-->25/56
[0mL121-Vkw0 L120-Tmq7 L119-Pfd0 L118-Dik0 L117-Rzr2 L116-Jbu1 L115-Jq_0 L114-Ah_3 L113-X_f5 L112-Rdh4 L111-Nfc1 L110-Hzv8 L109-Vip7 L108-Ubm5 L107-Ksa9 L106-G_n0 L105-Pyw9 L104-Yfh8 L102-N_r0 L101-Qae5 L100-Yxy0 L98-Ghm0 L97-Yez3 L96-Ych5 L94-M_b0 L93-S__9 L92-Wft0 L90-T_d0 L89-Ssi5 L88-Ixx1 L86-Gjj6 L85-Yix2 L84-Wfe2 L82-Ymm8 L81-Hpp7 L80-S_s5 L78-Rf_0 L77-Ikw9 L76-Knr9 L74-Jwx2 L73-Zki9 L72-I_v0 L71-Jbw9 L69-Sca7 L68-Q_w0 L67-Cij7 L66-X_s8 L64-Jsy9 L63-Jco6 L62-Mve2 L61-Tyi1 L59-Zzd1 L58-R__2 L57-Ioz7 L56-Rfy0 L54-Kgq5 L53-Fp_3 L52-Paq3 L51-H_q9 L50-Nnt9 L48-Scx1 L47-Vty5 L46-Tgk3 L45-Qwq8 L44-J_f2 L42-Mfp6 L41-Tia9 L40-Svm6 L39-Hwx0 L38-Ipy1 L36-Asq3 L35-Tqp5 L34-Xyg0 L33-Ins3 L32-Djw4 L30-Ptk7 L29-Fsd2 L28-Zpr7 L27-Pg_3 L26-Klw0 L25-Yah9 L23-My_6 L22-V_a8 L21-Fwy3 L20-Phv6 L19-Wsx9 L18-Vvc9 L17-X_r7 L15-Riv4 L14-Pyt0 L13-Jhr8 L12-Drm4 L11-Nkg3 L10-Cqe3 L9-Xgq5 L7-Vxw4 L6-Trc5 L5-Kyr2 L4-Ieh8 L3-Opl2 L2-Zsn0 L1-Uyg7
[90m-->3/3
[0m[90m-->4/4
[0m[90m-->8/8
[0m[90m-->12/12
[0m[90m-->19/19
[0m[90m-->26/30
[0m[90m-->26/36
[0m[90m-->26/56
[0mL124-Vkw0 L123-Tmq7 L122-Pfd0 L121-Dik0 L120-Rzr2 L119-Jbu1 L118-Jq_0 L117-Ah_3 L116-X_f5 L115-Rdh4 L114-Nfc1 L113-Hzv8 L112-Vip7 L111-Ubm5 L110-Ksa9 L109-G_n0 L108-Pyw9 L107-Yfh8 L105-N_r0 L104-Qae5 L102-Ghm0 L101-Yez3 L100-Ych5 L98-M_b0 L97-S__9 L96-Wft0 L94-T_d0 L93-Ssi5 L92-Ixx1 L90-Gjj6 L89-Yix2 L88-Wfe2 L86-Ymm8 L85-Hpp7 L84-S_s5 L82-Rf_0 L81-Ikw9 L80-Knr9 L78-Jwx2 L77-Zki9 L76-I_v0 L74-Sca7 L73-Q_w0 L72-Cij7 L71-X_s8 L69-Jsy9 L68-Jco6 L67-Mve2 L66-Tyi1 L64-Zzd1 L63-R__2 L62-Ioz7 L61-Rfy0 L59-Kgq5 L58-Fp_3 L57-Paq3 L56-H_q9 L54-Scx1 L53-Vty5 L52-Tgk3 L51-Qwq8 L50-J_f2 L48-Mfp6 L47-Tia9 L46-Svm6 L45-Hwx0 L44-Ipy1 L42-Asq3 L41-Tqp5 L40-Xyg0 L39-Ins3 L38-Djw4 L36-Ptk7 L35-Fsd2 L34-Zpr7 L33-Pg_3 L32-Klw0 L30-My_6 L29-V_a8 L28-Fwy3 L27-Phv6 L26-Wsx9 L25-Vvc9 L23-Riv4 L22-Pyt0 L21-Jhr8 L20-Drm4 L19-Nkg3 L18-Cqe3 L17-Xgq5 L15-Vxw4 L14-Trc5 L13-Kyr2 L12-Ieh8 L11-Opl2 L10-Zsn0 L9-Uyg7 L7-G_n0 L6-Izc6 L5-Zca5 L4-Fi_9 L3-Gxd4 L2-Csq7 L1-N__7
[90m-->3/3
[0m[90m-->4/4
[0m[90m-->8/8
[0m[90m-->12/12
[0m[90m-->19/19
[0m[90m-->27/30
[0m[90m-->27/36
[0m[90m-->27/56
[0mL127-Vkw0 L126-Tmq7 L125-Pfd0 L124-Dik0 L123-Rzr2 L122-Jbu1 L121-Jq_0 L120-Ah_3 L119-X_f5 L118-Rdh4 L117-Nfc1 L116-Hzv8 L115-Vip7 L114-Ubm5 L113-Ksa9 L112-G_n0 L111-Pyw9 L110-Yfh8 L108-N_r0 L107-Qae5 L105-Ghm0 L104-Yez3 L102-M_b0 L101-S__9 L100-Wft0 L98-T_d0 L97-Ssi5 L96-Ixx1 L94-Gjj6 L93-Yix2 L92-Wfe2 L90-Ymm8 L89-Hpp7 L88-S_s5 L86-Rf_0 L85-Ikw9 L84-Knr9 L82-Jwx2 L81-Zki9 L80-I_v0 L78-Sca7 L77-Q_w0 L76-Cij7 L74-Jsy9 L73-Jco6 L72-Mve2 L71-Tyi1 L69-Zzd1 L68-R__2 L67-Ioz7 L66-Rfy0 L64-Kgq5 L63-Fp_3 L62-Paq3 L61-H_q9 L59-Scx1 L58-Vty5 L57-Tgk3 L56-Qwq8 L54-Mfp6 L53-Tia9 L52-Svm6 L51-Hwx0 L50-Ipy1 L48-Asq3 L47-Tqp5 L46-Xyg0 L45-Ins3 L44-Djw4 L42-Ptk7 L41-Fsd2 L40-Zpr7 L39-Pg_3 L38-Klw0 L36-My_6 L35-V_a8 L34-Fwy3 L33-Phv6 L32-Wsx9 L30-Riv4 L29-Pyt0 L28-Jhr8 L27-Drm4 L26-Nkg3 L25-Cqe3 L23-Vxw4 L22-Trc5 L21-Kyr2 L20-Ieh8 L19-Opl2 L18-Zsn0 L17-Uyg7 L15-G_n0 L14-Izc6 L13-Zca5 L12-Fi_9 L11-Gxd4 L10-Csq7 L9-N__7 L6-Ygz3 L5-Ptl9 L4-Zry4 L3-Hcq4 L2-Xf_9 L1-Kwf1
[90m-->3/3
[0m[90m-->4/4
[0m[90m-->8/8
[0m[90m-->12/12
[0m[90m-->19/19
[0m[90m-->28/30
[0m[90m-->28/36
[0m[90m-->28/56
[0mL130-Vkw0 L129-Tmq7 L128-Pfd0 L127-Dik0 L126-Rzr2 L125-Jbu1 L124-Jq_0 L123-Ah_3 L122-X_f5 L121-Rdh4 L120-Nfc1 L119-Hzv8 L118-Vip7 L117-Ubm5 L116-Ksa9 L115-G_n0 L114-Pyw9 L113-Yfh8 L111-N_r0 L110-Qae5 L108-Ghm0 L107-Yez3 L105-M_b0 L104-S__9 L102-T_d0 L101-Ssi5 L100-Ixx1 L98-Gjj6 L97-Yix2 L96-Wfe2 L94-Ymm8 L93-Hpp7 L92-S_s5 L90-Rf_0 L89-Ikw9 L88-Knr9 L86-Jwx2 L85-Zki9 L84-I_v0 L82-Sca7 L81-Q_w0 L80-Cij7 L78-Jsy9 L77-Jco6 L76-Mve2 L74-Zzd1 L73-R__2 L72-Ioz7 L71-Rfy0 L69-Kgq5 L68-Fp_3 L67-Paq3 L66-H_q9 L64-Scx1 L63-Vty5 L62-Tgk3 L61-Qwq8 L59-Mfp6 L58-Tia9 L57-Svm6 L56-Hwx0 L54-Asq3 L53-Tqp5 L52-Xyg0 L51-Ins3 L50-Djw4 L48-Ptk7 L47-Fsd2 L46-Zpr7 L45-Pg_3 L44-Klw0 L42-My_6 L41-V_a8 L40-Fwy3 L39-Phv6 L38-Wsx9 L36-Riv4 L35-Pyt0 L34-Jhr8 L33-Drm4 L32-Nkg3 L30-Vxw4 L29-Trc5 L28-Kyr2 L27-Ieh8 L26-Opl2 L25-Zsn0 L23-G_n0 L22-Izc6 L21-Zca5 L20-Fi_9 L19-Gxd4 L18-Csq7 L17-N__7 L14-Ygz3 L13-Ptl9 L12-Zry4 L11-Hcq4 L10-Xf_9 L9-Kwf1 L6-Azb0 L5-Cwg1 L4-Kni4 L3-Ggj8 L2-Enc9 L1-Pid7
[90m-->3/3
[0m[90m-->4/4
[0m[90m-->8/8
[0m[90m-->12/12
[0m[90m-->19/19
[0m[90m-->29/30
[0m[90m-->29/36
[0m[90m-->29/56
[0mL133-Vkw0 L132-Tmq7 L131-Pfd0 L130-Dik0 L129-Rzr2 L128-Jbu1 L127-Jq_0 L126-Ah_3 L125-X_f5 L124-Rdh4 L123-Nfc1 L122-Hzv8 L121-Vip7 L120-Ubm5 L119-Ksa9 L118-G_n0 L117-Pyw9 L116-Yfh8 L114-N_r0 L113-Qae5 L111-Ghm0 L110-Yez3 L108-M_b0 L107-S__9 L105-T_d0 L104-Ssi5 L102-Gjj6 L101-Yix2 L100-Wfe2 L98-Ymm8 L97-Hpp7 L96-S_s5 L94-Rf_0 L93-Ikw9 L92-Knr9 L90-Jwx2 L89-Zki9 L88-I_v0 L86-Sca7 L85-Q_w0 L84-Cij7 L82-Jsy9 L81-Jco6 L80-Mve2 L78-Zzd1 L77-R__2 L76-Ioz7 L74-Kgq5 L73-Fp_3 L72-Paq3 L71-H_q9 L69-Scx1 L68-Vty5 L67-Tgk3 L66-Qwq8 L64-Mfp6 L63-Tia9 L62-Svm6 L61-Hwx0 L59-Asq3 L58-Tqp5 L57-Xyg0 L56-Ins3 L54-Ptk7 L53-Fsd2 L52-Zpr7 L51-Pg_3 L50-Klw0 L48-My_6 L47-V_a8 L46-Fwy3 L45-Phv6 L44-Wsx9 L42-Riv4 L41-Pyt0 L40-Jhr8 L39-Drm4 L38-Nkg3 L36-Vxw4 L35-Trc5 L34-Kyr2 L33-Ieh8 L32-Opl2 L30-G_n0 L29-Izc6 L28-Zca5 L27-Fi_9 L26-Gxd4 L25-Csq7 L22-Ygz3 L21-Ptl9 L20-Zry4 L19-Hcq4 L18-Xf_9 L17-Kwf1 L14-Azb0 L13-Cwg1 L12-Kni4 L11-Ggj8 L10-Enc9 L9-Pid7 L6-Ctq9 L5-P_o3 L4-Gut0 L3-Yff9 L2-Xaz2 L1-Umm2
[90m-->3/3
[0m[90m-->4/4
[0m[90m-->8/8
[0m[90m-->12/12
[0m[90m-->19/19
[0m[90m-->30/30
[0m[90m-->30/36
[0m[90m-->30/56
[0mL136-Vkw0 L135-Tmq7 L134-Pfd0 L133-Dik0 L132-Rzr2 L131-Jbu1 L130-Jq_0 L129-Ah_3 L128-X_f5 L127-Rdh4 L126-Nfc1 L125-Hzv8 L124-Vip7 L123-Ubm5 L122-Ksa9 L121-G_n0 L120-Pyw9 L119-Yfh8 L117-N_r0 L116-Qae5 L114-Ghm0 L113-Yez3 L111-M_b0 L110-S__9 L108-T_d0 L107-Ssi5 L105-Gjj6 L104-Yix2 L102-Ymm8 L101-Hpp7 L100-S_s5 L98-Rf_0 L97-Ikw9 L96-Knr9 L94-Jwx2 L93-Zki9 L92-I_v0 L90-Sca7 L89-Q_w0 L88-Cij7 L86-Jsy9 L85-Jco6 L84-Mve2 L82-Zzd1 L81-R__2 L80-Ioz7 L78-Kgq5 L77-Fp_3 L76-Paq3 L74-Scx1 L73-Vty5 L72-Tgk3 L71-Qwq8 L69-Mfp6 L68-Tia9 L67-Svm6 L66-Hwx0 L64-Asq3 L63-Tqp5 L62-Xyg0 L61-Ins3 L59-Ptk7 L58-Fsd2 L57-Zpr7 L56-Pg_3 L54-My_6 L53-V_a8 L52-Fwy3 L51-Phv6 L50-Wsx9 L48-Riv4 L47-Pyt0 L46-Jhr8 L45-Drm4 L44-Nkg3 L42-Vxw4 L41-Trc5 L40-Kyr2 L39-Ieh8 L38-Opl2 L36-G_n0 L35-Izc6 L34-Zca5 L33-Fi_9 L32-Gxd4 L29-Ygz3 L28-Ptl9 L27-Zry4 L26-Hcq4 L25-Xf_9 L22-Azb0 L21-Cwg1 L20-Kni4 L19-Ggj8 L18-Enc9 L17-Pid7 L14-Ctq9 L13-P_o3 L12-Gut0 L11-Yff9 L10-Xaz2 L9-Umm2 L6-Qun5 L5-Slc1 L4-Geh1 L3-Pkd4 L2-Blw1 L1-Uli0
[90m-->3/3
[0m[90m-->4/4
[0m[90m-->8/8
[0m[90m-->12/12
[0m[90m-->19/19
[0m[90m-->30/30
[0m[90m-->31/36
[0m[90m-->31/56
[0mL138-Vkw0 L137-Tmq7 L136-Dik0 L135-Rzr2 L134-Jbu1 L133-Jq_0 L132-Ah_3 L131-X_f5 L130-Rdh4 L129-Nfc1 L128-Hzv8 L127-Vip7 L126-Ubm5 L125-Ksa9 L124-G_n0 L123-Pyw9 L122-Yfh8 L120-N_r0 L119-Qae5 L117-Ghm0 L116-Yez3 L114-M_b0 L113-S__9 L111-T_d0 L110-Ssi5 L108-Gjj6 L107-Yix2 L105-Ymm8 L104-Hpp7 L102-Rf_0 L101-Ikw9 L100-Knr9 L98-Jwx2 L97-Zki9 L96-I_v0 L94-Sca7 L93-Q_w0 L92-Cij7 L90-Jsy9 L89-Jco6 L88-Mve2 L86-Zzd1 L85-R__2 L84-Ioz7 L82-Kgq5 L81-Fp_3 L80-Paq3 L78-Scx1 L77-Vty5 L76-Tgk3 L74-Mfp6 L73-Tia9 L72-Svm6 L71-Hwx0 L69-Asq3 L68-Tqp5 L67-Xyg0 L66-Ins3 L64-Ptk7 L63-Fsd2 L62-Zpr7 L61-Pg_3 L59-My_6 L58-V_a8 L57-Fwy3 L56-Phv6 L54-Riv4 L53-Pyt0 L52-Jhr8 L51-Drm4 L50-Nkg3 L48-Vxw4 L47-Trc5 L46-Kyr2 L45-Ieh8 L44-Opl2 L42-G_n0 L41-Izc6 L40-Zca5 L39-Fi_9 L38-Gxd4 L35-Ygz3 L34-Ptl9 L33-Zry4 L32-Hcq4 L29-Azb0 L28-Cwg1 L27-Kni4 L26-Ggj8 L25-Enc9 L22-Ctq9 L21-P_o3 L20-Gut0 L19-Yff9 L18-Xaz2 L17-Umm2 L14-Qun5 L13-Slc1 L12-Geh1 L11-Pkd4 L10-Blw1 L9-Uli0 L6-Cho1 L5-Sgj0 L4-X_d3 L3-O_d4 L2-Jgb2 L1-Xkk8
[90m-->3/3
[0m[90m-->4/4
[0m[90m-->8/8
[0m[90m-->12/12
[0m[90m-->19/19
[0m[90m-->30/30
[0m[90m-->32/36
[0m[90m-->32/56
[0mL140-Vkw0 L139-Tmq7 L138-Dik0 L137-Rzr2 L136-Jq_0 L135-Ah_3 L134-X_f5 L133-Rdh4 L132-Nfc1 L131-Hzv8 L130-Vip7 L129-Ubm5 L128-Ksa9 L127-G_n0 L126-Pyw9 L125-Yfh8 L123-N_r0 L122-Qae5 L120-Ghm0 L119-Yez3 L117-M_b0 L116-S__9 L114-T_d0 L113-Ssi5 L111-Gjj6 L110-Yix2 L108-Ymm8 L107-Hpp7 L105-Rf_0 L104-Ikw9 L102-Jwx2 L101-Zki9 L100-I_v0 L98-Sca7 L97-Q_w0 L96-Cij7 L94-Jsy9 L93-Jco6 L92-Mve2 L90-Zzd1 L89-R__2 L88-Ioz7 L86-Kgq5 L85-Fp_3 L84-Paq3 L82-Scx1 L81-Vty5 L80-Tgk3 L78-Mfp6 L77-Tia9 L76-Svm6 L74-Asq3 L73-Tqp5 L72-Xyg0 L71-Ins3 L69-Ptk7 L68-Fsd2 L67-Zpr7 L66-Pg_3 L64-My_6 L63-V_a8 L62-Fwy3 L61-Phv6 L59-Riv4 L58-Pyt0 L57-Jhr8 L56-Drm4 L54-Vxw4 L53-Trc5 L52-Kyr2 L51-Ieh8 L50-Opl2 L48-G_n0 L47-Izc6 L46-Zca5 L45-Fi_9 L44-Gxd4 L41-Ygz3 L40-Ptl9 L39-Zry4 L38-Hcq4 L35-Azb0 L34-Cwg1 L33-Kni4 L32-Ggj8 L29-Ctq9 L28-P_o3 L27-Gut0 L26-Yff9 L25-Xaz2 L22-Qun5 L21-Slc1 L20-Geh1 L19-Pkd4 L18-Blw1 L17-Uli0 L14-Cho1 L13-Sgj0 L12-X_d3 L11-O_d4 L10-Jgb2 L9-Xkk8 L6-G_n0 L5-Qgs6 L4-Zkq6 L3-Tub1 L2-Hzu7 L1-Yli9
[90m-->3/3
[0m[90m-->4/4
[0m[90m-->8/8
[0m[90m-->12/12
[0m[90m-->19/19
[0m[90m-->30/30
[0m[90m-->33/36
[0m[90m-->33/56
[0mL142-Vkw0 L141-Tmq7 L140-Dik0 L139-Rzr2 L138-Jq_0 L137-Ah_3 L136-Rdh4 L135-Nfc1 L134-Hzv8 L133-Vip7 L132-Ubm5 L131-Ksa9 L130-G_n0 L129-Pyw9 L128-Yfh8 L126-N_r0 L125-Qae5 L123-Ghm0 L122-Yez3 L120-M_b0 L119-S__9 L117-T_d0 L116-Ssi5 L114-Gjj6 L113-Yix2 L111-Ymm8 L110-Hpp7 L108-Rf_0 L107-Ikw9 L105-Jwx2 L104-Zki9 L102-Sca7 L101-Q_w0 L100-Cij7 L98-Jsy9 L97-Jco6 L96-Mve2 L94-Zzd1 L93-R__2 L92-Ioz7 L90-Kgq5 L89-Fp_3 L88-Paq3 L86-Scx1 L85-Vty5 L84-Tgk3 L82-Mfp6 L81-Tia9 L80-Svm6 L78-Asq3 L77-Tqp5 L76-Xyg0 L74-Ptk7 L73-Fsd2 L72-Zpr7 L71-Pg_3 L69-My_6 L68-V_a8 L67-Fwy3 L66-Phv6 L64-Riv4 L63-Pyt0 L62-Jhr8 L61-Drm4 L59-Vxw4 L58-Trc5 L57-Kyr2 L56-Ieh8 L54-G_n0 L53-Izc6 L52-Zca5 L51-Fi_9 L50-Gxd4 L47-Ygz3 L46-Ptl9 L45-Zry4 L44-Hcq4 L41-Azb0 L40-Cwg1 L39-Kni4 L38-Ggj8 L35-Ctq9 L34-P_o3 L33-Gut0 L32-Yff9 L29-Qun5 L28-Slc1 L27-Geh1 L26-Pkd4 L25-Blw1 L22-Cho1 L21-Sgj0 L20-X_d3 L19-O_d4 L18-Jgb2 L17-Xkk8 L14-G_n0 L13-Qgs6 L12-Zkq6 L11-Tub1 L10-Hzu7 L9-Yli9 L5-Mqk8 L4-Pfa9 L3-Bdd4 L2-O__4 L1-Owq6
[90m-->3/3
[0m[90m-->4/4
[0m[90m-->8/8
[0m[90m-->12/12
[0m[90m-->19/19
[0m[90m-->30/30
[0m[90m-->34/36
[0m[90m-->34/56
[0mL144-Vkw0 L143-Tmq7 L142-Dik0 L141-Rzr2 L140-Jq_0 L139-Ah_3 L138-Rdh4 L137-Nfc1 L136-Vip7 L135-Ubm5 L134-Ksa9 L133-G_n0 L132-Pyw9 L131-Yfh8 L129-N_r0 L128-Qae5 L126-Ghm0 L125-Yez3 L123-M_b0 L122-S__9 L120-T_d0 L119-Ssi5 L117-Gjj6 L116-Yix2 L114-Ymm8 L113-Hpp7 L111-Rf_0 L110-Ikw9 L108-Jwx2 L107-Zki9 L105-Sca7 L104-Q_w0 L102-Jsy9 L101-Jco6 L100-Mve2 L98-Zzd1 L97-R__2 L96-Ioz7 L94-Kgq5 L93-Fp_3 L92-Paq3 L90-Scx1 L89-Vty5 L88-Tgk3 L86-Mfp6 L85-Tia9 L84-Svm6 L82-Asq3 L81-Tqp5 L80-Xyg0 L78-Ptk7 L77-Fsd2 L76-Zpr7 L74-My_6 L73-V_a8 L72-Fwy3 L71-Phv6 L69-Riv4 L68-Pyt0 L67-Jhr8 L66-Drm4 L64-Vxw4 L63-Trc5 L62-Kyr2 L61-Ieh8 L59-G_n0 L58-Izc6 L57-Zca5 L56-Fi_9 L53-Ygz3 L52-Ptl9 L51-Zry4 L50-Hcq4 L47-Azb0 L46-Cwg1 L45-Kni4 L44-Ggj8 L41-Ctq9 L40-P_o3 L39-Gut0 L38-Yff9 L35-Qun5 L34-Slc1 L33-Geh1 L32-Pkd4 L29-Cho1 L28-Sgj0 L27-X_d3 L26-O_d4 L25-Jgb2 L22-G_n0 L21-Qgs6 L20-Zkq6 L19-Tub1 L18-Hzu7 L17-Yli9 L13-Mqk8 L12-Pfa9 L11-Bdd4 L10-O__4 L9-Owq6 L5-Tgt9 L4-Qum4 L3-Glw3 L2-Jsb0 L1-Qdr4
[90m-->3/3
[0m[90m-->4/4
[0m[90m-->8/8
[0m[90m-->12/12
[0m[90m-->19/19
[0m[90m-->30/30
[0m[90m-->35/36
[0m[90m-->35/56
[0mL146-Vkw0 L145-Tmq7 L144-Dik0 L143-Rzr2 L142-Jq_0 L141-Ah_3 L140-Rdh4 L139-Nfc1 L138-Vip7 L137-Ubm5 L136-G_n0 L135-Pyw9 L134-Yfh8 L132-N_r0 L131-Qae5 L129-Ghm0 L128-Yez3 L126-M_b0 L125-S__9 L123-T_d0 L122-Ssi5 L120-Gjj6 L119-Yix2 L117-Ymm8 L116-Hpp7 L114-Rf_0 L113-Ikw9 L111-Jwx2 L110-Zki9 L108-Sca7 L107-Q_w0 L105-Jsy9 L104-Jco6 L102-Zzd1 L101-R__2 L100-Ioz7 L98-Kgq5 L97-Fp_3 L96-Paq3 L94-Scx1 L93-Vty5 L92-Tgk3 L90-Mfp6 L89-Tia9 L88-Svm6 L86-Asq3 L85-Tqp5 L84-Xyg0 L82-Ptk7 L81-Fsd2 L80-Zpr7 L78-My_6 L77-V_a8 L76-Fwy3 L74-Riv4 L73-Pyt0 L72-Jhr8 L71-Drm4 L69-Vxw4 L68-Trc5 L67-Kyr2 L66-Ieh8 L64-G_n0 L63-Izc6 L62-Zca5 L61-Fi_9 L58-Ygz3 L57-Ptl9 L56-Zry4 L53-Azb0 L52-Cwg1 L51-Kni4 L50-Ggj8 L47-Ctq9 L46-P_o3 L45-Gut0 L44-Yff9 L41-Qun5 L40-Slc1 L39-Geh1 L38-Pkd4 L35-Cho1 L34-Sgj0 L33-X_d3 L32-O_d4 L29-G_n0 L28-Qgs6 L27-Zkq6 L26-Tub1 L25-Hzu7 L21-Mqk8 L20-Pfa9 L19-Bdd4 L18-O__4 L17-Owq6 L13-Tgt9 L12-Qum4 L11-Glw3 L10-Jsb0 L9-Qdr4 L5-Eps7 L4-Jqh6 L3-Byp7 L2-Jil3 L1-Qnm9
[90m-->3/3
[0m[90m-->4/4
[0m[90m-->8/8
[0m[90m-->12/12
[0m[90m-->19/19
[0m[90m-->30/30
[0m[90m-->36/36
[0m[90m-->36/56
[0mL148-Vkw0 L147-Tmq7 L146-Dik0 L145-Rzr2 L144-Jq_0 L143-Ah_3 L142-Rdh4 L141-Nfc1 L140-Vip7 L139-Ubm5 L138-G_n0 L137-Pyw9 L135-N_r0 L134-Qae5 L132-Ghm0 L131-Yez3 L129-M_b0 L128-S__9 L126-T_d0 L125-Ssi5 L123-Gjj6 L122-Yix2 L120-Ymm8 L119-Hpp7 L117-Rf_0 L116-Ikw9 L114-Jwx2 L113-Zki9 L111-Sca7 L110-Q_w0 L108-Jsy9 L107-Jco6 L105-Zzd1 L104-R__2 L102-Kgq5 L101-Fp_3 L100-Paq3 L98-Scx1 L97-Vty5 L96-Tgk3 L94-Mfp6 L93-Tia9 L92-Svm6 L90-Asq3 L89-Tqp5 L88-Xyg0 L86-Ptk7 L85-Fsd2 L84-Zpr7 L82-My_6 L81-V_a8 L80-Fwy3 L78-Riv4 L77-Pyt0 L76-Jhr8 L74-Vxw4 L73-Trc5 L72-Kyr2 L71-Ieh8 L69-G_n0 L68-Izc6 L67-Zca5 L66-Fi_9 L63-Ygz3 L62-Ptl9 L61-Zry4 L58-Azb0 L57-Cwg1 L56-Kni4 L53-Ctq9 L52-P_o3 L51-Gut0 L50-Yff9 L47-Qun5 L46-Slc1 L45-Geh1 L44-Pkd4 L41-Cho1 L40-Sgj0 L39-X_d3 L38-O_d4 L35-G_n0 L34-Qgs6 L33-Zkq6 L32-Tub1 L28-Mqk8 L27-Pfa9 L26-Bdd4 L25-O__4 L21-Tgt9 L20-Qum4 L19-Glw3 L18-Jsb0 L17-Qdr4 L13-Eps7 L12-Jqh6 L11-Byp7 L10-Jil3 L9-Qnm9 L5-Dsg9 L4-Ryw3 L3-Ubc9 L2-A_q2 L1-Xdi4
[90m-->3/3
[0m[90m-->4/4
[0m[90m-->8/8
[0m[90m-->12/12
[0m[90m-->19/19
[0m[90m-->30/30
[0m[90m-->36/36
[0m[90m-->37/56
[0mL149-Vkw0 L148-Dik0 L147-Rzr2 L146-Jq_0 L145-Ah_3 L144-Rdh4 L143-Nfc1 L142-Vip7 L141-Ubm5 L140-G_n0 L139-Pyw9 L137-N_r0 L135-Ghm0 L134-Yez3 L132-M_b0 L131-S__9 L129-T_d0 L128-Ssi5 L126-Gjj6 L125-Yix2 L123-Ymm8 L122-Hpp7 L120-Rf_0 L119-Ikw9 L117-Jwx2 L116-Zki9 L114-Sca7 L113-Q_w0 L111-Jsy9 L110-Jco6 L108-Zzd1 L107-R__2 L105-Kgq5 L104-Fp_3 L102-Scx1 L101-Vty5 L100-Tgk3 L98-Mfp6 L97-Tia9 L96-Svm6 L94-Asq3 L93-Tqp5 L92-Xyg0 L90-Ptk7 L89-Fsd2 L88-Zpr7 L86-My_6 L85-V_a8 L84-Fwy3 L82-Riv4 L81-Pyt0 L80-Jhr8 L78-Vxw4 L77-Trc5 L76-Kyr2 L74-G_n0 L73-Izc6 L72-Zca5 L71-Fi_9 L68-Ygz3 L67-Ptl9 L66-Zry4 L63-Azb0 L62-Cwg1 L61-Kni4 L58-Ctq9 L57-P_o3 L56-Gut0 L53-Qun5 L52-Slc1 L51-Geh1 L50-Pkd4 L47-Cho1 L46-Sgj0 L45-X_d3 L44-O_d4 L41-G_n0 L40-Qgs6 L39-Zkq6 L38-Tub1 L34-Mqk8 L33-Pfa9 L32-Bdd4 L28-Tgt9 L27-Qum4 L26-Glw3 L25-Jsb0 L21-Eps7 L20-Jqh6 L19-Byp7 L18-Jil3 L17-Qnm9 L13-Dsg9 L12-Ryw3 L11-Ubc9 L10-A_q2 L9-Xdi4 L5-Cfw8 L4-Ixm0 L3-O_n5 L2-Tne7 L1-Cgo2
[90m-->3/3
[0m[90m-->4/4
[0m[90m-->8/8
[0m[90m-->12/12
[0m[90m-->19/19
[0m[90m-->30/30
[0m[90m-->36/36
[0m[90m-->38/56
[0mL150-Vkw0 L149-Dik0 L148-Jq_0 L147-Ah_3 L146-Rdh4 L145-Nfc1 L144-Vip7 L143-Ubm5 L142-G_n0 L141-Pyw9 L139-N_r0 L137-Ghm0 L135-M_b0 L134-S__9 L132-T_d0 L131-Ssi5 L129-Gjj6 L128-Yix2 L126-Ymm8 L125-Hpp7 L123-Rf_0 L122-Ikw9 L120-Jwx2 L119-Zki9 L117-Sca7 L116-Q_w0 L114-Jsy9 L113-Jco6 L111-Zzd1 L110-R__2 L108-Kgq5 L107-Fp_3 L105-Scx1 L104-Vty5 L102-Mfp6 L101-Tia9 L100-Svm6 L98-Asq3 L97-Tqp5 L96-Xyg0 L94-Ptk7 L93-Fsd2 L92-Zpr7 L90-My_6 L89-V_a8 L88-Fwy3 L86-Riv4 L85-Pyt0 L84-Jhr8 L82-Vxw4 L81-Trc5 L80-Kyr2 L78-G_n0 L77-Izc6 L76-Zca5 L73-Ygz3 L72-Ptl9 L71-Zry4 L68-Azb0 L67-Cwg1 L66-Kni4 L63-Ctq9 L62-P_o3 L61-Gut0 L58-Qun5 L57-Slc1 L56-Geh1 L53-Cho1 L52-Sgj0 L51-X_d3 L50-O_d4 L47-G_n0 L46-Qgs6 L45-Zkq6 L44-Tub1 L40-Mqk8 L39-Pfa9 L38-Bdd4 L34-Tgt9 L33-Qum4 L32-Glw3 L28-Eps7 L27-Jqh6 L26-Byp7 L25-Jil3 L21-Dsg9 L20-Ryw3 L19-Ubc9 L18-A_q2 L17-Xdi4 L13-Cfw8 L12-Ixm0 L11-O_n5 L10-Tne7 L9-Cgo2 L5-Uw_3 L4-Hzc4 L3-Atu4 L2-Rvv2 L1-Exp5
[90m-->3/3
[0m[90m-->4/4
[0m[90m-->8/8
[0m[90m-->12/12
[0m[90m-->19/19
[0m[90m-->30/30
[0m[90m-->36/36
[0m[90m-->39/56
[0mL151-Vkw0 L150-Dik0 L149-Jq_0 L148-Rdh4 L147-Nfc1 L146-Vip7 L145-Ubm5 L144-G_n0 L143-Pyw9 L141-N_r0 L139-Ghm0 L137-M_b0 L135-T_d0 L134-Ssi5 L132-Gjj6 L131-Yix2 L129-Ymm8 L128-Hpp7 L126-Rf_0 L125-Ikw9 L123-Jwx2 L122-Zki9 L120-Sca7 L119-Q_w0 L117-Jsy9 L116-Jco6 L114-Zzd1 L113-R__2 L111-Kgq5 L110-Fp_3 L108-Scx1 L107-Vty5 L105-Mfp6 L104-Tia9 L102-Asq3 L101-Tqp5 L100-Xyg0 L98-Ptk7 L97-Fsd2 L96-Zpr7 L94-My_6 L93-V_a8 L92-Fwy3 L90-Riv4 L89-Pyt0 L88-Jhr8 L86-Vxw4 L85-Trc5 L84-Kyr2 L82-G_n0 L81-Izc6 L80-Zca5 L77-Ygz3 L76-Ptl9 L73-Azb0 L72-Cwg1 L71-Kni4 L68-Ctq9 L67-P_o3 L66-Gut0 L63-Qun5 L62-Slc1 L61-Geh1 L58-Cho1 L57-Sgj0 L56-X_d3 L53-G_n0 L52-Qgs6 L51-Zkq6 L50-Tub1 L46-Mqk8 L45-Pfa9 L44-Bdd4 L40-Tgt9 L39-Qum4 L38-Glw3 L34-Eps7 L33-Jqh6 L32-Byp7 L28-Dsg9 L27-Ryw3 L26-Ubc9 L25-A_q2 L21-Cfw8 L20-Ixm0 L19-O_n5 L18-Tne7 L17-Cgo2 L13-Uw_3 L12-Hzc4 L11-Atu4 L10-Rvv2 L9-Exp5 L5-Mrw0 L4-Fky1 L3-Kzr6 L2-Vmc4 L1-Qz_4
[90m-->3/3
[0m[90m-->4/4
[0m[90m-->8/8
[0m[90m-->12/12
[0m[90m-->19/19
[0m[90m-->30/30
[0m[90m-->36/36
[0m[90m-->40/56
[0mL152-Vkw0 L151-Dik0 L150-Jq_0 L149-Rdh4 L148-Vip7 L147-Ubm5 L146-G_n0 L145-Pyw9 L143-N_r0 L141-Ghm0 L139-M_b0 L137-T_d0 L135-Gjj6 L134-Yix2 L132-Ymm8 L131-Hpp7 L129-Rf_0 L128-Ikw9 L126-Jwx2 L125-Zki9 L123-Sca7 L122-Q_w0 L120-Jsy9 L119-Jco6 L117-Zzd1 L116-R__2 L114-Kgq5 L113-Fp_3 L111-Scx1 L110-Vty5 L108-Mfp6 L107-Tia9 L105-Asq3 L104-Tqp5 L102-Ptk7 L101-Fsd2 L100-Zpr7 L98-My_6 L97-V_a8 L96-Fwy3 L94-Riv4 L93-Pyt0 L92-Jhr8 L90-Vxw4 L89-Trc5 L88-Kyr2 L86-G_n0 L85-Izc6 L84-Zca5 L81-Ygz3 L80-Ptl9 L77-Azb0 L76-Cwg1 L73-Ctq9 L72-P_o3 L71-Gut0 L68-Qun5 L67-Slc1 L66-Geh1 L63-Cho1 L62-Sgj0 L61-X_d3 L58-G_n0 L57-Qgs6 L56-Zkq6 L52-Mqk8 L51-Pfa9 L50-Bdd4 L46-Tgt9 L45-Qum4 L44-Glw3 L40-Eps7 L39-Jqh6 L38-Byp7 L34-Dsg9 L33-Ryw3 L32-Ubc9 L28-Cfw8 L27-Ixm0 L26-O_n5 L25-Tne7 L21-Uw_3 L20-Hzc4 L19-Atu4 L18-Rvv2 L17-Exp5 L13-Mrw0 L12-Fky1 L11-Kzr6 L10-Vmc4 L9-Qz_4 L5-Eti9 L4-Brc9 L3-Mgi7 L2-W_c6 L1-Gmd7
[90m-->3/3
[0m[90m-->4/4
[0m[90m-->8/8
[0m[90m-->12/12
[0m[90m-->19/19
[0m[90m-->30/30
[0m[90m-->36/36
[0m[90m-->41/56
[0mL153-Vkw0 L152-Dik0 L151-Jq_0 L150-Rdh4 L149-Vip7 L148-G_n0 L147-Pyw9 L145-N_r0 L143-Ghm0 L141-M_b0 L139-T_d0 L137-Gjj6 L135-Ymm8 L134-Hpp7 L132-Rf_0 L131-Ikw9 L129-Jwx2 L128-Zki9 L126-Sca7 L125-Q_w0 L123-Jsy9 L122-Jco6 L120-Zzd1 L119-R__2 L117-Kgq5 L116-Fp_3 L114-Scx1 L113-Vty5 L111-Mfp6 L110-Tia9 L108-Asq3 L107-Tqp5 L105-Ptk7 L104-Fsd2 L102-My_6 L101-V_a8 L100-Fwy3 L98-Riv4 L97-Pyt0 L96-Jhr8 L94-Vxw4 L93-Trc5 L92-Kyr2 L90-G_n0 L89-Izc6 L88-Zca5 L85-Ygz3 L84-Ptl9 L81-Azb0 L80-Cwg1 L77-Ctq9 L76-P_o3 L73-Qun5 L72-Slc1 L71-Geh1 L68-Cho1 L67-Sgj0 L66-X_d3 L63-G_n0 L62-Qgs6 L61-Zkq6 L57-Mqk8 L56-Pfa9 L52-Tgt9 L51-Qum4 L50-Glw3 L46-Eps7 L45-Jqh6 L44-Byp7 L40-Dsg9 L39-Ryw3 L38-Ubc9 L34-Cfw8 L33-Ixm0 L32-O_n5 L28-Uw_3 L27-Hzc4 L26-Atu4 L25-Rvv2 L21-Mrw0 L20-Fky1 L19-Kzr6 L18-Vmc4 L17-Qz_4 L13-Eti9 L12-Brc9 L11-Mgi7 L10-W_c6 L9-Gmd7 L5-Fwg0 L4-P_d7 L3-Doa2 L2-Qbo8 L1-Spr3
[90m-->3/3
[0m[90m-->4/4
[0m[90m-->8/8
[0m[90m-->12/12
[0m[90m-->19/19
[0m[90m-->30/30
[0m[90m-->36/36
[0m[90m-->42/56
[0mL154-Vkw0 L153-Dik0 L152-Jq_0 L151-Rdh4 L150-Vip7 L149-G_n0 L147-N_r0 L145-Ghm0 L143-M_b0 L141-T_d0 L139-Gjj6 L137-Ymm8 L135-Rf_0 L134-Ikw9 L132-Jwx2 L131-Zki9 L129-Sca7 L128-Q_w0 L126-Jsy9 L125-Jco6 L123-Zzd1 L122-R__2 L120-Kgq5 L119-Fp_3 L117-Scx1 L116-Vty5 L114-Mfp6 L113-Tia9 L111-Asq3 L110-Tqp5 L108-Ptk7 L107-Fsd2 L105-My_6 L104-V_a8 L102-Riv4 L101-Pyt0 L100-Jhr8 L98-Vxw4 L97-Trc5 L96-Kyr2 L94-G_n0 L93-Izc6 L92-Zca5 L89-Ygz3 L88-Ptl9 L85-Azb0 L84-Cwg1 L81-Ctq9 L80-P_o3 L77-Qun5 L76-Slc1 L73-Cho1 L72-Sgj0 L71-X_d3 L68-G_n0 L67-Qgs6 L66-Zkq6 L62-Mqk8 L61-Pfa9 L57-Tgt9 L56-Qum4 L52-Eps7 L51-Jqh6 L50-Byp7 L46-Dsg9 L45-Ryw3 L44-Ubc9 L40-Cfw8 L39-Ixm0 L38-O_n5 L34-Uw_3 L33-Hzc4 L32-Atu4 L28-Mrw0 L27-Fky1 L26-Kzr6 L25-Vmc4 L21-Eti9 L20-Brc9 L19-Mgi7 L18-W_c6 L17-Gmd7 L13-Fwg0 L12-P_d7 L11-Doa2 L10-Qbo8 L9-Spr3 L5-Jem9 L4-Dts9 L3-Bau7 L2-Jou3 L1-Uxq5
[90m-->3/3
[0m[90m-->4/4
[0m[90m-->8/8
[0m[90m-->12/12
[0m[90m-->19/19
[0m[90m-->30/30
[0m[90m-->36/36
[0m[90m-->43/56
[0mL155-Vkw0 L154-Dik0 L153-Jq_0 L152-Rdh4 L151-Vip7 L150-G_n0 L147-Ghm0 L145-M_b0 L143-T_d0 L141-Gjj6 L139-Ymm8 L137-Rf_0 L135-Jwx2 L134-Zki9 L132-Sca7 L131-Q_w0 L129-Jsy9 L128-Jco6 L126-Zzd1 L125-R__2 L123-Kgq5 L122-Fp_3 L120-Scx1 L119-Vty5 L117-Mfp6 L116-Tia9 L114-Asq3 L113-Tqp5 L111-Ptk7 L110-Fsd2 L108-My_6 L107-V_a8 L105-Riv4 L104-Pyt0 L102-Vxw4 L101-Trc5 L100-Kyr2 L98-G_n0 L97-Izc6 L96-Zca5 L93-Ygz3 L92-Ptl9 L89-Azb0 L88-Cwg1 L85-Ctq9 L84-P_o3 L81-Qun5 L80-Slc1 L77-Cho1 L76-Sgj0 L73-G_n0 L72-Qgs6 L71-Zkq6 L67-Mqk8 L66-Pfa9 L62-Tgt9 L61-Qum4 L57-Eps7 L56-Jqh6 L52-Dsg9 L51-Ryw3 L50-Ubc9 L46-Cfw8 L45-Ixm0 L44-O_n5 L40-Uw_3 L39-Hzc4 L38-Atu4 L34-Mrw0 L33-Fky1 L32-Kzr6 L28-Eti9 L27-Brc9 L26-Mgi7 L25-W_c6 L21-Fwg0 L20-P_d7 L19-Doa2 L18-Qbo8 L17-Spr3 L13-Jem9 L12-Dts9 L11-Bau7 L10-Jou3 L9-Uxq5 L5-G_n0 L4-Guz0 L3-Is_1 L2-A_e2 L1-U__8
[90m-->3/3
[0m[90m-->4/4
[0m[90m-->8/8
[0m[90m-->12/12
[0m[90m-->19/19
[0m[90m-->30/30
[0m[90m-->36/36
[0m[90m-->44/56
[0mL156-Vkw0 L155-Dik0 L154-Jq_0 L153-Rdh4 L152-Vip7 L151-G_n0 L147-M_b0 L145-T_d0 L143-Gjj6 L141-Ymm8 L139-Rf_0 L137-Jwx2 L135-Sca7 L134-Q_w0 L132-Jsy9 L131-Jco6 L129-Zzd1 L128-R__2 L126-Kgq5 L125-Fp_3 L123-Scx1 L122-Vty5 L120-Mfp6 L119-Tia9 L117-Asq3 L116-Tqp5 L114-Ptk7 L113-Fsd2 L111-My_6 L110-V_a8 L108-Riv4 L107-Pyt0 L105-Vxw4 L104-Trc5 L102-G_n0 L101-Izc6 L100-Zca5 L97-Ygz3 L96-Ptl9 L93-Azb0 L92-Cwg1 L89-Ctq9 L88-P_o3 L85-Qun5 L84-Slc1 L81-Cho1 L80-Sgj0 L77-G_n0 L76-Qgs6 L72-Mqk8 L71-Pfa9 L67-Tgt9 L66-Qum4 L62-Eps7 L61-Jqh6 L57-Dsg9 L56-Ryw3 L52-Cfw8 L51-Ixm0 L50-O_n5 L46-Uw_3 L45-Hzc4 L44-Atu4 L40-Mrw0 L39-Fky1 L38-Kzr6 L34-Eti9 L33-Brc9 L32-Mgi7 L28-Fwg0 L27-P_d7 L26-Doa2 L25-Qbo8 L21-Jem9 L20-Dts9 L19-Bau7 L18-Jou3 L17-Uxq5 L13-G_n0 L12-Guz0 L11-Is_1 L10-A_e2 L9-U__8 L4-C_q5 L3-Pwr1 L2-Jiz0 L1-Jt_3
[90m-->3/3
[0m[90m-->4/4
[0m[90m-->8/8
[0m[90m-->12/12
[0m[90m-->19/19
[0m[90m-->30/30
[0m[90m-->36/36
[0m[90m-->45/56
[0mL157-Vkw0 L156-Dik0 L155-Jq_0 L154-Rdh4 L153-Vip7 L152-G_n0 L147-T_d0 L145-Gjj6 L143-Ymm8 L141-Rf_0 L139-Jwx2 L137-Sca7 L135-Jsy9 L134-Jco6 L132-Zzd1 L131-R__2 L129-Kgq5 L128-Fp_3 L126-Scx1 L125-Vty5 L123-Mfp6 L122-Tia9 L120-Asq3 L119-Tqp5 L117-Ptk7 L116-Fsd2 L114-My_6 L113-V_a8 L111-Riv4 L110-Pyt0 L108-Vxw4 L107-Trc5 L105-G_n0 L104-Izc6 L101-Ygz3 L100-Ptl9 L97-Azb0 L96-Cwg1 L93-Ctq9 L92-P_o3 L89-Qun5 L88-Slc1 L85-Cho1 L84-Sgj0 L81-G_n0 L80-Qgs6 L76-Mqk8 L72-Tgt9 L71-Qum4 L67-Eps7 L66-Jqh6 L62-Dsg9 L61-Ryw3 L57-Cfw8 L56-Ixm0 L52-Uw_3 L51-Hzc4 L50-Atu4 L46-Mrw0 L45-Fky1 L44-Kzr6 L40-Eti9 L39-Brc9 L38-Mgi7 L34-Fwg0 L33-P_d7 L32-Doa2 L28-Jem9 L27-Dts9 L26-Bau7 L25-Jou3 L21-G_n0 L20-Guz0 L19-Is_1 L18-A_e2 L17-U__8 L12-C_q5 L11-Pwr1 L10-Jiz0 L9-Jt_3 L4-Je_2 L3-P_z3 L2-Wzf8 L1-Jzv2
[90m-->3/3
[0m[90m-->4/4
[0m[90m-->8/8
[0m[90m-->12/12
[0m[90m-->19/19
[0m[90m-->30/30
[0m[90m-->36/36
[0m[90m-->46/56
[0mL158-Vkw0 L157-Dik0 L156-Jq_0 L155-Rdh4 L154-Vip7 L153-G_n0 L147-Gjj6 L145-Ymm8 L143-Rf_0 L141-Jwx2 L139-Sca7 L137-Jsy9 L135-Zzd1 L134-R__2 L132-Kgq5 L131-Fp_3 L129-Scx1 L128-Vty5 L126-Mfp6 L125-Tia9 L123-Asq3 L122-Tqp5 L120-Ptk7 L119-Fsd2 L117-My_6 L116-V_a8 L114-Riv4 L113-Pyt0 L111-Vxw4 L110-Trc5 L108-G_n0 L107-Izc6 L104-Ygz3 L101-Azb0 L100-Cwg1 L97-Ctq9 L96-P_o3 L93-Qun5 L92-Slc1 L89-Cho1 L88-Sgj0 L85-G_n0 L84-Qgs6 L80-Mqk8 L76-Tgt9 L72-Eps7 L71-Jqh6 L67-Dsg9 L66-Ryw3 L62-Cfw8 L61-Ixm0 L57-Uw_3 L56-Hzc4 L52-Mrw0 L51-Fky1 L50-Kzr6 L46-Eti9 L45-Brc9 L44-Mgi7 L40-Fwg0 L39-P_d7 L38-Doa2 L34-Jem9 L33-Dts9 L32-Bau7 L28-G_n0 L27-Guz0 L26-Is_1 L25-A_e2 L20-C_q5 L19-Pwr1 L18-Jiz0 L17-Jt_3 L12-Je_2 L11-P_z3 L10-Wzf8 L9-Jzv2 L4-Icc7 L3-Vfy0 L2-Sk_7 L1-Sdg9
[90m-->3/3
[0m[90m-->4/4
[0m[90m-->8/8
[0m[90m-->12/12
[0m[90m-->19/19
[0m[90m-->30/30
[0m[90m-->36/36
[0m[90m-->47/56
[0mL159-Vkw0 L158-Dik0 L157-Jq_0 L156-Rdh4 L155-Vip7 L154-G_n0 L147-Ymm8 L145-Rf_0 L143-Jwx2 L141-Sca7 L139-Jsy9 L137-Zzd1 L135-Kgq5 L134-Fp_3 L132-Scx1 L131-Vty5 L129-Mfp6 L128-Tia9 L126-Asq3 L125-Tqp5 L123-Ptk7 L122-Fsd2 L120-My_6 L119-V_a8 L117-Riv4 L116-Pyt0 L114-Vxw4 L113-Trc5 L111-G_n0 L110-Izc6 L107-Ygz3 L104-Azb0 L101-Ctq9 L100-P_o3 L97-Qun5 L96-Slc1 L93-Cho1 L92-Sgj0 L89-G_n0 L88-Qgs6 L84-Mqk8 L80-Tgt9 L76-Eps7 L72-Dsg9 L71-Ryw3 L67-Cfw8 L66-Ixm0 L62-Uw_3 L61-Hzc4 L57-Mrw0 L56-Fky1 L52-Eti9 L51-Brc9 L50-Mgi7 L46-Fwg0 L45-P_d7 L44-Doa2 L40-Jem9 L39-Dts9 L38-Bau7 L34-G_n0 L33-Guz0 L32-Is_1 L27-C_q5 L26-Pwr1 L25-Jiz0 L20-Je_2 L19-P_z3 L18-Wzf8 L17-Jzv2 L12-Icc7 L11-Vfy0 L10-Sk_7 L9-Sdg9 L4-Shz6 L3-Vhs7 L2-Eba6 L1-Rg_5
[90m-->3/3
[0m[90m-->4/4
[0m[90m-->8/8
[0m[90m-->12/12
[0m[90m-->19/19
[0m[90m-->30/30
[0m[90m-->36/36
[0m[90m-->48/56
[0mL160-Vkw0 L159-Dik0 L158-Jq_0 L157-Rdh4 L156-Vip7 L155-G_n0 L147-Rf_0 L145-Jwx2 L143-Sca7 L141-Jsy9 L139-Zzd1 L137-Kgq5 L135-Scx1 L134-Vty5 L132-Mfp6 L131-Tia9 L129-Asq3 L128-Tqp5 L126-Ptk7 L125-Fsd2 L123-My_6 L122-V_a8 L120-Riv4 L119-Pyt0 L117-Vxw4 L116-Trc5 L114-G_n0 L113-Izc6 L110-Ygz3 L107-Azb0 L104-Ctq9 L101-Qun5 L100-Slc1 L97-Cho1 L96-Sgj0 L93-G_n0 L92-Qgs6 L88-Mqk8 L84-Tgt9 L80-Eps7 L76-Dsg9 L72-Cfw8 L71-Ixm0 L67-Uw_3 L66-Hzc4 L62-Mrw0 L61-Fky1 L57-Eti9 L56-Brc9 L52-Fwg0 L51-P_d7 L50-Doa2 L46-Jem9 L45-Dts9 L44-Bau7 L40-G_n0 L39-Guz0 L38-Is_1 L33-C_q5 L32-Pwr1 L27-Je_2 L26-P_z3 L25-Wzf8 L20-Icc7 L19-Vfy0 L18-Sk_7 L17-Sdg9 L12-Shz6 L11-Vhs7 L10-Eba6 L9-Rg_5 L4-Zja9 L3-Is_6 L2-Hku6 L1-Tes5
[90m-->3/3
[0m[90m-->4/4
[0m[90m-->8/8
[0m[90m-->12/12
[0m[90m-->19/19
[0m[90m-->30/30
[0m[90m-->36/36
[0m[90m-->49/56
[0mL161-Vkw0 L160-Dik0 L159-Jq_0 L158-Rdh4 L157-Vip7 L156-G_n0 L147-Jwx2 L145-Sca7 L143-Jsy9 L141-Zzd1 L139-Kgq5 L137-Scx1 L135-Mfp6 L134-Tia9 L132-Asq3 L131-Tqp5 L129-Ptk7 L128-Fsd2 L126-My_6 L125-V_a8 L123-Riv4 L122-Pyt0 L120-Vxw4 L119-Trc5 L117-G_n0 L116-Izc6 L113-Ygz3 L110-Azb0 L107-Ctq9 L104-Qun5 L101-Cho1 L100-Sgj0 L97-G_n0 L96-Qgs6 L92-Mqk8 L88-Tgt9 L84-Eps7 L80-Dsg9 L76-Cfw8 L72-Uw_3 L71-Hzc4 L67-Mrw0 L66-Fky1 L62-Eti9 L61-Brc9 L57-Fwg0 L56-P_d7 L52-Jem9 L51-Dts9 L50-Bau7 L46-G_n0 L45-Guz0 L44-Is_1 L39-C_q5 L38-Pwr1 L33-Je_2 L32-P_z3 L27-Icc7 L26-Vfy0 L25-Sk_7 L20-Shz6 L19-Vhs7 L18-Eba6 L17-Rg_5 L12-Zja9 L11-Is_6 L10-Hku6 L9-Tes5 L4-S_c8 L3-Rm_4 L2-Rcd4 L1-Xgm2
[90m-->3/3
[0m[90m-->4/4
[0m[90m-->8/8
[0m[90m-->12/12
[0m[90m-->19/19
[0m[90m-->30/30
[0m[90m-->36/36
[0m[90m-->50/56
[0mL162-Vkw0 L161-Dik0 L160-Jq_0 L159-Rdh4 L158-Vip7 L157-G_n0 L147-Sca7 L145-Jsy9 L143-Zzd1 L141-Kgq5 L139-Scx1 L137-Mfp6 L135-Asq3 L134-Tqp5 L132-Ptk7 L131-Fsd2 L129-My_6 L128-V_a8 L126-Riv4 L125-Pyt0 L123-Vxw4 L122-Trc5 L120-G_n0 L119-Izc6 L116-Ygz3 L113-Azb0 L110-Ctq9 L107-Qun5 L104-Cho1 L101-G_n0 L100-Qgs6 L96-Mqk8 L92-Tgt9 L88-Eps7 L84-Dsg9 L80-Cfw8 L76-Uw_3 L72-Mrw0 L71-Fky1 L67-Eti9 L66-Brc9 L62-Fwg0 L61-P_d7 L57-Jem9 L56-Dts9 L52-G_n0 L51-Guz0 L50-Is_1 L45-C_q5 L44-Pwr1 L39-Je_2 L38-P_z3 L33-Icc7 L32-Vfy0 L27-Shz6 L26-Vhs7 L25-Eba6 L20-Zja9 L19-Is_6 L18-Hku6 L17-Tes5 L12-S_c8 L11-Rm_4 L10-Rcd4 L9-Xgm2 L4-G_n0 L3-Gjy1 L2-Zvz1 L1-Pex6
[90m-->3/3
[0m[90m-->4/4
[0m[90m-->8/8
[0m[90m-->12/12
[0m[90m-->19/19
[0m[90m-->30/30
[0m[90m-->36/36
[0m[90m-->51/56
[0mL163-Vkw0 L162-Dik0 L161-Jq_0 L160-Rdh4 L159-Vip7 L158-G_n0 L147-Jsy9 L145-Zzd1 L143-Kgq5 L141-Scx1 L139-Mfp6 L137-Asq3 L135-Ptk7 L134-Fsd2 L132-My_6 L131-V_a8 L129-Riv4 L128-Pyt0 L126-Vxw4 L125-Trc5 L123-G_n0 L122-Izc6 L119-Ygz3 L116-Azb0 L113-Ctq9 L110-Qun5 L107-Cho1 L104-G_n0 L100-Mqk8 L96-Tgt9 L92-Eps7 L88-Dsg9 L84-Cfw8 L80-Uw_3 L76-Mrw0 L72-Eti9 L71-Brc9 L67-Fwg0 L66-P_d7 L62-Jem9 L61-Dts9 L57-G_n0 L56-Guz0 L51-C_q5 L50-Pwr1 L45-Je_2 L44-P_z3 L39-Icc7 L38-Vfy0 L33-Shz6 L32-Vhs7 L27-Zja9 L26-Is_6 L25-Hku6 L20-S_c8 L19-Rm_4 L18-Rcd4 L17-Xgm2 L12-G_n0 L11-Gjy1 L10-Zvz1 L9-Pex6 L3-Mio8 L2-Jp_9 L1-Rgp1
[90m-->3/3
[0m[90m-->4/4
[0m[90m-->8/8
[0m[90m-->12/12
[0m[90m-->19/19
[0m[90m-->30/30
[0m[90m-->36/36
[0m[90m-->52/56
[0mL164-Vkw0 L163-Dik0 L162-Jq_0 L161-Rdh4 L160-Vip7 L159-G_n0 L147-Zzd1 L145-Kgq5 L143-Scx1 L141-Mfp6 L139-Asq3 L137-Ptk7 L135-My_6 L134-V_a8 L132-Riv4 L131-Pyt0 L129-Vxw4 L128-Trc5 L126-G_n0 L125-Izc6 L122-Ygz3 L119-Azb0 L116-Ctq9 L113-Qun5 L110-Cho1 L107-G_n0 L100-Tgt9 L96-Eps7 L92-Dsg9 L88-Cfw8 L84-Uw_3 L80-Mrw0 L76-Eti9 L72-Fwg0 L71-P_d7 L67-Jem9 L66-Dts9 L62-G_n0 L61-Guz0 L56-C_q5 L51-Je_2 L50-P_z3 L45-Icc7 L44-Vfy0 L39-Shz6 L38-Vhs7 L33-Zja9 L32-Is_6 L27-S_c8 L26-Rm_4 L25-Rcd4 L20-G_n0 L19-Gjy1 L18-Zvz1 L17-Pex6 L11-Mio8 L10-Jp_9 L9-Rgp1 L3-Qow0 L2-Zr_5 L1-Cqw7
[90m-->3/3
[0m[90m-->4/4
[0m[90m-->8/8
[0m[90m-->12/12
[0m[90m-->19/19
[0m[90m-->30/30
[0m[90m-->36/36
[0m[90m-->53/56
[0mL165-Vkw0 L164-Dik0 L163-Jq_0 L162-Rdh4 L161-Vip7 L160-G_n0 L147-Kgq5 L145-Scx1 L143-Mfp6 L141-Asq3 L139-Ptk7 L137-My_6 L135-Riv4 L134-Pyt0 L132-Vxw4 L131-Trc5 L129-G_n0 L128-Izc6 L125-Ygz3 L122-Azb0 L119-Ctq9 L116-Qun5 L113-Cho1 L110-G_n0 L100-Eps7 L96-Dsg9 L92-Cfw8 L88-Uw_3 L84-Mrw0 L80-Eti9 L76-Fwg0 L72-Jem9 L71-Dts9 L67-G_n0 L66-Guz0 L61-C_q5 L56-Je_2 L51-Icc7 L50-Vfy0 L45-Shz6 L44-Vhs7 L39-Zja9 L38-Is_6 L33-S_c8 L32-Rm_4 L27-G_n0 L26-Gjy1 L25-Zvz1 L19-Mio8 L18-Jp_9 L17-Rgp1 L11-Qow0 L10-Zr_5 L9-Cqw7 L3-Nml9 L2-M_r6 L1-D_n6
[90m-->3/3
[0m[90m-->4/4
[0m[90m-->8/8
[0m[90m-->12/12
[0m[90m-->19/19
[0m[90m-->30/30
[0m[90m-->36/36
[0m[90m-->54/56
[0mL166-Vkw0 L165-Dik0 L164-Jq_0 L163-Rdh4 L162-Vip7 L161-G_n0 L147-Scx1 L145-Mfp6 L143-Asq3 L141-Ptk7 L139-My_6 L137-Riv4 L135-Vxw4 L134-Trc5 L132-G_n0 L131-Izc6 L128-Ygz3 L125-Azb0 L122-Ctq9 L119-Qun5 L116-Cho1 L113-G_n0 L100-Dsg9 L96-Cfw8 L92-Uw_3 L88-Mrw0 L84-Eti9 L80-Fwg0 L76-Jem9 L72-G_n0 L71-Guz0 L66-C_q5 L61-Je_2 L56-Icc7 L51-Shz6 L50-Vhs7 L45-Zja9 L44-Is_6 L39-S_c8 L38-Rm_4 L33-G_n0 L32-Gjy1 L26-Mio8 L25-Jp_9 L19-Qow0 L18-Zr_5 L17-Cqw7 L11-Nml9 L10-M_r6 L9-D_n6 L3-G_n0 L2-Eyi4 L1-Qcl5
[90m-->3/3
[0m[90m-->4/4
[0m[90m-->8/8
[0m[90m-->12/12
[0m[90m-->19/19
[0m[90m-->30/30
[0m[90m-->36/36
[0m[90m-->55/56
[0mL167-Vkw0 L166-Dik0 L165-Jq_0 L164-Rdh4 L163-Vip7 L162-G_n0 L147-Mfp6 L145-Asq3 L143-Ptk7 L141-My_6 L139-Riv4 L137-Vxw4 L135-G_n0 L134-Izc6 L131-Ygz3 L128-Azb0 L125-Ctq9 L122-Qun5 L119-Cho1 L116-G_n0 L100-Cfw8 L96-Uw_3 L92-Mrw0 L88-Eti9 L84-Fwg0 L80-Jem9 L76-G_n0 L71-C_q5 L66-Je_2 L61-Icc7 L56-Shz6 L51-Zja9 L50-Is_6 L45-S_c8 L44-Rm_4 L39-G_n0 L38-Gjy1 L32-Mio8 L26-Qow0 L25-Zr_5 L19-Nml9 L18-M_r6 L17-D_n6 L11-G_n0 L10-Eyi4 L9-Qcl5 L2-Gzt2 L1-Ern6
[90m-->3/3
[0m[90m-->4/4
[0m[90m-->8/8
[0m[90m-->12/12
[0m[90m-->19/19
[0m[90m-->30/30
[0m[90m-->36/36
[0m[90m-->56/56
[0mL168-Vkw0 L167-Dik0 L166-Jq_0 L165-Rdh4 L164-Vip7 L163-G_n0 L147-Asq3 L145-Ptk7 L143-My_6 L141-Riv4 L139-Vxw4 L137-G_n0 L134-Ygz3 L131-Azb0 L128-Ctq9 L125-Qun5 L122-Cho1 L119-G_n0 L100-Uw_3 L96-Mrw0 L92-Eti9 L88-Fwg0 L84-Jem9 L80-G_n0 L71-Je_2 L66-Icc7 L61-Shz6 L56-Zja9 L51-S_c8 L50-Rm_4 L45-G_n0 L44-Gjy1 L38-Mio8 L32-Qow0 L26-Nml9 L25-M_r6 L19-G_n0 L18-Eyi4 L17-Qcl5 L10-Gzt2 L9-Ern6 L2-Fbm1 L1-Bmj1
L168-Dik0 L167-Jq_0 L166-Rdh4 L165-Vip7 L164-G_n0 L147-Ptk7 L145-My_6 L143-Riv4 L141-Vxw4 L139-G_n0 L134-Azb0 L131-Ctq9 L128-Qun5 L125-Cho1 L122-G_n0 L100-Mrw0 L96-Eti9 L92-Fwg0 L88-Jem9 L84-G_n0 L71-Icc7 L66-Shz6 L61-Zja9 L56-S_c8 L51-G_n0 L50-Gjy1 L44-Mio8 L38-Qow0 L32-Nml9 L26-G_n0 L25-Eyi4 L18-Gzt2 L17-Ern6 L10-Fbm1 L9-Bmj1 L2-Alw9 L1-Vkv8
L168-Jq_0 L167-Rdh4 L166-Vip7 L165-G_n0 L147-My_6 L145-Riv4 L143-Vxw4 L141-G_n0 L134-Ctq9 L131-Qun5 L128-Cho1 L125-G_n0 L100-Eti9 L96-Fwg0 L92-Jem9 L88-G_n0 L71-Shz6 L66-Zja9 L61-S_c8 L56-G_n0 L50-Mio8 L44-Qow0 L38-Nml9 L32-G_n0 L25-Gzt2 L18-Fbm1 L17-Bmj1 L10-Alw9 L9-Vkv8 L2-G_n0 L1-Igy2
L168-Rdh4 L167-Vip7 L166-G_n0 L147-Riv4 L145-Vxw4 L143-G_n0 L134-Qun5 L131-Cho1 L128-G_n0 L100-Fwg0 L96-Jem9 L92-G_n0 L71-Zja9 L66-S_c8 L61-G_n0 L50-Qow0 L44-Nml9 L38-G_n0 L25-Fbm1 L18-Alw9 L17-Vkv8 L10-G_n0 L9-Igy2 L1-G_n0
L168-Vip7 L167-G_n0 L147-Vxw4 L145-G_n0 L134-Cho1 L131-G_n0 L100-Jem9 L96-G_n0 L71-S_c8 L66-G_n0 L50-Nml9 L44-G_n0 L25-Alw9 L18-G_n0 L17-Igy2 L9-G_n0
L168-G_n0 L147-G_n0 L134-G_n0 L100-G_n0 L71-G_n0 L50-G_n0 L25-G_n0 L17-G_n0
[92m->lines number: 61
[0m
