all
[94m->finding paths...
[0m[94m-->starting edm_karp...
[0m[94m--->starting bfs...
[0m[94m--->finish bfs.
[0m[90mPaths:
size: 27
P_v4->Atk8->Fei5->Vu_8->Mii6->Euw0->Tzf4->Hab3->Pcv4->Bqo2->Jvj7->B_m8->Yjz7->Gqp6->Pit4->Zvt7->Vul8->Nqs2->Kaj3->A_e0->Dzi5->Zwr4->Psn0->Ebu9->Kae0->Rp_3->Imk6->P_k8


[0m[94m--->starting bfs...
[0m[94m--->finish bfs.
[0m[90mPaths:
size: 30
P_v4->Ytb9->Qcc9->Rui1->Zah8->Kmt8->Ygy6->Afh2->H_c6->Ugl1->Zm_3->Gcd9->Jnh8->Yb_3->J__8->Wg_1->Glp0->Ow_0->Bxj9->Pov2->Oup7->Wds0->Wlb7->Mwk9->Pk_0->Kvh6->Iv_9->Twg9->Oil0->Daq7->P_k8
size: 27
P_v4->Atk8->Fei5->Vu_8->Mii6->Euw0->Tzf4->Hab3->Pcv4->Bqo2->Jvj7->B_m8->Yjz7->Gqp6->Pit4->Zvt7->Vul8->Nqs2->Kaj3->A_e0->Dzi5->Zwr4->Psn0->Ebu9->Kae0->Rp_3->Imk6->P_k8


[0m[94m--->starting bfs...
[0m[94m--->finish bfs.
[0m[90mPaths:
size: 30
P_v4->Ytb9->Qcc9->Rui1->Zah8->Kmt8->Ygy6->Afh2->H_c6->Ugl1->Zm_3->Gcd9->Jnh8->Yb_3->J__8->Wg_1->Glp0->Ow_0->Bxj9->Pov2->Oup7->Wds0->Wlb7->Mwk9->Pk_0->Kvh6->Iv_9->Twg9->Oil0->Daq7->P_k8
size: 27
P_v4->Atk8->Fei5->Vu_8->Mii6->Euw0->Tzf4->Hab3->Pcv4->Bqo2->Jvj7->B_m8->Yjz7->Gqp6->Pit4->Zvt7->Vul8->Nqs2->Kaj3->A_e0->Dzi5->Zwr4->Psn0->Ebu9->Kae0->Rp_3->Imk6->P_k8


[0m[94m-->finish edm_karp.
[0m[90mPaths:
size: 30
P_v4->Ytb9->Qcc9->Rui1->Zah8->Kmt8->Ygy6->Afh2->H_c6->Ugl1->Zm_3->Gcd9->Jnh8->Yb_3->J__8->Wg_1->Glp0->Ow_0->Bxj9->Pov2->Oup7->Wds0->Wlb7->Mwk9->Pk_0->Kvh6->Iv_9->Twg9->Oil0->Daq7->P_k8
size: 27
P_v4->Atk8->Fei5->Vu_8->Mii6->Euw0->Tzf4->Hab3->Pcv4->Bqo2->Jvj7->B_m8->Yjz7->Gqp6->Pit4->Zvt7->Vul8->Nqs2->Kaj3->A_e0->Dzi5->Zwr4->Psn0->Ebu9->Kae0->Rp_3->Imk6->P_k8


[0m[94m---->releasing ants...
[0m[90m-->1/3
[0m[90m-->1/6
[0mL2-Atk8 L1-Ytb9
[90m-->2/3
[0m[90m-->2/6
[0mL4-Atk8 L3-Ytb9 L2-Fei5 L1-Qcc9
[90m-->3/3
[0m[90m-->3/6
[0mL6-Atk8 L5-Ytb9 L4-Fei5 L3-Qcc9 L2-Vu_8 L1-Rui1
[90m-->3/3
[0m[90m-->4/6
[0mL7-Atk8 L6-Fei5 L5-Qcc9 L4-Vu_8 L3-Rui1 L2-Mii6 L1-Zah8
[90m-->3/3
[0m[90m-->5/6
[0mL8-Atk8 L7-Fei5 L6-Vu_8 L5-Rui1 L4-Mii6 L3-Zah8 L2-Euw0 L1-Kmt8
[90m-->3/3
[0m[90m-->6/6
[0mL9-Atk8 L8-Fei5 L7-Vu_8 L6-Mii6 L5-Zah8 L4-Euw0 L3-Kmt8 L2-Tzf4 L1-Ygy6
L9-Fei5 L8-Vu_8 L7-Mii6 L6-Euw0 L5-Kmt8 L4-Tzf4 L3-Ygy6 L2-Hab3 L1-Afh2
L9-Vu_8 L8-Mii6 L7-Euw0 L6-Tzf4 L5-Ygy6 L4-Hab3 L3-Afh2 L2-Pcv4 L1-H_c6
L9-Mii6 L8-Euw0 L7-Tzf4 L6-Hab3 L5-Afh2 L4-Pcv4 L3-H_c6 L2-Bqo2 L1-Ugl1
L9-Euw0 L8-Tzf4 L7-Hab3 L6-Pcv4 L5-H_c6 L4-Bqo2 L3-Ugl1 L2-Jvj7 L1-Zm_3
L9-Tzf4 L8-Hab3 L7-Pcv4 L6-Bqo2 L5-Ugl1 L4-Jvj7 L3-Zm_3 L2-B_m8 L1-Gcd9
L9-Hab3 L8-Pcv4 L7-Bqo2 L6-Jvj7 L5-Zm_3 L4-B_m8 L3-Gcd9 L2-Yjz7 L1-Jnh8
L9-Pcv4 L8-Bqo2 L7-Jvj7 L6-B_m8 L5-Gcd9 L4-Yjz7 L3-Jnh8 L2-Gqp6 L1-Yb_3
L9-Bqo2 L8-Jvj7 L7-B_m8 L6-Yjz7 L5-Jnh8 L4-Gqp6 L3-Yb_3 L2-Pit4 L1-J__8
L9-Jvj7 L8-B_m8 L7-Yjz7 L6-Gqp6 L5-Yb_3 L4-Pit4 L3-J__8 L2-Zvt7 L1-Wg_1
L9-B_m8 L8-Yjz7 L7-Gqp6 L6-Pit4 L5-J__8 L4-Zvt7 L3-Wg_1 L2-Vul8 L1-Glp0
L9-Yjz7 L8-Gqp6 L7-Pit4 L6-Zvt7 L5-Wg_1 L4-Vul8 L3-Glp0 L2-Nqs2 L1-Ow_0
L9-Gqp6 L8-Pit4 L7-Zvt7 L6-Vul8 L5-Glp0 L4-Nqs2 L3-Ow_0 L2-Kaj3 L1-Bxj9
L9-Pit4 L8-Zvt7 L7-Vul8 L6-Nqs2 L5-Ow_0 L4-Kaj3 L3-Bxj9 L2-A_e0 L1-Pov2
L9-Zvt7 L8-Vul8 L7-Nqs2 L6-Kaj3 L5-Bxj9 L4-A_e0 L3-Pov2 L2-Dzi5 L1-Oup7
L9-Vul8 L8-Nqs2 L7-Kaj3 L6-A_e0 L5-Pov2 L4-Dzi5 L3-Oup7 L2-Zwr4 L1-Wds0
L9-Nqs2 L8-Kaj3 L7-A_e0 L6-Dzi5 L5-Oup7 L4-Zwr4 L3-Wds0 L2-Psn0 L1-Wlb7
L9-Kaj3 L8-A_e0 L7-Dzi5 L6-Zwr4 L5-Wds0 L4-Psn0 L3-Wlb7 L2-Ebu9 L1-Mwk9
L9-A_e0 L8-Dzi5 L7-Zwr4 L6-Psn0 L5-Wlb7 L4-Ebu9 L3-Mwk9 L2-Kae0 L1-Pk_0
L9-Dzi5 L8-Zwr4 L7-Psn0 L6-Ebu9 L5-Mwk9 L4-Kae0 L3-Pk_0 L2-Rp_3 L1-Kvh6
L9-Zwr4 L8-Psn0 L7-Ebu9 L6-Kae0 L5-Pk_0 L4-Rp_3 L3-Kvh6 L2-Imk6 L1-Iv_9
L9-Psn0 L8-Ebu9 L7-Kae0 L6-Rp_3 L5-Kvh6 L4-Imk6 L3-Iv_9 L2-P_k8 L1-Twg9
L9-Ebu9 L8-Kae0 L7-Rp_3 L6-Imk6 L5-Iv_9 L4-P_k8 L3-Twg9 L1-Oil0
L9-Kae0 L8-Rp_3 L7-Imk6 L6-P_k8 L5-Twg9 L3-Oil0 L1-Daq7
L9-Rp_3 L8-Imk6 L7-P_k8 L5-Oil0 L3-Daq7 L1-P_k8
L9-Imk6 L8-P_k8 L5-Daq7 L3-P_k8
L9-P_k8 L5-P_k8
[92m->lines number: 32
[0m
