all
[94m->finding paths...
[0m[94m-->starting edm_karp...
[0m[94m--->starting bfs...
[0m[94m--->finish bfs.
[0m[90mPaths:
size: 27
Iwk7->Hks2->Kfq4->Uok3->Rya2->Bvy6->Atp1->Nvo0->K_r9->Fle4->Rda7->Eg_8->Jpv5->Fg_0->Huj9->Sei0->Vcr6->Of_9->Cpy2->Qqp5->H_l2->Snv6->Aoi1->Yya0->Wqf1->Mjm5->Eds3->Tgn6


[0m[94m--->starting bfs...
[0m[94m--->finish bfs.
[0m[90mPaths:
size: 27
Iwk7->Rsa5->Jew0->Rmx7->I_s1->H_o4->Ioz1->Pwq0->P_v1->Uq_7->T_m3->Hxh8->Xxi8->Hrl0->Nsr5->Hif9->Urd1->Pis1->Eju2->Mhh8->Pxz6->D_m1->Ekj5->Xnz9->Zbr2->Ei_7->Wsk3->Tgn6
size: 27
Iwk7->Hks2->Kfq4->Uok3->Rya2->Bvy6->Atp1->Nvo0->K_r9->Fle4->Rda7->Eg_8->Jpv5->Fg_0->Huj9->Sei0->Vcr6->Of_9->Cpy2->Qqp5->H_l2->Snv6->Aoi1->Yya0->Wqf1->Mjm5->Eds3->Tgn6


[0m[94m--->starting bfs...
[0m[94m--->finish bfs.
[0m[90mPaths:
size: 28
Iwk7->No_7->Ubn7->Pmk1->B_k0->Djn6->Wax6->Xjx6->Fwu0->Ock2->Spd2->Uak6->A_z2->Wgm3->Zde0->Vrb3->O_x8->Vnp4->Xmm0->Gkw3->Tbi7->Gpj5->Fqq9->T_i5->Jnt3->Ov_4->Ihu4->F_v0->Tgn6
size: 27
Iwk7->Rsa5->Jew0->Rmx7->I_s1->H_o4->Ioz1->Pwq0->P_v1->Uq_7->T_m3->Hxh8->Xxi8->Hrl0->Nsr5->Hif9->Urd1->Pis1->Eju2->Mhh8->Pxz6->D_m1->Ekj5->Xnz9->Zbr2->Ei_7->Wsk3->Tgn6
size: 27
Iwk7->Hks2->Kfq4->Uok3->Rya2->Bvy6->Atp1->Nvo0->K_r9->Fle4->Rda7->Eg_8->Jpv5->Fg_0->Huj9->Sei0->Vcr6->Of_9->Cpy2->Qqp5->H_l2->Snv6->Aoi1->Yya0->Wqf1->Mjm5->Eds3->Tgn6


[0m[94m--->starting bfs...
[0m[94m--->finish bfs.
[0m[90mPaths:
size: 28
Iwk7->No_7->Ubn7->Pmk1->B_k0->Djn6->Wax6->Xjx6->Fwu0->Ock2->Spd2->Uak6->A_z2->Wgm3->Zde0->Vrb3->O_x8->Vnp4->Xmm0->Gkw3->Tbi7->Gpj5->Fqq9->T_i5->Jnt3->Ov_4->Ihu4->F_v0->Tgn6
size: 27
Iwk7->Rsa5->Jew0->Rmx7->I_s1->H_o4->Ioz1->Pwq0->P_v1->Uq_7->T_m3->Hxh8->Xxi8->Hrl0->Nsr5->Hif9->Urd1->Pis1->Eju2->Mhh8->Pxz6->D_m1->Ekj5->Xnz9->Zbr2->Ei_7->Wsk3->Tgn6
size: 27
Iwk7->Hks2->Kfq4->Uok3->Rya2->Bvy6->Atp1->Nvo0->K_r9->Fle4->Rda7->Eg_8->Jpv5->Fg_0->Huj9->Sei0->Vcr6->Of_9->Cpy2->Qqp5->H_l2->Snv6->Aoi1->Yya0->Wqf1->Mjm5->Eds3->Tgn6


[0m[94m-->finish edm_karp.
[0m[90mPaths:
size: 28
Iwk7->No_7->Ubn7->Pmk1->B_k0->Djn6->Wax6->Xjx6->Fwu0->Ock2->Spd2->Uak6->A_z2->Wgm3->Zde0->Vrb3->O_x8->Vnp4->Xmm0->Gkw3->Tbi7->Gpj5->Fqq9->T_i5->Jnt3->Ov_4->Ihu4->F_v0->Tgn6
size: 27
Iwk7->Rsa5->Jew0->Rmx7->I_s1->H_o4->Ioz1->Pwq0->P_v1->Uq_7->T_m3->Hxh8->Xxi8->Hrl0->Nsr5->Hif9->Urd1->Pis1->Eju2->Mhh8->Pxz6->D_m1->Ekj5->Xnz9->Zbr2->Ei_7->Wsk3->Tgn6
size: 27
Iwk7->Hks2->Kfq4->Uok3->Rya2->Bvy6->Atp1->Nvo0->K_r9->Fle4->Rda7->Eg_8->Jpv5->Fg_0->Huj9->Sei0->Vcr6->Of_9->Cpy2->Qqp5->H_l2->Snv6->Aoi1->Yya0->Wqf1->Mjm5->Eds3->Tgn6


[0m[94m---->releasing ants...
[0m[90m-->1/3
[0m[90m-->1/4
[0m[90m-->1/4
[0mL3-Hks2 L2-Rsa5 L1-No_7
[90m-->2/3
[0m[90m-->2/4
[0m[90m-->2/4
[0mL6-Hks2 L5-Rsa5 L4-No_7 L3-Kfq4 L2-Jew0 L1-Ubn7
[90m-->3/3
[0m[90m-->3/4
[0m[90m-->3/4
[0mL9-Hks2 L8-Rsa5 L7-No_7 L6-Kfq4 L5-Jew0 L4-Ubn7 L3-Uok3 L2-Rmx7 L1-Pmk1
[90m-->3/3
[0m[90m-->4/4
[0m[90m-->4/4
[0mL11-Hks2 L10-Rsa5 L9-Kfq4 L8-Jew0 L7-Ubn7 L6-Uok3 L5-Rmx7 L4-Pmk1 L3-Rya2 L2-I_s1 L1-B_k0
L11-Kfq4 L10-Jew0 L9-Uok3 L8-Rmx7 L7-Pmk1 L6-Rya2 L5-I_s1 L4-B_k0 L3-Bvy6 L2-H_o4 L1-Djn6
L11-Uok3 L10-Rmx7 L9-Rya2 L8-I_s1 L7-B_k0 L6-Bvy6 L5-H_o4 L4-Djn6 L3-Atp1 L2-Ioz1 L1-Wax6
L11-Rya2 L10-I_s1 L9-Bvy6 L8-H_o4 L7-Djn6 L6-Atp1 L5-Ioz1 L4-Wax6 L3-Nvo0 L2-Pwq0 L1-Xjx6
L11-Bvy6 L10-H_o4 L9-Atp1 L8-Ioz1 L7-Wax6 L6-Nvo0 L5-Pwq0 L4-Xjx6 L3-K_r9 L2-P_v1 L1-Fwu0
L11-Atp1 L10-Ioz1 L9-Nvo0 L8-Pwq0 L7-Xjx6 L6-K_r9 L5-P_v1 L4-Fwu0 L3-Fle4 L2-Uq_7 L1-Ock2
L11-Nvo0 L10-Pwq0 L9-K_r9 L8-P_v1 L7-Fwu0 L6-Fle4 L5-Uq_7 L4-Ock2 L3-Rda7 L2-T_m3 L1-Spd2
L11-K_r9 L10-P_v1 L9-Fle4 L8-Uq_7 L7-Ock2 L6-Rda7 L5-T_m3 L4-Spd2 L3-Eg_8 L2-Hxh8 L1-Uak6
L11-Fle4 L10-Uq_7 L9-Rda7 L8-T_m3 L7-Spd2 L6-Eg_8 L5-Hxh8 L4-Uak6 L3-Jpv5 L2-Xxi8 L1-A_z2
L11-Rda7 L10-T_m3 L9-Eg_8 L8-Hxh8 L7-Uak6 L6-Jpv5 L5-Xxi8 L4-A_z2 L3-Fg_0 L2-Hrl0 L1-Wgm3
L11-Eg_8 L10-Hxh8 L9-Jpv5 L8-Xxi8 L7-A_z2 L6-Fg_0 L5-Hrl0 L4-Wgm3 L3-Huj9 L2-Nsr5 L1-Zde0
L11-Jpv5 L10-Xxi8 L9-Fg_0 L8-Hrl0 L7-Wgm3 L6-Huj9 L5-Nsr5 L4-Zde0 L3-Sei0 L2-Hif9 L1-Vrb3
L11-Fg_0 L10-Hrl0 L9-Huj9 L8-Nsr5 L7-Zde0 L6-Sei0 L5-Hif9 L4-Vrb3 L3-Vcr6 L2-Urd1 L1-O_x8
L11-Huj9 L10-Nsr5 L9-Sei0 L8-Hif9 L7-Vrb3 L6-Vcr6 L5-Urd1 L4-O_x8 L3-Of_9 L2-Pis1 L1-Vnp4
L11-Sei0 L10-Hif9 L9-Vcr6 L8-Urd1 L7-O_x8 L6-Of_9 L5-Pis1 L4-Vnp4 L3-Cpy2 L2-Eju2 L1-Xmm0
L11-Vcr6 L10-Urd1 L9-Of_9 L8-Pis1 L7-Vnp4 L6-Cpy2 L5-Eju2 L4-Xmm0 L3-Qqp5 L2-Mhh8 L1-Gkw3
L11-Of_9 L10-Pis1 L9-Cpy2 L8-Eju2 L7-Xmm0 L6-Qqp5 L5-Mhh8 L4-Gkw3 L3-H_l2 L2-Pxz6 L1-Tbi7
L11-Cpy2 L10-Eju2 L9-Qqp5 L8-Mhh8 L7-Gkw3 L6-H_l2 L5-Pxz6 L4-Tbi7 L3-Snv6 L2-D_m1 L1-Gpj5
L11-Qqp5 L10-Mhh8 L9-H_l2 L8-Pxz6 L7-Tbi7 L6-Snv6 L5-D_m1 L4-Gpj5 L3-Aoi1 L2-Ekj5 L1-Fqq9
L11-H_l2 L10-Pxz6 L9-Snv6 L8-D_m1 L7-Gpj5 L6-Aoi1 L5-Ekj5 L4-Fqq9 L3-Yya0 L2-Xnz9 L1-T_i5
L11-Snv6 L10-D_m1 L9-Aoi1 L8-Ekj5 L7-Fqq9 L6-Yya0 L5-Xnz9 L4-T_i5 L3-Wqf1 L2-Zbr2 L1-Jnt3
L11-Aoi1 L10-Ekj5 L9-Yya0 L8-Xnz9 L7-T_i5 L6-Wqf1 L5-Zbr2 L4-Jnt3 L3-Mjm5 L2-Ei_7 L1-Ov_4
L11-Yya0 L10-Xnz9 L9-Wqf1 L8-Zbr2 L7-Jnt3 L6-Mjm5 L5-Ei_7 L4-Ov_4 L3-Eds3 L2-Wsk3 L1-Ihu4
L11-Wqf1 L10-Zbr2 L9-Mjm5 L8-Ei_7 L7-Ov_4 L6-Eds3 L5-Wsk3 L4-Ihu4 L3-Tgn6 L2-Tgn6 L1-F_v0
L11-Mjm5 L10-Ei_7 L9-Eds3 L8-Wsk3 L7-Ihu4 L6-Tgn6 L5-Tgn6 L4-F_v0 L1-Tgn6
L11-Eds3 L10-Wsk3 L9-Tgn6 L8-Tgn6 L7-F_v0 L4-Tgn6
L11-Tgn6 L10-Tgn6 L7-Tgn6
[92m->lines number: 30
[0m
