all
[94m->finding paths...
[0m[94m-->starting edm_karp...
[0m[94m--->starting bfs...
[0m[94m--->finish bfs.
[0m[90mPaths:
size: 16
Zp_2->Pcl2->Ukl2->Yjp3->Ape2->Vxd7->Amx8->Zq_4->Xfl3->B_k2->Omv6->Hta2->T_h7->Jyy9->D_n3->Blf7->Swd4


[0m[94m--->starting bfs...
[0m[94m--->finish bfs.
[0m[90mPaths:
size: 16
Zp_2->Ke_9->Du_6->Mgq9->Wnb9->Vfy0->Goh7->Hm_2->Bg_4->A_l6->Uji4->O_h9->J_q4->Cm_3->Mbl0->Int4->Swd4
size: 16
Zp_2->Pcl2->Ukl2->Yjp3->Ape2->Vxd7->Amx8->Zq_4->Xfl3->B_k2->Omv6->Hta2->T_h7->Jyy9->D_n3->Blf7->Swd4


[0m[94m--->starting bfs...
[0m[94m--->finish bfs.
[0m[90mPaths:
size: 17
Zp_2->Cne2->Vce6->Pjm9->Npc3->Hrl2->Vtd8->Cfr1->Nhn4->Qqa7->Ktc2->Tdr5->Dtt4->Set5->Jke1->Teu9->Jsy9->Swd4
size: 16
Zp_2->Ke_9->Du_6->Mgq9->Wnb9->Vfy0->Goh7->Hm_2->Bg_4->A_l6->Uji4->O_h9->J_q4->Cm_3->Mbl0->Int4->Swd4
size: 16
Zp_2->Pcl2->Ukl2->Yjp3->Ape2->Vxd7->Amx8->Zq_4->Xfl3->B_k2->Omv6->Hta2->T_h7->Jyy9->D_n3->Blf7->Swd4


[0m[94m--->starting bfs...
[0m[94m--->finish bfs.
[0m[90mPaths:
size: 19
Zp_2->Bny6->Alq3->J_m2->Puq5->Gxb3->Xlx3->Viy8->Uoe4->Bbc7->Uuf0->Tfh8->Mod2->Vpp3->Xzz5->Qqm0->Ti_1->Ege3->Vez8->Swd4
size: 17
Zp_2->Cne2->Vce6->Pjm9->Npc3->Hrl2->Vtd8->Cfr1->Nhn4->Qqa7->Ktc2->Tdr5->Dtt4->Set5->Jke1->Teu9->Jsy9->Swd4
size: 16
Zp_2->Ke_9->Du_6->Mgq9->Wnb9->Vfy0->Goh7->Hm_2->Bg_4->A_l6->Uji4->O_h9->J_q4->Cm_3->Mbl0->Int4->Swd4
size: 16
Zp_2->Pcl2->Ukl2->Yjp3->Ape2->Vxd7->Amx8->Zq_4->Xfl3->B_k2->Omv6->Hta2->T_h7->Jyy9->D_n3->Blf7->Swd4


[0m[94m--->starting bfs...
[0m[94m--->finish bfs.
[0m[90mPaths:
size: 19
Zp_2->Rkv6->Jlv1->A_k9->Rid1->Blo3->Yez8->Qzy9->Zxf1->Qnz0->Qjq9->Rwd7->Pyk9->Fnr9->Dgz3->Uye3->Bxf4->F_w3->Iyv5->Swd4
size: 19
Zp_2->Bny6->Alq3->J_m2->Puq5->Gxb3->Xlx3->Viy8->Uoe4->Bbc7->Uuf0->Tfh8->Mod2->Vpp3->Xzz5->Qqm0->Ti_1->Ege3->Vez8->Swd4
size: 17
Zp_2->Cne2->Vce6->Pjm9->Npc3->Hrl2->Vtd8->Cfr1->Nhn4->Qqa7->Ktc2->Tdr5->Dtt4->Set5->Jke1->Teu9->Jsy9->Swd4
size: 16
Zp_2->Ke_9->Du_6->Mgq9->Wnb9->Vfy0->Goh7->Hm_2->Bg_4->A_l6->Uji4->O_h9->J_q4->Cm_3->Mbl0->Int4->Swd4
size: 16
Zp_2->Pcl2->Ukl2->Yjp3->Ape2->Vxd7->Amx8->Zq_4->Xfl3->B_k2->Omv6->Hta2->T_h7->Jyy9->D_n3->Blf7->Swd4


[0m[94m--->starting bfs...
[0m[94m--->finish bfs.
[0m[90mPaths:
size: 20
Zp_2->Aes0->Awj2->Ego3->F_q5->Xsu6->Nah9->Jnm0->Bla0->Ich4->Eyi8->Rkz7->Uwc9->Rju8->Nhn5->Xbl6->Oz_5->Sfz3->Cx_3->Dkl4->Swd4
size: 19
Zp_2->Rkv6->Jlv1->A_k9->Rid1->Blo3->Yez8->Qzy9->Zxf1->Qnz0->Qjq9->Rwd7->Pyk9->Fnr9->Dgz3->Uye3->Bxf4->F_w3->Iyv5->Swd4
size: 19
Zp_2->Bny6->Alq3->J_m2->Puq5->Gxb3->Xlx3->Viy8->Uoe4->Bbc7->Uuf0->Tfh8->Mod2->Vpp3->Xzz5->Qqm0->Ti_1->Ege3->Vez8->Swd4
size: 17
Zp_2->Cne2->Vce6->Pjm9->Npc3->Hrl2->Vtd8->Cfr1->Nhn4->Qqa7->Ktc2->Tdr5->Dtt4->Set5->Jke1->Teu9->Jsy9->Swd4
size: 16
Zp_2->Ke_9->Du_6->Mgq9->Wnb9->Vfy0->Goh7->Hm_2->Bg_4->A_l6->Uji4->O_h9->J_q4->Cm_3->Mbl0->Int4->Swd4
size: 16
Zp_2->Pcl2->Ukl2->Yjp3->Ape2->Vxd7->Amx8->Zq_4->Xfl3->B_k2->Omv6->Hta2->T_h7->Jyy9->D_n3->Blf7->Swd4


[0m[94m--->starting bfs...
[0m[94m--->finish bfs.
[0m[90mPaths:
size: 21
Zp_2->Wyf2->Vbr5->Qsc8->Tsi3->Nvr1->Woi8->Tji3->Vjt3->Gzb0->Hle6->Bgc0->Kqx1->Ril0->S_r8->Tul1->Zwa4->Ktc0->Izy4->U_u4->Ig_6->Swd4
size: 20
Zp_2->Aes0->Awj2->Ego3->F_q5->Xsu6->Nah9->Jnm0->Bla0->Ich4->Eyi8->Rkz7->Uwc9->Rju8->Nhn5->Xbl6->Oz_5->Sfz3->Cx_3->Dkl4->Swd4
size: 19
Zp_2->Rkv6->Jlv1->A_k9->Rid1->Blo3->Yez8->Qzy9->Zxf1->Qnz0->Qjq9->Rwd7->Pyk9->Fnr9->Dgz3->Uye3->Bxf4->F_w3->Iyv5->Swd4
size: 19
Zp_2->Bny6->Alq3->J_m2->Puq5->Gxb3->Xlx3->Viy8->Uoe4->Bbc7->Uuf0->Tfh8->Mod2->Vpp3->Xzz5->Qqm0->Ti_1->Ege3->Vez8->Swd4
size: 17
Zp_2->Cne2->Vce6->Pjm9->Npc3->Hrl2->Vtd8->Cfr1->Nhn4->Qqa7->Ktc2->Tdr5->Dtt4->Set5->Jke1->Teu9->Jsy9->Swd4
size: 16
Zp_2->Ke_9->Du_6->Mgq9->Wnb9->Vfy0->Goh7->Hm_2->Bg_4->A_l6->Uji4->O_h9->J_q4->Cm_3->Mbl0->Int4->Swd4
size: 16
Zp_2->Pcl2->Ukl2->Yjp3->Ape2->Vxd7->Amx8->Zq_4->Xfl3->B_k2->Omv6->Hta2->T_h7->Jyy9->D_n3->Blf7->Swd4


[0m[94m--->starting bfs...
[0m[94m--->finish bfs.
[0m[90mPaths:
size: 22
Zp_2->By_0->Viv3->Kh_2->Bkq3->J__8->Yfr1->D_e2->Xqm1->H_f1->Yye0->App4->Xgh8->Jkx6->Ipv4->Gfi4->Gfn6->Qgt9->Vuf8->Ura0->Slw7->Nsj8->Swd4
size: 21
Zp_2->Wyf2->Vbr5->Qsc8->Tsi3->Nvr1->Woi8->Tji3->Vjt3->Gzb0->Hle6->Bgc0->Kqx1->Ril0->S_r8->Tul1->Zwa4->Ktc0->Izy4->U_u4->Ig_6->Swd4
size: 20
Zp_2->Aes0->Awj2->Ego3->F_q5->Xsu6->Nah9->Jnm0->Bla0->Ich4->Eyi8->Rkz7->Uwc9->Rju8->Nhn5->Xbl6->Oz_5->Sfz3->Cx_3->Dkl4->Swd4
size: 19
Zp_2->Rkv6->Jlv1->A_k9->Rid1->Blo3->Yez8->Qzy9->Zxf1->Qnz0->Qjq9->Rwd7->Pyk9->Fnr9->Dgz3->Uye3->Bxf4->F_w3->Iyv5->Swd4
size: 19
Zp_2->Bny6->Alq3->J_m2->Puq5->Gxb3->Xlx3->Viy8->Uoe4->Bbc7->Uuf0->Tfh8->Mod2->Vpp3->Xzz5->Qqm0->Ti_1->Ege3->Vez8->Swd4
size: 17
Zp_2->Cne2->Vce6->Pjm9->Npc3->Hrl2->Vtd8->Cfr1->Nhn4->Qqa7->Ktc2->Tdr5->Dtt4->Set5->Jke1->Teu9->Jsy9->Swd4
size: 16
Zp_2->Ke_9->Du_6->Mgq9->Wnb9->Vfy0->Goh7->Hm_2->Bg_4->A_l6->Uji4->O_h9->J_q4->Cm_3->Mbl0->Int4->Swd4
size: 16
Zp_2->Pcl2->Ukl2->Yjp3->Ape2->Vxd7->Amx8->Zq_4->Xfl3->B_k2->Omv6->Hta2->T_h7->Jyy9->D_n3->Blf7->Swd4


[0m[94m--->starting bfs...
[0m[94m--->finish bfs.
[0m[90mPaths:
size: 22
Zp_2->Ano3->Itt7->Fx_0->Tvj3->N_r1->Mgd0->Py_5->Oqo0->Ugc3->Xy_6->Tsc6->Yi_1->Ys_4->Xgi3->Imw0->Def4->Cdf8->Ydq7->Pwa4->Xeq6->Qzw6->Swd4
size: 22
Zp_2->By_0->Viv3->Kh_2->Bkq3->J__8->Yfr1->D_e2->Xqm1->H_f1->Yye0->App4->Xgh8->Jkx6->Ipv4->Gfi4->Gfn6->Qgt9->Vuf8->Ura0->Slw7->Nsj8->Swd4
size: 21
Zp_2->Wyf2->Vbr5->Qsc8->Tsi3->Nvr1->Woi8->Tji3->Vjt3->Gzb0->Hle6->Bgc0->Kqx1->Ril0->S_r8->Tul1->Zwa4->Ktc0->Izy4->U_u4->Ig_6->Swd4
size: 20
Zp_2->Aes0->Awj2->Ego3->F_q5->Xsu6->Nah9->Jnm0->Bla0->Ich4->Eyi8->Rkz7->Uwc9->Rju8->Nhn5->Xbl6->Oz_5->Sfz3->Cx_3->Dkl4->Swd4
size: 19
Zp_2->Rkv6->Jlv1->A_k9->Rid1->Blo3->Yez8->Qzy9->Zxf1->Qnz0->Qjq9->Rwd7->Pyk9->Fnr9->Dgz3->Uye3->Bxf4->F_w3->Iyv5->Swd4
size: 19
Zp_2->Bny6->Alq3->J_m2->Puq5->Gxb3->Xlx3->Viy8->Uoe4->Bbc7->Uuf0->Tfh8->Mod2->Vpp3->Xzz5->Qqm0->Ti_1->Ege3->Vez8->Swd4
size: 17
Zp_2->Cne2->Vce6->Pjm9->Npc3->Hrl2->Vtd8->Cfr1->Nhn4->Qqa7->Ktc2->Tdr5->Dtt4->Set5->Jke1->Teu9->Jsy9->Swd4
size: 16
Zp_2->Ke_9->Du_6->Mgq9->Wnb9->Vfy0->Goh7->Hm_2->Bg_4->A_l6->Uji4->O_h9->J_q4->Cm_3->Mbl0->Int4->Swd4
size: 16
Zp_2->Pcl2->Ukl2->Yjp3->Ape2->Vxd7->Amx8->Zq_4->Xfl3->B_k2->Omv6->Hta2->T_h7->Jyy9->D_n3->Blf7->Swd4


[0m[94m--->starting bfs...
[0m[94m--->finish bfs.
[0m[90mPaths:
size: 23
Zp_2->Ne_5->Fqh2->Hkr4->Uf_7->Zle5->Opu1->Ryv0->Jpp8->W_k4->Brf8->Sq_9->Ari8->Wqw7->Njc0->Cwy0->Ime4->Jvu0->Mdc2->Jt_8->Zdt4->Hrs6->Drc3->Swd4
size: 22
Zp_2->Ano3->Itt7->Fx_0->Tvj3->N_r1->Mgd0->Py_5->Oqo0->Ugc3->Xy_6->Tsc6->Yi_1->Ys_4->Xgi3->Imw0->Def4->Cdf8->Ydq7->Pwa4->Xeq6->Qzw6->Swd4
size: 22
Zp_2->By_0->Viv3->Kh_2->Bkq3->J__8->Yfr1->D_e2->Xqm1->H_f1->Yye0->App4->Xgh8->Jkx6->Ipv4->Gfi4->Gfn6->Qgt9->Vuf8->Ura0->Slw7->Nsj8->Swd4
size: 21
Zp_2->Wyf2->Vbr5->Qsc8->Tsi3->Nvr1->Woi8->Tji3->Vjt3->Gzb0->Hle6->Bgc0->Kqx1->Ril0->S_r8->Tul1->Zwa4->Ktc0->Izy4->U_u4->Ig_6->Swd4
size: 20
Zp_2->Aes0->Awj2->Ego3->F_q5->Xsu6->Nah9->Jnm0->Bla0->Ich4->Eyi8->Rkz7->Uwc9->Rju8->Nhn5->Xbl6->Oz_5->Sfz3->Cx_3->Dkl4->Swd4
size: 19
Zp_2->Rkv6->Jlv1->A_k9->Rid1->Blo3->Yez8->Qzy9->Zxf1->Qnz0->Qjq9->Rwd7->Pyk9->Fnr9->Dgz3->Uye3->Bxf4->F_w3->Iyv5->Swd4
size: 19
Zp_2->Bny6->Alq3->J_m2->Puq5->Gxb3->Xlx3->Viy8->Uoe4->Bbc7->Uuf0->Tfh8->Mod2->Vpp3->Xzz5->Qqm0->Ti_1->Ege3->Vez8->Swd4
size: 17
Zp_2->Cne2->Vce6->Pjm9->Npc3->Hrl2->Vtd8->Cfr1->Nhn4->Qqa7->Ktc2->Tdr5->Dtt4->Set5->Jke1->Teu9->Jsy9->Swd4
size: 16
Zp_2->Ke_9->Du_6->Mgq9->Wnb9->Vfy0->Goh7->Hm_2->Bg_4->A_l6->Uji4->O_h9->J_q4->Cm_3->Mbl0->Int4->Swd4
size: 16
Zp_2->Pcl2->Ukl2->Yjp3->Ape2->Vxd7->Amx8->Zq_4->Xfl3->B_k2->Omv6->Hta2->T_h7->Jyy9->D_n3->Blf7->Swd4


[0m[94m--->starting bfs...
[0m[94m--->finish bfs.
[0m[90mPaths:
size: 24
Zp_2->Yjr5->B_u6->Mbm5->Vgg0->Zmq8->Yor2->A_e4->Dfg8->T_e3->Zqf0->Uco0->Ksd0->Zjm3->Aro8->Ezc7->Jwu5->Ovm8->Nrd1->Qlp5->Ohl9->Sga0->Whd2->N_n6->Swd4
size: 23
Zp_2->Ne_5->Fqh2->Hkr4->Uf_7->Zle5->Opu1->Ryv0->Jpp8->W_k4->Brf8->Sq_9->Ari8->Wqw7->Njc0->Cwy0->Ime4->Jvu0->Mdc2->Jt_8->Zdt4->Hrs6->Drc3->Swd4
size: 22
Zp_2->Ano3->Itt7->Fx_0->Tvj3->N_r1->Mgd0->Py_5->Oqo0->Ugc3->Xy_6->Tsc6->Yi_1->Ys_4->Xgi3->Imw0->Def4->Cdf8->Ydq7->Pwa4->Xeq6->Qzw6->Swd4
size: 22
Zp_2->By_0->Viv3->Kh_2->Bkq3->J__8->Yfr1->D_e2->Xqm1->H_f1->Yye0->App4->Xgh8->Jkx6->Ipv4->Gfi4->Gfn6->Qgt9->Vuf8->Ura0->Slw7->Nsj8->Swd4
size: 21
Zp_2->Wyf2->Vbr5->Qsc8->Tsi3->Nvr1->Woi8->Tji3->Vjt3->Gzb0->Hle6->Bgc0->Kqx1->Ril0->S_r8->Tul1->Zwa4->Ktc0->Izy4->U_u4->Ig_6->Swd4
size: 20
Zp_2->Aes0->Awj2->Ego3->F_q5->Xsu6->Nah9->Jnm0->Bla0->Ich4->Eyi8->Rkz7->Uwc9->Rju8->Nhn5->Xbl6->Oz_5->Sfz3->Cx_3->Dkl4->Swd4
size: 19
Zp_2->Rkv6->Jlv1->A_k9->Rid1->Blo3->Yez8->Qzy9->Zxf1->Qnz0->Qjq9->Rwd7->Pyk9->Fnr9->Dgz3->Uye3->Bxf4->F_w3->Iyv5->Swd4
size: 19
Zp_2->Bny6->Alq3->J_m2->Puq5->Gxb3->Xlx3->Viy8->Uoe4->Bbc7->Uuf0->Tfh8->Mod2->Vpp3->Xzz5->Qqm0->Ti_1->Ege3->Vez8->Swd4
size: 17
Zp_2->Cne2->Vce6->Pjm9->Npc3->Hrl2->Vtd8->Cfr1->Nhn4->Qqa7->Ktc2->Tdr5->Dtt4->Set5->Jke1->Teu9->Jsy9->Swd4
size: 16
Zp_2->Ke_9->Du_6->Mgq9->Wnb9->Vfy0->Goh7->Hm_2->Bg_4->A_l6->Uji4->O_h9->J_q4->Cm_3->Mbl0->Int4->Swd4
size: 16
Zp_2->Pcl2->Ukl2->Yjp3->Ape2->Vxd7->Amx8->Zq_4->Xfl3->B_k2->Omv6->Hta2->T_h7->Jyy9->D_n3->Blf7->Swd4


[0m[94m--->starting bfs...
[0m[94m--->finish bfs.
[0m[90mPaths:
size: 24
Zp_2->Jca4->Auc7->Sab4->Ddz8->Qzz6->F_c8->Ckg0->Uxp5->Hxv0->Hfk2->Wzz8->Rsi4->Vie7->Fpl8->Ev_3->Vwj7->Not9->Bty3->Ody6->V_u9->Bfx7->Tm_8->Vvi2->Swd4
size: 24
Zp_2->Yjr5->B_u6->Mbm5->Vgg0->Zmq8->Yor2->A_e4->Dfg8->T_e3->Zqf0->Uco0->Ksd0->Zjm3->Aro8->Ezc7->Jwu5->Ovm8->Nrd1->Qlp5->Ohl9->Sga0->Whd2->N_n6->Swd4
size: 23
Zp_2->Ne_5->Fqh2->Hkr4->Uf_7->Zle5->Opu1->Ryv0->Jpp8->W_k4->Brf8->Sq_9->Ari8->Wqw7->Njc0->Cwy0->Ime4->Jvu0->Mdc2->Jt_8->Zdt4->Hrs6->Drc3->Swd4
size: 22
Zp_2->Ano3->Itt7->Fx_0->Tvj3->N_r1->Mgd0->Py_5->Oqo0->Ugc3->Xy_6->Tsc6->Yi_1->Ys_4->Xgi3->Imw0->Def4->Cdf8->Ydq7->Pwa4->Xeq6->Qzw6->Swd4
size: 22
Zp_2->By_0->Viv3->Kh_2->Bkq3->J__8->Yfr1->D_e2->Xqm1->H_f1->Yye0->App4->Xgh8->Jkx6->Ipv4->Gfi4->Gfn6->Qgt9->Vuf8->Ura0->Slw7->Nsj8->Swd4
size: 21
Zp_2->Wyf2->Vbr5->Qsc8->Tsi3->Nvr1->Woi8->Tji3->Vjt3->Gzb0->Hle6->Bgc0->Kqx1->Ril0->S_r8->Tul1->Zwa4->Ktc0->Izy4->U_u4->Ig_6->Swd4
size: 20
Zp_2->Aes0->Awj2->Ego3->F_q5->Xsu6->Nah9->Jnm0->Bla0->Ich4->Eyi8->Rkz7->Uwc9->Rju8->Nhn5->Xbl6->Oz_5->Sfz3->Cx_3->Dkl4->Swd4
size: 19
Zp_2->Rkv6->Jlv1->A_k9->Rid1->Blo3->Yez8->Qzy9->Zxf1->Qnz0->Qjq9->Rwd7->Pyk9->Fnr9->Dgz3->Uye3->Bxf4->F_w3->Iyv5->Swd4
size: 19
Zp_2->Bny6->Alq3->J_m2->Puq5->Gxb3->Xlx3->Viy8->Uoe4->Bbc7->Uuf0->Tfh8->Mod2->Vpp3->Xzz5->Qqm0->Ti_1->Ege3->Vez8->Swd4
size: 17
Zp_2->Cne2->Vce6->Pjm9->Npc3->Hrl2->Vtd8->Cfr1->Nhn4->Qqa7->Ktc2->Tdr5->Dtt4->Set5->Jke1->Teu9->Jsy9->Swd4
size: 16
Zp_2->Ke_9->Du_6->Mgq9->Wnb9->Vfy0->Goh7->Hm_2->Bg_4->A_l6->Uji4->O_h9->J_q4->Cm_3->Mbl0->Int4->Swd4
size: 16
Zp_2->Pcl2->Ukl2->Yjp3->Ape2->Vxd7->Amx8->Zq_4->Xfl3->B_k2->Omv6->Hta2->T_h7->Jyy9->D_n3->Blf7->Swd4


[0m[94m--->starting bfs...
[0m[94m--->finish bfs.
[0m[90mPaths:
size: 24
Zp_2->Jcd9->Wio1->Oeo2->Apr6->Kn_7->Qv_7->Joe7->Ock6->Pci7->Wx_2->T_l9->Ptk6->Zc_5->Cig9->Oy_7->Ohp7->Whx3->Jel5->Vnn9->Nkz7->Asj7->Pxa6->Qxv8->Swd4
size: 24
Zp_2->Jca4->Auc7->Sab4->Ddz8->Qzz6->F_c8->Ckg0->Uxp5->Hxv0->Hfk2->Wzz8->Rsi4->Vie7->Fpl8->Ev_3->Vwj7->Not9->Bty3->Ody6->V_u9->Bfx7->Tm_8->Vvi2->Swd4
size: 24
Zp_2->Yjr5->B_u6->Mbm5->Vgg0->Zmq8->Yor2->A_e4->Dfg8->T_e3->Zqf0->Uco0->Ksd0->Zjm3->Aro8->Ezc7->Jwu5->Ovm8->Nrd1->Qlp5->Ohl9->Sga0->Whd2->N_n6->Swd4
size: 23
Zp_2->Ne_5->Fqh2->Hkr4->Uf_7->Zle5->Opu1->Ryv0->Jpp8->W_k4->Brf8->Sq_9->Ari8->Wqw7->Njc0->Cwy0->Ime4->Jvu0->Mdc2->Jt_8->Zdt4->Hrs6->Drc3->Swd4
size: 22
Zp_2->Ano3->Itt7->Fx_0->Tvj3->N_r1->Mgd0->Py_5->Oqo0->Ugc3->Xy_6->Tsc6->Yi_1->Ys_4->Xgi3->Imw0->Def4->Cdf8->Ydq7->Pwa4->Xeq6->Qzw6->Swd4
size: 22
Zp_2->By_0->Viv3->Kh_2->Bkq3->J__8->Yfr1->D_e2->Xqm1->H_f1->Yye0->App4->Xgh8->Jkx6->Ipv4->Gfi4->Gfn6->Qgt9->Vuf8->Ura0->Slw7->Nsj8->Swd4
size: 21
Zp_2->Wyf2->Vbr5->Qsc8->Tsi3->Nvr1->Woi8->Tji3->Vjt3->Gzb0->Hle6->Bgc0->Kqx1->Ril0->S_r8->Tul1->Zwa4->Ktc0->Izy4->U_u4->Ig_6->Swd4
size: 20
Zp_2->Aes0->Awj2->Ego3->F_q5->Xsu6->Nah9->Jnm0->Bla0->Ich4->Eyi8->Rkz7->Uwc9->Rju8->Nhn5->Xbl6->Oz_5->Sfz3->Cx_3->Dkl4->Swd4
size: 19
Zp_2->Rkv6->Jlv1->A_k9->Rid1->Blo3->Yez8->Qzy9->Zxf1->Qnz0->Qjq9->Rwd7->Pyk9->Fnr9->Dgz3->Uye3->Bxf4->F_w3->Iyv5->Swd4
size: 19
Zp_2->Bny6->Alq3->J_m2->Puq5->Gxb3->Xlx3->Viy8->Uoe4->Bbc7->Uuf0->Tfh8->Mod2->Vpp3->Xzz5->Qqm0->Ti_1->Ege3->Vez8->Swd4
size: 17
Zp_2->Cne2->Vce6->Pjm9->Npc3->Hrl2->Vtd8->Cfr1->Nhn4->Qqa7->Ktc2->Tdr5->Dtt4->Set5->Jke1->Teu9->Jsy9->Swd4
size: 16
Zp_2->Ke_9->Du_6->Mgq9->Wnb9->Vfy0->Goh7->Hm_2->Bg_4->A_l6->Uji4->O_h9->J_q4->Cm_3->Mbl0->Int4->Swd4
size: 16
Zp_2->Pcl2->Ukl2->Yjp3->Ape2->Vxd7->Amx8->Zq_4->Xfl3->B_k2->Omv6->Hta2->T_h7->Jyy9->D_n3->Blf7->Swd4


[0m[94m--->starting bfs...
[0m[94m--->finish bfs.
[0m[90mPaths:
size: 24
Zp_2->Jcd9->Wio1->Oeo2->Apr6->Kn_7->Qv_7->Joe7->Ock6->Pci7->Wx_2->T_l9->Ptk6->Zc_5->Cig9->Oy_7->Ohp7->Whx3->Jel5->Vnn9->Nkz7->Asj7->Pxa6->Qxv8->Swd4
size: 24
Zp_2->Jca4->Auc7->Sab4->Ddz8->Qzz6->F_c8->Ckg0->Uxp5->Hxv0->Hfk2->Wzz8->Rsi4->Vie7->Fpl8->Ev_3->Vwj7->Not9->Bty3->Ody6->V_u9->Bfx7->Tm_8->Vvi2->Swd4
size: 24
Zp_2->Yjr5->B_u6->Mbm5->Vgg0->Zmq8->Yor2->A_e4->Dfg8->T_e3->Zqf0->Uco0->Ksd0->Zjm3->Aro8->Ezc7->Jwu5->Ovm8->Nrd1->Qlp5->Ohl9->Sga0->Whd2->N_n6->Swd4
size: 23
Zp_2->Ne_5->Fqh2->Hkr4->Uf_7->Zle5->Opu1->Ryv0->Jpp8->W_k4->Brf8->Sq_9->Ari8->Wqw7->Njc0->Cwy0->Ime4->Jvu0->Mdc2->Jt_8->Zdt4->Hrs6->Drc3->Swd4
size: 22
Zp_2->Ano3->Itt7->Fx_0->Tvj3->N_r1->Mgd0->Py_5->Oqo0->Ugc3->Xy_6->Tsc6->Yi_1->Ys_4->Xgi3->Imw0->Def4->Cdf8->Ydq7->Pwa4->Xeq6->Qzw6->Swd4
size: 22
Zp_2->By_0->Viv3->Kh_2->Bkq3->J__8->Yfr1->D_e2->Xqm1->H_f1->Yye0->App4->Xgh8->Jkx6->Ipv4->Gfi4->Gfn6->Qgt9->Vuf8->Ura0->Slw7->Nsj8->Swd4
size: 21
Zp_2->Wyf2->Vbr5->Qsc8->Tsi3->Nvr1->Woi8->Tji3->Vjt3->Gzb0->Hle6->Bgc0->Kqx1->Ril0->S_r8->Tul1->Zwa4->Ktc0->Izy4->U_u4->Ig_6->Swd4
size: 20
Zp_2->Aes0->Awj2->Ego3->F_q5->Xsu6->Nah9->Jnm0->Bla0->Ich4->Eyi8->Rkz7->Uwc9->Rju8->Nhn5->Xbl6->Oz_5->Sfz3->Cx_3->Dkl4->Swd4
size: 19
Zp_2->Rkv6->Jlv1->A_k9->Rid1->Blo3->Yez8->Qzy9->Zxf1->Qnz0->Qjq9->Rwd7->Pyk9->Fnr9->Dgz3->Uye3->Bxf4->F_w3->Iyv5->Swd4
size: 19
Zp_2->Bny6->Alq3->J_m2->Puq5->Gxb3->Xlx3->Viy8->Uoe4->Bbc7->Uuf0->Tfh8->Mod2->Vpp3->Xzz5->Qqm0->Ti_1->Ege3->Vez8->Swd4
size: 17
Zp_2->Cne2->Vce6->Pjm9->Npc3->Hrl2->Vtd8->Cfr1->Nhn4->Qqa7->Ktc2->Tdr5->Dtt4->Set5->Jke1->Teu9->Jsy9->Swd4
size: 16
Zp_2->Ke_9->Du_6->Mgq9->Wnb9->Vfy0->Goh7->Hm_2->Bg_4->A_l6->Uji4->O_h9->J_q4->Cm_3->Mbl0->Int4->Swd4
size: 16
Zp_2->Pcl2->Ukl2->Yjp3->Ape2->Vxd7->Amx8->Zq_4->Xfl3->B_k2->Omv6->Hta2->T_h7->Jyy9->D_n3->Blf7->Swd4


[0m[94m-->finish edm_karp.
[0m[90mPaths:
size: 24
Zp_2->Jcd9->Wio1->Oeo2->Apr6->Kn_7->Qv_7->Joe7->Ock6->Pci7->Wx_2->T_l9->Ptk6->Zc_5->Cig9->Oy_7->Ohp7->Whx3->Jel5->Vnn9->Nkz7->Asj7->Pxa6->Qxv8->Swd4
size: 24
Zp_2->Jca4->Auc7->Sab4->Ddz8->Qzz6->F_c8->Ckg0->Uxp5->Hxv0->Hfk2->Wzz8->Rsi4->Vie7->Fpl8->Ev_3->Vwj7->Not9->Bty3->Ody6->V_u9->Bfx7->Tm_8->Vvi2->Swd4
size: 24
Zp_2->Yjr5->B_u6->Mbm5->Vgg0->Zmq8->Yor2->A_e4->Dfg8->T_e3->Zqf0->Uco0->Ksd0->Zjm3->Aro8->Ezc7->Jwu5->Ovm8->Nrd1->Qlp5->Ohl9->Sga0->Whd2->N_n6->Swd4
size: 23
Zp_2->Ne_5->Fqh2->Hkr4->Uf_7->Zle5->Opu1->Ryv0->Jpp8->W_k4->Brf8->Sq_9->Ari8->Wqw7->Njc0->Cwy0->Ime4->Jvu0->Mdc2->Jt_8->Zdt4->Hrs6->Drc3->Swd4
size: 22
Zp_2->Ano3->Itt7->Fx_0->Tvj3->N_r1->Mgd0->Py_5->Oqo0->Ugc3->Xy_6->Tsc6->Yi_1->Ys_4->Xgi3->Imw0->Def4->Cdf8->Ydq7->Pwa4->Xeq6->Qzw6->Swd4
size: 22
Zp_2->By_0->Viv3->Kh_2->Bkq3->J__8->Yfr1->D_e2->Xqm1->H_f1->Yye0->App4->Xgh8->Jkx6->Ipv4->Gfi4->Gfn6->Qgt9->Vuf8->Ura0->Slw7->Nsj8->Swd4
size: 21
Zp_2->Wyf2->Vbr5->Qsc8->Tsi3->Nvr1->Woi8->Tji3->Vjt3->Gzb0->Hle6->Bgc0->Kqx1->Ril0->S_r8->Tul1->Zwa4->Ktc0->Izy4->U_u4->Ig_6->Swd4
size: 20
Zp_2->Aes0->Awj2->Ego3->F_q5->Xsu6->Nah9->Jnm0->Bla0->Ich4->Eyi8->Rkz7->Uwc9->Rju8->Nhn5->Xbl6->Oz_5->Sfz3->Cx_3->Dkl4->Swd4
size: 19
Zp_2->Rkv6->Jlv1->A_k9->Rid1->Blo3->Yez8->Qzy9->Zxf1->Qnz0->Qjq9->Rwd7->Pyk9->Fnr9->Dgz3->Uye3->Bxf4->F_w3->Iyv5->Swd4
size: 19
Zp_2->Bny6->Alq3->J_m2->Puq5->Gxb3->Xlx3->Viy8->Uoe4->Bbc7->Uuf0->Tfh8->Mod2->Vpp3->Xzz5->Qqm0->Ti_1->Ege3->Vez8->Swd4
size: 17
Zp_2->Cne2->Vce6->Pjm9->Npc3->Hrl2->Vtd8->Cfr1->Nhn4->Qqa7->Ktc2->Tdr5->Dtt4->Set5->Jke1->Teu9->Jsy9->Swd4
size: 16
Zp_2->Ke_9->Du_6->Mgq9->Wnb9->Vfy0->Goh7->Hm_2->Bg_4->A_l6->Uji4->O_h9->J_q4->Cm_3->Mbl0->Int4->Swd4
size: 16
Zp_2->Pcl2->Ukl2->Yjp3->Ape2->Vxd7->Amx8->Zq_4->Xfl3->B_k2->Omv6->Hta2->T_h7->Jyy9->D_n3->Blf7->Swd4


[0m[94m---->releasing ants...
[0m[90m-->1/4
[0m[90m-->1/4
[0m[90m-->1/4
[0m[90m-->1/5
[0m[90m-->1/6
[0m[90m-->1/6
[0m[90m-->1/7
[0m[90m-->1/8
[0m[90m-->1/9
[0m[90m-->1/9
[0m[90m-->1/11
[0m[90m-->1/12
[0m[90m-->1/12
[0mL13-Pcl2 L12-Ke_9 L11-Cne2 L10-Bny6 L9-Rkv6 L8-Aes0 L7-Wyf2 L6-By_0 L5-Ano3 L4-Ne_5 L3-Yjr5 L2-Jca4 L1-Jcd9
[90m-->2/4
[0m[90m-->2/4
[0m[90m-->2/4
[0m[90m-->2/5
[0m[90m-->2/6
[0m[90m-->2/6
[0m[90m-->2/7
[0m[90m-->2/8
[0m[90m-->2/9
[0m[90m-->2/9
[0m[90m-->2/11
[0m[90m-->2/12
[0m[90m-->2/12
[0mL26-Pcl2 L25-Ke_9 L24-Cne2 L23-Bny6 L22-Rkv6 L21-Aes0 L20-Wyf2 L19-By_0 L18-Ano3 L17-Ne_5 L16-Yjr5 L15-Jca4 L14-Jcd9 L13-Ukl2 L12-Du_6 L11-Vce6 L10-Alq3 L9-Jlv1 L8-Awj2 L7-Vbr5 L6-Viv3 L5-Itt7 L4-Fqh2 L3-B_u6 L2-Auc7 L1-Wio1
[90m-->3/4
[0m[90m-->3/4
[0m[90m-->3/4
[0m[90m-->3/5
[0m[90m-->3/6
[0m[90m-->3/6
[0m[90m-->3/7
[0m[90m-->3/8
[0m[90m-->3/9
[0m[90m-->3/9
[0m[90m-->3/11
[0m[90m-->3/12
[0m[90m-->3/12
[0mL39-Pcl2 L38-Ke_9 L37-Cne2 L36-Bny6 L35-Rkv6 L34-Aes0 L33-Wyf2 L32-By_0 L31-Ano3 L30-Ne_5 L29-Yjr5 L28-Jca4 L27-Jcd9 L26-Ukl2 L25-Du_6 L24-Vce6 L23-Alq3 L22-Jlv1 L21-Awj2 L20-Vbr5 L19-Viv3 L18-Itt7 L17-Fqh2 L16-B_u6 L15-Auc7 L14-Wio1 L13-Yjp3 L12-Mgq9 L11-Pjm9 L10-J_m2 L9-A_k9 L8-Ego3 L7-Qsc8 L6-Kh_2 L5-Fx_0 L4-Hkr4 L3-Mbm5 L2-Sab4 L1-Oeo2
[90m-->4/4
[0m[90m-->4/4
[0m[90m-->4/4
[0m[90m-->4/5
[0m[90m-->4/6
[0m[90m-->4/6
[0m[90m-->4/7
[0m[90m-->4/8
[0m[90m-->4/9
[0m[90m-->4/9
[0m[90m-->4/11
[0m[90m-->4/12
[0m[90m-->4/12
[0mL52-Pcl2 L51-Ke_9 L50-Cne2 L49-Bny6 L48-Rkv6 L47-Aes0 L46-Wyf2 L45-By_0 L44-Ano3 L43-Ne_5 L42-Yjr5 L41-Jca4 L40-Jcd9 L39-Ukl2 L38-Du_6 L37-Vce6 L36-Alq3 L35-Jlv1 L34-Awj2 L33-Vbr5 L32-Viv3 L31-Itt7 L30-Fqh2 L29-B_u6 L28-Auc7 L27-Wio1 L26-Yjp3 L25-Mgq9 L24-Pjm9 L23-J_m2 L22-A_k9 L21-Ego3 L20-Qsc8 L19-Kh_2 L18-Fx_0 L17-Hkr4 L16-Mbm5 L15-Sab4 L14-Oeo2 L13-Ape2 L12-Wnb9 L11-Npc3 L10-Puq5 L9-Rid1 L8-F_q5 L7-Tsi3 L6-Bkq3 L5-Tvj3 L4-Uf_7 L3-Vgg0 L2-Ddz8 L1-Apr6
[90m-->4/4
[0m[90m-->4/4
[0m[90m-->4/4
[0m[90m-->5/5
[0m[90m-->5/6
[0m[90m-->5/6
[0m[90m-->5/7
[0m[90m-->5/8
[0m[90m-->5/9
[0m[90m-->5/9
[0m[90m-->5/11
[0m[90m-->5/12
[0m[90m-->5/12
[0mL62-Pcl2 L61-Ke_9 L60-Cne2 L59-Bny6 L58-Rkv6 L57-Aes0 L56-Wyf2 L55-By_0 L54-Ano3 L53-Ne_5 L52-Ukl2 L51-Du_6 L50-Vce6 L49-Alq3 L48-Jlv1 L47-Awj2 L46-Vbr5 L45-Viv3 L44-Itt7 L43-Fqh2 L42-B_u6 L41-Auc7 L40-Wio1 L39-Yjp3 L38-Mgq9 L37-Pjm9 L36-J_m2 L35-A_k9 L34-Ego3 L33-Qsc8 L32-Kh_2 L31-Fx_0 L30-Hkr4 L29-Mbm5 L28-Sab4 L27-Oeo2 L26-Ape2 L25-Wnb9 L24-Npc3 L23-Puq5 L22-Rid1 L21-F_q5 L20-Tsi3 L19-Bkq3 L18-Tvj3 L17-Uf_7 L16-Vgg0 L15-Ddz8 L14-Apr6 L13-Vxd7 L12-Vfy0 L11-Hrl2 L10-Gxb3 L9-Blo3 L8-Xsu6 L7-Nvr1 L6-J__8 L5-N_r1 L4-Zle5 L3-Zmq8 L2-Qzz6 L1-Kn_7
[90m-->4/4
[0m[90m-->4/4
[0m[90m-->4/4
[0m[90m-->5/5
[0m[90m-->6/6
[0m[90m-->6/6
[0m[90m-->6/7
[0m[90m-->6/8
[0m[90m-->6/9
[0m[90m-->6/9
[0m[90m-->6/11
[0m[90m-->6/12
[0m[90m-->6/12
[0mL71-Pcl2 L70-Ke_9 L69-Cne2 L68-Bny6 L67-Rkv6 L66-Aes0 L65-Wyf2 L64-By_0 L63-Ano3 L62-Ukl2 L61-Du_6 L60-Vce6 L59-Alq3 L58-Jlv1 L57-Awj2 L56-Vbr5 L55-Viv3 L54-Itt7 L53-Fqh2 L52-Yjp3 L51-Mgq9 L50-Pjm9 L49-J_m2 L48-A_k9 L47-Ego3 L46-Qsc8 L45-Kh_2 L44-Fx_0 L43-Hkr4 L42-Mbm5 L41-Sab4 L40-Oeo2 L39-Ape2 L38-Wnb9 L37-Npc3 L36-Puq5 L35-Rid1 L34-F_q5 L33-Tsi3 L32-Bkq3 L31-Tvj3 L30-Uf_7 L29-Vgg0 L28-Ddz8 L27-Apr6 L26-Vxd7 L25-Vfy0 L24-Hrl2 L23-Gxb3 L22-Blo3 L21-Xsu6 L20-Nvr1 L19-J__8 L18-N_r1 L17-Zle5 L16-Zmq8 L15-Qzz6 L14-Kn_7 L13-Amx8 L12-Goh7 L11-Vtd8 L10-Xlx3 L9-Yez8 L8-Nah9 L7-Woi8 L6-Yfr1 L5-Mgd0 L4-Opu1 L3-Yor2 L2-F_c8 L1-Qv_7
[90m-->4/4
[0m[90m-->4/4
[0m[90m-->4/4
[0m[90m-->5/5
[0m[90m-->6/6
[0m[90m-->6/6
[0m[90m-->7/7
[0m[90m-->7/8
[0m[90m-->7/9
[0m[90m-->7/9
[0m[90m-->7/11
[0m[90m-->7/12
[0m[90m-->7/12
[0mL78-Pcl2 L77-Ke_9 L76-Cne2 L75-Bny6 L74-Rkv6 L73-Aes0 L72-Wyf2 L71-Ukl2 L70-Du_6 L69-Vce6 L68-Alq3 L67-Jlv1 L66-Awj2 L65-Vbr5 L64-Viv3 L63-Itt7 L62-Yjp3 L61-Mgq9 L60-Pjm9 L59-J_m2 L58-A_k9 L57-Ego3 L56-Qsc8 L55-Kh_2 L54-Fx_0 L53-Hkr4 L52-Ape2 L51-Wnb9 L50-Npc3 L49-Puq5 L48-Rid1 L47-F_q5 L46-Tsi3 L45-Bkq3 L44-Tvj3 L43-Uf_7 L42-Vgg0 L41-Ddz8 L40-Apr6 L39-Vxd7 L38-Vfy0 L37-Hrl2 L36-Gxb3 L35-Blo3 L34-Xsu6 L33-Nvr1 L32-J__8 L31-N_r1 L30-Zle5 L29-Zmq8 L28-Qzz6 L27-Kn_7 L26-Amx8 L25-Goh7 L24-Vtd8 L23-Xlx3 L22-Yez8 L21-Nah9 L20-Woi8 L19-Yfr1 L18-Mgd0 L17-Opu1 L16-Yor2 L15-F_c8 L14-Qv_7 L13-Zq_4 L12-Hm_2 L11-Cfr1 L10-Viy8 L9-Qzy9 L8-Jnm0 L7-Tji3 L6-D_e2 L5-Py_5 L4-Ryv0 L3-A_e4 L2-Ckg0 L1-Joe7
[90m-->4/4
[0m[90m-->4/4
[0m[90m-->4/4
[0m[90m-->5/5
[0m[90m-->6/6
[0m[90m-->6/6
[0m[90m-->7/7
[0m[90m-->8/8
[0m[90m-->8/9
[0m[90m-->8/9
[0m[90m-->8/11
[0m[90m-->8/12
[0m[90m-->8/12
[0mL84-Pcl2 L83-Ke_9 L82-Cne2 L81-Bny6 L80-Rkv6 L79-Aes0 L78-Ukl2 L77-Du_6 L76-Vce6 L75-Alq3 L74-Jlv1 L73-Awj2 L72-Vbr5 L71-Yjp3 L70-Mgq9 L69-Pjm9 L68-J_m2 L67-A_k9 L66-Ego3 L65-Qsc8 L64-Kh_2 L63-Fx_0 L62-Ape2 L61-Wnb9 L60-Npc3 L59-Puq5 L58-Rid1 L57-F_q5 L56-Tsi3 L55-Bkq3 L54-Tvj3 L53-Uf_7 L52-Vxd7 L51-Vfy0 L50-Hrl2 L49-Gxb3 L48-Blo3 L47-Xsu6 L46-Nvr1 L45-J__8 L44-N_r1 L43-Zle5 L42-Zmq8 L41-Qzz6 L40-Kn_7 L39-Amx8 L38-Goh7 L37-Vtd8 L36-Xlx3 L35-Yez8 L34-Nah9 L33-Woi8 L32-Yfr1 L31-Mgd0 L30-Opu1 L29-Yor2 L28-F_c8 L27-Qv_7 L26-Zq_4 L25-Hm_2 L24-Cfr1 L23-Viy8 L22-Qzy9 L21-Jnm0 L20-Tji3 L19-D_e2 L18-Py_5 L17-Ryv0 L16-A_e4 L15-Ckg0 L14-Joe7 L13-Xfl3 L12-Bg_4 L11-Nhn4 L10-Uoe4 L9-Zxf1 L8-Bla0 L7-Vjt3 L6-Xqm1 L5-Oqo0 L4-Jpp8 L3-Dfg8 L2-Uxp5 L1-Ock6
[90m-->4/4
[0m[90m-->4/4
[0m[90m-->4/4
[0m[90m-->5/5
[0m[90m-->6/6
[0m[90m-->6/6
[0m[90m-->7/7
[0m[90m-->8/8
[0m[90m-->9/9
[0m[90m-->9/9
[0m[90m-->9/11
[0m[90m-->9/12
[0m[90m-->9/12
[0mL89-Pcl2 L88-Ke_9 L87-Cne2 L86-Bny6 L85-Rkv6 L84-Ukl2 L83-Du_6 L82-Vce6 L81-Alq3 L80-Jlv1 L79-Awj2 L78-Yjp3 L77-Mgq9 L76-Pjm9 L75-J_m2 L74-A_k9 L73-Ego3 L72-Qsc8 L71-Ape2 L70-Wnb9 L69-Npc3 L68-Puq5 L67-Rid1 L66-F_q5 L65-Tsi3 L64-Bkq3 L63-Tvj3 L62-Vxd7 L61-Vfy0 L60-Hrl2 L59-Gxb3 L58-Blo3 L57-Xsu6 L56-Nvr1 L55-J__8 L54-N_r1 L53-Zle5 L52-Amx8 L51-Goh7 L50-Vtd8 L49-Xlx3 L48-Yez8 L47-Nah9 L46-Woi8 L45-Yfr1 L44-Mgd0 L43-Opu1 L42-Yor2 L41-F_c8 L40-Qv_7 L39-Zq_4 L38-Hm_2 L37-Cfr1 L36-Viy8 L35-Qzy9 L34-Jnm0 L33-Tji3 L32-D_e2 L31-Py_5 L30-Ryv0 L29-A_e4 L28-Ckg0 L27-Joe7 L26-Xfl3 L25-Bg_4 L24-Nhn4 L23-Uoe4 L22-Zxf1 L21-Bla0 L20-Vjt3 L19-Xqm1 L18-Oqo0 L17-Jpp8 L16-Dfg8 L15-Uxp5 L14-Ock6 L13-B_k2 L12-A_l6 L11-Qqa7 L10-Bbc7 L9-Qnz0 L8-Ich4 L7-Gzb0 L6-H_f1 L5-Ugc3 L4-W_k4 L3-T_e3 L2-Hxv0 L1-Pci7
[90m-->4/4
[0m[90m-->4/4
[0m[90m-->4/4
[0m[90m-->5/5
[0m[90m-->6/6
[0m[90m-->6/6
[0m[90m-->7/7
[0m[90m-->8/8
[0m[90m-->9/9
[0m[90m-->9/9
[0m[90m-->10/11
[0m[90m-->10/12
[0m[90m-->10/12
[0mL92-Pcl2 L91-Ke_9 L90-Cne2 L89-Ukl2 L88-Du_6 L87-Vce6 L86-Alq3 L85-Jlv1 L84-Yjp3 L83-Mgq9 L82-Pjm9 L81-J_m2 L80-A_k9 L79-Ego3 L78-Ape2 L77-Wnb9 L76-Npc3 L75-Puq5 L74-Rid1 L73-F_q5 L72-Tsi3 L71-Vxd7 L70-Vfy0 L69-Hrl2 L68-Gxb3 L67-Blo3 L66-Xsu6 L65-Nvr1 L64-J__8 L63-N_r1 L62-Amx8 L61-Goh7 L60-Vtd8 L59-Xlx3 L58-Yez8 L57-Nah9 L56-Woi8 L55-Yfr1 L54-Mgd0 L53-Opu1 L52-Zq_4 L51-Hm_2 L50-Cfr1 L49-Viy8 L48-Qzy9 L47-Jnm0 L46-Tji3 L45-D_e2 L44-Py_5 L43-Ryv0 L42-A_e4 L41-Ckg0 L40-Joe7 L39-Xfl3 L38-Bg_4 L37-Nhn4 L36-Uoe4 L35-Zxf1 L34-Bla0 L33-Vjt3 L32-Xqm1 L31-Oqo0 L30-Jpp8 L29-Dfg8 L28-Uxp5 L27-Ock6 L26-B_k2 L25-A_l6 L24-Qqa7 L23-Bbc7 L22-Qnz0 L21-Ich4 L20-Gzb0 L19-H_f1 L18-Ugc3 L17-W_k4 L16-T_e3 L15-Hxv0 L14-Pci7 L13-Omv6 L12-Uji4 L11-Ktc2 L10-Uuf0 L9-Qjq9 L8-Eyi8 L7-Hle6 L6-Yye0 L5-Xy_6 L4-Brf8 L3-Zqf0 L2-Hfk2 L1-Wx_2
[90m-->4/4
[0m[90m-->4/4
[0m[90m-->4/4
[0m[90m-->5/5
[0m[90m-->6/6
[0m[90m-->6/6
[0m[90m-->7/7
[0m[90m-->8/8
[0m[90m-->9/9
[0m[90m-->9/9
[0m[90m-->11/11
[0m[90m-->11/12
[0m[90m-->11/12
[0mL95-Pcl2 L94-Ke_9 L93-Cne2 L92-Ukl2 L91-Du_6 L90-Vce6 L89-Yjp3 L88-Mgq9 L87-Pjm9 L86-J_m2 L85-A_k9 L84-Ape2 L83-Wnb9 L82-Npc3 L81-Puq5 L80-Rid1 L79-F_q5 L78-Vxd7 L77-Vfy0 L76-Hrl2 L75-Gxb3 L74-Blo3 L73-Xsu6 L72-Nvr1 L71-Amx8 L70-Goh7 L69-Vtd8 L68-Xlx3 L67-Yez8 L66-Nah9 L65-Woi8 L64-Yfr1 L63-Mgd0 L62-Zq_4 L61-Hm_2 L60-Cfr1 L59-Viy8 L58-Qzy9 L57-Jnm0 L56-Tji3 L55-D_e2 L54-Py_5 L53-Ryv0 L52-Xfl3 L51-Bg_4 L50-Nhn4 L49-Uoe4 L48-Zxf1 L47-Bla0 L46-Vjt3 L45-Xqm1 L44-Oqo0 L43-Jpp8 L42-Dfg8 L41-Uxp5 L40-Ock6 L39-B_k2 L38-A_l6 L37-Qqa7 L36-Bbc7 L35-Qnz0 L34-Ich4 L33-Gzb0 L32-H_f1 L31-Ugc3 L30-W_k4 L29-T_e3 L28-Hxv0 L27-Pci7 L26-Omv6 L25-Uji4 L24-Ktc2 L23-Uuf0 L22-Qjq9 L21-Eyi8 L20-Hle6 L19-Yye0 L18-Xy_6 L17-Brf8 L16-Zqf0 L15-Hfk2 L14-Wx_2 L13-Hta2 L12-O_h9 L11-Tdr5 L10-Tfh8 L9-Rwd7 L8-Rkz7 L7-Bgc0 L6-App4 L5-Tsc6 L4-Sq_9 L3-Uco0 L2-Wzz8 L1-T_l9
L95-Ukl2 L94-Du_6 L93-Vce6 L92-Yjp3 L91-Mgq9 L90-Pjm9 L89-Ape2 L88-Wnb9 L87-Npc3 L86-Puq5 L85-Rid1 L84-Vxd7 L83-Vfy0 L82-Hrl2 L81-Gxb3 L80-Blo3 L79-Xsu6 L78-Amx8 L77-Goh7 L76-Vtd8 L75-Xlx3 L74-Yez8 L73-Nah9 L72-Woi8 L71-Zq_4 L70-Hm_2 L69-Cfr1 L68-Viy8 L67-Qzy9 L66-Jnm0 L65-Tji3 L64-D_e2 L63-Py_5 L62-Xfl3 L61-Bg_4 L60-Nhn4 L59-Uoe4 L58-Zxf1 L57-Bla0 L56-Vjt3 L55-Xqm1 L54-Oqo0 L53-Jpp8 L52-B_k2 L51-A_l6 L50-Qqa7 L49-Bbc7 L48-Qnz0 L47-Ich4 L46-Gzb0 L45-H_f1 L44-Ugc3 L43-W_k4 L42-T_e3 L41-Hxv0 L40-Pci7 L39-Omv6 L38-Uji4 L37-Ktc2 L36-Uuf0 L35-Qjq9 L34-Eyi8 L33-Hle6 L32-Yye0 L31-Xy_6 L30-Brf8 L29-Zqf0 L28-Hfk2 L27-Wx_2 L26-Hta2 L25-O_h9 L24-Tdr5 L23-Tfh8 L22-Rwd7 L21-Rkz7 L20-Bgc0 L19-App4 L18-Tsc6 L17-Sq_9 L16-Uco0 L15-Wzz8 L14-T_l9 L13-T_h7 L12-J_q4 L11-Dtt4 L10-Mod2 L9-Pyk9 L8-Uwc9 L7-Kqx1 L6-Xgh8 L5-Yi_1 L4-Ari8 L3-Ksd0 L2-Rsi4 L1-Ptk6
L95-Yjp3 L94-Mgq9 L93-Pjm9 L92-Ape2 L91-Wnb9 L90-Npc3 L89-Vxd7 L88-Vfy0 L87-Hrl2 L86-Gxb3 L85-Blo3 L84-Amx8 L83-Goh7 L82-Vtd8 L81-Xlx3 L80-Yez8 L79-Nah9 L78-Zq_4 L77-Hm_2 L76-Cfr1 L75-Viy8 L74-Qzy9 L73-Jnm0 L72-Tji3 L71-Xfl3 L70-Bg_4 L69-Nhn4 L68-Uoe4 L67-Zxf1 L66-Bla0 L65-Vjt3 L64-Xqm1 L63-Oqo0 L62-B_k2 L61-A_l6 L60-Qqa7 L59-Bbc7 L58-Qnz0 L57-Ich4 L56-Gzb0 L55-H_f1 L54-Ugc3 L53-W_k4 L52-Omv6 L51-Uji4 L50-Ktc2 L49-Uuf0 L48-Qjq9 L47-Eyi8 L46-Hle6 L45-Yye0 L44-Xy_6 L43-Brf8 L42-Zqf0 L41-Hfk2 L40-Wx_2 L39-Hta2 L38-O_h9 L37-Tdr5 L36-Tfh8 L35-Rwd7 L34-Rkz7 L33-Bgc0 L32-App4 L31-Tsc6 L30-Sq_9 L29-Uco0 L28-Wzz8 L27-T_l9 L26-T_h7 L25-J_q4 L24-Dtt4 L23-Mod2 L22-Pyk9 L21-Uwc9 L20-Kqx1 L19-Xgh8 L18-Yi_1 L17-Ari8 L16-Ksd0 L15-Rsi4 L14-Ptk6 L13-Jyy9 L12-Cm_3 L11-Set5 L10-Vpp3 L9-Fnr9 L8-Rju8 L7-Ril0 L6-Jkx6 L5-Ys_4 L4-Wqw7 L3-Zjm3 L2-Vie7 L1-Zc_5
L95-Ape2 L94-Wnb9 L93-Npc3 L92-Vxd7 L91-Vfy0 L90-Hrl2 L89-Amx8 L88-Goh7 L87-Vtd8 L86-Xlx3 L85-Yez8 L84-Zq_4 L83-Hm_2 L82-Cfr1 L81-Viy8 L80-Qzy9 L79-Jnm0 L78-Xfl3 L77-Bg_4 L76-Nhn4 L75-Uoe4 L74-Zxf1 L73-Bla0 L72-Vjt3 L71-B_k2 L70-A_l6 L69-Qqa7 L68-Bbc7 L67-Qnz0 L66-Ich4 L65-Gzb0 L64-H_f1 L63-Ugc3 L62-Omv6 L61-Uji4 L60-Ktc2 L59-Uuf0 L58-Qjq9 L57-Eyi8 L56-Hle6 L55-Yye0 L54-Xy_6 L53-Brf8 L52-Hta2 L51-O_h9 L50-Tdr5 L49-Tfh8 L48-Rwd7 L47-Rkz7 L46-Bgc0 L45-App4 L44-Tsc6 L43-Sq_9 L42-Uco0 L41-Wzz8 L40-T_l9 L39-T_h7 L38-J_q4 L37-Dtt4 L36-Mod2 L35-Pyk9 L34-Uwc9 L33-Kqx1 L32-Xgh8 L31-Yi_1 L30-Ari8 L29-Ksd0 L28-Rsi4 L27-Ptk6 L26-Jyy9 L25-Cm_3 L24-Set5 L23-Vpp3 L22-Fnr9 L21-Rju8 L20-Ril0 L19-Jkx6 L18-Ys_4 L17-Wqw7 L16-Zjm3 L15-Vie7 L14-Zc_5 L13-D_n3 L12-Mbl0 L11-Jke1 L10-Xzz5 L9-Dgz3 L8-Nhn5 L7-S_r8 L6-Ipv4 L5-Xgi3 L4-Njc0 L3-Aro8 L2-Fpl8 L1-Cig9
L95-Vxd7 L94-Vfy0 L93-Hrl2 L92-Amx8 L91-Goh7 L90-Vtd8 L89-Zq_4 L88-Hm_2 L87-Cfr1 L86-Viy8 L85-Qzy9 L84-Xfl3 L83-Bg_4 L82-Nhn4 L81-Uoe4 L80-Zxf1 L79-Bla0 L78-B_k2 L77-A_l6 L76-Qqa7 L75-Bbc7 L74-Qnz0 L73-Ich4 L72-Gzb0 L71-Omv6 L70-Uji4 L69-Ktc2 L68-Uuf0 L67-Qjq9 L66-Eyi8 L65-Hle6 L64-Yye0 L63-Xy_6 L62-Hta2 L61-O_h9 L60-Tdr5 L59-Tfh8 L58-Rwd7 L57-Rkz7 L56-Bgc0 L55-App4 L54-Tsc6 L53-Sq_9 L52-T_h7 L51-J_q4 L50-Dtt4 L49-Mod2 L48-Pyk9 L47-Uwc9 L46-Kqx1 L45-Xgh8 L44-Yi_1 L43-Ari8 L42-Ksd0 L41-Rsi4 L40-Ptk6 L39-Jyy9 L38-Cm_3 L37-Set5 L36-Vpp3 L35-Fnr9 L34-Rju8 L33-Ril0 L32-Jkx6 L31-Ys_4 L30-Wqw7 L29-Zjm3 L28-Vie7 L27-Zc_5 L26-D_n3 L25-Mbl0 L24-Jke1 L23-Xzz5 L22-Dgz3 L21-Nhn5 L20-S_r8 L19-Ipv4 L18-Xgi3 L17-Njc0 L16-Aro8 L15-Fpl8 L14-Cig9 L13-Blf7 L12-Int4 L11-Teu9 L10-Qqm0 L9-Uye3 L8-Xbl6 L7-Tul1 L6-Gfi4 L5-Imw0 L4-Cwy0 L3-Ezc7 L2-Ev_3 L1-Oy_7
L95-Amx8 L94-Goh7 L93-Vtd8 L92-Zq_4 L91-Hm_2 L90-Cfr1 L89-Xfl3 L88-Bg_4 L87-Nhn4 L86-Uoe4 L85-Zxf1 L84-B_k2 L83-A_l6 L82-Qqa7 L81-Bbc7 L80-Qnz0 L79-Ich4 L78-Omv6 L77-Uji4 L76-Ktc2 L75-Uuf0 L74-Qjq9 L73-Eyi8 L72-Hle6 L71-Hta2 L70-O_h9 L69-Tdr5 L68-Tfh8 L67-Rwd7 L66-Rkz7 L65-Bgc0 L64-App4 L63-Tsc6 L62-T_h7 L61-J_q4 L60-Dtt4 L59-Mod2 L58-Pyk9 L57-Uwc9 L56-Kqx1 L55-Xgh8 L54-Yi_1 L53-Ari8 L52-Jyy9 L51-Cm_3 L50-Set5 L49-Vpp3 L48-Fnr9 L47-Rju8 L46-Ril0 L45-Jkx6 L44-Ys_4 L43-Wqw7 L42-Zjm3 L41-Vie7 L40-Zc_5 L39-D_n3 L38-Mbl0 L37-Jke1 L36-Xzz5 L35-Dgz3 L34-Nhn5 L33-S_r8 L32-Ipv4 L31-Xgi3 L30-Njc0 L29-Aro8 L28-Fpl8 L27-Cig9 L26-Blf7 L25-Int4 L24-Teu9 L23-Qqm0 L22-Uye3 L21-Xbl6 L20-Tul1 L19-Gfi4 L18-Imw0 L17-Cwy0 L16-Ezc7 L15-Ev_3 L14-Oy_7 L13-Swd4 L12-Swd4 L11-Jsy9 L10-Ti_1 L9-Bxf4 L8-Oz_5 L7-Zwa4 L6-Gfn6 L5-Def4 L4-Ime4 L3-Jwu5 L2-Vwj7 L1-Ohp7
L95-Zq_4 L94-Hm_2 L93-Cfr1 L92-Xfl3 L91-Bg_4 L90-Nhn4 L89-B_k2 L88-A_l6 L87-Qqa7 L86-Bbc7 L85-Qnz0 L84-Omv6 L83-Uji4 L82-Ktc2 L81-Uuf0 L80-Qjq9 L79-Eyi8 L78-Hta2 L77-O_h9 L76-Tdr5 L75-Tfh8 L74-Rwd7 L73-Rkz7 L72-Bgc0 L71-T_h7 L70-J_q4 L69-Dtt4 L68-Mod2 L67-Pyk9 L66-Uwc9 L65-Kqx1 L64-Xgh8 L63-Yi_1 L62-Jyy9 L61-Cm_3 L60-Set5 L59-Vpp3 L58-Fnr9 L57-Rju8 L56-Ril0 L55-Jkx6 L54-Ys_4 L53-Wqw7 L52-D_n3 L51-Mbl0 L50-Jke1 L49-Xzz5 L48-Dgz3 L47-Nhn5 L46-S_r8 L45-Ipv4 L44-Xgi3 L43-Njc0 L42-Aro8 L41-Fpl8 L40-Cig9 L39-Blf7 L38-Int4 L37-Teu9 L36-Qqm0 L35-Uye3 L34-Xbl6 L33-Tul1 L32-Gfi4 L31-Imw0 L30-Cwy0 L29-Ezc7 L28-Ev_3 L27-Oy_7 L26-Swd4 L25-Swd4 L24-Jsy9 L23-Ti_1 L22-Bxf4 L21-Oz_5 L20-Zwa4 L19-Gfn6 L18-Def4 L17-Ime4 L16-Jwu5 L15-Vwj7 L14-Ohp7 L11-Swd4 L10-Ege3 L9-F_w3 L8-Sfz3 L7-Ktc0 L6-Qgt9 L5-Cdf8 L4-Jvu0 L3-Ovm8 L2-Not9 L1-Whx3
L95-Xfl3 L94-Bg_4 L93-Nhn4 L92-B_k2 L91-A_l6 L90-Qqa7 L89-Omv6 L88-Uji4 L87-Ktc2 L86-Uuf0 L85-Qjq9 L84-Hta2 L83-O_h9 L82-Tdr5 L81-Tfh8 L80-Rwd7 L79-Rkz7 L78-T_h7 L77-J_q4 L76-Dtt4 L75-Mod2 L74-Pyk9 L73-Uwc9 L72-Kqx1 L71-Jyy9 L70-Cm_3 L69-Set5 L68-Vpp3 L67-Fnr9 L66-Rju8 L65-Ril0 L64-Jkx6 L63-Ys_4 L62-D_n3 L61-Mbl0 L60-Jke1 L59-Xzz5 L58-Dgz3 L57-Nhn5 L56-S_r8 L55-Ipv4 L54-Xgi3 L53-Njc0 L52-Blf7 L51-Int4 L50-Teu9 L49-Qqm0 L48-Uye3 L47-Xbl6 L46-Tul1 L45-Gfi4 L44-Imw0 L43-Cwy0 L42-Ezc7 L41-Ev_3 L40-Oy_7 L39-Swd4 L38-Swd4 L37-Jsy9 L36-Ti_1 L35-Bxf4 L34-Oz_5 L33-Zwa4 L32-Gfn6 L31-Def4 L30-Ime4 L29-Jwu5 L28-Vwj7 L27-Ohp7 L24-Swd4 L23-Ege3 L22-F_w3 L21-Sfz3 L20-Ktc0 L19-Qgt9 L18-Cdf8 L17-Jvu0 L16-Ovm8 L15-Not9 L14-Whx3 L10-Vez8 L9-Iyv5 L8-Cx_3 L7-Izy4 L6-Vuf8 L5-Ydq7 L4-Mdc2 L3-Nrd1 L2-Bty3 L1-Jel5
L95-B_k2 L94-A_l6 L93-Qqa7 L92-Omv6 L91-Uji4 L90-Ktc2 L89-Hta2 L88-O_h9 L87-Tdr5 L86-Tfh8 L85-Rwd7 L84-T_h7 L83-J_q4 L82-Dtt4 L81-Mod2 L80-Pyk9 L79-Uwc9 L78-Jyy9 L77-Cm_3 L76-Set5 L75-Vpp3 L74-Fnr9 L73-Rju8 L72-Ril0 L71-D_n3 L70-Mbl0 L69-Jke1 L68-Xzz5 L67-Dgz3 L66-Nhn5 L65-S_r8 L64-Ipv4 L63-Xgi3 L62-Blf7 L61-Int4 L60-Teu9 L59-Qqm0 L58-Uye3 L57-Xbl6 L56-Tul1 L55-Gfi4 L54-Imw0 L53-Cwy0 L52-Swd4 L51-Swd4 L50-Jsy9 L49-Ti_1 L48-Bxf4 L47-Oz_5 L46-Zwa4 L45-Gfn6 L44-Def4 L43-Ime4 L42-Jwu5 L41-Vwj7 L40-Ohp7 L37-Swd4 L36-Ege3 L35-F_w3 L34-Sfz3 L33-Ktc0 L32-Qgt9 L31-Cdf8 L30-Jvu0 L29-Ovm8 L28-Not9 L27-Whx3 L23-Vez8 L22-Iyv5 L21-Cx_3 L20-Izy4 L19-Vuf8 L18-Ydq7 L17-Mdc2 L16-Nrd1 L15-Bty3 L14-Jel5 L10-Swd4 L9-Swd4 L8-Dkl4 L7-U_u4 L6-Ura0 L5-Pwa4 L4-Jt_8 L3-Qlp5 L2-Ody6 L1-Vnn9
L95-Omv6 L94-Uji4 L93-Ktc2 L92-Hta2 L91-O_h9 L90-Tdr5 L89-T_h7 L88-J_q4 L87-Dtt4 L86-Mod2 L85-Pyk9 L84-Jyy9 L83-Cm_3 L82-Set5 L81-Vpp3 L80-Fnr9 L79-Rju8 L78-D_n3 L77-Mbl0 L76-Jke1 L75-Xzz5 L74-Dgz3 L73-Nhn5 L72-S_r8 L71-Blf7 L70-Int4 L69-Teu9 L68-Qqm0 L67-Uye3 L66-Xbl6 L65-Tul1 L64-Gfi4 L63-Imw0 L62-Swd4 L61-Swd4 L60-Jsy9 L59-Ti_1 L58-Bxf4 L57-Oz_5 L56-Zwa4 L55-Gfn6 L54-Def4 L53-Ime4 L50-Swd4 L49-Ege3 L48-F_w3 L47-Sfz3 L46-Ktc0 L45-Qgt9 L44-Cdf8 L43-Jvu0 L42-Ovm8 L41-Not9 L40-Whx3 L36-Vez8 L35-Iyv5 L34-Cx_3 L33-Izy4 L32-Vuf8 L31-Ydq7 L30-Mdc2 L29-Nrd1 L28-Bty3 L27-Jel5 L23-Swd4 L22-Swd4 L21-Dkl4 L20-U_u4 L19-Ura0 L18-Pwa4 L17-Jt_8 L16-Qlp5 L15-Ody6 L14-Vnn9 L8-Swd4 L7-Ig_6 L6-Slw7 L5-Xeq6 L4-Zdt4 L3-Ohl9 L2-V_u9 L1-Nkz7
L95-Hta2 L94-O_h9 L93-Tdr5 L92-T_h7 L91-J_q4 L90-Dtt4 L89-Jyy9 L88-Cm_3 L87-Set5 L86-Vpp3 L85-Fnr9 L84-D_n3 L83-Mbl0 L82-Jke1 L81-Xzz5 L80-Dgz3 L79-Nhn5 L78-Blf7 L77-Int4 L76-Teu9 L75-Qqm0 L74-Uye3 L73-Xbl6 L72-Tul1 L71-Swd4 L70-Swd4 L69-Jsy9 L68-Ti_1 L67-Bxf4 L66-Oz_5 L65-Zwa4 L64-Gfn6 L63-Def4 L60-Swd4 L59-Ege3 L58-F_w3 L57-Sfz3 L56-Ktc0 L55-Qgt9 L54-Cdf8 L53-Jvu0 L49-Vez8 L48-Iyv5 L47-Cx_3 L46-Izy4 L45-Vuf8 L44-Ydq7 L43-Mdc2 L42-Nrd1 L41-Bty3 L40-Jel5 L36-Swd4 L35-Swd4 L34-Dkl4 L33-U_u4 L32-Ura0 L31-Pwa4 L30-Jt_8 L29-Qlp5 L28-Ody6 L27-Vnn9 L21-Swd4 L20-Ig_6 L19-Slw7 L18-Xeq6 L17-Zdt4 L16-Ohl9 L15-V_u9 L14-Nkz7 L7-Swd4 L6-Nsj8 L5-Qzw6 L4-Hrs6 L3-Sga0 L2-Bfx7 L1-Asj7
L95-T_h7 L94-J_q4 L93-Dtt4 L92-Jyy9 L91-Cm_3 L90-Set5 L89-D_n3 L88-Mbl0 L87-Jke1 L86-Xzz5 L85-Dgz3 L84-Blf7 L83-Int4 L82-Teu9 L81-Qqm0 L80-Uye3 L79-Xbl6 L78-Swd4 L77-Swd4 L76-Jsy9 L75-Ti_1 L74-Bxf4 L73-Oz_5 L72-Zwa4 L69-Swd4 L68-Ege3 L67-F_w3 L66-Sfz3 L65-Ktc0 L64-Qgt9 L63-Cdf8 L59-Vez8 L58-Iyv5 L57-Cx_3 L56-Izy4 L55-Vuf8 L54-Ydq7 L53-Mdc2 L49-Swd4 L48-Swd4 L47-Dkl4 L46-U_u4 L45-Ura0 L44-Pwa4 L43-Jt_8 L42-Qlp5 L41-Ody6 L40-Vnn9 L34-Swd4 L33-Ig_6 L32-Slw7 L31-Xeq6 L30-Zdt4 L29-Ohl9 L28-V_u9 L27-Nkz7 L20-Swd4 L19-Nsj8 L18-Qzw6 L17-Hrs6 L16-Sga0 L15-Bfx7 L14-Asj7 L6-Swd4 L5-Swd4 L4-Drc3 L3-Whd2 L2-Tm_8 L1-Pxa6
L95-Jyy9 L94-Cm_3 L93-Set5 L92-D_n3 L91-Mbl0 L90-Jke1 L89-Blf7 L88-Int4 L87-Teu9 L86-Qqm0 L85-Uye3 L84-Swd4 L83-Swd4 L82-Jsy9 L81-Ti_1 L80-Bxf4 L79-Oz_5 L76-Swd4 L75-Ege3 L74-F_w3 L73-Sfz3 L72-Ktc0 L68-Vez8 L67-Iyv5 L66-Cx_3 L65-Izy4 L64-Vuf8 L63-Ydq7 L59-Swd4 L58-Swd4 L57-Dkl4 L56-U_u4 L55-Ura0 L54-Pwa4 L53-Jt_8 L47-Swd4 L46-Ig_6 L45-Slw7 L44-Xeq6 L43-Zdt4 L42-Ohl9 L41-V_u9 L40-Nkz7 L33-Swd4 L32-Nsj8 L31-Qzw6 L30-Hrs6 L29-Sga0 L28-Bfx7 L27-Asj7 L19-Swd4 L18-Swd4 L17-Drc3 L16-Whd2 L15-Tm_8 L14-Pxa6 L4-Swd4 L3-N_n6 L2-Vvi2 L1-Qxv8
L95-D_n3 L94-Mbl0 L93-Jke1 L92-Blf7 L91-Int4 L90-Teu9 L89-Swd4 L88-Swd4 L87-Jsy9 L86-Ti_1 L85-Bxf4 L82-Swd4 L81-Ege3 L80-F_w3 L79-Sfz3 L75-Vez8 L74-Iyv5 L73-Cx_3 L72-Izy4 L68-Swd4 L67-Swd4 L66-Dkl4 L65-U_u4 L64-Ura0 L63-Pwa4 L57-Swd4 L56-Ig_6 L55-Slw7 L54-Xeq6 L53-Zdt4 L46-Swd4 L45-Nsj8 L44-Qzw6 L43-Hrs6 L42-Sga0 L41-Bfx7 L40-Asj7 L32-Swd4 L31-Swd4 L30-Drc3 L29-Whd2 L28-Tm_8 L27-Pxa6 L17-Swd4 L16-N_n6 L15-Vvi2 L14-Qxv8 L3-Swd4 L2-Swd4 L1-Swd4
L95-Blf7 L94-Int4 L93-Teu9 L92-Swd4 L91-Swd4 L90-Jsy9 L87-Swd4 L86-Ege3 L85-F_w3 L81-Vez8 L80-Iyv5 L79-Cx_3 L75-Swd4 L74-Swd4 L73-Dkl4 L72-U_u4 L66-Swd4 L65-Ig_6 L64-Slw7 L63-Xeq6 L56-Swd4 L55-Nsj8 L54-Qzw6 L53-Hrs6 L45-Swd4 L44-Swd4 L43-Drc3 L42-Whd2 L41-Tm_8 L40-Pxa6 L30-Swd4 L29-N_n6 L28-Vvi2 L27-Qxv8 L16-Swd4 L15-Swd4 L14-Swd4
L95-Swd4 L94-Swd4 L93-Jsy9 L90-Swd4 L86-Vez8 L85-Iyv5 L81-Swd4 L80-Swd4 L79-Dkl4 L73-Swd4 L72-Ig_6 L65-Swd4 L64-Nsj8 L63-Qzw6 L55-Swd4 L54-Swd4 L53-Drc3 L43-Swd4 L42-N_n6 L41-Vvi2 L40-Qxv8 L29-Swd4 L28-Swd4 L27-Swd4
L93-Swd4 L86-Swd4 L85-Swd4 L79-Swd4 L72-Swd4 L64-Swd4 L63-Swd4 L53-Swd4 L42-Swd4 L41-Swd4 L40-Swd4
[92m->lines number: 27
[0m
