all
[94m->finding paths...
[0m[94m-->starting edm_karp...
[0m[94m--->starting bfs...
[0m[94m--->finish bfs.
[0m[90mPaths:
size: 28
Iqk2->Oxw0->Gft1->Bqo6->Hkr4->Xuk2->Q_r5->Nfs5->Hyn8->Twd1->Czh3->Ceh6->Ogq6->Vaa8->Xmv2->Inr8->Whm6->R_d8->Kxj4->Pm_5->Otr3->Tqt3->Wjc8->Utu5->Kkx9->Gyr4->Mis1->Bm_0->Mfx6


[0m[94m--->starting bfs...
[0m[94m--->finish bfs.
[0m[90mPaths:
size: 28
Iqk2->Ajy4->Ywe8->Hkt3->Xkw9->G_o5->Hqt0->Hai4->V_x6->Zx_7->Vsl3->Xon0->J_j6->Yxa0->Dhc5->Rj_0->Pcw3->Ifu9->Xdx8->Htl3->Oy_0->Df_5->Jtq7->Abf1->Onj5->Poq6->Mbh8->C_t9->Mfx6
size: 28
Iqk2->Oxw0->Gft1->Bqo6->Hkr4->Xuk2->Q_r5->Nfs5->Hyn8->Twd1->Czh3->Ceh6->Ogq6->Vaa8->Xmv2->Inr8->Whm6->R_d8->Kxj4->Pm_5->Otr3->Tqt3->Wjc8->Utu5->Kkx9->Gyr4->Mis1->Bm_0->Mfx6


[0m[94m--->starting bfs...
[0m[94m--->finish bfs.
[0m[90mPaths:
size: 29
Iqk2->Rm_4->Ufl6->Vba0->Nlw4->Hch4->Olz1->Kfr1->F__4->Um_4->Eyw6->Tgk6->Guz3->Jdr1->Ovs2->Ssd9->G_x4->Psj6->Esl2->Ois1->Bzz1->Wih1->Yug6->Uxr6->Qde9->Igq7->Agy0->S__6->Yde5->Mfx6
size: 28
Iqk2->Ajy4->Ywe8->Hkt3->Xkw9->G_o5->Hqt0->Hai4->V_x6->Zx_7->Vsl3->Xon0->J_j6->Yxa0->Dhc5->Rj_0->Pcw3->Ifu9->Xdx8->Htl3->Oy_0->Df_5->Jtq7->Abf1->Onj5->Poq6->Mbh8->C_t9->Mfx6
size: 28
Iqk2->Oxw0->Gft1->Bqo6->Hkr4->Xuk2->Q_r5->Nfs5->Hyn8->Twd1->Czh3->Ceh6->Ogq6->Vaa8->Xmv2->Inr8->Whm6->R_d8->Kxj4->Pm_5->Otr3->Tqt3->Wjc8->Utu5->Kkx9->Gyr4->Mis1->Bm_0->Mfx6


[0m[94m--->starting bfs...
[0m[94m--->finish bfs.
[0m[90mPaths:
size: 29
Iqk2->Dnu3->Iyw8->Xe_8->Msr4->Fo_8->Jmu6->Xpd4->Oym8->Y_a3->Zbb9->Qoi9->Qyq0->Uni0->Uu_7->Afc0->Xga1->Bpt1->Xha1->Syr3->Dxn6->Twc7->P_j5->Ynt6->Vxd6->Zbu0->Ubh4->Wtn4->B_v2->Mfx6
size: 29
Iqk2->Rm_4->Ufl6->Vba0->Nlw4->Hch4->Olz1->Kfr1->F__4->Um_4->Eyw6->Tgk6->Guz3->Jdr1->Ovs2->Ssd9->G_x4->Psj6->Esl2->Ois1->Bzz1->Wih1->Yug6->Uxr6->Qde9->Igq7->Agy0->S__6->Yde5->Mfx6
size: 28
Iqk2->Ajy4->Ywe8->Hkt3->Xkw9->G_o5->Hqt0->Hai4->V_x6->Zx_7->Vsl3->Xon0->J_j6->Yxa0->Dhc5->Rj_0->Pcw3->Ifu9->Xdx8->Htl3->Oy_0->Df_5->Jtq7->Abf1->Onj5->Poq6->Mbh8->C_t9->Mfx6
size: 28
Iqk2->Oxw0->Gft1->Bqo6->Hkr4->Xuk2->Q_r5->Nfs5->Hyn8->Twd1->Czh3->Ceh6->Ogq6->Vaa8->Xmv2->Inr8->Whm6->R_d8->Kxj4->Pm_5->Otr3->Tqt3->Wjc8->Utu5->Kkx9->Gyr4->Mis1->Bm_0->Mfx6


[0m[94m--->starting bfs...
[0m[94m--->finish bfs.
[0m[90mPaths:
size: 29
Iqk2->Dnu3->Iyw8->Xe_8->Msr4->Fo_8->Jmu6->Xpd4->Oym8->Y_a3->Zbb9->Qoi9->Qyq0->Uni0->Uu_7->Afc0->Xga1->Bpt1->Xha1->Syr3->Dxn6->Twc7->P_j5->Ynt6->Vxd6->Zbu0->Ubh4->Wtn4->B_v2->Mfx6
size: 29
Iqk2->Rm_4->Ufl6->Vba0->Nlw4->Hch4->Olz1->Kfr1->F__4->Um_4->Eyw6->Tgk6->Guz3->Jdr1->Ovs2->Ssd9->G_x4->Psj6->Esl2->Ois1->Bzz1->Wih1->Yug6->Uxr6->Qde9->Igq7->Agy0->S__6->Yde5->Mfx6
size: 28
Iqk2->Ajy4->Ywe8->Hkt3->Xkw9->G_o5->Hqt0->Hai4->V_x6->Zx_7->Vsl3->Xon0->J_j6->Yxa0->Dhc5->Rj_0->Pcw3->Ifu9->Xdx8->Htl3->Oy_0->Df_5->Jtq7->Abf1->Onj5->Poq6->Mbh8->C_t9->Mfx6
size: 28
Iqk2->Oxw0->Gft1->Bqo6->Hkr4->Xuk2->Q_r5->Nfs5->Hyn8->Twd1->Czh3->Ceh6->Ogq6->Vaa8->Xmv2->Inr8->Whm6->R_d8->Kxj4->Pm_5->Otr3->Tqt3->Wjc8->Utu5->Kkx9->Gyr4->Mis1->Bm_0->Mfx6


[0m[94m-->finish edm_karp.
[0m[90mPaths:
size: 29
Iqk2->Dnu3->Iyw8->Xe_8->Msr4->Fo_8->Jmu6->Xpd4->Oym8->Y_a3->Zbb9->Qoi9->Qyq0->Uni0->Uu_7->Afc0->Xga1->Bpt1->Xha1->Syr3->Dxn6->Twc7->P_j5->Ynt6->Vxd6->Zbu0->Ubh4->Wtn4->B_v2->Mfx6
size: 29
Iqk2->Rm_4->Ufl6->Vba0->Nlw4->Hch4->Olz1->Kfr1->F__4->Um_4->Eyw6->Tgk6->Guz3->Jdr1->Ovs2->Ssd9->G_x4->Psj6->Esl2->Ois1->Bzz1->Wih1->Yug6->Uxr6->Qde9->Igq7->Agy0->S__6->Yde5->Mfx6
size: 28
Iqk2->Ajy4->Ywe8->Hkt3->Xkw9->G_o5->Hqt0->Hai4->V_x6->Zx_7->Vsl3->Xon0->J_j6->Yxa0->Dhc5->Rj_0->Pcw3->Ifu9->Xdx8->Htl3->Oy_0->Df_5->Jtq7->Abf1->Onj5->Poq6->Mbh8->C_t9->Mfx6
size: 28
Iqk2->Oxw0->Gft1->Bqo6->Hkr4->Xuk2->Q_r5->Nfs5->Hyn8->Twd1->Czh3->Ceh6->Ogq6->Vaa8->Xmv2->Inr8->Whm6->R_d8->Kxj4->Pm_5->Otr3->Tqt3->Wjc8->Utu5->Kkx9->Gyr4->Mis1->Bm_0->Mfx6


[0m[94m---->releasing ants...
[0m[90m-->1/3
[0m[90m-->1/3
[0m[90m-->1/4
[0m[90m-->1/4
[0mL4-Oxw0 L3-Ajy4 L2-Rm_4 L1-Dnu3
[90m-->2/3
[0m[90m-->2/3
[0m[90m-->2/4
[0m[90m-->2/4
[0mL8-Oxw0 L7-Ajy4 L6-Rm_4 L5-Dnu3 L4-Gft1 L3-Ywe8 L2-Ufl6 L1-Iyw8
[90m-->3/3
[0m[90m-->3/3
[0m[90m-->3/4
[0m[90m-->3/4
[0mL12-Oxw0 L11-Ajy4 L10-Rm_4 L9-Dnu3 L8-Gft1 L7-Ywe8 L6-Ufl6 L5-Iyw8 L4-Bqo6 L3-Hkt3 L2-Vba0 L1-Xe_8
[90m-->3/3
[0m[90m-->3/3
[0m[90m-->4/4
[0m[90m-->4/4
[0mL14-Oxw0 L13-Ajy4 L12-Gft1 L11-Ywe8 L10-Ufl6 L9-Iyw8 L8-Bqo6 L7-Hkt3 L6-Vba0 L5-Xe_8 L4-Hkr4 L3-Xkw9 L2-Nlw4 L1-Msr4
L14-Gft1 L13-Ywe8 L12-Bqo6 L11-Hkt3 L10-Vba0 L9-Xe_8 L8-Hkr4 L7-Xkw9 L6-Nlw4 L5-Msr4 L4-Xuk2 L3-G_o5 L2-Hch4 L1-Fo_8
L14-Bqo6 L13-Hkt3 L12-Hkr4 L11-Xkw9 L10-Nlw4 L9-Msr4 L8-Xuk2 L7-G_o5 L6-Hch4 L5-Fo_8 L4-Q_r5 L3-Hqt0 L2-Olz1 L1-Jmu6
L14-Hkr4 L13-Xkw9 L12-Xuk2 L11-G_o5 L10-Hch4 L9-Fo_8 L8-Q_r5 L7-Hqt0 L6-Olz1 L5-Jmu6 L4-Nfs5 L3-Hai4 L2-Kfr1 L1-Xpd4
L14-Xuk2 L13-G_o5 L12-Q_r5 L11-Hqt0 L10-Olz1 L9-Jmu6 L8-Nfs5 L7-Hai4 L6-Kfr1 L5-Xpd4 L4-Hyn8 L3-V_x6 L2-F__4 L1-Oym8
L14-Q_r5 L13-Hqt0 L12-Nfs5 L11-Hai4 L10-Kfr1 L9-Xpd4 L8-Hyn8 L7-V_x6 L6-F__4 L5-Oym8 L4-Twd1 L3-Zx_7 L2-Um_4 L1-Y_a3
L14-Nfs5 L13-Hai4 L12-Hyn8 L11-V_x6 L10-F__4 L9-Oym8 L8-Twd1 L7-Zx_7 L6-Um_4 L5-Y_a3 L4-Czh3 L3-Vsl3 L2-Eyw6 L1-Zbb9
L14-Hyn8 L13-V_x6 L12-Twd1 L11-Zx_7 L10-Um_4 L9-Y_a3 L8-Czh3 L7-Vsl3 L6-Eyw6 L5-Zbb9 L4-Ceh6 L3-Xon0 L2-Tgk6 L1-Qoi9
L14-Twd1 L13-Zx_7 L12-Czh3 L11-Vsl3 L10-Eyw6 L9-Zbb9 L8-Ceh6 L7-Xon0 L6-Tgk6 L5-Qoi9 L4-Ogq6 L3-J_j6 L2-Guz3 L1-Qyq0
L14-Czh3 L13-Vsl3 L12-Ceh6 L11-Xon0 L10-Tgk6 L9-Qoi9 L8-Ogq6 L7-J_j6 L6-Guz3 L5-Qyq0 L4-Vaa8 L3-Yxa0 L2-Jdr1 L1-Uni0
L14-Ceh6 L13-Xon0 L12-Ogq6 L11-J_j6 L10-Guz3 L9-Qyq0 L8-Vaa8 L7-Yxa0 L6-Jdr1 L5-Uni0 L4-Xmv2 L3-Dhc5 L2-Ovs2 L1-Uu_7
L14-Ogq6 L13-J_j6 L12-Vaa8 L11-Yxa0 L10-Jdr1 L9-Uni0 L8-Xmv2 L7-Dhc5 L6-Ovs2 L5-Uu_7 L4-Inr8 L3-Rj_0 L2-Ssd9 L1-Afc0
L14-Vaa8 L13-Yxa0 L12-Xmv2 L11-Dhc5 L10-Ovs2 L9-Uu_7 L8-Inr8 L7-Rj_0 L6-Ssd9 L5-Afc0 L4-Whm6 L3-Pcw3 L2-G_x4 L1-Xga1
L14-Xmv2 L13-Dhc5 L12-Inr8 L11-Rj_0 L10-Ssd9 L9-Afc0 L8-Whm6 L7-Pcw3 L6-G_x4 L5-Xga1 L4-R_d8 L3-Ifu9 L2-Psj6 L1-Bpt1
L14-Inr8 L13-Rj_0 L12-Whm6 L11-Pcw3 L10-G_x4 L9-Xga1 L8-R_d8 L7-Ifu9 L6-Psj6 L5-Bpt1 L4-Kxj4 L3-Xdx8 L2-Esl2 L1-Xha1
L14-Whm6 L13-Pcw3 L12-R_d8 L11-Ifu9 L10-Psj6 L9-Bpt1 L8-Kxj4 L7-Xdx8 L6-Esl2 L5-Xha1 L4-Pm_5 L3-Htl3 L2-Ois1 L1-Syr3
L14-R_d8 L13-Ifu9 L12-Kxj4 L11-Xdx8 L10-Esl2 L9-Xha1 L8-Pm_5 L7-Htl3 L6-Ois1 L5-Syr3 L4-Otr3 L3-Oy_0 L2-Bzz1 L1-Dxn6
L14-Kxj4 L13-Xdx8 L12-Pm_5 L11-Htl3 L10-Ois1 L9-Syr3 L8-Otr3 L7-Oy_0 L6-Bzz1 L5-Dxn6 L4-Tqt3 L3-Df_5 L2-Wih1 L1-Twc7
L14-Pm_5 L13-Htl3 L12-Otr3 L11-Oy_0 L10-Bzz1 L9-Dxn6 L8-Tqt3 L7-Df_5 L6-Wih1 L5-Twc7 L4-Wjc8 L3-Jtq7 L2-Yug6 L1-P_j5
L14-Otr3 L13-Oy_0 L12-Tqt3 L11-Df_5 L10-Wih1 L9-Twc7 L8-Wjc8 L7-Jtq7 L6-Yug6 L5-P_j5 L4-Utu5 L3-Abf1 L2-Uxr6 L1-Ynt6
L14-Tqt3 L13-Df_5 L12-Wjc8 L11-Jtq7 L10-Yug6 L9-P_j5 L8-Utu5 L7-Abf1 L6-Uxr6 L5-Ynt6 L4-Kkx9 L3-Onj5 L2-Qde9 L1-Vxd6
L14-Wjc8 L13-Jtq7 L12-Utu5 L11-Abf1 L10-Uxr6 L9-Ynt6 L8-Kkx9 L7-Onj5 L6-Qde9 L5-Vxd6 L4-Gyr4 L3-Poq6 L2-Igq7 L1-Zbu0
L14-Utu5 L13-Abf1 L12-Kkx9 L11-Onj5 L10-Qde9 L9-Vxd6 L8-Gyr4 L7-Poq6 L6-Igq7 L5-Zbu0 L4-Mis1 L3-Mbh8 L2-Agy0 L1-Ubh4
L14-Kkx9 L13-Onj5 L12-Gyr4 L11-Poq6 L10-Igq7 L9-Zbu0 L8-Mis1 L7-Mbh8 L6-Agy0 L5-Ubh4 L4-Bm_0 L3-C_t9 L2-S__6 L1-Wtn4
L14-Gyr4 L13-Poq6 L12-Mis1 L11-Mbh8 L10-Agy0 L9-Ubh4 L8-Bm_0 L7-C_t9 L6-S__6 L5-Wtn4 L4-Mfx6 L3-Mfx6 L2-Yde5 L1-B_v2
L14-Mis1 L13-Mbh8 L12-Bm_0 L11-C_t9 L10-S__6 L9-Wtn4 L8-Mfx6 L7-Mfx6 L6-Yde5 L5-B_v2 L2-Mfx6 L1-Mfx6
L14-Bm_0 L13-C_t9 L12-Mfx6 L11-Mfx6 L10-Yde5 L9-B_v2 L6-Mfx6 L5-Mfx6
L14-Mfx6 L13-Mfx6 L10-Mfx6 L9-Mfx6
[92m->lines number: 31
[0m
