all
[94m->finding paths...
[0m[94m-->starting edm_karp...
[0m[94m--->starting bfs...
[0m[94m--->finish bfs.
[0m[90mPaths:
size: 30
J_c8->Mqq3->M_a5->Olc8->Bp_5->Pra8->Ual0->Mma5->J_w8->Tla2->Afj4->Nph7->Qym3->Ult8->Szo5->Psk3->V_l3->Guz4->Ypg3->Jod7->Vhk0->Ebl7->Tf_4->Krr0->Wxi6->Dra4->U_y3->Hm_0->Svq5->N_o0->Bkq7


[0m[94m--->starting bfs...
[0m[94m--->finish bfs.
[0m[90mPaths:
size: 30
J_c8->Jqx9->Dzm7->Xdg5->Jqs5->Vlg4->Wu_9->Vwl7->Znq4->Tno5->Jnb0->Hj_3->Wmc9->De_1->Scw8->Gv_8->Rzr1->Cnn3->Xox6->Ph_2->J_x8->Mjr6->F_d9->Vxi2->Sih2->Tjp0->Mbl7->Rat9->Cou8->Wkk7->Bkq7
size: 30
J_c8->Mqq3->M_a5->Olc8->Bp_5->Pra8->Ual0->Mma5->J_w8->Tla2->Afj4->Nph7->Qym3->Ult8->Szo5->Psk3->V_l3->Guz4->Ypg3->Jod7->Vhk0->Ebl7->Tf_4->Krr0->Wxi6->Dra4->U_y3->Hm_0->Svq5->N_o0->Bkq7


[0m[94m--->starting bfs...
[0m[94m--->finish bfs.
[0m[90mPaths:
size: 34
J_c8->Ppj7->Sc_3->Xdn4->Hmy4->Hls1->Bio3->Axl6->Aph7->T_m8->Sgu4->Sic1->Yt_5->Can5->Dnz1->Kem1->V__5->Ocy8->Ynb5->Pn_3->Ytq7->Olc7->P_j5->Unj1->Oec2->Ynv2->Rxb2->Hiq6->Aep9->Ywy4->E_l6->Haa9->Wmr8->Qum7->Bkq7
size: 30
J_c8->Jqx9->Dzm7->Xdg5->Jqs5->Vlg4->Wu_9->Vwl7->Znq4->Tno5->Jnb0->Hj_3->Wmc9->De_1->Scw8->Gv_8->Rzr1->Cnn3->Xox6->Ph_2->J_x8->Mjr6->F_d9->Vxi2->Sih2->Tjp0->Mbl7->Rat9->Cou8->Wkk7->Bkq7
size: 30
J_c8->Mqq3->M_a5->Olc8->Bp_5->Pra8->Ual0->Mma5->J_w8->Tla2->Afj4->Nph7->Qym3->Ult8->Szo5->Psk3->V_l3->Guz4->Ypg3->Jod7->Vhk0->Ebl7->Tf_4->Krr0->Wxi6->Dra4->U_y3->Hm_0->Svq5->N_o0->Bkq7


[0m[94m--->starting bfs...
[0m[94m--->finish bfs.
[0m[90mPaths:
size: 34
J_c8->Thc7->Ojz7->Dnt0->Cct1->Jcm5->Kaq0->Yan8->Mxw2->Zl_1->Ixu6->Kgp0->Iub0->Mnr6->Crp4->Vdl3->Miy4->Gkn4->Js_3->Ohw3->Gyl3->Equ5->Nxv9->Fh_7->H_v8->W_b7->Qty0->Rn_1->Mug4->Xd_1->Nsu4->Qul3->Jis8->Njk2->Bkq7
size: 34
J_c8->Ppj7->Sc_3->Xdn4->Hmy4->Hls1->Bio3->Axl6->Aph7->T_m8->Sgu4->Sic1->Yt_5->Can5->Dnz1->Kem1->V__5->Ocy8->Ynb5->Pn_3->Ytq7->Olc7->P_j5->Unj1->Oec2->Ynv2->Rxb2->Hiq6->Aep9->Ywy4->E_l6->Haa9->Wmr8->Qum7->Bkq7
size: 30
J_c8->Jqx9->Dzm7->Xdg5->Jqs5->Vlg4->Wu_9->Vwl7->Znq4->Tno5->Jnb0->Hj_3->Wmc9->De_1->Scw8->Gv_8->Rzr1->Cnn3->Xox6->Ph_2->J_x8->Mjr6->F_d9->Vxi2->Sih2->Tjp0->Mbl7->Rat9->Cou8->Wkk7->Bkq7
size: 30
J_c8->Mqq3->M_a5->Olc8->Bp_5->Pra8->Ual0->Mma5->J_w8->Tla2->Afj4->Nph7->Qym3->Ult8->Szo5->Psk3->V_l3->Guz4->Ypg3->Jod7->Vhk0->Ebl7->Tf_4->Krr0->Wxi6->Dra4->U_y3->Hm_0->Svq5->N_o0->Bkq7


[0m[94m--->starting bfs...
[0m[94m--->finish bfs.
[0m[90mPaths:
size: 35
J_c8->Jhb4->Dni8->Qbr5->Psp9->Wfb2->Iih3->Evj8->Iwr9->Etl1->Kbj4->Gxc1->Wbd9->Y_q4->Ajo1->Ubb7->Gn_5->Uj_0->Oct3->Xoe1->Weq1->Omx1->D__5->Yqc1->Ess3->Tlx9->Cwj3->Hg_9->Hir9->Oig2->Bvm4->To_4->Jk_2->Owc3->Bff5->Bkq7
size: 34
J_c8->Thc7->Ojz7->Dnt0->Cct1->Jcm5->Kaq0->Yan8->Mxw2->Zl_1->Ixu6->Kgp0->Iub0->Mnr6->Crp4->Vdl3->Miy4->Gkn4->Js_3->Ohw3->Gyl3->Equ5->Nxv9->Fh_7->H_v8->W_b7->Qty0->Rn_1->Mug4->Xd_1->Nsu4->Qul3->Jis8->Njk2->Bkq7
size: 34
J_c8->Ppj7->Sc_3->Xdn4->Hmy4->Hls1->Bio3->Axl6->Aph7->T_m8->Sgu4->Sic1->Yt_5->Can5->Dnz1->Kem1->V__5->Ocy8->Ynb5->Pn_3->Ytq7->Olc7->P_j5->Unj1->Oec2->Ynv2->Rxb2->Hiq6->Aep9->Ywy4->E_l6->Haa9->Wmr8->Qum7->Bkq7
size: 30
J_c8->Jqx9->Dzm7->Xdg5->Jqs5->Vlg4->Wu_9->Vwl7->Znq4->Tno5->Jnb0->Hj_3->Wmc9->De_1->Scw8->Gv_8->Rzr1->Cnn3->Xox6->Ph_2->J_x8->Mjr6->F_d9->Vxi2->Sih2->Tjp0->Mbl7->Rat9->Cou8->Wkk7->Bkq7
size: 30
J_c8->Mqq3->M_a5->Olc8->Bp_5->Pra8->Ual0->Mma5->J_w8->Tla2->Afj4->Nph7->Qym3->Ult8->Szo5->Psk3->V_l3->Guz4->Ypg3->Jod7->Vhk0->Ebl7->Tf_4->Krr0->Wxi6->Dra4->U_y3->Hm_0->Svq5->N_o0->Bkq7


[0m[94m--->starting bfs...
[0m[94m--->finish bfs.
[0m[90mPaths:
size: 35
J_c8->Ydc0->Nkr8->Jwp5->Nio6->Jzg4->Qiv9->Idf5->K_f1->Xah1->Enq4->Gtq7->Nar2->Eua2->Aqq1->Ala0->Rhu0->Ke_8->Rhm7->Rbn6->Tnz0->Abs2->Yhj7->Sjb1->Cnd6->Igw3->O_v4->Jlc9->Nzp7->Cxv5->Fa_8->Djk2->Uai4->Qnx1->Nvx3->Bkq7
size: 35
J_c8->Jhb4->Dni8->Qbr5->Psp9->Wfb2->Iih3->Evj8->Iwr9->Etl1->Kbj4->Gxc1->Wbd9->Y_q4->Ajo1->Ubb7->Gn_5->Uj_0->Oct3->Xoe1->Weq1->Omx1->D__5->Yqc1->Ess3->Tlx9->Cwj3->Hg_9->Hir9->Oig2->Bvm4->To_4->Jk_2->Owc3->Bff5->Bkq7
size: 34
J_c8->Thc7->Ojz7->Dnt0->Cct1->Jcm5->Kaq0->Yan8->Mxw2->Zl_1->Ixu6->Kgp0->Iub0->Mnr6->Crp4->Vdl3->Miy4->Gkn4->Js_3->Ohw3->Gyl3->Equ5->Nxv9->Fh_7->H_v8->W_b7->Qty0->Rn_1->Mug4->Xd_1->Nsu4->Qul3->Jis8->Njk2->Bkq7
size: 34
J_c8->Ppj7->Sc_3->Xdn4->Hmy4->Hls1->Bio3->Axl6->Aph7->T_m8->Sgu4->Sic1->Yt_5->Can5->Dnz1->Kem1->V__5->Ocy8->Ynb5->Pn_3->Ytq7->Olc7->P_j5->Unj1->Oec2->Ynv2->Rxb2->Hiq6->Aep9->Ywy4->E_l6->Haa9->Wmr8->Qum7->Bkq7
size: 30
J_c8->Jqx9->Dzm7->Xdg5->Jqs5->Vlg4->Wu_9->Vwl7->Znq4->Tno5->Jnb0->Hj_3->Wmc9->De_1->Scw8->Gv_8->Rzr1->Cnn3->Xox6->Ph_2->J_x8->Mjr6->F_d9->Vxi2->Sih2->Tjp0->Mbl7->Rat9->Cou8->Wkk7->Bkq7
size: 30
J_c8->Mqq3->M_a5->Olc8->Bp_5->Pra8->Ual0->Mma5->J_w8->Tla2->Afj4->Nph7->Qym3->Ult8->Szo5->Psk3->V_l3->Guz4->Ypg3->Jod7->Vhk0->Ebl7->Tf_4->Krr0->Wxi6->Dra4->U_y3->Hm_0->Svq5->N_o0->Bkq7


[0m[94m--->starting bfs...
[0m[94m--->finish bfs.
[0m[90mPaths:
size: 36
J_c8->Up_0->Mul4->Res3->Wgx0->Xsy0->Rpy7->Tyw4->Udl9->Huv0->Upe4->Awb3->Img6->Swg5->Mvk2->Iqk4->Gcf6->Dmn9->Uaz0->Xvg6->Omm6->Srj8->Arm2->Vor3->Eso1->Tfv6->Dkl4->Fns5->Vk_5->Qzv2->Ooc9->Rwm1->Yzf8->F__1->Tbo2->Fpy9->Bkq7
size: 35
J_c8->Ydc0->Nkr8->Jwp5->Nio6->Jzg4->Qiv9->Idf5->K_f1->Xah1->Enq4->Gtq7->Nar2->Eua2->Aqq1->Ala0->Rhu0->Ke_8->Rhm7->Rbn6->Tnz0->Abs2->Yhj7->Sjb1->Cnd6->Igw3->O_v4->Jlc9->Nzp7->Cxv5->Fa_8->Djk2->Uai4->Qnx1->Nvx3->Bkq7
size: 35
J_c8->Jhb4->Dni8->Qbr5->Psp9->Wfb2->Iih3->Evj8->Iwr9->Etl1->Kbj4->Gxc1->Wbd9->Y_q4->Ajo1->Ubb7->Gn_5->Uj_0->Oct3->Xoe1->Weq1->Omx1->D__5->Yqc1->Ess3->Tlx9->Cwj3->Hg_9->Hir9->Oig2->Bvm4->To_4->Jk_2->Owc3->Bff5->Bkq7
size: 34
J_c8->Thc7->Ojz7->Dnt0->Cct1->Jcm5->Kaq0->Yan8->Mxw2->Zl_1->Ixu6->Kgp0->Iub0->Mnr6->Crp4->Vdl3->Miy4->Gkn4->Js_3->Ohw3->Gyl3->Equ5->Nxv9->Fh_7->H_v8->W_b7->Qty0->Rn_1->Mug4->Xd_1->Nsu4->Qul3->Jis8->Njk2->Bkq7
size: 34
J_c8->Ppj7->Sc_3->Xdn4->Hmy4->Hls1->Bio3->Axl6->Aph7->T_m8->Sgu4->Sic1->Yt_5->Can5->Dnz1->Kem1->V__5->Ocy8->Ynb5->Pn_3->Ytq7->Olc7->P_j5->Unj1->Oec2->Ynv2->Rxb2->Hiq6->Aep9->Ywy4->E_l6->Haa9->Wmr8->Qum7->Bkq7
size: 30
J_c8->Jqx9->Dzm7->Xdg5->Jqs5->Vlg4->Wu_9->Vwl7->Znq4->Tno5->Jnb0->Hj_3->Wmc9->De_1->Scw8->Gv_8->Rzr1->Cnn3->Xox6->Ph_2->J_x8->Mjr6->F_d9->Vxi2->Sih2->Tjp0->Mbl7->Rat9->Cou8->Wkk7->Bkq7
size: 30
J_c8->Mqq3->M_a5->Olc8->Bp_5->Pra8->Ual0->Mma5->J_w8->Tla2->Afj4->Nph7->Qym3->Ult8->Szo5->Psk3->V_l3->Guz4->Ypg3->Jod7->Vhk0->Ebl7->Tf_4->Krr0->Wxi6->Dra4->U_y3->Hm_0->Svq5->N_o0->Bkq7


[0m[94m--->starting bfs...
[0m[94m--->finish bfs.
[0m[90mPaths:
size: 36
J_c8->Sbx9->Trh0->Gmq8->Qon1->Wvi3->Qrd6->Rsd6->Tfr7->Yqs7->Cnp3->Hgr0->Fbt7->Imd2->Jyr4->Zd_9->Tzz4->X_p9->Kya5->Jkz8->Wpu8->B_e6->Etz1->Dgp1->Num4->Bis5->Nz_4->Xo_9->Ddd2->O_t1->Ovi0->Gno1->Mdx8->Het9->Tmh1->Dbi5->Bkq7
size: 36
J_c8->Up_0->Mul4->Res3->Wgx0->Xsy0->Rpy7->Tyw4->Udl9->Huv0->Upe4->Awb3->Img6->Swg5->Mvk2->Iqk4->Gcf6->Dmn9->Uaz0->Xvg6->Omm6->Srj8->Arm2->Vor3->Eso1->Tfv6->Dkl4->Fns5->Vk_5->Qzv2->Ooc9->Rwm1->Yzf8->F__1->Tbo2->Fpy9->Bkq7
size: 35
J_c8->Ydc0->Nkr8->Jwp5->Nio6->Jzg4->Qiv9->Idf5->K_f1->Xah1->Enq4->Gtq7->Nar2->Eua2->Aqq1->Ala0->Rhu0->Ke_8->Rhm7->Rbn6->Tnz0->Abs2->Yhj7->Sjb1->Cnd6->Igw3->O_v4->Jlc9->Nzp7->Cxv5->Fa_8->Djk2->Uai4->Qnx1->Nvx3->Bkq7
size: 35
J_c8->Jhb4->Dni8->Qbr5->Psp9->Wfb2->Iih3->Evj8->Iwr9->Etl1->Kbj4->Gxc1->Wbd9->Y_q4->Ajo1->Ubb7->Gn_5->Uj_0->Oct3->Xoe1->Weq1->Omx1->D__5->Yqc1->Ess3->Tlx9->Cwj3->Hg_9->Hir9->Oig2->Bvm4->To_4->Jk_2->Owc3->Bff5->Bkq7
size: 34
J_c8->Thc7->Ojz7->Dnt0->Cct1->Jcm5->Kaq0->Yan8->Mxw2->Zl_1->Ixu6->Kgp0->Iub0->Mnr6->Crp4->Vdl3->Miy4->Gkn4->Js_3->Ohw3->Gyl3->Equ5->Nxv9->Fh_7->H_v8->W_b7->Qty0->Rn_1->Mug4->Xd_1->Nsu4->Qul3->Jis8->Njk2->Bkq7
size: 34
J_c8->Ppj7->Sc_3->Xdn4->Hmy4->Hls1->Bio3->Axl6->Aph7->T_m8->Sgu4->Sic1->Yt_5->Can5->Dnz1->Kem1->V__5->Ocy8->Ynb5->Pn_3->Ytq7->Olc7->P_j5->Unj1->Oec2->Ynv2->Rxb2->Hiq6->Aep9->Ywy4->E_l6->Haa9->Wmr8->Qum7->Bkq7
size: 30
J_c8->Jqx9->Dzm7->Xdg5->Jqs5->Vlg4->Wu_9->Vwl7->Znq4->Tno5->Jnb0->Hj_3->Wmc9->De_1->Scw8->Gv_8->Rzr1->Cnn3->Xox6->Ph_2->J_x8->Mjr6->F_d9->Vxi2->Sih2->Tjp0->Mbl7->Rat9->Cou8->Wkk7->Bkq7
size: 30
J_c8->Mqq3->M_a5->Olc8->Bp_5->Pra8->Ual0->Mma5->J_w8->Tla2->Afj4->Nph7->Qym3->Ult8->Szo5->Psk3->V_l3->Guz4->Ypg3->Jod7->Vhk0->Ebl7->Tf_4->Krr0->Wxi6->Dra4->U_y3->Hm_0->Svq5->N_o0->Bkq7


[0m[94m--->starting bfs...
[0m[94m--->finish bfs.
[0m[90mPaths:
size: 36
J_c8->Sbx9->Trh0->Gmq8->Qon1->Wvi3->Qrd6->Rsd6->Tfr7->Yqs7->Cnp3->Hgr0->Fbt7->Imd2->Jyr4->Zd_9->Tzz4->X_p9->Kya5->Jkz8->Wpu8->B_e6->Etz1->Dgp1->Num4->Bis5->Nz_4->Xo_9->Ddd2->O_t1->Ovi0->Gno1->Mdx8->Het9->Tmh1->Dbi5->Bkq7
size: 36
J_c8->Up_0->Mul4->Res3->Wgx0->Xsy0->Rpy7->Tyw4->Udl9->Huv0->Upe4->Awb3->Img6->Swg5->Mvk2->Iqk4->Gcf6->Dmn9->Uaz0->Xvg6->Omm6->Srj8->Arm2->Vor3->Eso1->Tfv6->Dkl4->Fns5->Vk_5->Qzv2->Ooc9->Rwm1->Yzf8->F__1->Tbo2->Fpy9->Bkq7
size: 35
J_c8->Ydc0->Nkr8->Jwp5->Nio6->Jzg4->Qiv9->Idf5->K_f1->Xah1->Enq4->Gtq7->Nar2->Eua2->Aqq1->Ala0->Rhu0->Ke_8->Rhm7->Rbn6->Tnz0->Abs2->Yhj7->Sjb1->Cnd6->Igw3->O_v4->Jlc9->Nzp7->Cxv5->Fa_8->Djk2->Uai4->Qnx1->Nvx3->Bkq7
size: 35
J_c8->Jhb4->Dni8->Qbr5->Psp9->Wfb2->Iih3->Evj8->Iwr9->Etl1->Kbj4->Gxc1->Wbd9->Y_q4->Ajo1->Ubb7->Gn_5->Uj_0->Oct3->Xoe1->Weq1->Omx1->D__5->Yqc1->Ess3->Tlx9->Cwj3->Hg_9->Hir9->Oig2->Bvm4->To_4->Jk_2->Owc3->Bff5->Bkq7
size: 34
J_c8->Thc7->Ojz7->Dnt0->Cct1->Jcm5->Kaq0->Yan8->Mxw2->Zl_1->Ixu6->Kgp0->Iub0->Mnr6->Crp4->Vdl3->Miy4->Gkn4->Js_3->Ohw3->Gyl3->Equ5->Nxv9->Fh_7->H_v8->W_b7->Qty0->Rn_1->Mug4->Xd_1->Nsu4->Qul3->Jis8->Njk2->Bkq7
size: 34
J_c8->Ppj7->Sc_3->Xdn4->Hmy4->Hls1->Bio3->Axl6->Aph7->T_m8->Sgu4->Sic1->Yt_5->Can5->Dnz1->Kem1->V__5->Ocy8->Ynb5->Pn_3->Ytq7->Olc7->P_j5->Unj1->Oec2->Ynv2->Rxb2->Hiq6->Aep9->Ywy4->E_l6->Haa9->Wmr8->Qum7->Bkq7
size: 30
J_c8->Jqx9->Dzm7->Xdg5->Jqs5->Vlg4->Wu_9->Vwl7->Znq4->Tno5->Jnb0->Hj_3->Wmc9->De_1->Scw8->Gv_8->Rzr1->Cnn3->Xox6->Ph_2->J_x8->Mjr6->F_d9->Vxi2->Sih2->Tjp0->Mbl7->Rat9->Cou8->Wkk7->Bkq7
size: 30
J_c8->Mqq3->M_a5->Olc8->Bp_5->Pra8->Ual0->Mma5->J_w8->Tla2->Afj4->Nph7->Qym3->Ult8->Szo5->Psk3->V_l3->Guz4->Ypg3->Jod7->Vhk0->Ebl7->Tf_4->Krr0->Wxi6->Dra4->U_y3->Hm_0->Svq5->N_o0->Bkq7


[0m[94m-->finish edm_karp.
[0m[90mPaths:
size: 36
J_c8->Sbx9->Trh0->Gmq8->Qon1->Wvi3->Qrd6->Rsd6->Tfr7->Yqs7->Cnp3->Hgr0->Fbt7->Imd2->Jyr4->Zd_9->Tzz4->X_p9->Kya5->Jkz8->Wpu8->B_e6->Etz1->Dgp1->Num4->Bis5->Nz_4->Xo_9->Ddd2->O_t1->Ovi0->Gno1->Mdx8->Het9->Tmh1->Dbi5->Bkq7
size: 36
J_c8->Up_0->Mul4->Res3->Wgx0->Xsy0->Rpy7->Tyw4->Udl9->Huv0->Upe4->Awb3->Img6->Swg5->Mvk2->Iqk4->Gcf6->Dmn9->Uaz0->Xvg6->Omm6->Srj8->Arm2->Vor3->Eso1->Tfv6->Dkl4->Fns5->Vk_5->Qzv2->Ooc9->Rwm1->Yzf8->F__1->Tbo2->Fpy9->Bkq7
size: 35
J_c8->Ydc0->Nkr8->Jwp5->Nio6->Jzg4->Qiv9->Idf5->K_f1->Xah1->Enq4->Gtq7->Nar2->Eua2->Aqq1->Ala0->Rhu0->Ke_8->Rhm7->Rbn6->Tnz0->Abs2->Yhj7->Sjb1->Cnd6->Igw3->O_v4->Jlc9->Nzp7->Cxv5->Fa_8->Djk2->Uai4->Qnx1->Nvx3->Bkq7
size: 35
J_c8->Jhb4->Dni8->Qbr5->Psp9->Wfb2->Iih3->Evj8->Iwr9->Etl1->Kbj4->Gxc1->Wbd9->Y_q4->Ajo1->Ubb7->Gn_5->Uj_0->Oct3->Xoe1->Weq1->Omx1->D__5->Yqc1->Ess3->Tlx9->Cwj3->Hg_9->Hir9->Oig2->Bvm4->To_4->Jk_2->Owc3->Bff5->Bkq7
size: 34
J_c8->Thc7->Ojz7->Dnt0->Cct1->Jcm5->Kaq0->Yan8->Mxw2->Zl_1->Ixu6->Kgp0->Iub0->Mnr6->Crp4->Vdl3->Miy4->Gkn4->Js_3->Ohw3->Gyl3->Equ5->Nxv9->Fh_7->H_v8->W_b7->Qty0->Rn_1->Mug4->Xd_1->Nsu4->Qul3->Jis8->Njk2->Bkq7
size: 34
J_c8->Ppj7->Sc_3->Xdn4->Hmy4->Hls1->Bio3->Axl6->Aph7->T_m8->Sgu4->Sic1->Yt_5->Can5->Dnz1->Kem1->V__5->Ocy8->Ynb5->Pn_3->Ytq7->Olc7->P_j5->Unj1->Oec2->Ynv2->Rxb2->Hiq6->Aep9->Ywy4->E_l6->Haa9->Wmr8->Qum7->Bkq7
size: 30
J_c8->Jqx9->Dzm7->Xdg5->Jqs5->Vlg4->Wu_9->Vwl7->Znq4->Tno5->Jnb0->Hj_3->Wmc9->De_1->Scw8->Gv_8->Rzr1->Cnn3->Xox6->Ph_2->J_x8->Mjr6->F_d9->Vxi2->Sih2->Tjp0->Mbl7->Rat9->Cou8->Wkk7->Bkq7
size: 30
J_c8->Mqq3->M_a5->Olc8->Bp_5->Pra8->Ual0->Mma5->J_w8->Tla2->Afj4->Nph7->Qym3->Ult8->Szo5->Psk3->V_l3->Guz4->Ypg3->Jod7->Vhk0->Ebl7->Tf_4->Krr0->Wxi6->Dra4->U_y3->Hm_0->Svq5->N_o0->Bkq7


[0m[94m---->releasing ants...
[0m[90m-->0/0
[0m[90m-->0/0
[0m[90m-->1/1
[0m[90m-->1/1
[0m[90m-->1/2
[0m[90m-->1/2
[0m[90m-->1/6
[0m[90m-->1/6
[0mL6-Mqq3 L5-Jqx9 L4-Ppj7 L3-Thc7 L2-Jhb4 L1-Ydc0
[90m-->0/0
[0m[90m-->0/0
[0m[90m-->1/1
[0m[90m-->1/1
[0m[90m-->2/2
[0m[90m-->2/2
[0m[90m-->2/6
[0m[90m-->2/6
[0mL10-Mqq3 L9-Jqx9 L8-Ppj7 L7-Thc7 L6-M_a5 L5-Dzm7 L4-Sc_3 L3-Ojz7 L2-Dni8 L1-Nkr8
[90m-->0/0
[0m[90m-->0/0
[0m[90m-->1/1
[0m[90m-->1/1
[0m[90m-->2/2
[0m[90m-->2/2
[0m[90m-->3/6
[0m[90m-->3/6
[0mL12-Mqq3 L11-Jqx9 L10-M_a5 L9-Dzm7 L8-Sc_3 L7-Ojz7 L6-Olc8 L5-Xdg5 L4-Xdn4 L3-Dnt0 L2-Qbr5 L1-Jwp5
[90m-->0/0
[0m[90m-->0/0
[0m[90m-->1/1
[0m[90m-->1/1
[0m[90m-->2/2
[0m[90m-->2/2
[0m[90m-->4/6
[0m[90m-->4/6
[0mL14-Mqq3 L13-Jqx9 L12-M_a5 L11-Dzm7 L10-Olc8 L9-Xdg5 L8-Xdn4 L7-Dnt0 L6-Bp_5 L5-Jqs5 L4-Hmy4 L3-Cct1 L2-Psp9 L1-Nio6
L14-M_a5 L13-Dzm7 L12-Olc8 L11-Xdg5 L10-Bp_5 L9-Jqs5 L8-Hmy4 L7-Cct1 L6-Pra8 L5-Vlg4 L4-Hls1 L3-Jcm5 L2-Wfb2 L1-Jzg4
L14-Olc8 L13-Xdg5 L12-Bp_5 L11-Jqs5 L10-Pra8 L9-Vlg4 L8-Hls1 L7-Jcm5 L6-Ual0 L5-Wu_9 L4-Bio3 L3-Kaq0 L2-Iih3 L1-Qiv9
L14-Bp_5 L13-Jqs5 L12-Pra8 L11-Vlg4 L10-Ual0 L9-Wu_9 L8-Bio3 L7-Kaq0 L6-Mma5 L5-Vwl7 L4-Axl6 L3-Yan8 L2-Evj8 L1-Idf5
L14-Pra8 L13-Vlg4 L12-Ual0 L11-Wu_9 L10-Mma5 L9-Vwl7 L8-Axl6 L7-Yan8 L6-J_w8 L5-Znq4 L4-Aph7 L3-Mxw2 L2-Iwr9 L1-K_f1
L14-Ual0 L13-Wu_9 L12-Mma5 L11-Vwl7 L10-J_w8 L9-Znq4 L8-Aph7 L7-Mxw2 L6-Tla2 L5-Tno5 L4-T_m8 L3-Zl_1 L2-Etl1 L1-Xah1
L14-Mma5 L13-Vwl7 L12-J_w8 L11-Znq4 L10-Tla2 L9-Tno5 L8-T_m8 L7-Zl_1 L6-Afj4 L5-Jnb0 L4-Sgu4 L3-Ixu6 L2-Kbj4 L1-Enq4
L14-J_w8 L13-Znq4 L12-Tla2 L11-Tno5 L10-Afj4 L9-Jnb0 L8-Sgu4 L7-Ixu6 L6-Nph7 L5-Hj_3 L4-Sic1 L3-Kgp0 L2-Gxc1 L1-Gtq7
L14-Tla2 L13-Tno5 L12-Afj4 L11-Jnb0 L10-Nph7 L9-Hj_3 L8-Sic1 L7-Kgp0 L6-Qym3 L5-Wmc9 L4-Yt_5 L3-Iub0 L2-Wbd9 L1-Nar2
L14-Afj4 L13-Jnb0 L12-Nph7 L11-Hj_3 L10-Qym3 L9-Wmc9 L8-Yt_5 L7-Iub0 L6-Ult8 L5-De_1 L4-Can5 L3-Mnr6 L2-Y_q4 L1-Eua2
L14-Nph7 L13-Hj_3 L12-Qym3 L11-Wmc9 L10-Ult8 L9-De_1 L8-Can5 L7-Mnr6 L6-Szo5 L5-Scw8 L4-Dnz1 L3-Crp4 L2-Ajo1 L1-Aqq1
L14-Qym3 L13-Wmc9 L12-Ult8 L11-De_1 L10-Szo5 L9-Scw8 L8-Dnz1 L7-Crp4 L6-Psk3 L5-Gv_8 L4-Kem1 L3-Vdl3 L2-Ubb7 L1-Ala0
L14-Ult8 L13-De_1 L12-Szo5 L11-Scw8 L10-Psk3 L9-Gv_8 L8-Kem1 L7-Vdl3 L6-V_l3 L5-Rzr1 L4-V__5 L3-Miy4 L2-Gn_5 L1-Rhu0
L14-Szo5 L13-Scw8 L12-Psk3 L11-Gv_8 L10-V_l3 L9-Rzr1 L8-V__5 L7-Miy4 L6-Guz4 L5-Cnn3 L4-Ocy8 L3-Gkn4 L2-Uj_0 L1-Ke_8
L14-Psk3 L13-Gv_8 L12-V_l3 L11-Rzr1 L10-Guz4 L9-Cnn3 L8-Ocy8 L7-Gkn4 L6-Ypg3 L5-Xox6 L4-Ynb5 L3-Js_3 L2-Oct3 L1-Rhm7
L14-V_l3 L13-Rzr1 L12-Guz4 L11-Cnn3 L10-Ypg3 L9-Xox6 L8-Ynb5 L7-Js_3 L6-Jod7 L5-Ph_2 L4-Pn_3 L3-Ohw3 L2-Xoe1 L1-Rbn6
L14-Guz4 L13-Cnn3 L12-Ypg3 L11-Xox6 L10-Jod7 L9-Ph_2 L8-Pn_3 L7-Ohw3 L6-Vhk0 L5-J_x8 L4-Ytq7 L3-Gyl3 L2-Weq1 L1-Tnz0
L14-Ypg3 L13-Xox6 L12-Jod7 L11-Ph_2 L10-Vhk0 L9-J_x8 L8-Ytq7 L7-Gyl3 L6-Ebl7 L5-Mjr6 L4-Olc7 L3-Equ5 L2-Omx1 L1-Abs2
L14-Jod7 L13-Ph_2 L12-Vhk0 L11-J_x8 L10-Ebl7 L9-Mjr6 L8-Olc7 L7-Equ5 L6-Tf_4 L5-F_d9 L4-P_j5 L3-Nxv9 L2-D__5 L1-Yhj7
L14-Vhk0 L13-J_x8 L12-Ebl7 L11-Mjr6 L10-Tf_4 L9-F_d9 L8-P_j5 L7-Nxv9 L6-Krr0 L5-Vxi2 L4-Unj1 L3-Fh_7 L2-Yqc1 L1-Sjb1
L14-Ebl7 L13-Mjr6 L12-Tf_4 L11-F_d9 L10-Krr0 L9-Vxi2 L8-Unj1 L7-Fh_7 L6-Wxi6 L5-Sih2 L4-Oec2 L3-H_v8 L2-Ess3 L1-Cnd6
L14-Tf_4 L13-F_d9 L12-Krr0 L11-Vxi2 L10-Wxi6 L9-Sih2 L8-Oec2 L7-H_v8 L6-Dra4 L5-Tjp0 L4-Ynv2 L3-W_b7 L2-Tlx9 L1-Igw3
L14-Krr0 L13-Vxi2 L12-Wxi6 L11-Sih2 L10-Dra4 L9-Tjp0 L8-Ynv2 L7-W_b7 L6-U_y3 L5-Mbl7 L4-Rxb2 L3-Qty0 L2-Cwj3 L1-O_v4
L14-Wxi6 L13-Sih2 L12-Dra4 L11-Tjp0 L10-U_y3 L9-Mbl7 L8-Rxb2 L7-Qty0 L6-Hm_0 L5-Rat9 L4-Hiq6 L3-Rn_1 L2-Hg_9 L1-Jlc9
L14-Dra4 L13-Tjp0 L12-U_y3 L11-Mbl7 L10-Hm_0 L9-Rat9 L8-Hiq6 L7-Rn_1 L6-Svq5 L5-Cou8 L4-Aep9 L3-Mug4 L2-Hir9 L1-Nzp7
L14-U_y3 L13-Mbl7 L12-Hm_0 L11-Rat9 L10-Svq5 L9-Cou8 L8-Aep9 L7-Mug4 L6-N_o0 L5-Wkk7 L4-Ywy4 L3-Xd_1 L2-Oig2 L1-Cxv5
L14-Hm_0 L13-Rat9 L12-Svq5 L11-Cou8 L10-N_o0 L9-Wkk7 L8-Ywy4 L7-Xd_1 L6-Bkq7 L5-Bkq7 L4-E_l6 L3-Nsu4 L2-Bvm4 L1-Fa_8
L14-Svq5 L13-Cou8 L12-N_o0 L11-Wkk7 L10-Bkq7 L9-Bkq7 L8-E_l6 L7-Nsu4 L4-Haa9 L3-Qul3 L2-To_4 L1-Djk2
L14-N_o0 L13-Wkk7 L12-Bkq7 L11-Bkq7 L8-Haa9 L7-Qul3 L4-Wmr8 L3-Jis8 L2-Jk_2 L1-Uai4
L14-Bkq7 L13-Bkq7 L8-Wmr8 L7-Jis8 L4-Qum7 L3-Njk2 L2-Owc3 L1-Qnx1
L8-Qum7 L7-Njk2 L4-Bkq7 L3-Bkq7 L2-Bff5 L1-Nvx3
L8-Bkq7 L7-Bkq7 L2-Bkq7 L1-Bkq7
[92m->lines number: 35
[0m
