all
[94m->finding paths...
[0m[94m-->starting edm_karp...
[0m[94m--->starting bfs...
[0m[94m--->finish bfs.
[0m[90mPaths:
size: 28
Dz_5->Dlz8->Jsn9->Tuj4->Qdk7->Vfg4->Krz2->Bgt9->Bhz3->Xei9->Ocm4->Ofp9->Mf_6->Bhw1->Iqp5->Qjd8->Voy9->Q_m9->Ali6->Xao5->Olg0->Dbk5->Arw4->Xda9->Zx_2->Nio4->Gql2->Euh4->Cqe7


[0m[94m--->starting bfs...
[0m[94m--->finish bfs.
[0m[90mPaths:
size: 31
Dz_5->Ajg7->Voz3->Tkn8->Xgh3->R_f3->Mnh4->Wrj7->P_t3->Dqp1->Kxh4->J_h0->Ytx3->Qwv9->I_j7->Hvc3->Azy7->Ul_4->Pru2->Pv_0->Dvu5->Jla3->Xnq4->Oqu7->Ib_4->Hly4->Otl6->Vos1->Xuz2->Rpm6->Oyq7->Cqe7
size: 28
Dz_5->Dlz8->Jsn9->Tuj4->Qdk7->Vfg4->Krz2->Bgt9->Bhz3->Xei9->Ocm4->Ofp9->Mf_6->Bhw1->Iqp5->Qjd8->Voy9->Q_m9->Ali6->Xao5->Olg0->Dbk5->Arw4->Xda9->Zx_2->Nio4->Gql2->Euh4->Cqe7


[0m[94m--->starting bfs...
[0m[94m--->finish bfs.
[0m[90mPaths:
size: 31
Dz_5->D_f7->Yav7->Cpq5->Ol_1->Yhe8->Ft_4->Rrm4->Xwm3->Ndu3->Ycp0->Etb7->B_w1->Pwd0->Ayz3->Tqx9->Tiy0->Xab2->F_m4->Wru2->Uyf8->Nn_7->P_s3->Fow7->J__1->Vtc3->Qpk1->Xhq2->Dj_8->Bw_1->Nwi2->Cqe7
size: 31
Dz_5->Ajg7->Voz3->Tkn8->Xgh3->R_f3->Mnh4->Wrj7->P_t3->Dqp1->Kxh4->J_h0->Ytx3->Qwv9->I_j7->Hvc3->Azy7->Ul_4->Pru2->Pv_0->Dvu5->Jla3->Xnq4->Oqu7->Ib_4->Hly4->Otl6->Vos1->Xuz2->Rpm6->Oyq7->Cqe7
size: 28
Dz_5->Dlz8->Jsn9->Tuj4->Qdk7->Vfg4->Krz2->Bgt9->Bhz3->Xei9->Ocm4->Ofp9->Mf_6->Bhw1->Iqp5->Qjd8->Voy9->Q_m9->Ali6->Xao5->Olg0->Dbk5->Arw4->Xda9->Zx_2->Nio4->Gql2->Euh4->Cqe7


[0m[94m--->starting bfs...
[0m[94m--->finish bfs.
[0m[90mPaths:
size: 31
Dz_5->D_f7->Yav7->Cpq5->Ol_1->Yhe8->Ft_4->Rrm4->Xwm3->Ndu3->Ycp0->Etb7->B_w1->Pwd0->Ayz3->Tqx9->Tiy0->Xab2->F_m4->Wru2->Uyf8->Nn_7->P_s3->Fow7->J__1->Vtc3->Qpk1->Xhq2->Dj_8->Bw_1->Nwi2->Cqe7
size: 31
Dz_5->Ajg7->Voz3->Tkn8->Xgh3->R_f3->Mnh4->Wrj7->P_t3->Dqp1->Kxh4->J_h0->Ytx3->Qwv9->I_j7->Hvc3->Azy7->Ul_4->Pru2->Pv_0->Dvu5->Jla3->Xnq4->Oqu7->Ib_4->Hly4->Otl6->Vos1->Xuz2->Rpm6->Oyq7->Cqe7
size: 28
Dz_5->Dlz8->Jsn9->Tuj4->Qdk7->Vfg4->Krz2->Bgt9->Bhz3->Xei9->Ocm4->Ofp9->Mf_6->Bhw1->Iqp5->Qjd8->Voy9->Q_m9->Ali6->Xao5->Olg0->Dbk5->Arw4->Xda9->Zx_2->Nio4->Gql2->Euh4->Cqe7


[0m[94m-->finish edm_karp.
[0m[90mPaths:
size: 31
Dz_5->D_f7->Yav7->Cpq5->Ol_1->Yhe8->Ft_4->Rrm4->Xwm3->Ndu3->Ycp0->Etb7->B_w1->Pwd0->Ayz3->Tqx9->Tiy0->Xab2->F_m4->Wru2->Uyf8->Nn_7->P_s3->Fow7->J__1->Vtc3->Qpk1->Xhq2->Dj_8->Bw_1->Nwi2->Cqe7
size: 31
Dz_5->Ajg7->Voz3->Tkn8->Xgh3->R_f3->Mnh4->Wrj7->P_t3->Dqp1->Kxh4->J_h0->Ytx3->Qwv9->I_j7->Hvc3->Azy7->Ul_4->Pru2->Pv_0->Dvu5->Jla3->Xnq4->Oqu7->Ib_4->Hly4->Otl6->Vos1->Xuz2->Rpm6->Oyq7->Cqe7
size: 28
Dz_5->Dlz8->Jsn9->Tuj4->Qdk7->Vfg4->Krz2->Bgt9->Bhz3->Xei9->Ocm4->Ofp9->Mf_6->Bhw1->Iqp5->Qjd8->Voy9->Q_m9->Ali6->Xao5->Olg0->Dbk5->Arw4->Xda9->Zx_2->Nio4->Gql2->Euh4->Cqe7


[0m[94m---->releasing ants...
[0m[90m-->1/3
[0m[90m-->1/3
[0m[90m-->1/6
[0mL3-Dlz8 L2-Ajg7 L1-D_f7
[90m-->2/3
[0m[90m-->2/3
[0m[90m-->2/6
[0mL6-Dlz8 L5-Ajg7 L4-D_f7 L3-Jsn9 L2-Voz3 L1-Yav7
[90m-->3/3
[0m[90m-->3/3
[0m[90m-->3/6
[0mL9-Dlz8 L8-Ajg7 L7-D_f7 L6-Jsn9 L5-Voz3 L4-Yav7 L3-Tuj4 L2-Tkn8 L1-Cpq5
[90m-->3/3
[0m[90m-->3/3
[0m[90m-->4/6
[0mL10-Dlz8 L9-Jsn9 L8-Voz3 L7-Yav7 L6-Tuj4 L5-Tkn8 L4-Cpq5 L3-Qdk7 L2-Xgh3 L1-Ol_1
[90m-->3/3
[0m[90m-->3/3
[0m[90m-->5/6
[0mL11-Dlz8 L10-Jsn9 L9-Tuj4 L8-Tkn8 L7-Cpq5 L6-Qdk7 L5-Xgh3 L4-Ol_1 L3-Vfg4 L2-R_f3 L1-Yhe8
[90m-->3/3
[0m[90m-->3/3
[0m[90m-->6/6
[0mL12-Dlz8 L11-Jsn9 L10-Tuj4 L9-Qdk7 L8-Xgh3 L7-Ol_1 L6-Vfg4 L5-R_f3 L4-Yhe8 L3-Krz2 L2-Mnh4 L1-Ft_4
L12-Jsn9 L11-Tuj4 L10-Qdk7 L9-Vfg4 L8-R_f3 L7-Yhe8 L6-Krz2 L5-Mnh4 L4-Ft_4 L3-Bgt9 L2-Wrj7 L1-Rrm4
L12-Tuj4 L11-Qdk7 L10-Vfg4 L9-Krz2 L8-Mnh4 L7-Ft_4 L6-Bgt9 L5-Wrj7 L4-Rrm4 L3-Bhz3 L2-P_t3 L1-Xwm3
L12-Qdk7 L11-Vfg4 L10-Krz2 L9-Bgt9 L8-Wrj7 L7-Rrm4 L6-Bhz3 L5-P_t3 L4-Xwm3 L3-Xei9 L2-Dqp1 L1-Ndu3
L12-Vfg4 L11-Krz2 L10-Bgt9 L9-Bhz3 L8-P_t3 L7-Xwm3 L6-Xei9 L5-Dqp1 L4-Ndu3 L3-Ocm4 L2-Kxh4 L1-Ycp0
L12-Krz2 L11-Bgt9 L10-Bhz3 L9-Xei9 L8-Dqp1 L7-Ndu3 L6-Ocm4 L5-Kxh4 L4-Ycp0 L3-Ofp9 L2-J_h0 L1-Etb7
L12-Bgt9 L11-Bhz3 L10-Xei9 L9-Ocm4 L8-Kxh4 L7-Ycp0 L6-Ofp9 L5-J_h0 L4-Etb7 L3-Mf_6 L2-Ytx3 L1-B_w1
L12-Bhz3 L11-Xei9 L10-Ocm4 L9-Ofp9 L8-J_h0 L7-Etb7 L6-Mf_6 L5-Ytx3 L4-B_w1 L3-Bhw1 L2-Qwv9 L1-Pwd0
L12-Xei9 L11-Ocm4 L10-Ofp9 L9-Mf_6 L8-Ytx3 L7-B_w1 L6-Bhw1 L5-Qwv9 L4-Pwd0 L3-Iqp5 L2-I_j7 L1-Ayz3
L12-Ocm4 L11-Ofp9 L10-Mf_6 L9-Bhw1 L8-Qwv9 L7-Pwd0 L6-Iqp5 L5-I_j7 L4-Ayz3 L3-Qjd8 L2-Hvc3 L1-Tqx9
L12-Ofp9 L11-Mf_6 L10-Bhw1 L9-Iqp5 L8-I_j7 L7-Ayz3 L6-Qjd8 L5-Hvc3 L4-Tqx9 L3-Voy9 L2-Azy7 L1-Tiy0
L12-Mf_6 L11-Bhw1 L10-Iqp5 L9-Qjd8 L8-Hvc3 L7-Tqx9 L6-Voy9 L5-Azy7 L4-Tiy0 L3-Q_m9 L2-Ul_4 L1-Xab2
L12-Bhw1 L11-Iqp5 L10-Qjd8 L9-Voy9 L8-Azy7 L7-Tiy0 L6-Q_m9 L5-Ul_4 L4-Xab2 L3-Ali6 L2-Pru2 L1-F_m4
L12-Iqp5 L11-Qjd8 L10-Voy9 L9-Q_m9 L8-Ul_4 L7-Xab2 L6-Ali6 L5-Pru2 L4-F_m4 L3-Xao5 L2-Pv_0 L1-Wru2
L12-Qjd8 L11-Voy9 L10-Q_m9 L9-Ali6 L8-Pru2 L7-F_m4 L6-Xao5 L5-Pv_0 L4-Wru2 L3-Olg0 L2-Dvu5 L1-Uyf8
L12-Voy9 L11-Q_m9 L10-Ali6 L9-Xao5 L8-Pv_0 L7-Wru2 L6-Olg0 L5-Dvu5 L4-Uyf8 L3-Dbk5 L2-Jla3 L1-Nn_7
L12-Q_m9 L11-Ali6 L10-Xao5 L9-Olg0 L8-Dvu5 L7-Uyf8 L6-Dbk5 L5-Jla3 L4-Nn_7 L3-Arw4 L2-Xnq4 L1-P_s3
L12-Ali6 L11-Xao5 L10-Olg0 L9-Dbk5 L8-Jla3 L7-Nn_7 L6-Arw4 L5-Xnq4 L4-P_s3 L3-Xda9 L2-Oqu7 L1-Fow7
L12-Xao5 L11-Olg0 L10-Dbk5 L9-Arw4 L8-Xnq4 L7-P_s3 L6-Xda9 L5-Oqu7 L4-Fow7 L3-Zx_2 L2-Ib_4 L1-J__1
L12-Olg0 L11-Dbk5 L10-Arw4 L9-Xda9 L8-Oqu7 L7-Fow7 L6-Zx_2 L5-Ib_4 L4-J__1 L3-Nio4 L2-Hly4 L1-Vtc3
L12-Dbk5 L11-Arw4 L10-Xda9 L9-Zx_2 L8-Ib_4 L7-J__1 L6-Nio4 L5-Hly4 L4-Vtc3 L3-Gql2 L2-Otl6 L1-Qpk1
L12-Arw4 L11-Xda9 L10-Zx_2 L9-Nio4 L8-Hly4 L7-Vtc3 L6-Gql2 L5-Otl6 L4-Qpk1 L3-Euh4 L2-Vos1 L1-Xhq2
L12-Xda9 L11-Zx_2 L10-Nio4 L9-Gql2 L8-Otl6 L7-Qpk1 L6-Euh4 L5-Vos1 L4-Xhq2 L3-Cqe7 L2-Xuz2 L1-Dj_8
L12-Zx_2 L11-Nio4 L10-Gql2 L9-Euh4 L8-Vos1 L7-Xhq2 L6-Cqe7 L5-Xuz2 L4-Dj_8 L2-Rpm6 L1-Bw_1
L12-Nio4 L11-Gql2 L10-Euh4 L9-Cqe7 L8-Xuz2 L7-Dj_8 L5-Rpm6 L4-Bw_1 L2-Oyq7 L1-Nwi2
L12-Gql2 L11-Euh4 L10-Cqe7 L8-Rpm6 L7-Bw_1 L5-Oyq7 L4-Nwi2 L2-Cqe7 L1-Cqe7
L12-Euh4 L11-Cqe7 L8-Oyq7 L7-Nwi2 L5-Cqe7 L4-Cqe7
L12-Cqe7 L8-Cqe7 L7-Cqe7
[92m->lines number: 33
[0m
