all
[94m->finding paths...
[0m[94m-->starting edm_karp...
[0m[94m--->starting bfs...
[0m[94m--->finish bfs.
[0m[90mPaths:
size: 27
Msi7->Tms7->Bwe2->Odj4->Pkm8->Rbn7->Cpw6->Ekd9->Hco6->Doc1->Jpj7->Ff_7->F_h7->B_y7->Ggs3->Hkw7->G_n1->Iqf2->Gcw6->Duy1->Tmo0->Mht2->Gtp9->Bte5->Tag5->D__0->Qvh9->Cej6


[0m[94m--->starting bfs...
[0m[94m--->finish bfs.
[0m[90mPaths:
size: 28
Msi7->Opk8->Amy7->Bao0->Jid3->Cik8->Hwv0->Fbx5->Ktg7->Hho0->Mer9->Jvp4->Ogd2->Uev0->Ohy5->Uls9->Spw6->Q_s6->Qwc5->Ogp3->Q_x2->Tqd3->Xrj3->Osj8->Evc6->Jjo3->Fv_7->As_6->Cej6
size: 27
Msi7->Tms7->Bwe2->Odj4->Pkm8->Rbn7->Cpw6->Ekd9->Hco6->Doc1->Jpj7->Ff_7->F_h7->B_y7->Ggs3->Hkw7->G_n1->Iqf2->Gcw6->Duy1->Tmo0->Mht2->Gtp9->Bte5->Tag5->D__0->Qvh9->Cej6


[0m[94m--->starting bfs...
[0m[94m--->finish bfs.
[0m[90mPaths:
size: 28
Msi7->Oni4->Ym_1->M_q9->Hew2->Clv2->Iec3->Dty0->Cr_3->P_f0->W_d8->E_b9->Zzd0->Zcg1->Cqw3->Mfc9->Uip9->U__0->Q_t9->Jkj9->Odk4->Nv_3->Pza2->Cc_3->Mna5->Ygr0->Yxz3->Nrl8->Cej6
size: 28
Msi7->Opk8->Amy7->Bao0->Jid3->Cik8->Hwv0->Fbx5->Ktg7->Hho0->Mer9->Jvp4->Ogd2->Uev0->Ohy5->Uls9->Spw6->Q_s6->Qwc5->Ogp3->Q_x2->Tqd3->Xrj3->Osj8->Evc6->Jjo3->Fv_7->As_6->Cej6
size: 27
Msi7->Tms7->Bwe2->Odj4->Pkm8->Rbn7->Cpw6->Ekd9->Hco6->Doc1->Jpj7->Ff_7->F_h7->B_y7->Ggs3->Hkw7->G_n1->Iqf2->Gcw6->Duy1->Tmo0->Mht2->Gtp9->Bte5->Tag5->D__0->Qvh9->Cej6


[0m[94m--->starting bfs...
[0m[94m--->finish bfs.
[0m[90mPaths:
size: 28
Msi7->Oni4->Ym_1->M_q9->Hew2->Clv2->Iec3->Dty0->Cr_3->P_f0->W_d8->E_b9->Zzd0->Zcg1->Cqw3->Mfc9->Uip9->U__0->Q_t9->Jkj9->Odk4->Nv_3->Pza2->Cc_3->Mna5->Ygr0->Yxz3->Nrl8->Cej6
size: 28
Msi7->Opk8->Amy7->Bao0->Jid3->Cik8->Hwv0->Fbx5->Ktg7->Hho0->Mer9->Jvp4->Ogd2->Uev0->Ohy5->Uls9->Spw6->Q_s6->Qwc5->Ogp3->Q_x2->Tqd3->Xrj3->Osj8->Evc6->Jjo3->Fv_7->As_6->Cej6
size: 27
Msi7->Tms7->Bwe2->Odj4->Pkm8->Rbn7->Cpw6->Ekd9->Hco6->Doc1->Jpj7->Ff_7->F_h7->B_y7->Ggs3->Hkw7->G_n1->Iqf2->Gcw6->Duy1->Tmo0->Mht2->Gtp9->Bte5->Tag5->D__0->Qvh9->Cej6


[0m[94m-->finish edm_karp.
[0m[90mPaths:
size: 28
Msi7->Oni4->Ym_1->M_q9->Hew2->Clv2->Iec3->Dty0->Cr_3->P_f0->W_d8->E_b9->Zzd0->Zcg1->Cqw3->Mfc9->Uip9->U__0->Q_t9->Jkj9->Odk4->Nv_3->Pza2->Cc_3->Mna5->Ygr0->Yxz3->Nrl8->Cej6
size: 28
Msi7->Opk8->Amy7->Bao0->Jid3->Cik8->Hwv0->Fbx5->Ktg7->Hho0->Mer9->Jvp4->Ogd2->Uev0->Ohy5->Uls9->Spw6->Q_s6->Qwc5->Ogp3->Q_x2->Tqd3->Xrj3->Osj8->Evc6->Jjo3->Fv_7->As_6->Cej6
size: 27
Msi7->Tms7->Bwe2->Odj4->Pkm8->Rbn7->Cpw6->Ekd9->Hco6->Doc1->Jpj7->Ff_7->F_h7->B_y7->Ggs3->Hkw7->G_n1->Iqf2->Gcw6->Duy1->Tmo0->Mht2->Gtp9->Bte5->Tag5->D__0->Qvh9->Cej6


[0m[94m---->releasing ants...
[0m[90m-->1/4
[0m[90m-->1/4
[0m[90m-->1/5
[0mL3-Tms7 L2-Opk8 L1-Oni4
[90m-->2/4
[0m[90m-->2/4
[0m[90m-->2/5
[0mL6-Tms7 L5-Opk8 L4-Oni4 L3-Bwe2 L2-Amy7 L1-Ym_1
[90m-->3/4
[0m[90m-->3/4
[0m[90m-->3/5
[0mL9-Tms7 L8-Opk8 L7-Oni4 L6-Bwe2 L5-Amy7 L4-Ym_1 L3-Odj4 L2-Bao0 L1-M_q9
[90m-->4/4
[0m[90m-->4/4
[0m[90m-->4/5
[0mL12-Tms7 L11-Opk8 L10-Oni4 L9-Bwe2 L8-Amy7 L7-Ym_1 L6-Odj4 L5-Bao0 L4-M_q9 L3-Pkm8 L2-Jid3 L1-Hew2
[90m-->4/4
[0m[90m-->4/4
[0m[90m-->5/5
[0mL13-Tms7 L12-Bwe2 L11-Amy7 L10-Ym_1 L9-Odj4 L8-Bao0 L7-M_q9 L6-Pkm8 L5-Jid3 L4-Hew2 L3-Rbn7 L2-Cik8 L1-Clv2
L13-Bwe2 L12-Odj4 L11-Bao0 L10-M_q9 L9-Pkm8 L8-Jid3 L7-Hew2 L6-Rbn7 L5-Cik8 L4-Clv2 L3-Cpw6 L2-Hwv0 L1-Iec3
L13-Odj4 L12-Pkm8 L11-Jid3 L10-Hew2 L9-Rbn7 L8-Cik8 L7-Clv2 L6-Cpw6 L5-Hwv0 L4-Iec3 L3-Ekd9 L2-Fbx5 L1-Dty0
L13-Pkm8 L12-Rbn7 L11-Cik8 L10-Clv2 L9-Cpw6 L8-Hwv0 L7-Iec3 L6-Ekd9 L5-Fbx5 L4-Dty0 L3-Hco6 L2-Ktg7 L1-Cr_3
L13-Rbn7 L12-Cpw6 L11-Hwv0 L10-Iec3 L9-Ekd9 L8-Fbx5 L7-Dty0 L6-Hco6 L5-Ktg7 L4-Cr_3 L3-Doc1 L2-Hho0 L1-P_f0
L13-Cpw6 L12-Ekd9 L11-Fbx5 L10-Dty0 L9-Hco6 L8-Ktg7 L7-Cr_3 L6-Doc1 L5-Hho0 L4-P_f0 L3-Jpj7 L2-Mer9 L1-W_d8
L13-Ekd9 L12-Hco6 L11-Ktg7 L10-Cr_3 L9-Doc1 L8-Hho0 L7-P_f0 L6-Jpj7 L5-Mer9 L4-W_d8 L3-Ff_7 L2-Jvp4 L1-E_b9
L13-Hco6 L12-Doc1 L11-Hho0 L10-P_f0 L9-Jpj7 L8-Mer9 L7-W_d8 L6-Ff_7 L5-Jvp4 L4-E_b9 L3-F_h7 L2-Ogd2 L1-Zzd0
L13-Doc1 L12-Jpj7 L11-Mer9 L10-W_d8 L9-Ff_7 L8-Jvp4 L7-E_b9 L6-F_h7 L5-Ogd2 L4-Zzd0 L3-B_y7 L2-Uev0 L1-Zcg1
L13-Jpj7 L12-Ff_7 L11-Jvp4 L10-E_b9 L9-F_h7 L8-Ogd2 L7-Zzd0 L6-B_y7 L5-Uev0 L4-Zcg1 L3-Ggs3 L2-Ohy5 L1-Cqw3
L13-Ff_7 L12-F_h7 L11-Ogd2 L10-Zzd0 L9-B_y7 L8-Uev0 L7-Zcg1 L6-Ggs3 L5-Ohy5 L4-Cqw3 L3-Hkw7 L2-Uls9 L1-Mfc9
L13-F_h7 L12-B_y7 L11-Uev0 L10-Zcg1 L9-Ggs3 L8-Ohy5 L7-Cqw3 L6-Hkw7 L5-Uls9 L4-Mfc9 L3-G_n1 L2-Spw6 L1-Uip9
L13-B_y7 L12-Ggs3 L11-Ohy5 L10-Cqw3 L9-Hkw7 L8-Uls9 L7-Mfc9 L6-G_n1 L5-Spw6 L4-Uip9 L3-Iqf2 L2-Q_s6 L1-U__0
L13-Ggs3 L12-Hkw7 L11-Uls9 L10-Mfc9 L9-G_n1 L8-Spw6 L7-Uip9 L6-Iqf2 L5-Q_s6 L4-U__0 L3-Gcw6 L2-Qwc5 L1-Q_t9
L13-Hkw7 L12-G_n1 L11-Spw6 L10-Uip9 L9-Iqf2 L8-Q_s6 L7-U__0 L6-Gcw6 L5-Qwc5 L4-Q_t9 L3-Duy1 L2-Ogp3 L1-Jkj9
L13-G_n1 L12-Iqf2 L11-Q_s6 L10-U__0 L9-Gcw6 L8-Qwc5 L7-Q_t9 L6-Duy1 L5-Ogp3 L4-Jkj9 L3-Tmo0 L2-Q_x2 L1-Odk4
L13-Iqf2 L12-Gcw6 L11-Qwc5 L10-Q_t9 L9-Duy1 L8-Ogp3 L7-Jkj9 L6-Tmo0 L5-Q_x2 L4-Odk4 L3-Mht2 L2-Tqd3 L1-Nv_3
L13-Gcw6 L12-Duy1 L11-Ogp3 L10-Jkj9 L9-Tmo0 L8-Q_x2 L7-Odk4 L6-Mht2 L5-Tqd3 L4-Nv_3 L3-Gtp9 L2-Xrj3 L1-Pza2
L13-Duy1 L12-Tmo0 L11-Q_x2 L10-Odk4 L9-Mht2 L8-Tqd3 L7-Nv_3 L6-Gtp9 L5-Xrj3 L4-Pza2 L3-Bte5 L2-Osj8 L1-Cc_3
L13-Tmo0 L12-Mht2 L11-Tqd3 L10-Nv_3 L9-Gtp9 L8-Xrj3 L7-Pza2 L6-Bte5 L5-Osj8 L4-Cc_3 L3-Tag5 L2-Evc6 L1-Mna5
L13-Mht2 L12-Gtp9 L11-Xrj3 L10-Pza2 L9-Bte5 L8-Osj8 L7-Cc_3 L6-Tag5 L5-Evc6 L4-Mna5 L3-D__0 L2-Jjo3 L1-Ygr0
L13-Gtp9 L12-Bte5 L11-Osj8 L10-Cc_3 L9-Tag5 L8-Evc6 L7-Mna5 L6-D__0 L5-Jjo3 L4-Ygr0 L3-Qvh9 L2-Fv_7 L1-Yxz3
L13-Bte5 L12-Tag5 L11-Evc6 L10-Mna5 L9-D__0 L8-Jjo3 L7-Ygr0 L6-Qvh9 L5-Fv_7 L4-Yxz3 L3-Cej6 L2-As_6 L1-Nrl8
L13-Tag5 L12-D__0 L11-Jjo3 L10-Ygr0 L9-Qvh9 L8-Fv_7 L7-Yxz3 L6-Cej6 L5-As_6 L4-Nrl8 L2-Cej6 L1-Cej6
L13-D__0 L12-Qvh9 L11-Fv_7 L10-Yxz3 L9-Cej6 L8-As_6 L7-Nrl8 L5-Cej6 L4-Cej6
L13-Qvh9 L12-Cej6 L11-As_6 L10-Nrl8 L8-Cej6 L7-Cej6
L13-Cej6 L11-Cej6 L10-Cej6
[92m->lines number: 31
[0m
