all
[94m->finding paths...
[0m[94m-->starting edm_karp...
[0m[94m--->starting bfs...
[0m[94m--->finish bfs.
[0m[90mPaths:
size: 29
Hzz3->Ksq0->Qpo7->Kar5->Gqa2->Y_t3->Rzm7->Cno2->X_x9->Dvq4->I_y7->Ase3->Mpd4->N_v4->Rnr2->Izn0->Mqj7->Dl_3->O_g9->Emb3->Nff5->Jkt8->Vmm9->Ws_5->Ebc2->Xwa0->Tpr4->Psb6->Bob5->H_w7


[0m[94m--->starting bfs...
[0m[94m--->finish bfs.
[0m[90mPaths:
size: 30
Hzz3->Szg7->Nr_1->Xla3->Nwb2->Vxm7->N_f0->Etw7->Dam1->Ykb1->Yz_2->Cwz1->Qoj7->F_h4->Fob2->Ckl9->Yic7->Bqb2->Sit4->C_k0->Bos5->Urk4->Zsq7->Wkv8->Vbw7->Hpj7->Pyn8->Ts_4->Czh3->Ufq8->H_w7
size: 29
Hzz3->Ksq0->Qpo7->Kar5->Gqa2->Y_t3->Rzm7->Cno2->X_x9->Dvq4->I_y7->Ase3->Mpd4->N_v4->Rnr2->Izn0->Mqj7->Dl_3->O_g9->Emb3->Nff5->Jkt8->Vmm9->Ws_5->Ebc2->Xwa0->Tpr4->Psb6->Bob5->H_w7


[0m[94m--->starting bfs...
[0m[94m--->finish bfs.
[0m[90mPaths:
size: 31
Hzz3->Mpe6->Amg3->Byo8->Keg4->Nyy3->Vlm9->Vtj3->Qbs4->Eiw3->Wl_0->Wco7->Smi9->Ths6->Y_j2->Srb9->Aqa8->Pv_2->Cnj8->Gux9->Yqu5->Fbk5->Pdd1->J_l2->Ptt3->Xmq6->T__6->Ojl1->Cw_4->Jhj9->Pdz5->H_w7
size: 30
Hzz3->Szg7->Nr_1->Xla3->Nwb2->Vxm7->N_f0->Etw7->Dam1->Ykb1->Yz_2->Cwz1->Qoj7->F_h4->Fob2->Ckl9->Yic7->Bqb2->Sit4->C_k0->Bos5->Urk4->Zsq7->Wkv8->Vbw7->Hpj7->Pyn8->Ts_4->Czh3->Ufq8->H_w7
size: 29
Hzz3->Ksq0->Qpo7->Kar5->Gqa2->Y_t3->Rzm7->Cno2->X_x9->Dvq4->I_y7->Ase3->Mpd4->N_v4->Rnr2->Izn0->Mqj7->Dl_3->O_g9->Emb3->Nff5->Jkt8->Vmm9->Ws_5->Ebc2->Xwa0->Tpr4->Psb6->Bob5->H_w7


[0m[94m--->starting bfs...
[0m[94m--->finish bfs.
[0m[90mPaths:
size: 31
Hzz3->Mpe6->Amg3->Byo8->Keg4->Nyy3->Vlm9->Vtj3->Qbs4->Eiw3->Wl_0->Wco7->Smi9->Ths6->Y_j2->Srb9->Aqa8->Pv_2->Cnj8->Gux9->Yqu5->Fbk5->Pdd1->J_l2->Ptt3->Xmq6->T__6->Ojl1->Cw_4->Jhj9->Pdz5->H_w7
size: 30
Hzz3->Szg7->Nr_1->Xla3->Nwb2->Vxm7->N_f0->Etw7->Dam1->Ykb1->Yz_2->Cwz1->Qoj7->F_h4->Fob2->Ckl9->Yic7->Bqb2->Sit4->C_k0->Bos5->Urk4->Zsq7->Wkv8->Vbw7->Hpj7->Pyn8->Ts_4->Czh3->Ufq8->H_w7
size: 29
Hzz3->Ksq0->Qpo7->Kar5->Gqa2->Y_t3->Rzm7->Cno2->X_x9->Dvq4->I_y7->Ase3->Mpd4->N_v4->Rnr2->Izn0->Mqj7->Dl_3->O_g9->Emb3->Nff5->Jkt8->Vmm9->Ws_5->Ebc2->Xwa0->Tpr4->Psb6->Bob5->H_w7


[0m[94m-->finish edm_karp.
[0m[90mPaths:
size: 31
Hzz3->Mpe6->Amg3->Byo8->Keg4->Nyy3->Vlm9->Vtj3->Qbs4->Eiw3->Wl_0->Wco7->Smi9->Ths6->Y_j2->Srb9->Aqa8->Pv_2->Cnj8->Gux9->Yqu5->Fbk5->Pdd1->J_l2->Ptt3->Xmq6->T__6->Ojl1->Cw_4->Jhj9->Pdz5->H_w7
size: 30
Hzz3->Szg7->Nr_1->Xla3->Nwb2->Vxm7->N_f0->Etw7->Dam1->Ykb1->Yz_2->Cwz1->Qoj7->F_h4->Fob2->Ckl9->Yic7->Bqb2->Sit4->C_k0->Bos5->Urk4->Zsq7->Wkv8->Vbw7->Hpj7->Pyn8->Ts_4->Czh3->Ufq8->H_w7
size: 29
Hzz3->Ksq0->Qpo7->Kar5->Gqa2->Y_t3->Rzm7->Cno2->X_x9->Dvq4->I_y7->Ase3->Mpd4->N_v4->Rnr2->Izn0->Mqj7->Dl_3->O_g9->Emb3->Nff5->Jkt8->Vmm9->Ws_5->Ebc2->Xwa0->Tpr4->Psb6->Bob5->H_w7


[0m[94m---->releasing ants...
[0m[90m-->1/4
[0m[90m-->1/5
[0m[90m-->1/6
[0mL3-Ksq0 L2-Szg7 L1-Mpe6
[90m-->2/4
[0m[90m-->2/5
[0m[90m-->2/6
[0mL6-Ksq0 L5-Szg7 L4-Mpe6 L3-Qpo7 L2-Nr_1 L1-Amg3
[90m-->3/4
[0m[90m-->3/5
[0m[90m-->3/6
[0mL9-Ksq0 L8-Szg7 L7-Mpe6 L6-Qpo7 L5-Nr_1 L4-Amg3 L3-Kar5 L2-Xla3 L1-Byo8
[90m-->4/4
[0m[90m-->4/5
[0m[90m-->4/6
[0mL12-Ksq0 L11-Szg7 L10-Mpe6 L9-Qpo7 L8-Nr_1 L7-Amg3 L6-Kar5 L5-Xla3 L4-Byo8 L3-Gqa2 L2-Nwb2 L1-Keg4
[90m-->4/4
[0m[90m-->5/5
[0m[90m-->5/6
[0mL14-Ksq0 L13-Szg7 L12-Qpo7 L11-Nr_1 L10-Amg3 L9-Kar5 L8-Xla3 L7-Byo8 L6-Gqa2 L5-Nwb2 L4-Keg4 L3-Y_t3 L2-Vxm7 L1-Nyy3
[90m-->4/4
[0m[90m-->5/5
[0m[90m-->6/6
[0mL15-Ksq0 L14-Qpo7 L13-Nr_1 L12-Kar5 L11-Xla3 L10-Byo8 L9-Gqa2 L8-Nwb2 L7-Keg4 L6-Y_t3 L5-Vxm7 L4-Nyy3 L3-Rzm7 L2-N_f0 L1-Vlm9
L15-Qpo7 L14-Kar5 L13-Xla3 L12-Gqa2 L11-Nwb2 L10-Keg4 L9-Y_t3 L8-Vxm7 L7-Nyy3 L6-Rzm7 L5-N_f0 L4-Vlm9 L3-Cno2 L2-Etw7 L1-Vtj3
L15-Kar5 L14-Gqa2 L13-Nwb2 L12-Y_t3 L11-Vxm7 L10-Nyy3 L9-Rzm7 L8-N_f0 L7-Vlm9 L6-Cno2 L5-Etw7 L4-Vtj3 L3-X_x9 L2-Dam1 L1-Qbs4
L15-Gqa2 L14-Y_t3 L13-Vxm7 L12-Rzm7 L11-N_f0 L10-Vlm9 L9-Cno2 L8-Etw7 L7-Vtj3 L6-X_x9 L5-Dam1 L4-Qbs4 L3-Dvq4 L2-Ykb1 L1-Eiw3
L15-Y_t3 L14-Rzm7 L13-N_f0 L12-Cno2 L11-Etw7 L10-Vtj3 L9-X_x9 L8-Dam1 L7-Qbs4 L6-Dvq4 L5-Ykb1 L4-Eiw3 L3-I_y7 L2-Yz_2 L1-Wl_0
L15-Rzm7 L14-Cno2 L13-Etw7 L12-X_x9 L11-Dam1 L10-Qbs4 L9-Dvq4 L8-Ykb1 L7-Eiw3 L6-I_y7 L5-Yz_2 L4-Wl_0 L3-Ase3 L2-Cwz1 L1-Wco7
L15-Cno2 L14-X_x9 L13-Dam1 L12-Dvq4 L11-Ykb1 L10-Eiw3 L9-I_y7 L8-Yz_2 L7-Wl_0 L6-Ase3 L5-Cwz1 L4-Wco7 L3-Mpd4 L2-Qoj7 L1-Smi9
L15-X_x9 L14-Dvq4 L13-Ykb1 L12-I_y7 L11-Yz_2 L10-Wl_0 L9-Ase3 L8-Cwz1 L7-Wco7 L6-Mpd4 L5-Qoj7 L4-Smi9 L3-N_v4 L2-F_h4 L1-Ths6
L15-Dvq4 L14-I_y7 L13-Yz_2 L12-Ase3 L11-Cwz1 L10-Wco7 L9-Mpd4 L8-Qoj7 L7-Smi9 L6-N_v4 L5-F_h4 L4-Ths6 L3-Rnr2 L2-Fob2 L1-Y_j2
L15-I_y7 L14-Ase3 L13-Cwz1 L12-Mpd4 L11-Qoj7 L10-Smi9 L9-N_v4 L8-F_h4 L7-Ths6 L6-Rnr2 L5-Fob2 L4-Y_j2 L3-Izn0 L2-Ckl9 L1-Srb9
L15-Ase3 L14-Mpd4 L13-Qoj7 L12-N_v4 L11-F_h4 L10-Ths6 L9-Rnr2 L8-Fob2 L7-Y_j2 L6-Izn0 L5-Ckl9 L4-Srb9 L3-Mqj7 L2-Yic7 L1-Aqa8
L15-Mpd4 L14-N_v4 L13-F_h4 L12-Rnr2 L11-Fob2 L10-Y_j2 L9-Izn0 L8-Ckl9 L7-Srb9 L6-Mqj7 L5-Yic7 L4-Aqa8 L3-Dl_3 L2-Bqb2 L1-Pv_2
L15-N_v4 L14-Rnr2 L13-Fob2 L12-Izn0 L11-Ckl9 L10-Srb9 L9-Mqj7 L8-Yic7 L7-Aqa8 L6-Dl_3 L5-Bqb2 L4-Pv_2 L3-O_g9 L2-Sit4 L1-Cnj8
L15-Rnr2 L14-Izn0 L13-Ckl9 L12-Mqj7 L11-Yic7 L10-Aqa8 L9-Dl_3 L8-Bqb2 L7-Pv_2 L6-O_g9 L5-Sit4 L4-Cnj8 L3-Emb3 L2-C_k0 L1-Gux9
L15-Izn0 L14-Mqj7 L13-Yic7 L12-Dl_3 L11-Bqb2 L10-Pv_2 L9-O_g9 L8-Sit4 L7-Cnj8 L6-Emb3 L5-C_k0 L4-Gux9 L3-Nff5 L2-Bos5 L1-Yqu5
L15-Mqj7 L14-Dl_3 L13-Bqb2 L12-O_g9 L11-Sit4 L10-Cnj8 L9-Emb3 L8-C_k0 L7-Gux9 L6-Nff5 L5-Bos5 L4-Yqu5 L3-Jkt8 L2-Urk4 L1-Fbk5
L15-Dl_3 L14-O_g9 L13-Sit4 L12-Emb3 L11-C_k0 L10-Gux9 L9-Nff5 L8-Bos5 L7-Yqu5 L6-Jkt8 L5-Urk4 L4-Fbk5 L3-Vmm9 L2-Zsq7 L1-Pdd1
L15-O_g9 L14-Emb3 L13-C_k0 L12-Nff5 L11-Bos5 L10-Yqu5 L9-Jkt8 L8-Urk4 L7-Fbk5 L6-Vmm9 L5-Zsq7 L4-Pdd1 L3-Ws_5 L2-Wkv8 L1-J_l2
L15-Emb3 L14-Nff5 L13-Bos5 L12-Jkt8 L11-Urk4 L10-Fbk5 L9-Vmm9 L8-Zsq7 L7-Pdd1 L6-Ws_5 L5-Wkv8 L4-J_l2 L3-Ebc2 L2-Vbw7 L1-Ptt3
L15-Nff5 L14-Jkt8 L13-Urk4 L12-Vmm9 L11-Zsq7 L10-Pdd1 L9-Ws_5 L8-Wkv8 L7-J_l2 L6-Ebc2 L5-Vbw7 L4-Ptt3 L3-Xwa0 L2-Hpj7 L1-Xmq6
L15-Jkt8 L14-Vmm9 L13-Zsq7 L12-Ws_5 L11-Wkv8 L10-J_l2 L9-Ebc2 L8-Vbw7 L7-Ptt3 L6-Xwa0 L5-Hpj7 L4-Xmq6 L3-Tpr4 L2-Pyn8 L1-T__6
L15-Vmm9 L14-Ws_5 L13-Wkv8 L12-Ebc2 L11-Vbw7 L10-Ptt3 L9-Xwa0 L8-Hpj7 L7-Xmq6 L6-Tpr4 L5-Pyn8 L4-T__6 L3-Psb6 L2-Ts_4 L1-Ojl1
L15-Ws_5 L14-Ebc2 L13-Vbw7 L12-Xwa0 L11-Hpj7 L10-Xmq6 L9-Tpr4 L8-Pyn8 L7-T__6 L6-Psb6 L5-Ts_4 L4-Ojl1 L3-Bob5 L2-Czh3 L1-Cw_4
L15-Ebc2 L14-Xwa0 L13-Hpj7 L12-Tpr4 L11-Pyn8 L10-T__6 L9-Psb6 L8-Ts_4 L7-Ojl1 L6-Bob5 L5-Czh3 L4-Cw_4 L3-H_w7 L2-Ufq8 L1-Jhj9
L15-Xwa0 L14-Tpr4 L13-Pyn8 L12-Psb6 L11-Ts_4 L10-Ojl1 L9-Bob5 L8-Czh3 L7-Cw_4 L6-H_w7 L5-Ufq8 L4-Jhj9 L2-H_w7 L1-Pdz5
L15-Tpr4 L14-Psb6 L13-Ts_4 L12-Bob5 L11-Czh3 L10-Cw_4 L9-H_w7 L8-Ufq8 L7-Jhj9 L5-H_w7 L4-Pdz5 L1-H_w7
L15-Psb6 L14-Bob5 L13-Czh3 L12-H_w7 L11-Ufq8 L10-Jhj9 L8-H_w7 L7-Pdz5 L4-H_w7
L15-Bob5 L14-H_w7 L13-Ufq8 L11-H_w7 L10-Pdz5 L7-H_w7
L15-H_w7 L13-H_w7 L10-H_w7
[92m->lines number: 34
[0m
