all
[94m->finding paths...
[0m[94m-->starting edm_karp...
[0m[94m--->starting bfs...
[0m[94m--->finish bfs.
[0m[90mPaths:
size: 32
Ndo5->Nuh6->Qlu3->E_h5->Hiw4->Qxc4->Swf9->Zeq7->Qid5->Xkc9->Dpc3->Rqv5->Ngm0->Ovr6->Rby2->Ksz8->R_z3->Vyl1->Dez9->Qca0->Ymr0->Aw_1->Xfd8->S_k3->Hst8->Kpt8->Qtf9->Fbf4->Yvw8->Awj3->Jhv5->W_k0->Bmz7


[0m[94m--->starting bfs...
[0m[94m--->finish bfs.
[0m[90mPaths:
size: 32
Ndo5->Nuh6->Qlu3->E_h5->Hiw4->Qxc4->Swf9->Zeq7->Qid5->Xkc9->Dpc3->Rqv5->Ngm0->Ovr6->Rby2->Ksz8->R_z3->Vyl1->Dez9->Qca0->Ymr0->Aw_1->Xfd8->S_k3->Hst8->Kpt8->Qtf9->Fbf4->Yvw8->Awj3->Jhv5->W_k0->Bmz7


[0m[94m-->finish edm_karp.
[0m[90mPaths:
size: 32
Ndo5->Nuh6->Qlu3->E_h5->Hiw4->Qxc4->Swf9->Zeq7->Qid5->Xkc9->Dpc3->Rqv5->Ngm0->Ovr6->Rby2->Ksz8->R_z3->Vyl1->Dez9->Qca0->Ymr0->Aw_1->Xfd8->S_k3->Hst8->Kpt8->Qtf9->Fbf4->Yvw8->Awj3->Jhv5->W_k0->Bmz7


[0m[94m---->releasing ants...
[0m[90m-->1/1
[0mL1-Nuh6
L1-Qlu3
L1-E_h5
L1-Hiw4
L1-Qxc4
L1-Swf9
L1-Zeq7
L1-Qid5
L1-Xkc9
L1-Dpc3
L1-Rqv5
L1-Ngm0
L1-Ovr6
L1-Rby2
L1-Ksz8
L1-R_z3
L1-Vyl1
L1-Dez9
L1-Qca0
L1-Ymr0
L1-Aw_1
L1-Xfd8
L1-S_k3
L1-Hst8
L1-Kpt8
L1-Qtf9
L1-Fbf4
L1-Yvw8
L1-Awj3
L1-Jhv5
L1-W_k0
L1-Bmz7
[92m->lines number: 32
[0m
