all
[94m->finding paths...
[0m[94m-->starting edm_karp...
[0m[94m--->starting bfs...
[0m[94m--->finish bfs.
[0m[90mPaths:
size: 29
Taf7->Iww0->Awl6->Vdf5->Jwr4->Dld3->Jik4->Ggf6->To_5->Bjz5->Iaw6->Q_s2->P_m5->Ezf0->Cve5->Ila3->Me_8->Uuk8->Ipt9->A_v7->Caa4->Hfb3->Yva4->Gti8->Uz_4->Wcf3->Wkd4->Mtk9->Gty1->Gbs0


[0m[94m--->starting bfs...
[0m[94m--->finish bfs.
[0m[90mPaths:
size: 29
Taf7->Iww0->Awl6->Vdf5->Jwr4->Dld3->Jik4->Ggf6->To_5->Bjz5->Iaw6->Q_s2->P_m5->Ezf0->Cve5->Ila3->Me_8->Uuk8->Ipt9->A_v7->Caa4->Hfb3->Yva4->Gti8->Uz_4->Wcf3->Wkd4->Mtk9->Gty1->Gbs0


[0m[94m-->finish edm_karp.
[0m[90mPaths:
size: 29
Taf7->Iww0->Awl6->Vdf5->Jwr4->Dld3->Jik4->Ggf6->To_5->Bjz5->Iaw6->Q_s2->P_m5->Ezf0->Cve5->Ila3->Me_8->Uuk8->Ipt9->A_v7->Caa4->Hfb3->Yva4->Gti8->Uz_4->Wcf3->Wkd4->Mtk9->Gty1->Gbs0


[0m[94m---->releasing ants...
[0m[90m-->1/1
[0mL1-Iww0
L1-Awl6
L1-Vdf5
L1-Jwr4
L1-Dld3
L1-Jik4
L1-Ggf6
L1-To_5
L1-Bjz5
L1-Iaw6
L1-Q_s2
L1-P_m5
L1-Ezf0
L1-Cve5
L1-Ila3
L1-Me_8
L1-Uuk8
L1-Ipt9
L1-A_v7
L1-Caa4
L1-Hfb3
L1-Yva4
L1-Gti8
L1-Uz_4
L1-Wcf3
L1-Wkd4
L1-Mtk9
L1-Gty1
L1-Gbs0
[92m->lines number: 29
[0m
