all
[94m->finding paths...
[0m[94m-->starting edm_karp...
[0m[94m--->starting bfs...
[0m[94m--->finish bfs.
[0m[90mPaths:
size: 33
Wfu8->Mpn5->Plm8->Rl_7->Jfe8->Cyl9->Xse1->Dmt8->Qjr7->Yo_4->Ag_3->Ot_5->Uqz6->Abc7->Rwq6->Dvf8->Pki5->Jp_6->Fk_5->Zvk6->P_d1->Jfv5->Tkz7->Nfc9->Tcn1->Fxg4->Alx1->Orr2->Dnr6->Es_4->D_v4->Vci9->Cry5->Ojw5


[0m[94m--->starting bfs...
[0m[94m--->finish bfs.
[0m[90mPaths:
size: 33
Wfu8->Mpn5->Plm8->Rl_7->Jfe8->Cyl9->Xse1->Dmt8->Qjr7->Yo_4->Ag_3->Ot_5->Uqz6->Abc7->Rwq6->Dvf8->Pki5->Jp_6->Fk_5->Zvk6->P_d1->Jfv5->Tkz7->Nfc9->Tcn1->Fxg4->Alx1->Orr2->Dnr6->Es_4->D_v4->Vci9->Cry5->Ojw5


[0m[94m-->finish edm_karp.
[0m[90mPaths:
size: 33
Wfu8->Mpn5->Plm8->Rl_7->Jfe8->Cyl9->Xse1->Dmt8->Qjr7->Yo_4->Ag_3->Ot_5->Uqz6->Abc7->Rwq6->Dvf8->Pki5->Jp_6->Fk_5->Zvk6->P_d1->Jfv5->Tkz7->Nfc9->Tcn1->Fxg4->Alx1->Orr2->Dnr6->Es_4->D_v4->Vci9->Cry5->Ojw5


[0m[94m---->releasing ants...
[0m[90m-->1/1
[0mL1-Mpn5
L1-Plm8
L1-Rl_7
L1-Jfe8
L1-Cyl9
L1-Xse1
L1-Dmt8
L1-Qjr7
L1-Yo_4
L1-Ag_3
L1-Ot_5
L1-Uqz6
L1-Abc7
L1-Rwq6
L1-Dvf8
L1-Pki5
L1-Jp_6
L1-Fk_5
L1-Zvk6
L1-P_d1
L1-Jfv5
L1-Tkz7
L1-Nfc9
L1-Tcn1
L1-Fxg4
L1-Alx1
L1-Orr2
L1-Dnr6
L1-Es_4
L1-D_v4
L1-Vci9
L1-Cry5
L1-Ojw5
[92m->lines number: 33
[0m
