all
[94m->finding paths...
[0m[94m-->starting edm_karp...
[0m[94m--->starting bfs...
[0m[94m--->finish bfs.
[0m[90mPaths:
size: 33
Qnn4->Hrp4->Hec9->Ijd2->Pam4->Ugl2->Bxi9->Obx5->Wnp2->Cp_4->Oog6->Pci9->Rtt3->Vha1->Kmn8->Gle8->Gl_3->Qqc5->O_n2->Kdn7->Dyt1->Srl5->Cb_7->Vln0->Gke7->Hsn1->Cbx6->Sbi4->Mke4->Pkw1->Ek_0->Rpa8->Zlm5->Um_6


[0m[94m--->starting bfs...
[0m[94m--->finish bfs.
[0m[90mPaths:
size: 33
Qnn4->Hrp4->Hec9->Ijd2->Pam4->Ugl2->Bxi9->Obx5->Wnp2->Cp_4->Oog6->Pci9->Rtt3->Vha1->Kmn8->Gle8->Gl_3->Qqc5->O_n2->Kdn7->Dyt1->Srl5->Cb_7->Vln0->Gke7->Hsn1->Cbx6->Sbi4->Mke4->Pkw1->Ek_0->Rpa8->Zlm5->Um_6


[0m[94m-->finish edm_karp.
[0m[90mPaths:
size: 33
Qnn4->Hrp4->Hec9->Ijd2->Pam4->Ugl2->Bxi9->Obx5->Wnp2->Cp_4->Oog6->Pci9->Rtt3->Vha1->Kmn8->Gle8->Gl_3->Qqc5->O_n2->Kdn7->Dyt1->Srl5->Cb_7->Vln0->Gke7->Hsn1->Cbx6->Sbi4->Mke4->Pkw1->Ek_0->Rpa8->Zlm5->Um_6


[0m[94m---->releasing ants...
[0m[90m-->1/1
[0mL1-Hrp4
L1-Hec9
L1-Ijd2
L1-Pam4
L1-Ugl2
L1-Bxi9
L1-Obx5
L1-Wnp2
L1-Cp_4
L1-Oog6
L1-Pci9
L1-Rtt3
L1-Vha1
L1-Kmn8
L1-Gle8
L1-Gl_3
L1-Qqc5
L1-O_n2
L1-Kdn7
L1-Dyt1
L1-Srl5
L1-Cb_7
L1-Vln0
L1-Gke7
L1-Hsn1
L1-Cbx6
L1-Sbi4
L1-Mke4
L1-Pkw1
L1-Ek_0
L1-Rpa8
L1-Zlm5
L1-Um_6
[92m->lines number: 33
[0m
