all
[94m->finding paths...
[0m[94m-->starting edm_karp...
[0m[94m--->starting bfs...
[0m[94m--->finish bfs.
[0m[90mPaths:
size: 29
Tkw4->Ufg0->Tom6->Eqp9->Wml9->Wtl6->Sqw5->Pyd2->Caq1->Fjs5->Tka3->Cnl7->Fhj3->Rcr7->Vou8->Bsi1->Uzk1->Oyw9->Mnw7->O_e4->Stz2->Bqe2->Deg0->Xvy9->Ujy4->Xru4->Yaf7->Mnz5->Jtc6->O_j4


[0m[94m--->starting bfs...
[0m[94m--->finish bfs.
[0m[90mPaths:
size: 30
Tkw4->Tfc3->Irk7->Bfm8->Hcc5->Kk_8->Ggb7->Fa_8->Vtq3->Kwp1->Bkb8->Z_o9->Jsd0->Ijf0->Xvr0->Qlo9->Ozc0->Aji4->Ahm9->Hdn7->Fxi6->Hey7->Tts8->Euv4->Ev_2->Gum4->D_u3->Emd1->Wi_3->Xgd9->O_j4
size: 29
Tkw4->Ufg0->Tom6->Eqp9->Wml9->Wtl6->Sqw5->Pyd2->Caq1->Fjs5->Tka3->Cnl7->Fhj3->Rcr7->Vou8->Bsi1->Uzk1->Oyw9->Mnw7->O_e4->Stz2->Bqe2->Deg0->Xvy9->Ujy4->Xru4->Yaf7->Mnz5->Jtc6->O_j4


[0m[94m--->starting bfs...
[0m[94m--->finish bfs.
[0m[90mPaths:
size: 30
Tkw4->Gcj7->Vz_8->Kvn1->Pit2->P_s3->Qgn2->Sfc7->Wu_9->T_w9->Ibs0->Va_5->Kip7->Pfm3->Otk0->Gak6->Dtt0->Jto8->F__2->Qxg5->N_m2->Ftw4->Drx0->Tvp8->Mkq6->Gtw3->Axm8->Cxz2->P_v8->Kby4->O_j4
size: 30
Tkw4->Tfc3->Irk7->Bfm8->Hcc5->Kk_8->Ggb7->Fa_8->Vtq3->Kwp1->Bkb8->Z_o9->Jsd0->Ijf0->Xvr0->Qlo9->Ozc0->Aji4->Ahm9->Hdn7->Fxi6->Hey7->Tts8->Euv4->Ev_2->Gum4->D_u3->Emd1->Wi_3->Xgd9->O_j4
size: 29
Tkw4->Ufg0->Tom6->Eqp9->Wml9->Wtl6->Sqw5->Pyd2->Caq1->Fjs5->Tka3->Cnl7->Fhj3->Rcr7->Vou8->Bsi1->Uzk1->Oyw9->Mnw7->O_e4->Stz2->Bqe2->Deg0->Xvy9->Ujy4->Xru4->Yaf7->Mnz5->Jtc6->O_j4


[0m[94m--->starting bfs...
[0m[94m--->finish bfs.
[0m[90mPaths:
size: 30
Tkw4->Ats6->Ukt6->D_e3->Nlf4->Hdy1->Od_8->Se_1->Ics8->Cfn7->C_z9->Hre6->Nlu7->Efy2->Boe2->Yms1->Zht4->Ynn3->Ufm5->Ykc7->Cey2->Fmk8->Nql7->Tqk4->D_n7->Mel3->Qxj1->Bo_1->Gkj1->Utb3->O_j4
size: 30
Tkw4->Gcj7->Vz_8->Kvn1->Pit2->P_s3->Qgn2->Sfc7->Wu_9->T_w9->Ibs0->Va_5->Kip7->Pfm3->Otk0->Gak6->Dtt0->Jto8->F__2->Qxg5->N_m2->Ftw4->Drx0->Tvp8->Mkq6->Gtw3->Axm8->Cxz2->P_v8->Kby4->O_j4
size: 30
Tkw4->Tfc3->Irk7->Bfm8->Hcc5->Kk_8->Ggb7->Fa_8->Vtq3->Kwp1->Bkb8->Z_o9->Jsd0->Ijf0->Xvr0->Qlo9->Ozc0->Aji4->Ahm9->Hdn7->Fxi6->Hey7->Tts8->Euv4->Ev_2->Gum4->D_u3->Emd1->Wi_3->Xgd9->O_j4
size: 29
Tkw4->Ufg0->Tom6->Eqp9->Wml9->Wtl6->Sqw5->Pyd2->Caq1->Fjs5->Tka3->Cnl7->Fhj3->Rcr7->Vou8->Bsi1->Uzk1->Oyw9->Mnw7->O_e4->Stz2->Bqe2->Deg0->Xvy9->Ujy4->Xru4->Yaf7->Mnz5->Jtc6->O_j4


[0m[94m--->starting bfs...
[0m[94m--->finish bfs.
[0m[90mPaths:
size: 30
Tkw4->Ats6->Ukt6->D_e3->Nlf4->Hdy1->Od_8->Se_1->Ics8->Cfn7->C_z9->Hre6->Nlu7->Efy2->Boe2->Yms1->Zht4->Ynn3->Ufm5->Ykc7->Cey2->Fmk8->Nql7->Tqk4->D_n7->Mel3->Qxj1->Bo_1->Gkj1->Utb3->O_j4
size: 30
Tkw4->Gcj7->Vz_8->Kvn1->Pit2->P_s3->Qgn2->Sfc7->Wu_9->T_w9->Ibs0->Va_5->Kip7->Pfm3->Otk0->Gak6->Dtt0->Jto8->F__2->Qxg5->N_m2->Ftw4->Drx0->Tvp8->Mkq6->Gtw3->Axm8->Cxz2->P_v8->Kby4->O_j4
size: 30
Tkw4->Tfc3->Irk7->Bfm8->Hcc5->Kk_8->Ggb7->Fa_8->Vtq3->Kwp1->Bkb8->Z_o9->Jsd0->Ijf0->Xvr0->Qlo9->Ozc0->Aji4->Ahm9->Hdn7->Fxi6->Hey7->Tts8->Euv4->Ev_2->Gum4->D_u3->Emd1->Wi_3->Xgd9->O_j4
size: 29
Tkw4->Ufg0->Tom6->Eqp9->Wml9->Wtl6->Sqw5->Pyd2->Caq1->Fjs5->Tka3->Cnl7->Fhj3->Rcr7->Vou8->Bsi1->Uzk1->Oyw9->Mnw7->O_e4->Stz2->Bqe2->Deg0->Xvy9->Ujy4->Xru4->Yaf7->Mnz5->Jtc6->O_j4


[0m[94m-->finish edm_karp.
[0m[90mPaths:
size: 30
Tkw4->Ats6->Ukt6->D_e3->Nlf4->Hdy1->Od_8->Se_1->Ics8->Cfn7->C_z9->Hre6->Nlu7->Efy2->Boe2->Yms1->Zht4->Ynn3->Ufm5->Ykc7->Cey2->Fmk8->Nql7->Tqk4->D_n7->Mel3->Qxj1->Bo_1->Gkj1->Utb3->O_j4
size: 30
Tkw4->Gcj7->Vz_8->Kvn1->Pit2->P_s3->Qgn2->Sfc7->Wu_9->T_w9->Ibs0->Va_5->Kip7->Pfm3->Otk0->Gak6->Dtt0->Jto8->F__2->Qxg5->N_m2->Ftw4->Drx0->Tvp8->Mkq6->Gtw3->Axm8->Cxz2->P_v8->Kby4->O_j4
size: 30
Tkw4->Tfc3->Irk7->Bfm8->Hcc5->Kk_8->Ggb7->Fa_8->Vtq3->Kwp1->Bkb8->Z_o9->Jsd0->Ijf0->Xvr0->Qlo9->Ozc0->Aji4->Ahm9->Hdn7->Fxi6->Hey7->Tts8->Euv4->Ev_2->Gum4->D_u3->Emd1->Wi_3->Xgd9->O_j4
size: 29
Tkw4->Ufg0->Tom6->Eqp9->Wml9->Wtl6->Sqw5->Pyd2->Caq1->Fjs5->Tka3->Cnl7->Fhj3->Rcr7->Vou8->Bsi1->Uzk1->Oyw9->Mnw7->O_e4->Stz2->Bqe2->Deg0->Xvy9->Ujy4->Xru4->Yaf7->Mnz5->Jtc6->O_j4


[0m[94m---->releasing ants...
[0m[90m-->1/3
[0m[90m-->1/3
[0m[90m-->1/3
[0m[90m-->1/4
[0mL4-Ufg0 L3-Tfc3 L2-Gcj7 L1-Ats6
[90m-->2/3
[0m[90m-->2/3
[0m[90m-->2/3
[0m[90m-->2/4
[0mL8-Ufg0 L7-Tfc3 L6-Gcj7 L5-Ats6 L4-Tom6 L3-Irk7 L2-Vz_8 L1-Ukt6
[90m-->3/3
[0m[90m-->3/3
[0m[90m-->3/3
[0m[90m-->3/4
[0mL12-Ufg0 L11-Tfc3 L10-Gcj7 L9-Ats6 L8-Tom6 L7-Irk7 L6-Vz_8 L5-Ukt6 L4-Eqp9 L3-Bfm8 L2-Kvn1 L1-D_e3
[90m-->3/3
[0m[90m-->3/3
[0m[90m-->3/3
[0m[90m-->4/4
[0mL13-Ufg0 L12-Tom6 L11-Irk7 L10-Vz_8 L9-Ukt6 L8-Eqp9 L7-Bfm8 L6-Kvn1 L5-D_e3 L4-Wml9 L3-Hcc5 L2-Pit2 L1-Nlf4
L13-Tom6 L12-Eqp9 L11-Bfm8 L10-Kvn1 L9-D_e3 L8-Wml9 L7-Hcc5 L6-Pit2 L5-Nlf4 L4-Wtl6 L3-Kk_8 L2-P_s3 L1-Hdy1
L13-Eqp9 L12-Wml9 L11-Hcc5 L10-Pit2 L9-Nlf4 L8-Wtl6 L7-Kk_8 L6-P_s3 L5-Hdy1 L4-Sqw5 L3-Ggb7 L2-Qgn2 L1-Od_8
L13-Wml9 L12-Wtl6 L11-Kk_8 L10-P_s3 L9-Hdy1 L8-Sqw5 L7-Ggb7 L6-Qgn2 L5-Od_8 L4-Pyd2 L3-Fa_8 L2-Sfc7 L1-Se_1
L13-Wtl6 L12-Sqw5 L11-Ggb7 L10-Qgn2 L9-Od_8 L8-Pyd2 L7-Fa_8 L6-Sfc7 L5-Se_1 L4-Caq1 L3-Vtq3 L2-Wu_9 L1-Ics8
L13-Sqw5 L12-Pyd2 L11-Fa_8 L10-Sfc7 L9-Se_1 L8-Caq1 L7-Vtq3 L6-Wu_9 L5-Ics8 L4-Fjs5 L3-Kwp1 L2-T_w9 L1-Cfn7
L13-Pyd2 L12-Caq1 L11-Vtq3 L10-Wu_9 L9-Ics8 L8-Fjs5 L7-Kwp1 L6-T_w9 L5-Cfn7 L4-Tka3 L3-Bkb8 L2-Ibs0 L1-C_z9
L13-Caq1 L12-Fjs5 L11-Kwp1 L10-T_w9 L9-Cfn7 L8-Tka3 L7-Bkb8 L6-Ibs0 L5-C_z9 L4-Cnl7 L3-Z_o9 L2-Va_5 L1-Hre6
L13-Fjs5 L12-Tka3 L11-Bkb8 L10-Ibs0 L9-C_z9 L8-Cnl7 L7-Z_o9 L6-Va_5 L5-Hre6 L4-Fhj3 L3-Jsd0 L2-Kip7 L1-Nlu7
L13-Tka3 L12-Cnl7 L11-Z_o9 L10-Va_5 L9-Hre6 L8-Fhj3 L7-Jsd0 L6-Kip7 L5-Nlu7 L4-Rcr7 L3-Ijf0 L2-Pfm3 L1-Efy2
L13-Cnl7 L12-Fhj3 L11-Jsd0 L10-Kip7 L9-Nlu7 L8-Rcr7 L7-Ijf0 L6-Pfm3 L5-Efy2 L4-Vou8 L3-Xvr0 L2-Otk0 L1-Boe2
L13-Fhj3 L12-Rcr7 L11-Ijf0 L10-Pfm3 L9-Efy2 L8-Vou8 L7-Xvr0 L6-Otk0 L5-Boe2 L4-Bsi1 L3-Qlo9 L2-Gak6 L1-Yms1
L13-Rcr7 L12-Vou8 L11-Xvr0 L10-Otk0 L9-Boe2 L8-Bsi1 L7-Qlo9 L6-Gak6 L5-Yms1 L4-Uzk1 L3-Ozc0 L2-Dtt0 L1-Zht4
L13-Vou8 L12-Bsi1 L11-Qlo9 L10-Gak6 L9-Yms1 L8-Uzk1 L7-Ozc0 L6-Dtt0 L5-Zht4 L4-Oyw9 L3-Aji4 L2-Jto8 L1-Ynn3
L13-Bsi1 L12-Uzk1 L11-Ozc0 L10-Dtt0 L9-Zht4 L8-Oyw9 L7-Aji4 L6-Jto8 L5-Ynn3 L4-Mnw7 L3-Ahm9 L2-F__2 L1-Ufm5
L13-Uzk1 L12-Oyw9 L11-Aji4 L10-Jto8 L9-Ynn3 L8-Mnw7 L7-Ahm9 L6-F__2 L5-Ufm5 L4-O_e4 L3-Hdn7 L2-Qxg5 L1-Ykc7
L13-Oyw9 L12-Mnw7 L11-Ahm9 L10-F__2 L9-Ufm5 L8-O_e4 L7-Hdn7 L6-Qxg5 L5-Ykc7 L4-Stz2 L3-Fxi6 L2-N_m2 L1-Cey2
L13-Mnw7 L12-O_e4 L11-Hdn7 L10-Qxg5 L9-Ykc7 L8-Stz2 L7-Fxi6 L6-N_m2 L5-Cey2 L4-Bqe2 L3-Hey7 L2-Ftw4 L1-Fmk8
L13-O_e4 L12-Stz2 L11-Fxi6 L10-N_m2 L9-Cey2 L8-Bqe2 L7-Hey7 L6-Ftw4 L5-Fmk8 L4-Deg0 L3-Tts8 L2-Drx0 L1-Nql7
L13-Stz2 L12-Bqe2 L11-Hey7 L10-Ftw4 L9-Fmk8 L8-Deg0 L7-Tts8 L6-Drx0 L5-Nql7 L4-Xvy9 L3-Euv4 L2-Tvp8 L1-Tqk4
L13-Bqe2 L12-Deg0 L11-Tts8 L10-Drx0 L9-Nql7 L8-Xvy9 L7-Euv4 L6-Tvp8 L5-Tqk4 L4-Ujy4 L3-Ev_2 L2-Mkq6 L1-D_n7
L13-Deg0 L12-Xvy9 L11-Euv4 L10-Tvp8 L9-Tqk4 L8-Ujy4 L7-Ev_2 L6-Mkq6 L5-D_n7 L4-Xru4 L3-Gum4 L2-Gtw3 L1-Mel3
L13-Xvy9 L12-Ujy4 L11-Ev_2 L10-Mkq6 L9-D_n7 L8-Xru4 L7-Gum4 L6-Gtw3 L5-Mel3 L4-Yaf7 L3-D_u3 L2-Axm8 L1-Qxj1
L13-Ujy4 L12-Xru4 L11-Gum4 L10-Gtw3 L9-Mel3 L8-Yaf7 L7-D_u3 L6-Axm8 L5-Qxj1 L4-Mnz5 L3-Emd1 L2-Cxz2 L1-Bo_1
L13-Xru4 L12-Yaf7 L11-D_u3 L10-Axm8 L9-Qxj1 L8-Mnz5 L7-Emd1 L6-Cxz2 L5-Bo_1 L4-Jtc6 L3-Wi_3 L2-P_v8 L1-Gkj1
L13-Yaf7 L12-Mnz5 L11-Emd1 L10-Cxz2 L9-Bo_1 L8-Jtc6 L7-Wi_3 L6-P_v8 L5-Gkj1 L4-O_j4 L3-Xgd9 L2-Kby4 L1-Utb3
L13-Mnz5 L12-Jtc6 L11-Wi_3 L10-P_v8 L9-Gkj1 L8-O_j4 L7-Xgd9 L6-Kby4 L5-Utb3 L3-O_j4 L2-O_j4 L1-O_j4
L13-Jtc6 L12-O_j4 L11-Xgd9 L10-Kby4 L9-Utb3 L7-O_j4 L6-O_j4 L5-O_j4
L13-O_j4 L11-O_j4 L10-O_j4 L9-O_j4
[92m->lines number: 32
[0m
