all
[94m->finding paths...
[0m[94m-->starting edm_karp...
[0m[94m--->starting bfs...
[0m[94m--->finish bfs.
[0m[90mPaths:
size: 16
Qr_2->Tvh3->Vbt9->Okz8->Iju7->Jvz9->A_w6->Mbw7->Jgd7->Few3->Gck6->Wjq0->Fq_6->Efd4->Yxn6->Kvv6->Xwh6


[0m[94m--->starting bfs...
[0m[94m--->finish bfs.
[0m[90mPaths:
size: 16
Qr_2->Up_4->Brh0->Xuk2->Mrs3->Pw_6->Qrt4->R_b7->Ivg3->H_t6->Hsi1->A_a7->Jfg6->Ewn0->Xnu6->Vfh8->Xwh6
size: 16
Qr_2->Tvh3->Vbt9->Okz8->Iju7->Jvz9->A_w6->Mbw7->Jgd7->Few3->Gck6->Wjq0->Fq_6->Efd4->Yxn6->Kvv6->Xwh6


[0m[94m--->starting bfs...
[0m[94m--->finish bfs.
[0m[90mPaths:
size: 17
Qr_2->Xwu2->Uzf4->Wsg8->Qks0->Cth5->Oer6->Mcc8->Tgv9->Fwp9->Sjg1->E_j0->P_l8->A_n7->Bzs2->Tew3->Qit5->Xwh6
size: 16
Qr_2->Up_4->Brh0->Xuk2->Mrs3->Pw_6->Qrt4->R_b7->Ivg3->H_t6->Hsi1->A_a7->Jfg6->Ewn0->Xnu6->Vfh8->Xwh6
size: 16
Qr_2->Tvh3->Vbt9->Okz8->Iju7->Jvz9->A_w6->Mbw7->Jgd7->Few3->Gck6->Wjq0->Fq_6->Efd4->Yxn6->Kvv6->Xwh6


[0m[94m--->starting bfs...
[0m[94m--->finish bfs.
[0m[90mPaths:
size: 17
Qr_2->R_z0->Csy6->Aqn0->Awe3->Qts9->S__7->Izj0->Y_u4->Dpw9->Tj_4->Eio0->Ewu8->B__2->Viq5->Pkg3->U_i6->Xwh6
size: 17
Qr_2->Xwu2->Uzf4->Wsg8->Qks0->Cth5->Oer6->Mcc8->Tgv9->Fwp9->Sjg1->E_j0->P_l8->A_n7->Bzs2->Tew3->Qit5->Xwh6
size: 16
Qr_2->Up_4->Brh0->Xuk2->Mrs3->Pw_6->Qrt4->R_b7->Ivg3->H_t6->Hsi1->A_a7->Jfg6->Ewn0->Xnu6->Vfh8->Xwh6
size: 16
Qr_2->Tvh3->Vbt9->Okz8->Iju7->Jvz9->A_w6->Mbw7->Jgd7->Few3->Gck6->Wjq0->Fq_6->Efd4->Yxn6->Kvv6->Xwh6


[0m[94m--->starting bfs...
[0m[94m--->finish bfs.
[0m[90mPaths:
size: 20
Qr_2->Uko8->Qre5->Fci8->Xgl1->Wsd9->Shc0->Ays6->Igv3->Bbn4->Tsc9->Qeg4->Ibk5->Zde9->Mcm6->X_b1->Pye5->X_k3->Dbi8->Ucs6->Xwh6
size: 17
Qr_2->R_z0->Csy6->Aqn0->Awe3->Qts9->S__7->Izj0->Y_u4->Dpw9->Tj_4->Eio0->Ewu8->B__2->Viq5->Pkg3->U_i6->Xwh6
size: 17
Qr_2->Xwu2->Uzf4->Wsg8->Qks0->Cth5->Oer6->Mcc8->Tgv9->Fwp9->Sjg1->E_j0->P_l8->A_n7->Bzs2->Tew3->Qit5->Xwh6
size: 16
Qr_2->Up_4->Brh0->Xuk2->Mrs3->Pw_6->Qrt4->R_b7->Ivg3->H_t6->Hsi1->A_a7->Jfg6->Ewn0->Xnu6->Vfh8->Xwh6
size: 16
Qr_2->Tvh3->Vbt9->Okz8->Iju7->Jvz9->A_w6->Mbw7->Jgd7->Few3->Gck6->Wjq0->Fq_6->Efd4->Yxn6->Kvv6->Xwh6


[0m[94m--->starting bfs...
[0m[94m--->finish bfs.
[0m[90mPaths:
size: 21
Qr_2->Mfe0->Udo9->Tkk8->Ezl5->Imk9->Yfv9->Xjp9->Jzf5->Brb6->Hxo9->Ps_4->Joz4->Zoh9->Ivn0->Tuf1->Mdw7->Slr6->Vdg5->Ejg3->P_l6->Xwh6
size: 20
Qr_2->Uko8->Qre5->Fci8->Xgl1->Wsd9->Shc0->Ays6->Igv3->Bbn4->Tsc9->Qeg4->Ibk5->Zde9->Mcm6->X_b1->Pye5->X_k3->Dbi8->Ucs6->Xwh6
size: 17
Qr_2->R_z0->Csy6->Aqn0->Awe3->Qts9->S__7->Izj0->Y_u4->Dpw9->Tj_4->Eio0->Ewu8->B__2->Viq5->Pkg3->U_i6->Xwh6
size: 17
Qr_2->Xwu2->Uzf4->Wsg8->Qks0->Cth5->Oer6->Mcc8->Tgv9->Fwp9->Sjg1->E_j0->P_l8->A_n7->Bzs2->Tew3->Qit5->Xwh6
size: 16
Qr_2->Up_4->Brh0->Xuk2->Mrs3->Pw_6->Qrt4->R_b7->Ivg3->H_t6->Hsi1->A_a7->Jfg6->Ewn0->Xnu6->Vfh8->Xwh6
size: 16
Qr_2->Tvh3->Vbt9->Okz8->Iju7->Jvz9->A_w6->Mbw7->Jgd7->Few3->Gck6->Wjq0->Fq_6->Efd4->Yxn6->Kvv6->Xwh6


[0m[94m--->starting bfs...
[0m[94m--->finish bfs.
[0m[90mPaths:
size: 23
Qr_2->Hrx7->Hvq1->Td_8->Fbn1->Rxn4->Otp7->Xtv1->Slf0->P_g1->Vna5->Ni_5->Ilx4->Cnk3->Wjm0->Vez9->Gvg9->A_z0->Gkx9->Ked5->Xpk9->Xkx7->Nwb4->Xwh6
size: 21
Qr_2->Mfe0->Udo9->Tkk8->Ezl5->Imk9->Yfv9->Xjp9->Jzf5->Brb6->Hxo9->Ps_4->Joz4->Zoh9->Ivn0->Tuf1->Mdw7->Slr6->Vdg5->Ejg3->P_l6->Xwh6
size: 20
Qr_2->Uko8->Qre5->Fci8->Xgl1->Wsd9->Shc0->Ays6->Igv3->Bbn4->Tsc9->Qeg4->Ibk5->Zde9->Mcm6->X_b1->Pye5->X_k3->Dbi8->Ucs6->Xwh6
size: 17
Qr_2->R_z0->Csy6->Aqn0->Awe3->Qts9->S__7->Izj0->Y_u4->Dpw9->Tj_4->Eio0->Ewu8->B__2->Viq5->Pkg3->U_i6->Xwh6
size: 17
Qr_2->Xwu2->Uzf4->Wsg8->Qks0->Cth5->Oer6->Mcc8->Tgv9->Fwp9->Sjg1->E_j0->P_l8->A_n7->Bzs2->Tew3->Qit5->Xwh6
size: 16
Qr_2->Up_4->Brh0->Xuk2->Mrs3->Pw_6->Qrt4->R_b7->Ivg3->H_t6->Hsi1->A_a7->Jfg6->Ewn0->Xnu6->Vfh8->Xwh6
size: 16
Qr_2->Tvh3->Vbt9->Okz8->Iju7->Jvz9->A_w6->Mbw7->Jgd7->Few3->Gck6->Wjq0->Fq_6->Efd4->Yxn6->Kvv6->Xwh6


[0m[94m--->starting bfs...
[0m[94m--->finish bfs.
[0m[90mPaths:
size: 24
Qr_2->Ick3->Qlk0->Owg0->Ro_8->X_m1->Nik8->Cdd7->Uzb1->Dv_1->Pg_8->Oym9->Mh_4->Cis7->Mbg0->Zea4->Tlo2->H_u9->Gdg3->Zhg1->Upi8->Rej6->Xbc4->Mjp6->Xwh6
size: 23
Qr_2->Hrx7->Hvq1->Td_8->Fbn1->Rxn4->Otp7->Xtv1->Slf0->P_g1->Vna5->Ni_5->Ilx4->Cnk3->Wjm0->Vez9->Gvg9->A_z0->Gkx9->Ked5->Xpk9->Xkx7->Nwb4->Xwh6
size: 21
Qr_2->Mfe0->Udo9->Tkk8->Ezl5->Imk9->Yfv9->Xjp9->Jzf5->Brb6->Hxo9->Ps_4->Joz4->Zoh9->Ivn0->Tuf1->Mdw7->Slr6->Vdg5->Ejg3->P_l6->Xwh6
size: 20
Qr_2->Uko8->Qre5->Fci8->Xgl1->Wsd9->Shc0->Ays6->Igv3->Bbn4->Tsc9->Qeg4->Ibk5->Zde9->Mcm6->X_b1->Pye5->X_k3->Dbi8->Ucs6->Xwh6
size: 17
Qr_2->R_z0->Csy6->Aqn0->Awe3->Qts9->S__7->Izj0->Y_u4->Dpw9->Tj_4->Eio0->Ewu8->B__2->Viq5->Pkg3->U_i6->Xwh6
size: 17
Qr_2->Xwu2->Uzf4->Wsg8->Qks0->Cth5->Oer6->Mcc8->Tgv9->Fwp9->Sjg1->E_j0->P_l8->A_n7->Bzs2->Tew3->Qit5->Xwh6
size: 16
Qr_2->Up_4->Brh0->Xuk2->Mrs3->Pw_6->Qrt4->R_b7->Ivg3->H_t6->Hsi1->A_a7->Jfg6->Ewn0->Xnu6->Vfh8->Xwh6
size: 16
Qr_2->Tvh3->Vbt9->Okz8->Iju7->Jvz9->A_w6->Mbw7->Jgd7->Few3->Gck6->Wjq0->Fq_6->Efd4->Yxn6->Kvv6->Xwh6


[0m[94m--->starting bfs...
[0m[94m--->finish bfs.
[0m[90mPaths:
size: 24
Qr_2->Zch3->Ok_6->Olx2->Abj7->Fcr3->Oql2->Tn_3->Obo6->Gbd6->Hlo5->Vcu9->Zge8->Vpe3->Rvg3->Ary3->Upd6->Vof6->Del1->Bdj2->I_l3->Brt6->Ped0->Pvp8->Xwh6
size: 24
Qr_2->Ick3->Qlk0->Owg0->Ro_8->X_m1->Nik8->Cdd7->Uzb1->Dv_1->Pg_8->Oym9->Mh_4->Cis7->Mbg0->Zea4->Tlo2->H_u9->Gdg3->Zhg1->Upi8->Rej6->Xbc4->Mjp6->Xwh6
size: 23
Qr_2->Hrx7->Hvq1->Td_8->Fbn1->Rxn4->Otp7->Xtv1->Slf0->P_g1->Vna5->Ni_5->Ilx4->Cnk3->Wjm0->Vez9->Gvg9->A_z0->Gkx9->Ked5->Xpk9->Xkx7->Nwb4->Xwh6
size: 21
Qr_2->Mfe0->Udo9->Tkk8->Ezl5->Imk9->Yfv9->Xjp9->Jzf5->Brb6->Hxo9->Ps_4->Joz4->Zoh9->Ivn0->Tuf1->Mdw7->Slr6->Vdg5->Ejg3->P_l6->Xwh6
size: 20
Qr_2->Uko8->Qre5->Fci8->Xgl1->Wsd9->Shc0->Ays6->Igv3->Bbn4->Tsc9->Qeg4->Ibk5->Zde9->Mcm6->X_b1->Pye5->X_k3->Dbi8->Ucs6->Xwh6
size: 17
Qr_2->R_z0->Csy6->Aqn0->Awe3->Qts9->S__7->Izj0->Y_u4->Dpw9->Tj_4->Eio0->Ewu8->B__2->Viq5->Pkg3->U_i6->Xwh6
size: 17
Qr_2->Xwu2->Uzf4->Wsg8->Qks0->Cth5->Oer6->Mcc8->Tgv9->Fwp9->Sjg1->E_j0->P_l8->A_n7->Bzs2->Tew3->Qit5->Xwh6
size: 16
Qr_2->Up_4->Brh0->Xuk2->Mrs3->Pw_6->Qrt4->R_b7->Ivg3->H_t6->Hsi1->A_a7->Jfg6->Ewn0->Xnu6->Vfh8->Xwh6
size: 16
Qr_2->Tvh3->Vbt9->Okz8->Iju7->Jvz9->A_w6->Mbw7->Jgd7->Few3->Gck6->Wjq0->Fq_6->Efd4->Yxn6->Kvv6->Xwh6


[0m[94m--->starting bfs...
[0m[94m--->finish bfs.
[0m[90mPaths:
size: 36
Qr_2->Yd_2->Ucs5->Ahm3->Mzd1->Uni8->Fpw3->Ejb2->Noq4->K_v5->Nva2->D_w3->Fs_0->Sio0->M_d5->Slc9->Kxa5->Awu3->Qws3->G_d4->Mvu3->Bwr8->Fb_8->U_e1->Ggy9->Yiw9->Flk9->Ddb3->Zft8->Cou5->W__7->Jng6->U_q6->Ath8->Ofb7->Wtw9->Xwh6
size: 24
Qr_2->Zch3->Ok_6->Olx2->Abj7->Fcr3->Oql2->Tn_3->Obo6->Gbd6->Hlo5->Vcu9->Zge8->Vpe3->Rvg3->Ary3->Upd6->Vof6->Del1->Bdj2->I_l3->Brt6->Ped0->Pvp8->Xwh6
size: 24
Qr_2->Ick3->Qlk0->Owg0->Ro_8->X_m1->Nik8->Cdd7->Uzb1->Dv_1->Pg_8->Oym9->Mh_4->Cis7->Mbg0->Zea4->Tlo2->H_u9->Gdg3->Zhg1->Upi8->Rej6->Xbc4->Mjp6->Xwh6
size: 23
Qr_2->Hrx7->Hvq1->Td_8->Fbn1->Rxn4->Otp7->Xtv1->Slf0->P_g1->Vna5->Ni_5->Ilx4->Cnk3->Wjm0->Vez9->Gvg9->A_z0->Gkx9->Ked5->Xpk9->Xkx7->Nwb4->Xwh6
size: 21
Qr_2->Mfe0->Udo9->Tkk8->Ezl5->Imk9->Yfv9->Xjp9->Jzf5->Brb6->Hxo9->Ps_4->Joz4->Zoh9->Ivn0->Tuf1->Mdw7->Slr6->Vdg5->Ejg3->P_l6->Xwh6
size: 20
Qr_2->Uko8->Qre5->Fci8->Xgl1->Wsd9->Shc0->Ays6->Igv3->Bbn4->Tsc9->Qeg4->Ibk5->Zde9->Mcm6->X_b1->Pye5->X_k3->Dbi8->Ucs6->Xwh6
size: 17
Qr_2->R_z0->Csy6->Aqn0->Awe3->Qts9->S__7->Izj0->Y_u4->Dpw9->Tj_4->Eio0->Ewu8->B__2->Viq5->Pkg3->U_i6->Xwh6
size: 17
Qr_2->Xwu2->Uzf4->Wsg8->Qks0->Cth5->Oer6->Mcc8->Tgv9->Fwp9->Sjg1->E_j0->P_l8->A_n7->Bzs2->Tew3->Qit5->Xwh6
size: 16
Qr_2->Up_4->Brh0->Xuk2->Mrs3->Pw_6->Qrt4->R_b7->Ivg3->H_t6->Hsi1->A_a7->Jfg6->Ewn0->Xnu6->Vfh8->Xwh6
size: 16
Qr_2->Tvh3->Vbt9->Okz8->Iju7->Jvz9->A_w6->Mbw7->Jgd7->Few3->Gck6->Wjq0->Fq_6->Efd4->Yxn6->Kvv6->Xwh6


[0m[94m--->starting bfs...
[0m[94m--->finish bfs.
[0m[90mPaths:
size: 36
Qr_2->Yd_2->Ucs5->Ahm3->Mzd1->Uni8->Fpw3->Ejb2->Noq4->K_v5->Nva2->D_w3->Fs_0->Sio0->M_d5->Slc9->Kxa5->Awu3->Qws3->G_d4->Mvu3->Bwr8->Fb_8->U_e1->Ggy9->Yiw9->Flk9->Ddb3->Zft8->Cou5->W__7->Jng6->U_q6->Ath8->Ofb7->Wtw9->Xwh6
size: 24
Qr_2->Zch3->Ok_6->Olx2->Abj7->Fcr3->Oql2->Tn_3->Obo6->Gbd6->Hlo5->Vcu9->Zge8->Vpe3->Rvg3->Ary3->Upd6->Vof6->Del1->Bdj2->I_l3->Brt6->Ped0->Pvp8->Xwh6
size: 24
Qr_2->Ick3->Qlk0->Owg0->Ro_8->X_m1->Nik8->Cdd7->Uzb1->Dv_1->Pg_8->Oym9->Mh_4->Cis7->Mbg0->Zea4->Tlo2->H_u9->Gdg3->Zhg1->Upi8->Rej6->Xbc4->Mjp6->Xwh6
size: 23
Qr_2->Hrx7->Hvq1->Td_8->Fbn1->Rxn4->Otp7->Xtv1->Slf0->P_g1->Vna5->Ni_5->Ilx4->Cnk3->Wjm0->Vez9->Gvg9->A_z0->Gkx9->Ked5->Xpk9->Xkx7->Nwb4->Xwh6
size: 21
Qr_2->Mfe0->Udo9->Tkk8->Ezl5->Imk9->Yfv9->Xjp9->Jzf5->Brb6->Hxo9->Ps_4->Joz4->Zoh9->Ivn0->Tuf1->Mdw7->Slr6->Vdg5->Ejg3->P_l6->Xwh6
size: 20
Qr_2->Uko8->Qre5->Fci8->Xgl1->Wsd9->Shc0->Ays6->Igv3->Bbn4->Tsc9->Qeg4->Ibk5->Zde9->Mcm6->X_b1->Pye5->X_k3->Dbi8->Ucs6->Xwh6
size: 17
Qr_2->R_z0->Csy6->Aqn0->Awe3->Qts9->S__7->Izj0->Y_u4->Dpw9->Tj_4->Eio0->Ewu8->B__2->Viq5->Pkg3->U_i6->Xwh6
size: 17
Qr_2->Xwu2->Uzf4->Wsg8->Qks0->Cth5->Oer6->Mcc8->Tgv9->Fwp9->Sjg1->E_j0->P_l8->A_n7->Bzs2->Tew3->Qit5->Xwh6
size: 16
Qr_2->Up_4->Brh0->Xuk2->Mrs3->Pw_6->Qrt4->R_b7->Ivg3->H_t6->Hsi1->A_a7->Jfg6->Ewn0->Xnu6->Vfh8->Xwh6
size: 16
Qr_2->Tvh3->Vbt9->Okz8->Iju7->Jvz9->A_w6->Mbw7->Jgd7->Few3->Gck6->Wjq0->Fq_6->Efd4->Yxn6->Kvv6->Xwh6


[0m[94m-->finish edm_karp.
[0m[90mPaths:
size: 36
Qr_2->Yd_2->Ucs5->Ahm3->Mzd1->Uni8->Fpw3->Ejb2->Noq4->K_v5->Nva2->D_w3->Fs_0->Sio0->M_d5->Slc9->Kxa5->Awu3->Qws3->G_d4->Mvu3->Bwr8->Fb_8->U_e1->Ggy9->Yiw9->Flk9->Ddb3->Zft8->Cou5->W__7->Jng6->U_q6->Ath8->Ofb7->Wtw9->Xwh6
size: 24
Qr_2->Zch3->Ok_6->Olx2->Abj7->Fcr3->Oql2->Tn_3->Obo6->Gbd6->Hlo5->Vcu9->Zge8->Vpe3->Rvg3->Ary3->Upd6->Vof6->Del1->Bdj2->I_l3->Brt6->Ped0->Pvp8->Xwh6
size: 24
Qr_2->Ick3->Qlk0->Owg0->Ro_8->X_m1->Nik8->Cdd7->Uzb1->Dv_1->Pg_8->Oym9->Mh_4->Cis7->Mbg0->Zea4->Tlo2->H_u9->Gdg3->Zhg1->Upi8->Rej6->Xbc4->Mjp6->Xwh6
size: 23
Qr_2->Hrx7->Hvq1->Td_8->Fbn1->Rxn4->Otp7->Xtv1->Slf0->P_g1->Vna5->Ni_5->Ilx4->Cnk3->Wjm0->Vez9->Gvg9->A_z0->Gkx9->Ked5->Xpk9->Xkx7->Nwb4->Xwh6
size: 21
Qr_2->Mfe0->Udo9->Tkk8->Ezl5->Imk9->Yfv9->Xjp9->Jzf5->Brb6->Hxo9->Ps_4->Joz4->Zoh9->Ivn0->Tuf1->Mdw7->Slr6->Vdg5->Ejg3->P_l6->Xwh6
size: 20
Qr_2->Uko8->Qre5->Fci8->Xgl1->Wsd9->Shc0->Ays6->Igv3->Bbn4->Tsc9->Qeg4->Ibk5->Zde9->Mcm6->X_b1->Pye5->X_k3->Dbi8->Ucs6->Xwh6
size: 17
Qr_2->R_z0->Csy6->Aqn0->Awe3->Qts9->S__7->Izj0->Y_u4->Dpw9->Tj_4->Eio0->Ewu8->B__2->Viq5->Pkg3->U_i6->Xwh6
size: 17
Qr_2->Xwu2->Uzf4->Wsg8->Qks0->Cth5->Oer6->Mcc8->Tgv9->Fwp9->Sjg1->E_j0->P_l8->A_n7->Bzs2->Tew3->Qit5->Xwh6
size: 16
Qr_2->Up_4->Brh0->Xuk2->Mrs3->Pw_6->Qrt4->R_b7->Ivg3->H_t6->Hsi1->A_a7->Jfg6->Ewn0->Xnu6->Vfh8->Xwh6
size: 16
Qr_2->Tvh3->Vbt9->Okz8->Iju7->Jvz9->A_w6->Mbw7->Jgd7->Few3->Gck6->Wjq0->Fq_6->Efd4->Yxn6->Kvv6->Xwh6


[0m[94m---->releasing ants...
[0m[90m-->0/-2
[0m[90m-->1/10
[0m[90m-->1/10
[0m[90m-->1/11
[0m[90m-->1/13
[0m[90m-->1/14
[0m[90m-->1/17
[0m[90m-->1/17
[0m[90m-->1/18
[0m[90m-->1/18
[0mL9-Tvh3 L8-Up_4 L7-Xwu2 L6-R_z0 L5-Uko8 L4-Mfe0 L3-Hrx7 L2-Ick3 L1-Zch3
[90m-->0/-2
[0m[90m-->2/10
[0m[90m-->2/10
[0m[90m-->2/11
[0m[90m-->2/13
[0m[90m-->2/14
[0m[90m-->2/17
[0m[90m-->2/17
[0m[90m-->2/18
[0m[90m-->2/18
[0mL18-Tvh3 L17-Up_4 L16-Xwu2 L15-R_z0 L14-Uko8 L13-Mfe0 L12-Hrx7 L11-Ick3 L10-Zch3 L9-Vbt9 L8-Brh0 L7-Uzf4 L6-Csy6 L5-Qre5 L4-Udo9 L3-Hvq1 L2-Qlk0 L1-Ok_6
[90m-->0/-2
[0m[90m-->3/10
[0m[90m-->3/10
[0m[90m-->3/11
[0m[90m-->3/13
[0m[90m-->3/14
[0m[90m-->3/17
[0m[90m-->3/17
[0m[90m-->3/18
[0m[90m-->3/18
[0mL27-Tvh3 L26-Up_4 L25-Xwu2 L24-R_z0 L23-Uko8 L22-Mfe0 L21-Hrx7 L20-Ick3 L19-Zch3 L18-Vbt9 L17-Brh0 L16-Uzf4 L15-Csy6 L14-Qre5 L13-Udo9 L12-Hvq1 L11-Qlk0 L10-Ok_6 L9-Okz8 L8-Xuk2 L7-Wsg8 L6-Aqn0 L5-Fci8 L4-Tkk8 L3-Td_8 L2-Owg0 L1-Olx2
[90m-->0/-2
[0m[90m-->4/10
[0m[90m-->4/10
[0m[90m-->4/11
[0m[90m-->4/13
[0m[90m-->4/14
[0m[90m-->4/17
[0m[90m-->4/17
[0m[90m-->4/18
[0m[90m-->4/18
[0mL36-Tvh3 L35-Up_4 L34-Xwu2 L33-R_z0 L32-Uko8 L31-Mfe0 L30-Hrx7 L29-Ick3 L28-Zch3 L27-Vbt9 L26-Brh0 L25-Uzf4 L24-Csy6 L23-Qre5 L22-Udo9 L21-Hvq1 L20-Qlk0 L19-Ok_6 L18-Okz8 L17-Xuk2 L16-Wsg8 L15-Aqn0 L14-Fci8 L13-Tkk8 L12-Td_8 L11-Owg0 L10-Olx2 L9-Iju7 L8-Mrs3 L7-Qks0 L6-Awe3 L5-Xgl1 L4-Ezl5 L3-Fbn1 L2-Ro_8 L1-Abj7
[90m-->0/-2
[0m[90m-->5/10
[0m[90m-->5/10
[0m[90m-->5/11
[0m[90m-->5/13
[0m[90m-->5/14
[0m[90m-->5/17
[0m[90m-->5/17
[0m[90m-->5/18
[0m[90m-->5/18
[0mL45-Tvh3 L44-Up_4 L43-Xwu2 L42-R_z0 L41-Uko8 L40-Mfe0 L39-Hrx7 L38-Ick3 L37-Zch3 L36-Vbt9 L35-Brh0 L34-Uzf4 L33-Csy6 L32-Qre5 L31-Udo9 L30-Hvq1 L29-Qlk0 L28-Ok_6 L27-Okz8 L26-Xuk2 L25-Wsg8 L24-Aqn0 L23-Fci8 L22-Tkk8 L21-Td_8 L20-Owg0 L19-Olx2 L18-Iju7 L17-Mrs3 L16-Qks0 L15-Awe3 L14-Xgl1 L13-Ezl5 L12-Fbn1 L11-Ro_8 L10-Abj7 L9-Jvz9 L8-Pw_6 L7-Cth5 L6-Qts9 L5-Wsd9 L4-Imk9 L3-Rxn4 L2-X_m1 L1-Fcr3
[90m-->0/-2
[0m[90m-->6/10
[0m[90m-->6/10
[0m[90m-->6/11
[0m[90m-->6/13
[0m[90m-->6/14
[0m[90m-->6/17
[0m[90m-->6/17
[0m[90m-->6/18
[0m[90m-->6/18
[0mL54-Tvh3 L53-Up_4 L52-Xwu2 L51-R_z0 L50-Uko8 L49-Mfe0 L48-Hrx7 L47-Ick3 L46-Zch3 L45-Vbt9 L44-Brh0 L43-Uzf4 L42-Csy6 L41-Qre5 L40-Udo9 L39-Hvq1 L38-Qlk0 L37-Ok_6 L36-Okz8 L35-Xuk2 L34-Wsg8 L33-Aqn0 L32-Fci8 L31-Tkk8 L30-Td_8 L29-Owg0 L28-Olx2 L27-Iju7 L26-Mrs3 L25-Qks0 L24-Awe3 L23-Xgl1 L22-Ezl5 L21-Fbn1 L20-Ro_8 L19-Abj7 L18-Jvz9 L17-Pw_6 L16-Cth5 L15-Qts9 L14-Wsd9 L13-Imk9 L12-Rxn4 L11-X_m1 L10-Fcr3 L9-A_w6 L8-Qrt4 L7-Oer6 L6-S__7 L5-Shc0 L4-Yfv9 L3-Otp7 L2-Nik8 L1-Oql2
[90m-->0/-2
[0m[90m-->7/10
[0m[90m-->7/10
[0m[90m-->7/11
[0m[90m-->7/13
[0m[90m-->7/14
[0m[90m-->7/17
[0m[90m-->7/17
[0m[90m-->7/18
[0m[90m-->7/18
[0mL63-Tvh3 L62-Up_4 L61-Xwu2 L60-R_z0 L59-Uko8 L58-Mfe0 L57-Hrx7 L56-Ick3 L55-Zch3 L54-Vbt9 L53-Brh0 L52-Uzf4 L51-Csy6 L50-Qre5 L49-Udo9 L48-Hvq1 L47-Qlk0 L46-Ok_6 L45-Okz8 L44-Xuk2 L43-Wsg8 L42-Aqn0 L41-Fci8 L40-Tkk8 L39-Td_8 L38-Owg0 L37-Olx2 L36-Iju7 L35-Mrs3 L34-Qks0 L33-Awe3 L32-Xgl1 L31-Ezl5 L30-Fbn1 L29-Ro_8 L28-Abj7 L27-Jvz9 L26-Pw_6 L25-Cth5 L24-Qts9 L23-Wsd9 L22-Imk9 L21-Rxn4 L20-X_m1 L19-Fcr3 L18-A_w6 L17-Qrt4 L16-Oer6 L15-S__7 L14-Shc0 L13-Yfv9 L12-Otp7 L11-Nik8 L10-Oql2 L9-Mbw7 L8-R_b7 L7-Mcc8 L6-Izj0 L5-Ays6 L4-Xjp9 L3-Xtv1 L2-Cdd7 L1-Tn_3
[90m-->0/-2
[0m[90m-->8/10
[0m[90m-->8/10
[0m[90m-->8/11
[0m[90m-->8/13
[0m[90m-->8/14
[0m[90m-->8/17
[0m[90m-->8/17
[0m[90m-->8/18
[0m[90m-->8/18
[0mL72-Tvh3 L71-Up_4 L70-Xwu2 L69-R_z0 L68-Uko8 L67-Mfe0 L66-Hrx7 L65-Ick3 L64-Zch3 L63-Vbt9 L62-Brh0 L61-Uzf4 L60-Csy6 L59-Qre5 L58-Udo9 L57-Hvq1 L56-Qlk0 L55-Ok_6 L54-Okz8 L53-Xuk2 L52-Wsg8 L51-Aqn0 L50-Fci8 L49-Tkk8 L48-Td_8 L47-Owg0 L46-Olx2 L45-Iju7 L44-Mrs3 L43-Qks0 L42-Awe3 L41-Xgl1 L40-Ezl5 L39-Fbn1 L38-Ro_8 L37-Abj7 L36-Jvz9 L35-Pw_6 L34-Cth5 L33-Qts9 L32-Wsd9 L31-Imk9 L30-Rxn4 L29-X_m1 L28-Fcr3 L27-A_w6 L26-Qrt4 L25-Oer6 L24-S__7 L23-Shc0 L22-Yfv9 L21-Otp7 L20-Nik8 L19-Oql2 L18-Mbw7 L17-R_b7 L16-Mcc8 L15-Izj0 L14-Ays6 L13-Xjp9 L12-Xtv1 L11-Cdd7 L10-Tn_3 L9-Jgd7 L8-Ivg3 L7-Tgv9 L6-Y_u4 L5-Igv3 L4-Jzf5 L3-Slf0 L2-Uzb1 L1-Obo6
[90m-->0/-2
[0m[90m-->9/10
[0m[90m-->9/10
[0m[90m-->9/11
[0m[90m-->9/13
[0m[90m-->9/14
[0m[90m-->9/17
[0m[90m-->9/17
[0m[90m-->9/18
[0m[90m-->9/18
[0mL81-Tvh3 L80-Up_4 L79-Xwu2 L78-R_z0 L77-Uko8 L76-Mfe0 L75-Hrx7 L74-Ick3 L73-Zch3 L72-Vbt9 L71-Brh0 L70-Uzf4 L69-Csy6 L68-Qre5 L67-Udo9 L66-Hvq1 L65-Qlk0 L64-Ok_6 L63-Okz8 L62-Xuk2 L61-Wsg8 L60-Aqn0 L59-Fci8 L58-Tkk8 L57-Td_8 L56-Owg0 L55-Olx2 L54-Iju7 L53-Mrs3 L52-Qks0 L51-Awe3 L50-Xgl1 L49-Ezl5 L48-Fbn1 L47-Ro_8 L46-Abj7 L45-Jvz9 L44-Pw_6 L43-Cth5 L42-Qts9 L41-Wsd9 L40-Imk9 L39-Rxn4 L38-X_m1 L37-Fcr3 L36-A_w6 L35-Qrt4 L34-Oer6 L33-S__7 L32-Shc0 L31-Yfv9 L30-Otp7 L29-Nik8 L28-Oql2 L27-Mbw7 L26-R_b7 L25-Mcc8 L24-Izj0 L23-Ays6 L22-Xjp9 L21-Xtv1 L20-Cdd7 L19-Tn_3 L18-Jgd7 L17-Ivg3 L16-Tgv9 L15-Y_u4 L14-Igv3 L13-Jzf5 L12-Slf0 L11-Uzb1 L10-Obo6 L9-Few3 L8-H_t6 L7-Fwp9 L6-Dpw9 L5-Bbn4 L4-Brb6 L3-P_g1 L2-Dv_1 L1-Gbd6
[90m-->0/-2
[0m[90m-->10/10
[0m[90m-->10/10
[0m[90m-->10/11
[0m[90m-->10/13
[0m[90m-->10/14
[0m[90m-->10/17
[0m[90m-->10/17
[0m[90m-->10/18
[0m[90m-->10/18
[0mL90-Tvh3 L89-Up_4 L88-Xwu2 L87-R_z0 L86-Uko8 L85-Mfe0 L84-Hrx7 L83-Ick3 L82-Zch3 L81-Vbt9 L80-Brh0 L79-Uzf4 L78-Csy6 L77-Qre5 L76-Udo9 L75-Hvq1 L74-Qlk0 L73-Ok_6 L72-Okz8 L71-Xuk2 L70-Wsg8 L69-Aqn0 L68-Fci8 L67-Tkk8 L66-Td_8 L65-Owg0 L64-Olx2 L63-Iju7 L62-Mrs3 L61-Qks0 L60-Awe3 L59-Xgl1 L58-Ezl5 L57-Fbn1 L56-Ro_8 L55-Abj7 L54-Jvz9 L53-Pw_6 L52-Cth5 L51-Qts9 L50-Wsd9 L49-Imk9 L48-Rxn4 L47-X_m1 L46-Fcr3 L45-A_w6 L44-Qrt4 L43-Oer6 L42-S__7 L41-Shc0 L40-Yfv9 L39-Otp7 L38-Nik8 L37-Oql2 L36-Mbw7 L35-R_b7 L34-Mcc8 L33-Izj0 L32-Ays6 L31-Xjp9 L30-Xtv1 L29-Cdd7 L28-Tn_3 L27-Jgd7 L26-Ivg3 L25-Tgv9 L24-Y_u4 L23-Igv3 L22-Jzf5 L21-Slf0 L20-Uzb1 L19-Obo6 L18-Few3 L17-H_t6 L16-Fwp9 L15-Dpw9 L14-Bbn4 L13-Brb6 L12-P_g1 L11-Dv_1 L10-Gbd6 L9-Gck6 L8-Hsi1 L7-Sjg1 L6-Tj_4 L5-Tsc9 L4-Hxo9 L3-Vna5 L2-Pg_8 L1-Hlo5
[90m-->0/-2
[0m[90m-->10/10
[0m[90m-->10/10
[0m[90m-->11/11
[0m[90m-->11/13
[0m[90m-->11/14
[0m[90m-->11/17
[0m[90m-->11/17
[0m[90m-->11/18
[0m[90m-->11/18
[0mL97-Tvh3 L96-Up_4 L95-Xwu2 L94-R_z0 L93-Uko8 L92-Mfe0 L91-Hrx7 L90-Vbt9 L89-Brh0 L88-Uzf4 L87-Csy6 L86-Qre5 L85-Udo9 L84-Hvq1 L83-Qlk0 L82-Ok_6 L81-Okz8 L80-Xuk2 L79-Wsg8 L78-Aqn0 L77-Fci8 L76-Tkk8 L75-Td_8 L74-Owg0 L73-Olx2 L72-Iju7 L71-Mrs3 L70-Qks0 L69-Awe3 L68-Xgl1 L67-Ezl5 L66-Fbn1 L65-Ro_8 L64-Abj7 L63-Jvz9 L62-Pw_6 L61-Cth5 L60-Qts9 L59-Wsd9 L58-Imk9 L57-Rxn4 L56-X_m1 L55-Fcr3 L54-A_w6 L53-Qrt4 L52-Oer6 L51-S__7 L50-Shc0 L49-Yfv9 L48-Otp7 L47-Nik8 L46-Oql2 L45-Mbw7 L44-R_b7 L43-Mcc8 L42-Izj0 L41-Ays6 L40-Xjp9 L39-Xtv1 L38-Cdd7 L37-Tn_3 L36-Jgd7 L35-Ivg3 L34-Tgv9 L33-Y_u4 L32-Igv3 L31-Jzf5 L30-Slf0 L29-Uzb1 L28-Obo6 L27-Few3 L26-H_t6 L25-Fwp9 L24-Dpw9 L23-Bbn4 L22-Brb6 L21-P_g1 L20-Dv_1 L19-Gbd6 L18-Gck6 L17-Hsi1 L16-Sjg1 L15-Tj_4 L14-Tsc9 L13-Hxo9 L12-Vna5 L11-Pg_8 L10-Hlo5 L9-Wjq0 L8-A_a7 L7-E_j0 L6-Eio0 L5-Qeg4 L4-Ps_4 L3-Ni_5 L2-Oym9 L1-Vcu9
[90m-->0/-2
[0m[90m-->10/10
[0m[90m-->10/10
[0m[90m-->11/11
[0m[90m-->12/13
[0m[90m-->12/14
[0m[90m-->12/17
[0m[90m-->12/17
[0m[90m-->12/18
[0m[90m-->12/18
[0mL103-Tvh3 L102-Up_4 L101-Xwu2 L100-R_z0 L99-Uko8 L98-Mfe0 L97-Vbt9 L96-Brh0 L95-Uzf4 L94-Csy6 L93-Qre5 L92-Udo9 L91-Hvq1 L90-Okz8 L89-Xuk2 L88-Wsg8 L87-Aqn0 L86-Fci8 L85-Tkk8 L84-Td_8 L83-Owg0 L82-Olx2 L81-Iju7 L80-Mrs3 L79-Qks0 L78-Awe3 L77-Xgl1 L76-Ezl5 L75-Fbn1 L74-Ro_8 L73-Abj7 L72-Jvz9 L71-Pw_6 L70-Cth5 L69-Qts9 L68-Wsd9 L67-Imk9 L66-Rxn4 L65-X_m1 L64-Fcr3 L63-A_w6 L62-Qrt4 L61-Oer6 L60-S__7 L59-Shc0 L58-Yfv9 L57-Otp7 L56-Nik8 L55-Oql2 L54-Mbw7 L53-R_b7 L52-Mcc8 L51-Izj0 L50-Ays6 L49-Xjp9 L48-Xtv1 L47-Cdd7 L46-Tn_3 L45-Jgd7 L44-Ivg3 L43-Tgv9 L42-Y_u4 L41-Igv3 L40-Jzf5 L39-Slf0 L38-Uzb1 L37-Obo6 L36-Few3 L35-H_t6 L34-Fwp9 L33-Dpw9 L32-Bbn4 L31-Brb6 L30-P_g1 L29-Dv_1 L28-Gbd6 L27-Gck6 L26-Hsi1 L25-Sjg1 L24-Tj_4 L23-Tsc9 L22-Hxo9 L21-Vna5 L20-Pg_8 L19-Hlo5 L18-Wjq0 L17-A_a7 L16-E_j0 L15-Eio0 L14-Qeg4 L13-Ps_4 L12-Ni_5 L11-Oym9 L10-Vcu9 L9-Fq_6 L8-Jfg6 L7-P_l8 L6-Ewu8 L5-Ibk5 L4-Joz4 L3-Ilx4 L2-Mh_4 L1-Zge8
[90m-->0/-2
[0m[90m-->10/10
[0m[90m-->10/10
[0m[90m-->11/11
[0m[90m-->13/13
[0m[90m-->13/14
[0m[90m-->13/17
[0m[90m-->13/17
[0m[90m-->13/18
[0m[90m-->13/18
[0mL109-Tvh3 L108-Up_4 L107-Xwu2 L106-R_z0 L105-Uko8 L104-Mfe0 L103-Vbt9 L102-Brh0 L101-Uzf4 L100-Csy6 L99-Qre5 L98-Udo9 L97-Okz8 L96-Xuk2 L95-Wsg8 L94-Aqn0 L93-Fci8 L92-Tkk8 L91-Td_8 L90-Iju7 L89-Mrs3 L88-Qks0 L87-Awe3 L86-Xgl1 L85-Ezl5 L84-Fbn1 L83-Ro_8 L82-Abj7 L81-Jvz9 L80-Pw_6 L79-Cth5 L78-Qts9 L77-Wsd9 L76-Imk9 L75-Rxn4 L74-X_m1 L73-Fcr3 L72-A_w6 L71-Qrt4 L70-Oer6 L69-S__7 L68-Shc0 L67-Yfv9 L66-Otp7 L65-Nik8 L64-Oql2 L63-Mbw7 L62-R_b7 L61-Mcc8 L60-Izj0 L59-Ays6 L58-Xjp9 L57-Xtv1 L56-Cdd7 L55-Tn_3 L54-Jgd7 L53-Ivg3 L52-Tgv9 L51-Y_u4 L50-Igv3 L49-Jzf5 L48-Slf0 L47-Uzb1 L46-Obo6 L45-Few3 L44-H_t6 L43-Fwp9 L42-Dpw9 L41-Bbn4 L40-Brb6 L39-P_g1 L38-Dv_1 L37-Gbd6 L36-Gck6 L35-Hsi1 L34-Sjg1 L33-Tj_4 L32-Tsc9 L31-Hxo9 L30-Vna5 L29-Pg_8 L28-Hlo5 L27-Wjq0 L26-A_a7 L25-E_j0 L24-Eio0 L23-Qeg4 L22-Ps_4 L21-Ni_5 L20-Oym9 L19-Vcu9 L18-Fq_6 L17-Jfg6 L16-P_l8 L15-Ewu8 L14-Ibk5 L13-Joz4 L12-Ilx4 L11-Mh_4 L10-Zge8 L9-Efd4 L8-Ewn0 L7-A_n7 L6-B__2 L5-Zde9 L4-Zoh9 L3-Cnk3 L2-Cis7 L1-Vpe3
[90m-->0/-2
[0m[90m-->10/10
[0m[90m-->10/10
[0m[90m-->11/11
[0m[90m-->13/13
[0m[90m-->14/14
[0m[90m-->14/17
[0m[90m-->14/17
[0m[90m-->14/18
[0m[90m-->14/18
[0mL114-Tvh3 L113-Up_4 L112-Xwu2 L111-R_z0 L110-Uko8 L109-Vbt9 L108-Brh0 L107-Uzf4 L106-Csy6 L105-Qre5 L104-Udo9 L103-Okz8 L102-Xuk2 L101-Wsg8 L100-Aqn0 L99-Fci8 L98-Tkk8 L97-Iju7 L96-Mrs3 L95-Qks0 L94-Awe3 L93-Xgl1 L92-Ezl5 L91-Fbn1 L90-Jvz9 L89-Pw_6 L88-Cth5 L87-Qts9 L86-Wsd9 L85-Imk9 L84-Rxn4 L83-X_m1 L82-Fcr3 L81-A_w6 L80-Qrt4 L79-Oer6 L78-S__7 L77-Shc0 L76-Yfv9 L75-Otp7 L74-Nik8 L73-Oql2 L72-Mbw7 L71-R_b7 L70-Mcc8 L69-Izj0 L68-Ays6 L67-Xjp9 L66-Xtv1 L65-Cdd7 L64-Tn_3 L63-Jgd7 L62-Ivg3 L61-Tgv9 L60-Y_u4 L59-Igv3 L58-Jzf5 L57-Slf0 L56-Uzb1 L55-Obo6 L54-Few3 L53-H_t6 L52-Fwp9 L51-Dpw9 L50-Bbn4 L49-Brb6 L48-P_g1 L47-Dv_1 L46-Gbd6 L45-Gck6 L44-Hsi1 L43-Sjg1 L42-Tj_4 L41-Tsc9 L40-Hxo9 L39-Vna5 L38-Pg_8 L37-Hlo5 L36-Wjq0 L35-A_a7 L34-E_j0 L33-Eio0 L32-Qeg4 L31-Ps_4 L30-Ni_5 L29-Oym9 L28-Vcu9 L27-Fq_6 L26-Jfg6 L25-P_l8 L24-Ewu8 L23-Ibk5 L22-Joz4 L21-Ilx4 L20-Mh_4 L19-Zge8 L18-Efd4 L17-Ewn0 L16-A_n7 L15-B__2 L14-Zde9 L13-Zoh9 L12-Cnk3 L11-Cis7 L10-Vpe3 L9-Yxn6 L8-Xnu6 L7-Bzs2 L6-Viq5 L5-Mcm6 L4-Ivn0 L3-Wjm0 L2-Mbg0 L1-Rvg3
[90m-->0/-2
[0m[90m-->10/10
[0m[90m-->10/10
[0m[90m-->11/11
[0m[90m-->13/13
[0m[90m-->14/14
[0m[90m-->15/17
[0m[90m-->15/17
[0m[90m-->15/18
[0m[90m-->15/18
[0mL118-Tvh3 L117-Up_4 L116-Xwu2 L115-R_z0 L114-Vbt9 L113-Brh0 L112-Uzf4 L111-Csy6 L110-Qre5 L109-Okz8 L108-Xuk2 L107-Wsg8 L106-Aqn0 L105-Fci8 L104-Tkk8 L103-Iju7 L102-Mrs3 L101-Qks0 L100-Awe3 L99-Xgl1 L98-Ezl5 L97-Jvz9 L96-Pw_6 L95-Cth5 L94-Qts9 L93-Wsd9 L92-Imk9 L91-Rxn4 L90-A_w6 L89-Qrt4 L88-Oer6 L87-S__7 L86-Shc0 L85-Yfv9 L84-Otp7 L83-Nik8 L82-Oql2 L81-Mbw7 L80-R_b7 L79-Mcc8 L78-Izj0 L77-Ays6 L76-Xjp9 L75-Xtv1 L74-Cdd7 L73-Tn_3 L72-Jgd7 L71-Ivg3 L70-Tgv9 L69-Y_u4 L68-Igv3 L67-Jzf5 L66-Slf0 L65-Uzb1 L64-Obo6 L63-Few3 L62-H_t6 L61-Fwp9 L60-Dpw9 L59-Bbn4 L58-Brb6 L57-P_g1 L56-Dv_1 L55-Gbd6 L54-Gck6 L53-Hsi1 L52-Sjg1 L51-Tj_4 L50-Tsc9 L49-Hxo9 L48-Vna5 L47-Pg_8 L46-Hlo5 L45-Wjq0 L44-A_a7 L43-E_j0 L42-Eio0 L41-Qeg4 L40-Ps_4 L39-Ni_5 L38-Oym9 L37-Vcu9 L36-Fq_6 L35-Jfg6 L34-P_l8 L33-Ewu8 L32-Ibk5 L31-Joz4 L30-Ilx4 L29-Mh_4 L28-Zge8 L27-Efd4 L26-Ewn0 L25-A_n7 L24-B__2 L23-Zde9 L22-Zoh9 L21-Cnk3 L20-Cis7 L19-Vpe3 L18-Yxn6 L17-Xnu6 L16-Bzs2 L15-Viq5 L14-Mcm6 L13-Ivn0 L12-Wjm0 L11-Mbg0 L10-Rvg3 L9-Kvv6 L8-Vfh8 L7-Tew3 L6-Pkg3 L5-X_b1 L4-Tuf1 L3-Vez9 L2-Zea4 L1-Ary3
[90m-->0/-2
[0m[90m-->10/10
[0m[90m-->10/10
[0m[90m-->11/11
[0m[90m-->13/13
[0m[90m-->14/14
[0m[90m-->16/17
[0m[90m-->16/17
[0m[90m-->16/18
[0m[90m-->16/18
[0mL122-Tvh3 L121-Up_4 L120-Xwu2 L119-R_z0 L118-Vbt9 L117-Brh0 L116-Uzf4 L115-Csy6 L114-Okz8 L113-Xuk2 L112-Wsg8 L111-Aqn0 L110-Fci8 L109-Iju7 L108-Mrs3 L107-Qks0 L106-Awe3 L105-Xgl1 L104-Ezl5 L103-Jvz9 L102-Pw_6 L101-Cth5 L100-Qts9 L99-Wsd9 L98-Imk9 L97-A_w6 L96-Qrt4 L95-Oer6 L94-S__7 L93-Shc0 L92-Yfv9 L91-Otp7 L90-Mbw7 L89-R_b7 L88-Mcc8 L87-Izj0 L86-Ays6 L85-Xjp9 L84-Xtv1 L83-Cdd7 L82-Tn_3 L81-Jgd7 L80-Ivg3 L79-Tgv9 L78-Y_u4 L77-Igv3 L76-Jzf5 L75-Slf0 L74-Uzb1 L73-Obo6 L72-Few3 L71-H_t6 L70-Fwp9 L69-Dpw9 L68-Bbn4 L67-Brb6 L66-P_g1 L65-Dv_1 L64-Gbd6 L63-Gck6 L62-Hsi1 L61-Sjg1 L60-Tj_4 L59-Tsc9 L58-Hxo9 L57-Vna5 L56-Pg_8 L55-Hlo5 L54-Wjq0 L53-A_a7 L52-E_j0 L51-Eio0 L50-Qeg4 L49-Ps_4 L48-Ni_5 L47-Oym9 L46-Vcu9 L45-Fq_6 L44-Jfg6 L43-P_l8 L42-Ewu8 L41-Ibk5 L40-Joz4 L39-Ilx4 L38-Mh_4 L37-Zge8 L36-Efd4 L35-Ewn0 L34-A_n7 L33-B__2 L32-Zde9 L31-Zoh9 L30-Cnk3 L29-Cis7 L28-Vpe3 L27-Yxn6 L26-Xnu6 L25-Bzs2 L24-Viq5 L23-Mcm6 L22-Ivn0 L21-Wjm0 L20-Mbg0 L19-Rvg3 L18-Kvv6 L17-Vfh8 L16-Tew3 L15-Pkg3 L14-X_b1 L13-Tuf1 L12-Vez9 L11-Zea4 L10-Ary3 L9-Xwh6 L8-Xwh6 L7-Qit5 L6-U_i6 L5-Pye5 L4-Mdw7 L3-Gvg9 L2-Tlo2 L1-Upd6
[90m-->0/-2
[0m[90m-->10/10
[0m[90m-->10/10
[0m[90m-->11/11
[0m[90m-->13/13
[0m[90m-->14/14
[0m[90m-->17/17
[0m[90m-->17/17
[0m[90m-->17/18
[0m[90m-->17/18
[0mL126-Tvh3 L125-Up_4 L124-Xwu2 L123-R_z0 L122-Vbt9 L121-Brh0 L120-Uzf4 L119-Csy6 L118-Okz8 L117-Xuk2 L116-Wsg8 L115-Aqn0 L114-Iju7 L113-Mrs3 L112-Qks0 L111-Awe3 L110-Xgl1 L109-Jvz9 L108-Pw_6 L107-Cth5 L106-Qts9 L105-Wsd9 L104-Imk9 L103-A_w6 L102-Qrt4 L101-Oer6 L100-S__7 L99-Shc0 L98-Yfv9 L97-Mbw7 L96-R_b7 L95-Mcc8 L94-Izj0 L93-Ays6 L92-Xjp9 L91-Xtv1 L90-Jgd7 L89-Ivg3 L88-Tgv9 L87-Y_u4 L86-Igv3 L85-Jzf5 L84-Slf0 L83-Uzb1 L82-Obo6 L81-Few3 L80-H_t6 L79-Fwp9 L78-Dpw9 L77-Bbn4 L76-Brb6 L75-P_g1 L74-Dv_1 L73-Gbd6 L72-Gck6 L71-Hsi1 L70-Sjg1 L69-Tj_4 L68-Tsc9 L67-Hxo9 L66-Vna5 L65-Pg_8 L64-Hlo5 L63-Wjq0 L62-A_a7 L61-E_j0 L60-Eio0 L59-Qeg4 L58-Ps_4 L57-Ni_5 L56-Oym9 L55-Vcu9 L54-Fq_6 L53-Jfg6 L52-P_l8 L51-Ewu8 L50-Ibk5 L49-Joz4 L48-Ilx4 L47-Mh_4 L46-Zge8 L45-Efd4 L44-Ewn0 L43-A_n7 L42-B__2 L41-Zde9 L40-Zoh9 L39-Cnk3 L38-Cis7 L37-Vpe3 L36-Yxn6 L35-Xnu6 L34-Bzs2 L33-Viq5 L32-Mcm6 L31-Ivn0 L30-Wjm0 L29-Mbg0 L28-Rvg3 L27-Kvv6 L26-Vfh8 L25-Tew3 L24-Pkg3 L23-X_b1 L22-Tuf1 L21-Vez9 L20-Zea4 L19-Ary3 L18-Xwh6 L17-Xwh6 L16-Qit5 L15-U_i6 L14-Pye5 L13-Mdw7 L12-Gvg9 L11-Tlo2 L10-Upd6 L7-Xwh6 L6-Xwh6 L5-X_k3 L4-Slr6 L3-A_z0 L2-H_u9 L1-Vof6
L126-Vbt9 L125-Brh0 L124-Uzf4 L123-Csy6 L122-Okz8 L121-Xuk2 L120-Wsg8 L119-Aqn0 L118-Iju7 L117-Mrs3 L116-Qks0 L115-Awe3 L114-Jvz9 L113-Pw_6 L112-Cth5 L111-Qts9 L110-Wsd9 L109-A_w6 L108-Qrt4 L107-Oer6 L106-S__7 L105-Shc0 L104-Yfv9 L103-Mbw7 L102-R_b7 L101-Mcc8 L100-Izj0 L99-Ays6 L98-Xjp9 L97-Jgd7 L96-Ivg3 L95-Tgv9 L94-Y_u4 L93-Igv3 L92-Jzf5 L91-Slf0 L90-Few3 L89-H_t6 L88-Fwp9 L87-Dpw9 L86-Bbn4 L85-Brb6 L84-P_g1 L83-Dv_1 L82-Gbd6 L81-Gck6 L80-Hsi1 L79-Sjg1 L78-Tj_4 L77-Tsc9 L76-Hxo9 L75-Vna5 L74-Pg_8 L73-Hlo5 L72-Wjq0 L71-A_a7 L70-E_j0 L69-Eio0 L68-Qeg4 L67-Ps_4 L66-Ni_5 L65-Oym9 L64-Vcu9 L63-Fq_6 L62-Jfg6 L61-P_l8 L60-Ewu8 L59-Ibk5 L58-Joz4 L57-Ilx4 L56-Mh_4 L55-Zge8 L54-Efd4 L53-Ewn0 L52-A_n7 L51-B__2 L50-Zde9 L49-Zoh9 L48-Cnk3 L47-Cis7 L46-Vpe3 L45-Yxn6 L44-Xnu6 L43-Bzs2 L42-Viq5 L41-Mcm6 L40-Ivn0 L39-Wjm0 L38-Mbg0 L37-Rvg3 L36-Kvv6 L35-Vfh8 L34-Tew3 L33-Pkg3 L32-X_b1 L31-Tuf1 L30-Vez9 L29-Zea4 L28-Ary3 L27-Xwh6 L26-Xwh6 L25-Qit5 L24-U_i6 L23-Pye5 L22-Mdw7 L21-Gvg9 L20-Tlo2 L19-Upd6 L16-Xwh6 L15-Xwh6 L14-X_k3 L13-Slr6 L12-A_z0 L11-H_u9 L10-Vof6 L5-Dbi8 L4-Vdg5 L3-Gkx9 L2-Gdg3 L1-Del1
L126-Okz8 L125-Xuk2 L124-Wsg8 L123-Aqn0 L122-Iju7 L121-Mrs3 L120-Qks0 L119-Awe3 L118-Jvz9 L117-Pw_6 L116-Cth5 L115-Qts9 L114-A_w6 L113-Qrt4 L112-Oer6 L111-S__7 L110-Shc0 L109-Mbw7 L108-R_b7 L107-Mcc8 L106-Izj0 L105-Ays6 L104-Xjp9 L103-Jgd7 L102-Ivg3 L101-Tgv9 L100-Y_u4 L99-Igv3 L98-Jzf5 L97-Few3 L96-H_t6 L95-Fwp9 L94-Dpw9 L93-Bbn4 L92-Brb6 L91-P_g1 L90-Gck6 L89-Hsi1 L88-Sjg1 L87-Tj_4 L86-Tsc9 L85-Hxo9 L84-Vna5 L83-Pg_8 L82-Hlo5 L81-Wjq0 L80-A_a7 L79-E_j0 L78-Eio0 L77-Qeg4 L76-Ps_4 L75-Ni_5 L74-Oym9 L73-Vcu9 L72-Fq_6 L71-Jfg6 L70-P_l8 L69-Ewu8 L68-Ibk5 L67-Joz4 L66-Ilx4 L65-Mh_4 L64-Zge8 L63-Efd4 L62-Ewn0 L61-A_n7 L60-B__2 L59-Zde9 L58-Zoh9 L57-Cnk3 L56-Cis7 L55-Vpe3 L54-Yxn6 L53-Xnu6 L52-Bzs2 L51-Viq5 L50-Mcm6 L49-Ivn0 L48-Wjm0 L47-Mbg0 L46-Rvg3 L45-Kvv6 L44-Vfh8 L43-Tew3 L42-Pkg3 L41-X_b1 L40-Tuf1 L39-Vez9 L38-Zea4 L37-Ary3 L36-Xwh6 L35-Xwh6 L34-Qit5 L33-U_i6 L32-Pye5 L31-Mdw7 L30-Gvg9 L29-Tlo2 L28-Upd6 L25-Xwh6 L24-Xwh6 L23-X_k3 L22-Slr6 L21-A_z0 L20-H_u9 L19-Vof6 L14-Dbi8 L13-Vdg5 L12-Gkx9 L11-Gdg3 L10-Del1 L5-Ucs6 L4-Ejg3 L3-Ked5 L2-Zhg1 L1-Bdj2
L126-Iju7 L125-Mrs3 L124-Qks0 L123-Awe3 L122-Jvz9 L121-Pw_6 L120-Cth5 L119-Qts9 L118-A_w6 L117-Qrt4 L116-Oer6 L115-S__7 L114-Mbw7 L113-R_b7 L112-Mcc8 L111-Izj0 L110-Ays6 L109-Jgd7 L108-Ivg3 L107-Tgv9 L106-Y_u4 L105-Igv3 L104-Jzf5 L103-Few3 L102-H_t6 L101-Fwp9 L100-Dpw9 L99-Bbn4 L98-Brb6 L97-Gck6 L96-Hsi1 L95-Sjg1 L94-Tj_4 L93-Tsc9 L92-Hxo9 L91-Vna5 L90-Wjq0 L89-A_a7 L88-E_j0 L87-Eio0 L86-Qeg4 L85-Ps_4 L84-Ni_5 L83-Oym9 L82-Vcu9 L81-Fq_6 L80-Jfg6 L79-P_l8 L78-Ewu8 L77-Ibk5 L76-Joz4 L75-Ilx4 L74-Mh_4 L73-Zge8 L72-Efd4 L71-Ewn0 L70-A_n7 L69-B__2 L68-Zde9 L67-Zoh9 L66-Cnk3 L65-Cis7 L64-Vpe3 L63-Yxn6 L62-Xnu6 L61-Bzs2 L60-Viq5 L59-Mcm6 L58-Ivn0 L57-Wjm0 L56-Mbg0 L55-Rvg3 L54-Kvv6 L53-Vfh8 L52-Tew3 L51-Pkg3 L50-X_b1 L49-Tuf1 L48-Vez9 L47-Zea4 L46-Ary3 L45-Xwh6 L44-Xwh6 L43-Qit5 L42-U_i6 L41-Pye5 L40-Mdw7 L39-Gvg9 L38-Tlo2 L37-Upd6 L34-Xwh6 L33-Xwh6 L32-X_k3 L31-Slr6 L30-A_z0 L29-H_u9 L28-Vof6 L23-Dbi8 L22-Vdg5 L21-Gkx9 L20-Gdg3 L19-Del1 L14-Ucs6 L13-Ejg3 L12-Ked5 L11-Zhg1 L10-Bdj2 L5-Xwh6 L4-P_l6 L3-Xpk9 L2-Upi8 L1-I_l3
L126-Jvz9 L125-Pw_6 L124-Cth5 L123-Qts9 L122-A_w6 L121-Qrt4 L120-Oer6 L119-S__7 L118-Mbw7 L117-R_b7 L116-Mcc8 L115-Izj0 L114-Jgd7 L113-Ivg3 L112-Tgv9 L111-Y_u4 L110-Igv3 L109-Few3 L108-H_t6 L107-Fwp9 L106-Dpw9 L105-Bbn4 L104-Brb6 L103-Gck6 L102-Hsi1 L101-Sjg1 L100-Tj_4 L99-Tsc9 L98-Hxo9 L97-Wjq0 L96-A_a7 L95-E_j0 L94-Eio0 L93-Qeg4 L92-Ps_4 L91-Ni_5 L90-Fq_6 L89-Jfg6 L88-P_l8 L87-Ewu8 L86-Ibk5 L85-Joz4 L84-Ilx4 L83-Mh_4 L82-Zge8 L81-Efd4 L80-Ewn0 L79-A_n7 L78-B__2 L77-Zde9 L76-Zoh9 L75-Cnk3 L74-Cis7 L73-Vpe3 L72-Yxn6 L71-Xnu6 L70-Bzs2 L69-Viq5 L68-Mcm6 L67-Ivn0 L66-Wjm0 L65-Mbg0 L64-Rvg3 L63-Kvv6 L62-Vfh8 L61-Tew3 L60-Pkg3 L59-X_b1 L58-Tuf1 L57-Vez9 L56-Zea4 L55-Ary3 L54-Xwh6 L53-Xwh6 L52-Qit5 L51-U_i6 L50-Pye5 L49-Mdw7 L48-Gvg9 L47-Tlo2 L46-Upd6 L43-Xwh6 L42-Xwh6 L41-X_k3 L40-Slr6 L39-A_z0 L38-H_u9 L37-Vof6 L32-Dbi8 L31-Vdg5 L30-Gkx9 L29-Gdg3 L28-Del1 L23-Ucs6 L22-Ejg3 L21-Ked5 L20-Zhg1 L19-Bdj2 L14-Xwh6 L13-P_l6 L12-Xpk9 L11-Upi8 L10-I_l3 L4-Xwh6 L3-Xkx7 L2-Rej6 L1-Brt6
L126-A_w6 L125-Qrt4 L124-Oer6 L123-S__7 L122-Mbw7 L121-R_b7 L120-Mcc8 L119-Izj0 L118-Jgd7 L117-Ivg3 L116-Tgv9 L115-Y_u4 L114-Few3 L113-H_t6 L112-Fwp9 L111-Dpw9 L110-Bbn4 L109-Gck6 L108-Hsi1 L107-Sjg1 L106-Tj_4 L105-Tsc9 L104-Hxo9 L103-Wjq0 L102-A_a7 L101-E_j0 L100-Eio0 L99-Qeg4 L98-Ps_4 L97-Fq_6 L96-Jfg6 L95-P_l8 L94-Ewu8 L93-Ibk5 L92-Joz4 L91-Ilx4 L90-Efd4 L89-Ewn0 L88-A_n7 L87-B__2 L86-Zde9 L85-Zoh9 L84-Cnk3 L83-Cis7 L82-Vpe3 L81-Yxn6 L80-Xnu6 L79-Bzs2 L78-Viq5 L77-Mcm6 L76-Ivn0 L75-Wjm0 L74-Mbg0 L73-Rvg3 L72-Kvv6 L71-Vfh8 L70-Tew3 L69-Pkg3 L68-X_b1 L67-Tuf1 L66-Vez9 L65-Zea4 L64-Ary3 L63-Xwh6 L62-Xwh6 L61-Qit5 L60-U_i6 L59-Pye5 L58-Mdw7 L57-Gvg9 L56-Tlo2 L55-Upd6 L52-Xwh6 L51-Xwh6 L50-X_k3 L49-Slr6 L48-A_z0 L47-H_u9 L46-Vof6 L41-Dbi8 L40-Vdg5 L39-Gkx9 L38-Gdg3 L37-Del1 L32-Ucs6 L31-Ejg3 L30-Ked5 L29-Zhg1 L28-Bdj2 L23-Xwh6 L22-P_l6 L21-Xpk9 L20-Upi8 L19-I_l3 L13-Xwh6 L12-Xkx7 L11-Rej6 L10-Brt6 L3-Nwb4 L2-Xbc4 L1-Ped0
L126-Mbw7 L125-R_b7 L124-Mcc8 L123-Izj0 L122-Jgd7 L121-Ivg3 L120-Tgv9 L119-Y_u4 L118-Few3 L117-H_t6 L116-Fwp9 L115-Dpw9 L114-Gck6 L113-Hsi1 L112-Sjg1 L111-Tj_4 L110-Tsc9 L109-Wjq0 L108-A_a7 L107-E_j0 L106-Eio0 L105-Qeg4 L104-Ps_4 L103-Fq_6 L102-Jfg6 L101-P_l8 L100-Ewu8 L99-Ibk5 L98-Joz4 L97-Efd4 L96-Ewn0 L95-A_n7 L94-B__2 L93-Zde9 L92-Zoh9 L91-Cnk3 L90-Yxn6 L89-Xnu6 L88-Bzs2 L87-Viq5 L86-Mcm6 L85-Ivn0 L84-Wjm0 L83-Mbg0 L82-Rvg3 L81-Kvv6 L80-Vfh8 L79-Tew3 L78-Pkg3 L77-X_b1 L76-Tuf1 L75-Vez9 L74-Zea4 L73-Ary3 L72-Xwh6 L71-Xwh6 L70-Qit5 L69-U_i6 L68-Pye5 L67-Mdw7 L66-Gvg9 L65-Tlo2 L64-Upd6 L61-Xwh6 L60-Xwh6 L59-X_k3 L58-Slr6 L57-A_z0 L56-H_u9 L55-Vof6 L50-Dbi8 L49-Vdg5 L48-Gkx9 L47-Gdg3 L46-Del1 L41-Ucs6 L40-Ejg3 L39-Ked5 L38-Zhg1 L37-Bdj2 L32-Xwh6 L31-P_l6 L30-Xpk9 L29-Upi8 L28-I_l3 L22-Xwh6 L21-Xkx7 L20-Rej6 L19-Brt6 L12-Nwb4 L11-Xbc4 L10-Ped0 L3-Xwh6 L2-Mjp6 L1-Pvp8
L126-Jgd7 L125-Ivg3 L124-Tgv9 L123-Y_u4 L122-Few3 L121-H_t6 L120-Fwp9 L119-Dpw9 L118-Gck6 L117-Hsi1 L116-Sjg1 L115-Tj_4 L114-Wjq0 L113-A_a7 L112-E_j0 L111-Eio0 L110-Qeg4 L109-Fq_6 L108-Jfg6 L107-P_l8 L106-Ewu8 L105-Ibk5 L104-Joz4 L103-Efd4 L102-Ewn0 L101-A_n7 L100-B__2 L99-Zde9 L98-Zoh9 L97-Yxn6 L96-Xnu6 L95-Bzs2 L94-Viq5 L93-Mcm6 L92-Ivn0 L91-Wjm0 L90-Kvv6 L89-Vfh8 L88-Tew3 L87-Pkg3 L86-X_b1 L85-Tuf1 L84-Vez9 L83-Zea4 L82-Ary3 L81-Xwh6 L80-Xwh6 L79-Qit5 L78-U_i6 L77-Pye5 L76-Mdw7 L75-Gvg9 L74-Tlo2 L73-Upd6 L70-Xwh6 L69-Xwh6 L68-X_k3 L67-Slr6 L66-A_z0 L65-H_u9 L64-Vof6 L59-Dbi8 L58-Vdg5 L57-Gkx9 L56-Gdg3 L55-Del1 L50-Ucs6 L49-Ejg3 L48-Ked5 L47-Zhg1 L46-Bdj2 L41-Xwh6 L40-P_l6 L39-Xpk9 L38-Upi8 L37-I_l3 L31-Xwh6 L30-Xkx7 L29-Rej6 L28-Brt6 L21-Nwb4 L20-Xbc4 L19-Ped0 L12-Xwh6 L11-Mjp6 L10-Pvp8 L2-Xwh6 L1-Xwh6
L126-Few3 L125-H_t6 L124-Fwp9 L123-Dpw9 L122-Gck6 L121-Hsi1 L120-Sjg1 L119-Tj_4 L118-Wjq0 L117-A_a7 L116-E_j0 L115-Eio0 L114-Fq_6 L113-Jfg6 L112-P_l8 L111-Ewu8 L110-Ibk5 L109-Efd4 L108-Ewn0 L107-A_n7 L106-B__2 L105-Zde9 L104-Zoh9 L103-Yxn6 L102-Xnu6 L101-Bzs2 L100-Viq5 L99-Mcm6 L98-Ivn0 L97-Kvv6 L96-Vfh8 L95-Tew3 L94-Pkg3 L93-X_b1 L92-Tuf1 L91-Vez9 L90-Xwh6 L89-Xwh6 L88-Qit5 L87-U_i6 L86-Pye5 L85-Mdw7 L84-Gvg9 L83-Tlo2 L82-Upd6 L79-Xwh6 L78-Xwh6 L77-X_k3 L76-Slr6 L75-A_z0 L74-H_u9 L73-Vof6 L68-Dbi8 L67-Vdg5 L66-Gkx9 L65-Gdg3 L64-Del1 L59-Ucs6 L58-Ejg3 L57-Ked5 L56-Zhg1 L55-Bdj2 L50-Xwh6 L49-P_l6 L48-Xpk9 L47-Upi8 L46-I_l3 L40-Xwh6 L39-Xkx7 L38-Rej6 L37-Brt6 L30-Nwb4 L29-Xbc4 L28-Ped0 L21-Xwh6 L20-Mjp6 L19-Pvp8 L11-Xwh6 L10-Xwh6
L126-Gck6 L125-Hsi1 L124-Sjg1 L123-Tj_4 L122-Wjq0 L121-A_a7 L120-E_j0 L119-Eio0 L118-Fq_6 L117-Jfg6 L116-P_l8 L115-Ewu8 L114-Efd4 L113-Ewn0 L112-A_n7 L111-B__2 L110-Zde9 L109-Yxn6 L108-Xnu6 L107-Bzs2 L106-Viq5 L105-Mcm6 L104-Ivn0 L103-Kvv6 L102-Vfh8 L101-Tew3 L100-Pkg3 L99-X_b1 L98-Tuf1 L97-Xwh6 L96-Xwh6 L95-Qit5 L94-U_i6 L93-Pye5 L92-Mdw7 L91-Gvg9 L88-Xwh6 L87-Xwh6 L86-X_k3 L85-Slr6 L84-A_z0 L83-H_u9 L82-Vof6 L77-Dbi8 L76-Vdg5 L75-Gkx9 L74-Gdg3 L73-Del1 L68-Ucs6 L67-Ejg3 L66-Ked5 L65-Zhg1 L64-Bdj2 L59-Xwh6 L58-P_l6 L57-Xpk9 L56-Upi8 L55-I_l3 L49-Xwh6 L48-Xkx7 L47-Rej6 L46-Brt6 L39-Nwb4 L38-Xbc4 L37-Ped0 L30-Xwh6 L29-Mjp6 L28-Pvp8 L20-Xwh6 L19-Xwh6
L126-Wjq0 L125-A_a7 L124-E_j0 L123-Eio0 L122-Fq_6 L121-Jfg6 L120-P_l8 L119-Ewu8 L118-Efd4 L117-Ewn0 L116-A_n7 L115-B__2 L114-Yxn6 L113-Xnu6 L112-Bzs2 L111-Viq5 L110-Mcm6 L109-Kvv6 L108-Vfh8 L107-Tew3 L106-Pkg3 L105-X_b1 L104-Tuf1 L103-Xwh6 L102-Xwh6 L101-Qit5 L100-U_i6 L99-Pye5 L98-Mdw7 L95-Xwh6 L94-Xwh6 L93-X_k3 L92-Slr6 L91-A_z0 L86-Dbi8 L85-Vdg5 L84-Gkx9 L83-Gdg3 L82-Del1 L77-Ucs6 L76-Ejg3 L75-Ked5 L74-Zhg1 L73-Bdj2 L68-Xwh6 L67-P_l6 L66-Xpk9 L65-Upi8 L64-I_l3 L58-Xwh6 L57-Xkx7 L56-Rej6 L55-Brt6 L48-Nwb4 L47-Xbc4 L46-Ped0 L39-Xwh6 L38-Mjp6 L37-Pvp8 L29-Xwh6 L28-Xwh6
L126-Fq_6 L125-Jfg6 L124-P_l8 L123-Ewu8 L122-Efd4 L121-Ewn0 L120-A_n7 L119-B__2 L118-Yxn6 L117-Xnu6 L116-Bzs2 L115-Viq5 L114-Kvv6 L113-Vfh8 L112-Tew3 L111-Pkg3 L110-X_b1 L109-Xwh6 L108-Xwh6 L107-Qit5 L106-U_i6 L105-Pye5 L104-Mdw7 L101-Xwh6 L100-Xwh6 L99-X_k3 L98-Slr6 L93-Dbi8 L92-Vdg5 L91-Gkx9 L86-Ucs6 L85-Ejg3 L84-Ked5 L83-Zhg1 L82-Bdj2 L77-Xwh6 L76-P_l6 L75-Xpk9 L74-Upi8 L73-I_l3 L67-Xwh6 L66-Xkx7 L65-Rej6 L64-Brt6 L57-Nwb4 L56-Xbc4 L55-Ped0 L48-Xwh6 L47-Mjp6 L46-Pvp8 L38-Xwh6 L37-Xwh6
L126-Efd4 L125-Ewn0 L124-A_n7 L123-B__2 L122-Yxn6 L121-Xnu6 L120-Bzs2 L119-Viq5 L118-Kvv6 L117-Vfh8 L116-Tew3 L115-Pkg3 L114-Xwh6 L113-Xwh6 L112-Qit5 L111-U_i6 L110-Pye5 L107-Xwh6 L106-Xwh6 L105-X_k3 L104-Slr6 L99-Dbi8 L98-Vdg5 L93-Ucs6 L92-Ejg3 L91-Ked5 L86-Xwh6 L85-P_l6 L84-Xpk9 L83-Upi8 L82-I_l3 L76-Xwh6 L75-Xkx7 L74-Rej6 L73-Brt6 L66-Nwb4 L65-Xbc4 L64-Ped0 L57-Xwh6 L56-Mjp6 L55-Pvp8 L47-Xwh6 L46-Xwh6
L126-Yxn6 L125-Xnu6 L124-Bzs2 L123-Viq5 L122-Kvv6 L121-Vfh8 L120-Tew3 L119-Pkg3 L118-Xwh6 L117-Xwh6 L116-Qit5 L115-U_i6 L112-Xwh6 L111-Xwh6 L110-X_k3 L105-Dbi8 L104-Vdg5 L99-Ucs6 L98-Ejg3 L93-Xwh6 L92-P_l6 L91-Xpk9 L85-Xwh6 L84-Xkx7 L83-Rej6 L82-Brt6 L75-Nwb4 L74-Xbc4 L73-Ped0 L66-Xwh6 L65-Mjp6 L64-Pvp8 L56-Xwh6 L55-Xwh6
L126-Kvv6 L125-Vfh8 L124-Tew3 L123-Pkg3 L122-Xwh6 L121-Xwh6 L120-Qit5 L119-U_i6 L116-Xwh6 L115-Xwh6 L110-Dbi8 L105-Ucs6 L104-Ejg3 L99-Xwh6 L98-P_l6 L92-Xwh6 L91-Xkx7 L84-Nwb4 L83-Xbc4 L82-Ped0 L75-Xwh6 L74-Mjp6 L73-Pvp8 L65-Xwh6 L64-Xwh6
L126-Xwh6 L125-Xwh6 L124-Qit5 L123-U_i6 L120-Xwh6 L119-Xwh6 L110-Ucs6 L105-Xwh6 L104-P_l6 L98-Xwh6 L91-Nwb4 L84-Xwh6 L83-Mjp6 L82-Pvp8 L74-Xwh6 L73-Xwh6
L124-Xwh6 L123-Xwh6 L110-Xwh6 L104-Xwh6 L91-Xwh6 L83-Xwh6 L82-Xwh6
[92m->lines number: 33
[0m
