all
[94m->finding paths...
[0m[94m-->starting edm_karp...
[0m[94m--->starting bfs...
[0m[94m--->finish bfs.
[0m[90mPaths:
size: 27
Ejr4->Ewu8->B__2->Viq5->Pkg3->U_i6->Tuc1->Odl1->Aiw6->Kmo9->Oe_4->Bni8->Iqd8->Xhz2->R_v5->Rag1->O_y7->Pnh1->P_i0->Nwb6->Vje5->Phl6->Hv_0->J_d0->Dth5->Wep2->Yle7->Suf3


[0m[94m--->starting bfs...
[0m[94m--->finish bfs.
[0m[90mPaths:
size: 33
Ejr4->Xbc4->Mjp6->Rkw6->Htz9->Evs2->Iqk0->Awt2->Vze1->Gqc5->Oeg0->Emw4->Pgj0->Bo_1->Qh_8->Dg_7->N_z6->Cle4->Tai5->Fju7->Oko4->Dyx9->Buo5->Uqf8->Ag_1->Oo_5->Kuf1->Ksz1->Dgs8->Zxc2->V_w6->Gcu8->I_y8->Suf3
size: 27
Ejr4->Ewu8->B__2->Viq5->Pkg3->U_i6->Tuc1->Odl1->Aiw6->Kmo9->Oe_4->Bni8->Iqd8->Xhz2->R_v5->Rag1->O_y7->Pnh1->P_i0->Nwb6->Vje5->Phl6->Hv_0->J_d0->Dth5->Wep2->Yle7->Suf3


[0m[94m--->starting bfs...
[0m[94m--->finish bfs.
[0m[90mPaths:
size: 34
Ejr4->Wrf1->Irf4->Ac_2->Kmn3->Onf0->Eki9->Bjp0->Jaf7->J_k3->Yhx1->Zue5->X_y3->Cuu9->Epu2->Dqx1->Mnt7->Tjx2->Ijv4->Nit7->Aso8->Cnc3->Utk8->Thh5->Ntu3->Fzk8->But9->Czm5->Mwd1->Rwm9->Ydx5->Cwt6->Qkb1->Uqj0->Suf3
size: 33
Ejr4->Xbc4->Mjp6->Rkw6->Htz9->Evs2->Iqk0->Awt2->Vze1->Gqc5->Oeg0->Emw4->Pgj0->Bo_1->Qh_8->Dg_7->N_z6->Cle4->Tai5->Fju7->Oko4->Dyx9->Buo5->Uqf8->Ag_1->Oo_5->Kuf1->Ksz1->Dgs8->Zxc2->V_w6->Gcu8->I_y8->Suf3
size: 27
Ejr4->Ewu8->B__2->Viq5->Pkg3->U_i6->Tuc1->Odl1->Aiw6->Kmo9->Oe_4->Bni8->Iqd8->Xhz2->R_v5->Rag1->O_y7->Pnh1->P_i0->Nwb6->Vje5->Phl6->Hv_0->J_d0->Dth5->Wep2->Yle7->Suf3


[0m[94m--->starting bfs...
[0m[94m--->finish bfs.
[0m[90mPaths:
size: 35
Ejr4->Zch3->Ok_6->Olx2->Abj7->Fcr3->Oql2->Tn_3->Obo6->Gbd6->Hlo5->Vcu9->Zge8->Vpe3->Rvg3->Ary3->Upd6->Vof6->Del1->Bdj2->I_l3->Brt6->Ped0->Pvp8->Mr_0->Fes9->Gmq2->Vdw4->Ijt5->Zm_5->C_z2->Vc_0->Uep5->Jbj8->Uni4->Suf3
size: 34
Ejr4->Wrf1->Irf4->Ac_2->Kmn3->Onf0->Eki9->Bjp0->Jaf7->J_k3->Yhx1->Zue5->X_y3->Cuu9->Epu2->Dqx1->Mnt7->Tjx2->Ijv4->Nit7->Aso8->Cnc3->Utk8->Thh5->Ntu3->Fzk8->But9->Czm5->Mwd1->Rwm9->Ydx5->Cwt6->Qkb1->Uqj0->Suf3
size: 33
Ejr4->Xbc4->Mjp6->Rkw6->Htz9->Evs2->Iqk0->Awt2->Vze1->Gqc5->Oeg0->Emw4->Pgj0->Bo_1->Qh_8->Dg_7->N_z6->Cle4->Tai5->Fju7->Oko4->Dyx9->Buo5->Uqf8->Ag_1->Oo_5->Kuf1->Ksz1->Dgs8->Zxc2->V_w6->Gcu8->I_y8->Suf3
size: 27
Ejr4->Ewu8->B__2->Viq5->Pkg3->U_i6->Tuc1->Odl1->Aiw6->Kmo9->Oe_4->Bni8->Iqd8->Xhz2->R_v5->Rag1->O_y7->Pnh1->P_i0->Nwb6->Vje5->Phl6->Hv_0->J_d0->Dth5->Wep2->Yle7->Suf3


[0m[94m--->starting bfs...
[0m[94m--->finish bfs.
[0m[90mPaths:
size: 35
Ejr4->Zch3->Ok_6->Olx2->Abj7->Fcr3->Oql2->Tn_3->Obo6->Gbd6->Hlo5->Vcu9->Zge8->Vpe3->Rvg3->Ary3->Upd6->Vof6->Del1->Bdj2->I_l3->Brt6->Ped0->Pvp8->Mr_0->Fes9->Gmq2->Vdw4->Ijt5->Zm_5->C_z2->Vc_0->Uep5->Jbj8->Uni4->Suf3
size: 34
Ejr4->Wrf1->Irf4->Ac_2->Kmn3->Onf0->Eki9->Bjp0->Jaf7->J_k3->Yhx1->Zue5->X_y3->Cuu9->Epu2->Dqx1->Mnt7->Tjx2->Ijv4->Nit7->Aso8->Cnc3->Utk8->Thh5->Ntu3->Fzk8->But9->Czm5->Mwd1->Rwm9->Ydx5->Cwt6->Qkb1->Uqj0->Suf3
size: 33
Ejr4->Xbc4->Mjp6->Rkw6->Htz9->Evs2->Iqk0->Awt2->Vze1->Gqc5->Oeg0->Emw4->Pgj0->Bo_1->Qh_8->Dg_7->N_z6->Cle4->Tai5->Fju7->Oko4->Dyx9->Buo5->Uqf8->Ag_1->Oo_5->Kuf1->Ksz1->Dgs8->Zxc2->V_w6->Gcu8->I_y8->Suf3
size: 27
Ejr4->Ewu8->B__2->Viq5->Pkg3->U_i6->Tuc1->Odl1->Aiw6->Kmo9->Oe_4->Bni8->Iqd8->Xhz2->R_v5->Rag1->O_y7->Pnh1->P_i0->Nwb6->Vje5->Phl6->Hv_0->J_d0->Dth5->Wep2->Yle7->Suf3


[0m[94m-->finish edm_karp.
[0m[90mPaths:
size: 35
Ejr4->Zch3->Ok_6->Olx2->Abj7->Fcr3->Oql2->Tn_3->Obo6->Gbd6->Hlo5->Vcu9->Zge8->Vpe3->Rvg3->Ary3->Upd6->Vof6->Del1->Bdj2->I_l3->Brt6->Ped0->Pvp8->Mr_0->Fes9->Gmq2->Vdw4->Ijt5->Zm_5->C_z2->Vc_0->Uep5->Jbj8->Uni4->Suf3
size: 34
Ejr4->Wrf1->Irf4->Ac_2->Kmn3->Onf0->Eki9->Bjp0->Jaf7->J_k3->Yhx1->Zue5->X_y3->Cuu9->Epu2->Dqx1->Mnt7->Tjx2->Ijv4->Nit7->Aso8->Cnc3->Utk8->Thh5->Ntu3->Fzk8->But9->Czm5->Mwd1->Rwm9->Ydx5->Cwt6->Qkb1->Uqj0->Suf3
size: 33
Ejr4->Xbc4->Mjp6->Rkw6->Htz9->Evs2->Iqk0->Awt2->Vze1->Gqc5->Oeg0->Emw4->Pgj0->Bo_1->Qh_8->Dg_7->N_z6->Cle4->Tai5->Fju7->Oko4->Dyx9->Buo5->Uqf8->Ag_1->Oo_5->Kuf1->Ksz1->Dgs8->Zxc2->V_w6->Gcu8->I_y8->Suf3
size: 27
Ejr4->Ewu8->B__2->Viq5->Pkg3->U_i6->Tuc1->Odl1->Aiw6->Kmo9->Oe_4->Bni8->Iqd8->Xhz2->R_v5->Rag1->O_y7->Pnh1->P_i0->Nwb6->Vje5->Phl6->Hv_0->J_d0->Dth5->Wep2->Yle7->Suf3


[0m[94m---->releasing ants...
[0m[90m-->0/0
[0m[90m-->1/1
[0m[90m-->1/2
[0m[90m-->1/8
[0mL3-Ewu8 L2-Xbc4 L1-Wrf1
[90m-->0/0
[0m[90m-->1/1
[0m[90m-->2/2
[0m[90m-->2/8
[0mL5-Ewu8 L4-Xbc4 L3-B__2 L2-Mjp6 L1-Irf4
[90m-->0/0
[0m[90m-->1/1
[0m[90m-->2/2
[0m[90m-->3/8
[0mL6-Ewu8 L5-B__2 L4-Mjp6 L3-Viq5 L2-Rkw6 L1-Ac_2
[90m-->0/0
[0m[90m-->1/1
[0m[90m-->2/2
[0m[90m-->4/8
[0mL7-Ewu8 L6-B__2 L5-Viq5 L4-Rkw6 L3-Pkg3 L2-Htz9 L1-Kmn3
[90m-->0/0
[0m[90m-->1/1
[0m[90m-->2/2
[0m[90m-->5/8
[0mL8-Ewu8 L7-B__2 L6-Viq5 L5-Pkg3 L4-Htz9 L3-U_i6 L2-Evs2 L1-Onf0
[90m-->0/0
[0m[90m-->1/1
[0m[90m-->2/2
[0m[90m-->6/8
[0mL9-Ewu8 L8-B__2 L7-Viq5 L6-Pkg3 L5-U_i6 L4-Evs2 L3-Tuc1 L2-Iqk0 L1-Eki9
L9-B__2 L8-Viq5 L7-Pkg3 L6-U_i6 L5-Tuc1 L4-Iqk0 L3-Odl1 L2-Awt2 L1-Bjp0
L9-Viq5 L8-Pkg3 L7-U_i6 L6-Tuc1 L5-Odl1 L4-Awt2 L3-Aiw6 L2-Vze1 L1-Jaf7
L9-Pkg3 L8-U_i6 L7-Tuc1 L6-Odl1 L5-Aiw6 L4-Vze1 L3-Kmo9 L2-Gqc5 L1-J_k3
L9-U_i6 L8-Tuc1 L7-Odl1 L6-Aiw6 L5-Kmo9 L4-Gqc5 L3-Oe_4 L2-Oeg0 L1-Yhx1
L9-Tuc1 L8-Odl1 L7-Aiw6 L6-Kmo9 L5-Oe_4 L4-Oeg0 L3-Bni8 L2-Emw4 L1-Zue5
L9-Odl1 L8-Aiw6 L7-Kmo9 L6-Oe_4 L5-Bni8 L4-Emw4 L3-Iqd8 L2-Pgj0 L1-X_y3
L9-Aiw6 L8-Kmo9 L7-Oe_4 L6-Bni8 L5-Iqd8 L4-Pgj0 L3-Xhz2 L2-Bo_1 L1-Cuu9
L9-Kmo9 L8-Oe_4 L7-Bni8 L6-Iqd8 L5-Xhz2 L4-Bo_1 L3-R_v5 L2-Qh_8 L1-Epu2
L9-Oe_4 L8-Bni8 L7-Iqd8 L6-Xhz2 L5-R_v5 L4-Qh_8 L3-Rag1 L2-Dg_7 L1-Dqx1
L9-Bni8 L8-Iqd8 L7-Xhz2 L6-R_v5 L5-Rag1 L4-Dg_7 L3-O_y7 L2-N_z6 L1-Mnt7
L9-Iqd8 L8-Xhz2 L7-R_v5 L6-Rag1 L5-O_y7 L4-N_z6 L3-Pnh1 L2-Cle4 L1-Tjx2
L9-Xhz2 L8-R_v5 L7-Rag1 L6-O_y7 L5-Pnh1 L4-Cle4 L3-P_i0 L2-Tai5 L1-Ijv4
L9-R_v5 L8-Rag1 L7-O_y7 L6-Pnh1 L5-P_i0 L4-Tai5 L3-Nwb6 L2-Fju7 L1-Nit7
L9-Rag1 L8-O_y7 L7-Pnh1 L6-P_i0 L5-Nwb6 L4-Fju7 L3-Vje5 L2-Oko4 L1-Aso8
L9-O_y7 L8-Pnh1 L7-P_i0 L6-Nwb6 L5-Vje5 L4-Oko4 L3-Phl6 L2-Dyx9 L1-Cnc3
L9-Pnh1 L8-P_i0 L7-Nwb6 L6-Vje5 L5-Phl6 L4-Dyx9 L3-Hv_0 L2-Buo5 L1-Utk8
L9-P_i0 L8-Nwb6 L7-Vje5 L6-Phl6 L5-Hv_0 L4-Buo5 L3-J_d0 L2-Uqf8 L1-Thh5
L9-Nwb6 L8-Vje5 L7-Phl6 L6-Hv_0 L5-J_d0 L4-Uqf8 L3-Dth5 L2-Ag_1 L1-Ntu3
L9-Vje5 L8-Phl6 L7-Hv_0 L6-J_d0 L5-Dth5 L4-Ag_1 L3-Wep2 L2-Oo_5 L1-Fzk8
L9-Phl6 L8-Hv_0 L7-J_d0 L6-Dth5 L5-Wep2 L4-Oo_5 L3-Yle7 L2-Kuf1 L1-But9
L9-Hv_0 L8-J_d0 L7-Dth5 L6-Wep2 L5-Yle7 L4-Kuf1 L3-Suf3 L2-Ksz1 L1-Czm5
L9-J_d0 L8-Dth5 L7-Wep2 L6-Yle7 L5-Suf3 L4-Ksz1 L2-Dgs8 L1-Mwd1
L9-Dth5 L8-Wep2 L7-Yle7 L6-Suf3 L4-Dgs8 L2-Zxc2 L1-Rwm9
L9-Wep2 L8-Yle7 L7-Suf3 L4-Zxc2 L2-V_w6 L1-Ydx5
L9-Yle7 L8-Suf3 L4-V_w6 L2-Gcu8 L1-Cwt6
L9-Suf3 L4-Gcu8 L2-I_y8 L1-Qkb1
L4-I_y8 L2-Suf3 L1-Uqj0
L4-Suf3 L1-Suf3
[92m->lines number: 34
[0m
