all
[94m->finding paths...
[0m[94m-->starting edm_karp...
[0m[94m--->starting bfs...
[0m[94m--->finish bfs.
[0m[90mPaths:
size: 16
Ag_4->Gcu2->D_r1->Vjj6->Xlb7->Wpe1->Pt_6->Teo8->Zrw2->Ilx2->Iiv5->Yxo6->Ymt9->Fwm8->Z_u0->Tz_6->Y_i6


[0m[94m--->starting bfs...
[0m[94m--->finish bfs.
[0m[90mPaths:
size: 16
Ag_4->Ktz9->Phn6->Cjg0->Pry7->Mhx3->Koz3->R_q7->Vya3->Fjd6->Jp_4->Cuk7->Qvw3->Gjp0->Dcr9->Dzx7->Y_i6
size: 16
Ag_4->Gcu2->D_r1->Vjj6->Xlb7->Wpe1->Pt_6->Teo8->Zrw2->Ilx2->Iiv5->Yxo6->Ymt9->Fwm8->Z_u0->Tz_6->Y_i6


[0m[94m--->starting bfs...
[0m[94m--->finish bfs.
[0m[90mPaths:
size: 17
Ag_4->Wbv9->Yow8->Vjh9->Fim5->Wkl1->Pgl4->Mjj1->Uyy1->Agd7->Xdj2->Qch7->Qjc2->Mvt1->Yuw1->Erj4->Ecb2->Y_i6
size: 16
Ag_4->Ktz9->Phn6->Cjg0->Pry7->Mhx3->Koz3->R_q7->Vya3->Fjd6->Jp_4->Cuk7->Qvw3->Gjp0->Dcr9->Dzx7->Y_i6
size: 16
Ag_4->Gcu2->D_r1->Vjj6->Xlb7->Wpe1->Pt_6->Teo8->Zrw2->Ilx2->Iiv5->Yxo6->Ymt9->Fwm8->Z_u0->Tz_6->Y_i6


[0m[94m--->starting bfs...
[0m[94m--->finish bfs.
[0m[90mPaths:
size: 19
Ag_4->X_n4->Qlp5->E_z8->Gkm5->Nbw4->Vpv4->Jrd6->Qmz4->Yss2->Muu7->E_e8->Vsd2->Mzx1->V_f6->Aew8->Npi8->Mgn1->Wbw4->Y_i6
size: 17
Ag_4->Wbv9->Yow8->Vjh9->Fim5->Wkl1->Pgl4->Mjj1->Uyy1->Agd7->Xdj2->Qch7->Qjc2->Mvt1->Yuw1->Erj4->Ecb2->Y_i6
size: 16
Ag_4->Ktz9->Phn6->Cjg0->Pry7->Mhx3->Koz3->R_q7->Vya3->Fjd6->Jp_4->Cuk7->Qvw3->Gjp0->Dcr9->Dzx7->Y_i6
size: 16
Ag_4->Gcu2->D_r1->Vjj6->Xlb7->Wpe1->Pt_6->Teo8->Zrw2->Ilx2->Iiv5->Yxo6->Ymt9->Fwm8->Z_u0->Tz_6->Y_i6


[0m[94m--->starting bfs...
[0m[94m--->finish bfs.
[0m[90mPaths:
size: 20
Ag_4->Yk_6->Kls7->C_n3->Pvu7->Nh_3->Nos2->Win5->E_c7->Xdt2->G_g2->C_b0->Ma_8->Dud4->Dxq3->Do_1->Vmu3->Xow0->G_f5->Ecc8->Y_i6
size: 19
Ag_4->X_n4->Qlp5->E_z8->Gkm5->Nbw4->Vpv4->Jrd6->Qmz4->Yss2->Muu7->E_e8->Vsd2->Mzx1->V_f6->Aew8->Npi8->Mgn1->Wbw4->Y_i6
size: 17
Ag_4->Wbv9->Yow8->Vjh9->Fim5->Wkl1->Pgl4->Mjj1->Uyy1->Agd7->Xdj2->Qch7->Qjc2->Mvt1->Yuw1->Erj4->Ecb2->Y_i6
size: 16
Ag_4->Ktz9->Phn6->Cjg0->Pry7->Mhx3->Koz3->R_q7->Vya3->Fjd6->Jp_4->Cuk7->Qvw3->Gjp0->Dcr9->Dzx7->Y_i6
size: 16
Ag_4->Gcu2->D_r1->Vjj6->Xlb7->Wpe1->Pt_6->Teo8->Zrw2->Ilx2->Iiv5->Yxo6->Ymt9->Fwm8->Z_u0->Tz_6->Y_i6


[0m[94m--->starting bfs...
[0m[94m--->finish bfs.
[0m[90mPaths:
size: 21
Ag_4->Eie9->B_o9->Egk1->Qvc3->Mf_0->Kxt5->Zo_4->Yme7->Zet0->Jaf6->J_e4->Kqa5->Uz_2->Yta7->Wju6->Fkj5->Fyy0->Jo_7->Gmn6->Tnu1->Y_i6
size: 20
Ag_4->Yk_6->Kls7->C_n3->Pvu7->Nh_3->Nos2->Win5->E_c7->Xdt2->G_g2->C_b0->Ma_8->Dud4->Dxq3->Do_1->Vmu3->Xow0->G_f5->Ecc8->Y_i6
size: 19
Ag_4->X_n4->Qlp5->E_z8->Gkm5->Nbw4->Vpv4->Jrd6->Qmz4->Yss2->Muu7->E_e8->Vsd2->Mzx1->V_f6->Aew8->Npi8->Mgn1->Wbw4->Y_i6
size: 17
Ag_4->Wbv9->Yow8->Vjh9->Fim5->Wkl1->Pgl4->Mjj1->Uyy1->Agd7->Xdj2->Qch7->Qjc2->Mvt1->Yuw1->Erj4->Ecb2->Y_i6
size: 16
Ag_4->Ktz9->Phn6->Cjg0->Pry7->Mhx3->Koz3->R_q7->Vya3->Fjd6->Jp_4->Cuk7->Qvw3->Gjp0->Dcr9->Dzx7->Y_i6
size: 16
Ag_4->Gcu2->D_r1->Vjj6->Xlb7->Wpe1->Pt_6->Teo8->Zrw2->Ilx2->Iiv5->Yxo6->Ymt9->Fwm8->Z_u0->Tz_6->Y_i6


[0m[94m--->starting bfs...
[0m[94m--->finish bfs.
[0m[90mPaths:
size: 21
Ag_4->Ya_3->Tdu5->Vwe0->Crm5->Giw0->Phw6->Haq5->Nko8->Ybu4->Hao7->J_c6->Gbs5->I_b5->Cpq1->T_u0->Bsx0->Oqb6->Xwu2->X_n2->Ahs4->Y_i6
size: 21
Ag_4->Eie9->B_o9->Egk1->Qvc3->Mf_0->Kxt5->Zo_4->Yme7->Zet0->Jaf6->J_e4->Kqa5->Uz_2->Yta7->Wju6->Fkj5->Fyy0->Jo_7->Gmn6->Tnu1->Y_i6
size: 20
Ag_4->Yk_6->Kls7->C_n3->Pvu7->Nh_3->Nos2->Win5->E_c7->Xdt2->G_g2->C_b0->Ma_8->Dud4->Dxq3->Do_1->Vmu3->Xow0->G_f5->Ecc8->Y_i6
size: 19
Ag_4->X_n4->Qlp5->E_z8->Gkm5->Nbw4->Vpv4->Jrd6->Qmz4->Yss2->Muu7->E_e8->Vsd2->Mzx1->V_f6->Aew8->Npi8->Mgn1->Wbw4->Y_i6
size: 17
Ag_4->Wbv9->Yow8->Vjh9->Fim5->Wkl1->Pgl4->Mjj1->Uyy1->Agd7->Xdj2->Qch7->Qjc2->Mvt1->Yuw1->Erj4->Ecb2->Y_i6
size: 16
Ag_4->Ktz9->Phn6->Cjg0->Pry7->Mhx3->Koz3->R_q7->Vya3->Fjd6->Jp_4->Cuk7->Qvw3->Gjp0->Dcr9->Dzx7->Y_i6
size: 16
Ag_4->Gcu2->D_r1->Vjj6->Xlb7->Wpe1->Pt_6->Teo8->Zrw2->Ilx2->Iiv5->Yxo6->Ymt9->Fwm8->Z_u0->Tz_6->Y_i6


[0m[94m--->starting bfs...
[0m[94m--->finish bfs.
[0m[90mPaths:
size: 22
Ag_4->Ntt3->Wbq8->Jrb2->Cyj1->Fxv5->Zbn6->Pj_3->Rsg1->Iuv7->Plv6->C_s4->Xlm8->Qb_2->Bbw2->Ukm1->Dvc5->Prw2->Bc_0->Rmi7->Rxt4->Dg_7->Y_i6
size: 21
Ag_4->Ya_3->Tdu5->Vwe0->Crm5->Giw0->Phw6->Haq5->Nko8->Ybu4->Hao7->J_c6->Gbs5->I_b5->Cpq1->T_u0->Bsx0->Oqb6->Xwu2->X_n2->Ahs4->Y_i6
size: 21
Ag_4->Eie9->B_o9->Egk1->Qvc3->Mf_0->Kxt5->Zo_4->Yme7->Zet0->Jaf6->J_e4->Kqa5->Uz_2->Yta7->Wju6->Fkj5->Fyy0->Jo_7->Gmn6->Tnu1->Y_i6
size: 20
Ag_4->Yk_6->Kls7->C_n3->Pvu7->Nh_3->Nos2->Win5->E_c7->Xdt2->G_g2->C_b0->Ma_8->Dud4->Dxq3->Do_1->Vmu3->Xow0->G_f5->Ecc8->Y_i6
size: 19
Ag_4->X_n4->Qlp5->E_z8->Gkm5->Nbw4->Vpv4->Jrd6->Qmz4->Yss2->Muu7->E_e8->Vsd2->Mzx1->V_f6->Aew8->Npi8->Mgn1->Wbw4->Y_i6
size: 17
Ag_4->Wbv9->Yow8->Vjh9->Fim5->Wkl1->Pgl4->Mjj1->Uyy1->Agd7->Xdj2->Qch7->Qjc2->Mvt1->Yuw1->Erj4->Ecb2->Y_i6
size: 16
Ag_4->Ktz9->Phn6->Cjg0->Pry7->Mhx3->Koz3->R_q7->Vya3->Fjd6->Jp_4->Cuk7->Qvw3->Gjp0->Dcr9->Dzx7->Y_i6
size: 16
Ag_4->Gcu2->D_r1->Vjj6->Xlb7->Wpe1->Pt_6->Teo8->Zrw2->Ilx2->Iiv5->Yxo6->Ymt9->Fwm8->Z_u0->Tz_6->Y_i6


[0m[94m--->starting bfs...
[0m[94m--->finish bfs.
[0m[90mPaths:
size: 22
Ag_4->Yy_1->Ajo4->Kgx9->Gea2->Say2->Iaa0->Qiv0->X_m3->Fs_0->Sfl4->Muy6->Beg9->Wcx6->Csh4->Jmo3->Aak7->Va_9->Bby3->Mjs0->Rin5->Jns8->Y_i6
size: 22
Ag_4->Ntt3->Wbq8->Jrb2->Cyj1->Fxv5->Zbn6->Pj_3->Rsg1->Iuv7->Plv6->C_s4->Xlm8->Qb_2->Bbw2->Ukm1->Dvc5->Prw2->Bc_0->Rmi7->Rxt4->Dg_7->Y_i6
size: 21
Ag_4->Ya_3->Tdu5->Vwe0->Crm5->Giw0->Phw6->Haq5->Nko8->Ybu4->Hao7->J_c6->Gbs5->I_b5->Cpq1->T_u0->Bsx0->Oqb6->Xwu2->X_n2->Ahs4->Y_i6
size: 21
Ag_4->Eie9->B_o9->Egk1->Qvc3->Mf_0->Kxt5->Zo_4->Yme7->Zet0->Jaf6->J_e4->Kqa5->Uz_2->Yta7->Wju6->Fkj5->Fyy0->Jo_7->Gmn6->Tnu1->Y_i6
size: 20
Ag_4->Yk_6->Kls7->C_n3->Pvu7->Nh_3->Nos2->Win5->E_c7->Xdt2->G_g2->C_b0->Ma_8->Dud4->Dxq3->Do_1->Vmu3->Xow0->G_f5->Ecc8->Y_i6
size: 19
Ag_4->X_n4->Qlp5->E_z8->Gkm5->Nbw4->Vpv4->Jrd6->Qmz4->Yss2->Muu7->E_e8->Vsd2->Mzx1->V_f6->Aew8->Npi8->Mgn1->Wbw4->Y_i6
size: 17
Ag_4->Wbv9->Yow8->Vjh9->Fim5->Wkl1->Pgl4->Mjj1->Uyy1->Agd7->Xdj2->Qch7->Qjc2->Mvt1->Yuw1->Erj4->Ecb2->Y_i6
size: 16
Ag_4->Ktz9->Phn6->Cjg0->Pry7->Mhx3->Koz3->R_q7->Vya3->Fjd6->Jp_4->Cuk7->Qvw3->Gjp0->Dcr9->Dzx7->Y_i6
size: 16
Ag_4->Gcu2->D_r1->Vjj6->Xlb7->Wpe1->Pt_6->Teo8->Zrw2->Ilx2->Iiv5->Yxo6->Ymt9->Fwm8->Z_u0->Tz_6->Y_i6


[0m[94m--->starting bfs...
[0m[94m--->finish bfs.
[0m[90mPaths:
size: 24
Ag_4->Rrh9->Ykq8->Apb9->Cth0->Frm2->Ive8->Diy3->Jux7->Zbo0->Rrw8->Nfk8->P_n2->Hhw2->Elg6->Pnr0->B_c2->Tfr2->Frw9->Qi_8->Zxa5->Bxn2->Oup7->Bsh6->Y_i6
size: 22
Ag_4->Yy_1->Ajo4->Kgx9->Gea2->Say2->Iaa0->Qiv0->X_m3->Fs_0->Sfl4->Muy6->Beg9->Wcx6->Csh4->Jmo3->Aak7->Va_9->Bby3->Mjs0->Rin5->Jns8->Y_i6
size: 22
Ag_4->Ntt3->Wbq8->Jrb2->Cyj1->Fxv5->Zbn6->Pj_3->Rsg1->Iuv7->Plv6->C_s4->Xlm8->Qb_2->Bbw2->Ukm1->Dvc5->Prw2->Bc_0->Rmi7->Rxt4->Dg_7->Y_i6
size: 21
Ag_4->Ya_3->Tdu5->Vwe0->Crm5->Giw0->Phw6->Haq5->Nko8->Ybu4->Hao7->J_c6->Gbs5->I_b5->Cpq1->T_u0->Bsx0->Oqb6->Xwu2->X_n2->Ahs4->Y_i6
size: 21
Ag_4->Eie9->B_o9->Egk1->Qvc3->Mf_0->Kxt5->Zo_4->Yme7->Zet0->Jaf6->J_e4->Kqa5->Uz_2->Yta7->Wju6->Fkj5->Fyy0->Jo_7->Gmn6->Tnu1->Y_i6
size: 20
Ag_4->Yk_6->Kls7->C_n3->Pvu7->Nh_3->Nos2->Win5->E_c7->Xdt2->G_g2->C_b0->Ma_8->Dud4->Dxq3->Do_1->Vmu3->Xow0->G_f5->Ecc8->Y_i6
size: 19
Ag_4->X_n4->Qlp5->E_z8->Gkm5->Nbw4->Vpv4->Jrd6->Qmz4->Yss2->Muu7->E_e8->Vsd2->Mzx1->V_f6->Aew8->Npi8->Mgn1->Wbw4->Y_i6
size: 17
Ag_4->Wbv9->Yow8->Vjh9->Fim5->Wkl1->Pgl4->Mjj1->Uyy1->Agd7->Xdj2->Qch7->Qjc2->Mvt1->Yuw1->Erj4->Ecb2->Y_i6
size: 16
Ag_4->Ktz9->Phn6->Cjg0->Pry7->Mhx3->Koz3->R_q7->Vya3->Fjd6->Jp_4->Cuk7->Qvw3->Gjp0->Dcr9->Dzx7->Y_i6
size: 16
Ag_4->Gcu2->D_r1->Vjj6->Xlb7->Wpe1->Pt_6->Teo8->Zrw2->Ilx2->Iiv5->Yxo6->Ymt9->Fwm8->Z_u0->Tz_6->Y_i6


[0m[94m--->starting bfs...
[0m[94m--->finish bfs.
[0m[90mPaths:
size: 24
Ag_4->Ygb1->Uxv3->Jzx9->T_d1->Dgz6->J_e3->Voq1->Swz3->Heq1->Ocd3->Nuo2->Snb2->Hdh8->Hth5->Tkb0->Dse5->Hkp8->Tc_4->Aun5->M_f1->Cti4->Zxl8->Ngl7->Y_i6
size: 24
Ag_4->Rrh9->Ykq8->Apb9->Cth0->Frm2->Ive8->Diy3->Jux7->Zbo0->Rrw8->Nfk8->P_n2->Hhw2->Elg6->Pnr0->B_c2->Tfr2->Frw9->Qi_8->Zxa5->Bxn2->Oup7->Bsh6->Y_i6
size: 22
Ag_4->Yy_1->Ajo4->Kgx9->Gea2->Say2->Iaa0->Qiv0->X_m3->Fs_0->Sfl4->Muy6->Beg9->Wcx6->Csh4->Jmo3->Aak7->Va_9->Bby3->Mjs0->Rin5->Jns8->Y_i6
size: 22
Ag_4->Ntt3->Wbq8->Jrb2->Cyj1->Fxv5->Zbn6->Pj_3->Rsg1->Iuv7->Plv6->C_s4->Xlm8->Qb_2->Bbw2->Ukm1->Dvc5->Prw2->Bc_0->Rmi7->Rxt4->Dg_7->Y_i6
size: 21
Ag_4->Ya_3->Tdu5->Vwe0->Crm5->Giw0->Phw6->Haq5->Nko8->Ybu4->Hao7->J_c6->Gbs5->I_b5->Cpq1->T_u0->Bsx0->Oqb6->Xwu2->X_n2->Ahs4->Y_i6
size: 21
Ag_4->Eie9->B_o9->Egk1->Qvc3->Mf_0->Kxt5->Zo_4->Yme7->Zet0->Jaf6->J_e4->Kqa5->Uz_2->Yta7->Wju6->Fkj5->Fyy0->Jo_7->Gmn6->Tnu1->Y_i6
size: 20
Ag_4->Yk_6->Kls7->C_n3->Pvu7->Nh_3->Nos2->Win5->E_c7->Xdt2->G_g2->C_b0->Ma_8->Dud4->Dxq3->Do_1->Vmu3->Xow0->G_f5->Ecc8->Y_i6
size: 19
Ag_4->X_n4->Qlp5->E_z8->Gkm5->Nbw4->Vpv4->Jrd6->Qmz4->Yss2->Muu7->E_e8->Vsd2->Mzx1->V_f6->Aew8->Npi8->Mgn1->Wbw4->Y_i6
size: 17
Ag_4->Wbv9->Yow8->Vjh9->Fim5->Wkl1->Pgl4->Mjj1->Uyy1->Agd7->Xdj2->Qch7->Qjc2->Mvt1->Yuw1->Erj4->Ecb2->Y_i6
size: 16
Ag_4->Ktz9->Phn6->Cjg0->Pry7->Mhx3->Koz3->R_q7->Vya3->Fjd6->Jp_4->Cuk7->Qvw3->Gjp0->Dcr9->Dzx7->Y_i6
size: 16
Ag_4->Gcu2->D_r1->Vjj6->Xlb7->Wpe1->Pt_6->Teo8->Zrw2->Ilx2->Iiv5->Yxo6->Ymt9->Fwm8->Z_u0->Tz_6->Y_i6


[0m[94m--->starting bfs...
[0m[94m--->finish bfs.
[0m[90mPaths:
size: 25
Ag_4->Tcl8->Dkm6->Yus8->D_k8->Euw5->Fkt6->X_l1->Fje7->W__5->Nqj1->Bwx7->Xyf6->Hs_4->H_h6->W__0->Drx0->V__9->Ejt8->Hel3->Apn2->Tjn6->Bf_8->Rn_8->Tyu0->Y_i6
size: 24
Ag_4->Ygb1->Uxv3->Jzx9->T_d1->Dgz6->J_e3->Voq1->Swz3->Heq1->Ocd3->Nuo2->Snb2->Hdh8->Hth5->Tkb0->Dse5->Hkp8->Tc_4->Aun5->M_f1->Cti4->Zxl8->Ngl7->Y_i6
size: 24
Ag_4->Rrh9->Ykq8->Apb9->Cth0->Frm2->Ive8->Diy3->Jux7->Zbo0->Rrw8->Nfk8->P_n2->Hhw2->Elg6->Pnr0->B_c2->Tfr2->Frw9->Qi_8->Zxa5->Bxn2->Oup7->Bsh6->Y_i6
size: 22
Ag_4->Yy_1->Ajo4->Kgx9->Gea2->Say2->Iaa0->Qiv0->X_m3->Fs_0->Sfl4->Muy6->Beg9->Wcx6->Csh4->Jmo3->Aak7->Va_9->Bby3->Mjs0->Rin5->Jns8->Y_i6
size: 22
Ag_4->Ntt3->Wbq8->Jrb2->Cyj1->Fxv5->Zbn6->Pj_3->Rsg1->Iuv7->Plv6->C_s4->Xlm8->Qb_2->Bbw2->Ukm1->Dvc5->Prw2->Bc_0->Rmi7->Rxt4->Dg_7->Y_i6
size: 21
Ag_4->Ya_3->Tdu5->Vwe0->Crm5->Giw0->Phw6->Haq5->Nko8->Ybu4->Hao7->J_c6->Gbs5->I_b5->Cpq1->T_u0->Bsx0->Oqb6->Xwu2->X_n2->Ahs4->Y_i6
size: 21
Ag_4->Eie9->B_o9->Egk1->Qvc3->Mf_0->Kxt5->Zo_4->Yme7->Zet0->Jaf6->J_e4->Kqa5->Uz_2->Yta7->Wju6->Fkj5->Fyy0->Jo_7->Gmn6->Tnu1->Y_i6
size: 20
Ag_4->Yk_6->Kls7->C_n3->Pvu7->Nh_3->Nos2->Win5->E_c7->Xdt2->G_g2->C_b0->Ma_8->Dud4->Dxq3->Do_1->Vmu3->Xow0->G_f5->Ecc8->Y_i6
size: 19
Ag_4->X_n4->Qlp5->E_z8->Gkm5->Nbw4->Vpv4->Jrd6->Qmz4->Yss2->Muu7->E_e8->Vsd2->Mzx1->V_f6->Aew8->Npi8->Mgn1->Wbw4->Y_i6
size: 17
Ag_4->Wbv9->Yow8->Vjh9->Fim5->Wkl1->Pgl4->Mjj1->Uyy1->Agd7->Xdj2->Qch7->Qjc2->Mvt1->Yuw1->Erj4->Ecb2->Y_i6
size: 16
Ag_4->Ktz9->Phn6->Cjg0->Pry7->Mhx3->Koz3->R_q7->Vya3->Fjd6->Jp_4->Cuk7->Qvw3->Gjp0->Dcr9->Dzx7->Y_i6
size: 16
Ag_4->Gcu2->D_r1->Vjj6->Xlb7->Wpe1->Pt_6->Teo8->Zrw2->Ilx2->Iiv5->Yxo6->Ymt9->Fwm8->Z_u0->Tz_6->Y_i6


[0m[94m--->starting bfs...
[0m[94m--->finish bfs.
[0m[90mPaths:
size: 25
Ag_4->U__1->Ibc8->Vho0->Cwm7->Ica8->Usx8->Hjr2->Bqb6->Ia_8->Zwm3->Hnq6->J_a6->F_b8->Xwx4->Eww3->Sue7->Daw9->G__8->Wnx9->Xdc6->Din3->Tkv5->Clm4->Ihj5->Y_i6
size: 25
Ag_4->Tcl8->Dkm6->Yus8->D_k8->Euw5->Fkt6->X_l1->Fje7->W__5->Nqj1->Bwx7->Xyf6->Hs_4->H_h6->W__0->Drx0->V__9->Ejt8->Hel3->Apn2->Tjn6->Bf_8->Rn_8->Tyu0->Y_i6
size: 24
Ag_4->Ygb1->Uxv3->Jzx9->T_d1->Dgz6->J_e3->Voq1->Swz3->Heq1->Ocd3->Nuo2->Snb2->Hdh8->Hth5->Tkb0->Dse5->Hkp8->Tc_4->Aun5->M_f1->Cti4->Zxl8->Ngl7->Y_i6
size: 24
Ag_4->Rrh9->Ykq8->Apb9->Cth0->Frm2->Ive8->Diy3->Jux7->Zbo0->Rrw8->Nfk8->P_n2->Hhw2->Elg6->Pnr0->B_c2->Tfr2->Frw9->Qi_8->Zxa5->Bxn2->Oup7->Bsh6->Y_i6
size: 22
Ag_4->Yy_1->Ajo4->Kgx9->Gea2->Say2->Iaa0->Qiv0->X_m3->Fs_0->Sfl4->Muy6->Beg9->Wcx6->Csh4->Jmo3->Aak7->Va_9->Bby3->Mjs0->Rin5->Jns8->Y_i6
size: 22
Ag_4->Ntt3->Wbq8->Jrb2->Cyj1->Fxv5->Zbn6->Pj_3->Rsg1->Iuv7->Plv6->C_s4->Xlm8->Qb_2->Bbw2->Ukm1->Dvc5->Prw2->Bc_0->Rmi7->Rxt4->Dg_7->Y_i6
size: 21
Ag_4->Ya_3->Tdu5->Vwe0->Crm5->Giw0->Phw6->Haq5->Nko8->Ybu4->Hao7->J_c6->Gbs5->I_b5->Cpq1->T_u0->Bsx0->Oqb6->Xwu2->X_n2->Ahs4->Y_i6
size: 21
Ag_4->Eie9->B_o9->Egk1->Qvc3->Mf_0->Kxt5->Zo_4->Yme7->Zet0->Jaf6->J_e4->Kqa5->Uz_2->Yta7->Wju6->Fkj5->Fyy0->Jo_7->Gmn6->Tnu1->Y_i6
size: 20
Ag_4->Yk_6->Kls7->C_n3->Pvu7->Nh_3->Nos2->Win5->E_c7->Xdt2->G_g2->C_b0->Ma_8->Dud4->Dxq3->Do_1->Vmu3->Xow0->G_f5->Ecc8->Y_i6
size: 19
Ag_4->X_n4->Qlp5->E_z8->Gkm5->Nbw4->Vpv4->Jrd6->Qmz4->Yss2->Muu7->E_e8->Vsd2->Mzx1->V_f6->Aew8->Npi8->Mgn1->Wbw4->Y_i6
size: 17
Ag_4->Wbv9->Yow8->Vjh9->Fim5->Wkl1->Pgl4->Mjj1->Uyy1->Agd7->Xdj2->Qch7->Qjc2->Mvt1->Yuw1->Erj4->Ecb2->Y_i6
size: 16
Ag_4->Ktz9->Phn6->Cjg0->Pry7->Mhx3->Koz3->R_q7->Vya3->Fjd6->Jp_4->Cuk7->Qvw3->Gjp0->Dcr9->Dzx7->Y_i6
size: 16
Ag_4->Gcu2->D_r1->Vjj6->Xlb7->Wpe1->Pt_6->Teo8->Zrw2->Ilx2->Iiv5->Yxo6->Ymt9->Fwm8->Z_u0->Tz_6->Y_i6


[0m[94m--->starting bfs...
[0m[94m--->finish bfs.
[0m[90mPaths:
size: 25
Ag_4->U__1->Ibc8->Vho0->Cwm7->Ica8->Usx8->Hjr2->Bqb6->Ia_8->Zwm3->Hnq6->J_a6->F_b8->Xwx4->Eww3->Sue7->Daw9->G__8->Wnx9->Xdc6->Din3->Tkv5->Clm4->Ihj5->Y_i6
size: 25
Ag_4->Tcl8->Dkm6->Yus8->D_k8->Euw5->Fkt6->X_l1->Fje7->W__5->Nqj1->Bwx7->Xyf6->Hs_4->H_h6->W__0->Drx0->V__9->Ejt8->Hel3->Apn2->Tjn6->Bf_8->Rn_8->Tyu0->Y_i6
size: 24
Ag_4->Ygb1->Uxv3->Jzx9->T_d1->Dgz6->J_e3->Voq1->Swz3->Heq1->Ocd3->Nuo2->Snb2->Hdh8->Hth5->Tkb0->Dse5->Hkp8->Tc_4->Aun5->M_f1->Cti4->Zxl8->Ngl7->Y_i6
size: 24
Ag_4->Rrh9->Ykq8->Apb9->Cth0->Frm2->Ive8->Diy3->Jux7->Zbo0->Rrw8->Nfk8->P_n2->Hhw2->Elg6->Pnr0->B_c2->Tfr2->Frw9->Qi_8->Zxa5->Bxn2->Oup7->Bsh6->Y_i6
size: 22
Ag_4->Yy_1->Ajo4->Kgx9->Gea2->Say2->Iaa0->Qiv0->X_m3->Fs_0->Sfl4->Muy6->Beg9->Wcx6->Csh4->Jmo3->Aak7->Va_9->Bby3->Mjs0->Rin5->Jns8->Y_i6
size: 22
Ag_4->Ntt3->Wbq8->Jrb2->Cyj1->Fxv5->Zbn6->Pj_3->Rsg1->Iuv7->Plv6->C_s4->Xlm8->Qb_2->Bbw2->Ukm1->Dvc5->Prw2->Bc_0->Rmi7->Rxt4->Dg_7->Y_i6
size: 21
Ag_4->Ya_3->Tdu5->Vwe0->Crm5->Giw0->Phw6->Haq5->Nko8->Ybu4->Hao7->J_c6->Gbs5->I_b5->Cpq1->T_u0->Bsx0->Oqb6->Xwu2->X_n2->Ahs4->Y_i6
size: 21
Ag_4->Eie9->B_o9->Egk1->Qvc3->Mf_0->Kxt5->Zo_4->Yme7->Zet0->Jaf6->J_e4->Kqa5->Uz_2->Yta7->Wju6->Fkj5->Fyy0->Jo_7->Gmn6->Tnu1->Y_i6
size: 20
Ag_4->Yk_6->Kls7->C_n3->Pvu7->Nh_3->Nos2->Win5->E_c7->Xdt2->G_g2->C_b0->Ma_8->Dud4->Dxq3->Do_1->Vmu3->Xow0->G_f5->Ecc8->Y_i6
size: 19
Ag_4->X_n4->Qlp5->E_z8->Gkm5->Nbw4->Vpv4->Jrd6->Qmz4->Yss2->Muu7->E_e8->Vsd2->Mzx1->V_f6->Aew8->Npi8->Mgn1->Wbw4->Y_i6
size: 17
Ag_4->Wbv9->Yow8->Vjh9->Fim5->Wkl1->Pgl4->Mjj1->Uyy1->Agd7->Xdj2->Qch7->Qjc2->Mvt1->Yuw1->Erj4->Ecb2->Y_i6
size: 16
Ag_4->Ktz9->Phn6->Cjg0->Pry7->Mhx3->Koz3->R_q7->Vya3->Fjd6->Jp_4->Cuk7->Qvw3->Gjp0->Dcr9->Dzx7->Y_i6
size: 16
Ag_4->Gcu2->D_r1->Vjj6->Xlb7->Wpe1->Pt_6->Teo8->Zrw2->Ilx2->Iiv5->Yxo6->Ymt9->Fwm8->Z_u0->Tz_6->Y_i6


[0m[94m-->finish edm_karp.
[0m[90mPaths:
size: 25
Ag_4->U__1->Ibc8->Vho0->Cwm7->Ica8->Usx8->Hjr2->Bqb6->Ia_8->Zwm3->Hnq6->J_a6->F_b8->Xwx4->Eww3->Sue7->Daw9->G__8->Wnx9->Xdc6->Din3->Tkv5->Clm4->Ihj5->Y_i6
size: 25
Ag_4->Tcl8->Dkm6->Yus8->D_k8->Euw5->Fkt6->X_l1->Fje7->W__5->Nqj1->Bwx7->Xyf6->Hs_4->H_h6->W__0->Drx0->V__9->Ejt8->Hel3->Apn2->Tjn6->Bf_8->Rn_8->Tyu0->Y_i6
size: 24
Ag_4->Ygb1->Uxv3->Jzx9->T_d1->Dgz6->J_e3->Voq1->Swz3->Heq1->Ocd3->Nuo2->Snb2->Hdh8->Hth5->Tkb0->Dse5->Hkp8->Tc_4->Aun5->M_f1->Cti4->Zxl8->Ngl7->Y_i6
size: 24
Ag_4->Rrh9->Ykq8->Apb9->Cth0->Frm2->Ive8->Diy3->Jux7->Zbo0->Rrw8->Nfk8->P_n2->Hhw2->Elg6->Pnr0->B_c2->Tfr2->Frw9->Qi_8->Zxa5->Bxn2->Oup7->Bsh6->Y_i6
size: 22
Ag_4->Yy_1->Ajo4->Kgx9->Gea2->Say2->Iaa0->Qiv0->X_m3->Fs_0->Sfl4->Muy6->Beg9->Wcx6->Csh4->Jmo3->Aak7->Va_9->Bby3->Mjs0->Rin5->Jns8->Y_i6
size: 22
Ag_4->Ntt3->Wbq8->Jrb2->Cyj1->Fxv5->Zbn6->Pj_3->Rsg1->Iuv7->Plv6->C_s4->Xlm8->Qb_2->Bbw2->Ukm1->Dvc5->Prw2->Bc_0->Rmi7->Rxt4->Dg_7->Y_i6
size: 21
Ag_4->Ya_3->Tdu5->Vwe0->Crm5->Giw0->Phw6->Haq5->Nko8->Ybu4->Hao7->J_c6->Gbs5->I_b5->Cpq1->T_u0->Bsx0->Oqb6->Xwu2->X_n2->Ahs4->Y_i6
size: 21
Ag_4->Eie9->B_o9->Egk1->Qvc3->Mf_0->Kxt5->Zo_4->Yme7->Zet0->Jaf6->J_e4->Kqa5->Uz_2->Yta7->Wju6->Fkj5->Fyy0->Jo_7->Gmn6->Tnu1->Y_i6
size: 20
Ag_4->Yk_6->Kls7->C_n3->Pvu7->Nh_3->Nos2->Win5->E_c7->Xdt2->G_g2->C_b0->Ma_8->Dud4->Dxq3->Do_1->Vmu3->Xow0->G_f5->Ecc8->Y_i6
size: 19
Ag_4->X_n4->Qlp5->E_z8->Gkm5->Nbw4->Vpv4->Jrd6->Qmz4->Yss2->Muu7->E_e8->Vsd2->Mzx1->V_f6->Aew8->Npi8->Mgn1->Wbw4->Y_i6
size: 17
Ag_4->Wbv9->Yow8->Vjh9->Fim5->Wkl1->Pgl4->Mjj1->Uyy1->Agd7->Xdj2->Qch7->Qjc2->Mvt1->Yuw1->Erj4->Ecb2->Y_i6
size: 16
Ag_4->Ktz9->Phn6->Cjg0->Pry7->Mhx3->Koz3->R_q7->Vya3->Fjd6->Jp_4->Cuk7->Qvw3->Gjp0->Dcr9->Dzx7->Y_i6
size: 16
Ag_4->Gcu2->D_r1->Vjj6->Xlb7->Wpe1->Pt_6->Teo8->Zrw2->Ilx2->Iiv5->Yxo6->Ymt9->Fwm8->Z_u0->Tz_6->Y_i6


[0m[94m---->releasing ants...
[0m[90m-->1/8
[0m[90m-->1/8
[0m[90m-->1/9
[0m[90m-->1/9
[0m[90m-->1/11
[0m[90m-->1/11
[0m[90m-->1/12
[0m[90m-->1/12
[0m[90m-->1/13
[0m[90m-->1/14
[0m[90m-->1/16
[0m[90m-->1/17
[0m[90m-->1/17
[0mL13-Gcu2 L12-Ktz9 L11-Wbv9 L10-X_n4 L9-Yk_6 L8-Eie9 L7-Ya_3 L6-Ntt3 L5-Yy_1 L4-Rrh9 L3-Ygb1 L2-Tcl8 L1-U__1
[90m-->2/8
[0m[90m-->2/8
[0m[90m-->2/9
[0m[90m-->2/9
[0m[90m-->2/11
[0m[90m-->2/11
[0m[90m-->2/12
[0m[90m-->2/12
[0m[90m-->2/13
[0m[90m-->2/14
[0m[90m-->2/16
[0m[90m-->2/17
[0m[90m-->2/17
[0mL26-Gcu2 L25-Ktz9 L24-Wbv9 L23-X_n4 L22-Yk_6 L21-Eie9 L20-Ya_3 L19-Ntt3 L18-Yy_1 L17-Rrh9 L16-Ygb1 L15-Tcl8 L14-U__1 L13-D_r1 L12-Phn6 L11-Yow8 L10-Qlp5 L9-Kls7 L8-B_o9 L7-Tdu5 L6-Wbq8 L5-Ajo4 L4-Ykq8 L3-Uxv3 L2-Dkm6 L1-Ibc8
[90m-->3/8
[0m[90m-->3/8
[0m[90m-->3/9
[0m[90m-->3/9
[0m[90m-->3/11
[0m[90m-->3/11
[0m[90m-->3/12
[0m[90m-->3/12
[0m[90m-->3/13
[0m[90m-->3/14
[0m[90m-->3/16
[0m[90m-->3/17
[0m[90m-->3/17
[0mL39-Gcu2 L38-Ktz9 L37-Wbv9 L36-X_n4 L35-Yk_6 L34-Eie9 L33-Ya_3 L32-Ntt3 L31-Yy_1 L30-Rrh9 L29-Ygb1 L28-Tcl8 L27-U__1 L26-D_r1 L25-Phn6 L24-Yow8 L23-Qlp5 L22-Kls7 L21-B_o9 L20-Tdu5 L19-Wbq8 L18-Ajo4 L17-Ykq8 L16-Uxv3 L15-Dkm6 L14-Ibc8 L13-Vjj6 L12-Cjg0 L11-Vjh9 L10-E_z8 L9-C_n3 L8-Egk1 L7-Vwe0 L6-Jrb2 L5-Kgx9 L4-Apb9 L3-Jzx9 L2-Yus8 L1-Vho0
[90m-->4/8
[0m[90m-->4/8
[0m[90m-->4/9
[0m[90m-->4/9
[0m[90m-->4/11
[0m[90m-->4/11
[0m[90m-->4/12
[0m[90m-->4/12
[0m[90m-->4/13
[0m[90m-->4/14
[0m[90m-->4/16
[0m[90m-->4/17
[0m[90m-->4/17
[0mL52-Gcu2 L51-Ktz9 L50-Wbv9 L49-X_n4 L48-Yk_6 L47-Eie9 L46-Ya_3 L45-Ntt3 L44-Yy_1 L43-Rrh9 L42-Ygb1 L41-Tcl8 L40-U__1 L39-D_r1 L38-Phn6 L37-Yow8 L36-Qlp5 L35-Kls7 L34-B_o9 L33-Tdu5 L32-Wbq8 L31-Ajo4 L30-Ykq8 L29-Uxv3 L28-Dkm6 L27-Ibc8 L26-Vjj6 L25-Cjg0 L24-Vjh9 L23-E_z8 L22-C_n3 L21-Egk1 L20-Vwe0 L19-Jrb2 L18-Kgx9 L17-Apb9 L16-Jzx9 L15-Yus8 L14-Vho0 L13-Xlb7 L12-Pry7 L11-Fim5 L10-Gkm5 L9-Pvu7 L8-Qvc3 L7-Crm5 L6-Cyj1 L5-Gea2 L4-Cth0 L3-T_d1 L2-D_k8 L1-Cwm7
[90m-->5/8
[0m[90m-->5/8
[0m[90m-->5/9
[0m[90m-->5/9
[0m[90m-->5/11
[0m[90m-->5/11
[0m[90m-->5/12
[0m[90m-->5/12
[0m[90m-->5/13
[0m[90m-->5/14
[0m[90m-->5/16
[0m[90m-->5/17
[0m[90m-->5/17
[0mL65-Gcu2 L64-Ktz9 L63-Wbv9 L62-X_n4 L61-Yk_6 L60-Eie9 L59-Ya_3 L58-Ntt3 L57-Yy_1 L56-Rrh9 L55-Ygb1 L54-Tcl8 L53-U__1 L52-D_r1 L51-Phn6 L50-Yow8 L49-Qlp5 L48-Kls7 L47-B_o9 L46-Tdu5 L45-Wbq8 L44-Ajo4 L43-Ykq8 L42-Uxv3 L41-Dkm6 L40-Ibc8 L39-Vjj6 L38-Cjg0 L37-Vjh9 L36-E_z8 L35-C_n3 L34-Egk1 L33-Vwe0 L32-Jrb2 L31-Kgx9 L30-Apb9 L29-Jzx9 L28-Yus8 L27-Vho0 L26-Xlb7 L25-Pry7 L24-Fim5 L23-Gkm5 L22-Pvu7 L21-Qvc3 L20-Crm5 L19-Cyj1 L18-Gea2 L17-Cth0 L16-T_d1 L15-D_k8 L14-Cwm7 L13-Wpe1 L12-Mhx3 L11-Wkl1 L10-Nbw4 L9-Nh_3 L8-Mf_0 L7-Giw0 L6-Fxv5 L5-Say2 L4-Frm2 L3-Dgz6 L2-Euw5 L1-Ica8
[90m-->6/8
[0m[90m-->6/8
[0m[90m-->6/9
[0m[90m-->6/9
[0m[90m-->6/11
[0m[90m-->6/11
[0m[90m-->6/12
[0m[90m-->6/12
[0m[90m-->6/13
[0m[90m-->6/14
[0m[90m-->6/16
[0m[90m-->6/17
[0m[90m-->6/17
[0mL78-Gcu2 L77-Ktz9 L76-Wbv9 L75-X_n4 L74-Yk_6 L73-Eie9 L72-Ya_3 L71-Ntt3 L70-Yy_1 L69-Rrh9 L68-Ygb1 L67-Tcl8 L66-U__1 L65-D_r1 L64-Phn6 L63-Yow8 L62-Qlp5 L61-Kls7 L60-B_o9 L59-Tdu5 L58-Wbq8 L57-Ajo4 L56-Ykq8 L55-Uxv3 L54-Dkm6 L53-Ibc8 L52-Vjj6 L51-Cjg0 L50-Vjh9 L49-E_z8 L48-C_n3 L47-Egk1 L46-Vwe0 L45-Jrb2 L44-Kgx9 L43-Apb9 L42-Jzx9 L41-Yus8 L40-Vho0 L39-Xlb7 L38-Pry7 L37-Fim5 L36-Gkm5 L35-Pvu7 L34-Qvc3 L33-Crm5 L32-Cyj1 L31-Gea2 L30-Cth0 L29-T_d1 L28-D_k8 L27-Cwm7 L26-Wpe1 L25-Mhx3 L24-Wkl1 L23-Nbw4 L22-Nh_3 L21-Mf_0 L20-Giw0 L19-Fxv5 L18-Say2 L17-Frm2 L16-Dgz6 L15-Euw5 L14-Ica8 L13-Pt_6 L12-Koz3 L11-Pgl4 L10-Vpv4 L9-Nos2 L8-Kxt5 L7-Phw6 L6-Zbn6 L5-Iaa0 L4-Ive8 L3-J_e3 L2-Fkt6 L1-Usx8
[90m-->7/8
[0m[90m-->7/8
[0m[90m-->7/9
[0m[90m-->7/9
[0m[90m-->7/11
[0m[90m-->7/11
[0m[90m-->7/12
[0m[90m-->7/12
[0m[90m-->7/13
[0m[90m-->7/14
[0m[90m-->7/16
[0m[90m-->7/17
[0m[90m-->7/17
[0mL91-Gcu2 L90-Ktz9 L89-Wbv9 L88-X_n4 L87-Yk_6 L86-Eie9 L85-Ya_3 L84-Ntt3 L83-Yy_1 L82-Rrh9 L81-Ygb1 L80-Tcl8 L79-U__1 L78-D_r1 L77-Phn6 L76-Yow8 L75-Qlp5 L74-Kls7 L73-B_o9 L72-Tdu5 L71-Wbq8 L70-Ajo4 L69-Ykq8 L68-Uxv3 L67-Dkm6 L66-Ibc8 L65-Vjj6 L64-Cjg0 L63-Vjh9 L62-E_z8 L61-C_n3 L60-Egk1 L59-Vwe0 L58-Jrb2 L57-Kgx9 L56-Apb9 L55-Jzx9 L54-Yus8 L53-Vho0 L52-Xlb7 L51-Pry7 L50-Fim5 L49-Gkm5 L48-Pvu7 L47-Qvc3 L46-Crm5 L45-Cyj1 L44-Gea2 L43-Cth0 L42-T_d1 L41-D_k8 L40-Cwm7 L39-Wpe1 L38-Mhx3 L37-Wkl1 L36-Nbw4 L35-Nh_3 L34-Mf_0 L33-Giw0 L32-Fxv5 L31-Say2 L30-Frm2 L29-Dgz6 L28-Euw5 L27-Ica8 L26-Pt_6 L25-Koz3 L24-Pgl4 L23-Vpv4 L22-Nos2 L21-Kxt5 L20-Phw6 L19-Zbn6 L18-Iaa0 L17-Ive8 L16-J_e3 L15-Fkt6 L14-Usx8 L13-Teo8 L12-R_q7 L11-Mjj1 L10-Jrd6 L9-Win5 L8-Zo_4 L7-Haq5 L6-Pj_3 L5-Qiv0 L4-Diy3 L3-Voq1 L2-X_l1 L1-Hjr2
[90m-->8/8
[0m[90m-->8/8
[0m[90m-->8/9
[0m[90m-->8/9
[0m[90m-->8/11
[0m[90m-->8/11
[0m[90m-->8/12
[0m[90m-->8/12
[0m[90m-->8/13
[0m[90m-->8/14
[0m[90m-->8/16
[0m[90m-->8/17
[0m[90m-->8/17
[0mL104-Gcu2 L103-Ktz9 L102-Wbv9 L101-X_n4 L100-Yk_6 L99-Eie9 L98-Ya_3 L97-Ntt3 L96-Yy_1 L95-Rrh9 L94-Ygb1 L93-Tcl8 L92-U__1 L91-D_r1 L90-Phn6 L89-Yow8 L88-Qlp5 L87-Kls7 L86-B_o9 L85-Tdu5 L84-Wbq8 L83-Ajo4 L82-Ykq8 L81-Uxv3 L80-Dkm6 L79-Ibc8 L78-Vjj6 L77-Cjg0 L76-Vjh9 L75-E_z8 L74-C_n3 L73-Egk1 L72-Vwe0 L71-Jrb2 L70-Kgx9 L69-Apb9 L68-Jzx9 L67-Yus8 L66-Vho0 L65-Xlb7 L64-Pry7 L63-Fim5 L62-Gkm5 L61-Pvu7 L60-Qvc3 L59-Crm5 L58-Cyj1 L57-Gea2 L56-Cth0 L55-T_d1 L54-D_k8 L53-Cwm7 L52-Wpe1 L51-Mhx3 L50-Wkl1 L49-Nbw4 L48-Nh_3 L47-Mf_0 L46-Giw0 L45-Fxv5 L44-Say2 L43-Frm2 L42-Dgz6 L41-Euw5 L40-Ica8 L39-Pt_6 L38-Koz3 L37-Pgl4 L36-Vpv4 L35-Nos2 L34-Kxt5 L33-Phw6 L32-Zbn6 L31-Iaa0 L30-Ive8 L29-J_e3 L28-Fkt6 L27-Usx8 L26-Teo8 L25-R_q7 L24-Mjj1 L23-Jrd6 L22-Win5 L21-Zo_4 L20-Haq5 L19-Pj_3 L18-Qiv0 L17-Diy3 L16-Voq1 L15-X_l1 L14-Hjr2 L13-Zrw2 L12-Vya3 L11-Uyy1 L10-Qmz4 L9-E_c7 L8-Yme7 L7-Nko8 L6-Rsg1 L5-X_m3 L4-Jux7 L3-Swz3 L2-Fje7 L1-Bqb6
[90m-->8/8
[0m[90m-->8/8
[0m[90m-->9/9
[0m[90m-->9/9
[0m[90m-->9/11
[0m[90m-->9/11
[0m[90m-->9/12
[0m[90m-->9/12
[0m[90m-->9/13
[0m[90m-->9/14
[0m[90m-->9/16
[0m[90m-->9/17
[0m[90m-->9/17
[0mL115-Gcu2 L114-Ktz9 L113-Wbv9 L112-X_n4 L111-Yk_6 L110-Eie9 L109-Ya_3 L108-Ntt3 L107-Yy_1 L106-Rrh9 L105-Ygb1 L104-D_r1 L103-Phn6 L102-Yow8 L101-Qlp5 L100-Kls7 L99-B_o9 L98-Tdu5 L97-Wbq8 L96-Ajo4 L95-Ykq8 L94-Uxv3 L93-Dkm6 L92-Ibc8 L91-Vjj6 L90-Cjg0 L89-Vjh9 L88-E_z8 L87-C_n3 L86-Egk1 L85-Vwe0 L84-Jrb2 L83-Kgx9 L82-Apb9 L81-Jzx9 L80-Yus8 L79-Vho0 L78-Xlb7 L77-Pry7 L76-Fim5 L75-Gkm5 L74-Pvu7 L73-Qvc3 L72-Crm5 L71-Cyj1 L70-Gea2 L69-Cth0 L68-T_d1 L67-D_k8 L66-Cwm7 L65-Wpe1 L64-Mhx3 L63-Wkl1 L62-Nbw4 L61-Nh_3 L60-Mf_0 L59-Giw0 L58-Fxv5 L57-Say2 L56-Frm2 L55-Dgz6 L54-Euw5 L53-Ica8 L52-Pt_6 L51-Koz3 L50-Pgl4 L49-Vpv4 L48-Nos2 L47-Kxt5 L46-Phw6 L45-Zbn6 L44-Iaa0 L43-Ive8 L42-J_e3 L41-Fkt6 L40-Usx8 L39-Teo8 L38-R_q7 L37-Mjj1 L36-Jrd6 L35-Win5 L34-Zo_4 L33-Haq5 L32-Pj_3 L31-Qiv0 L30-Diy3 L29-Voq1 L28-X_l1 L27-Hjr2 L26-Zrw2 L25-Vya3 L24-Uyy1 L23-Qmz4 L22-E_c7 L21-Yme7 L20-Nko8 L19-Rsg1 L18-X_m3 L17-Jux7 L16-Swz3 L15-Fje7 L14-Bqb6 L13-Ilx2 L12-Fjd6 L11-Agd7 L10-Yss2 L9-Xdt2 L8-Zet0 L7-Ybu4 L6-Iuv7 L5-Fs_0 L4-Zbo0 L3-Heq1 L2-W__5 L1-Ia_8
[90m-->8/8
[0m[90m-->8/8
[0m[90m-->9/9
[0m[90m-->9/9
[0m[90m-->10/11
[0m[90m-->10/11
[0m[90m-->10/12
[0m[90m-->10/12
[0m[90m-->10/13
[0m[90m-->10/14
[0m[90m-->10/16
[0m[90m-->10/17
[0m[90m-->10/17
[0mL124-Gcu2 L123-Ktz9 L122-Wbv9 L121-X_n4 L120-Yk_6 L119-Eie9 L118-Ya_3 L117-Ntt3 L116-Yy_1 L115-D_r1 L114-Phn6 L113-Yow8 L112-Qlp5 L111-Kls7 L110-B_o9 L109-Tdu5 L108-Wbq8 L107-Ajo4 L106-Ykq8 L105-Uxv3 L104-Vjj6 L103-Cjg0 L102-Vjh9 L101-E_z8 L100-C_n3 L99-Egk1 L98-Vwe0 L97-Jrb2 L96-Kgx9 L95-Apb9 L94-Jzx9 L93-Yus8 L92-Vho0 L91-Xlb7 L90-Pry7 L89-Fim5 L88-Gkm5 L87-Pvu7 L86-Qvc3 L85-Crm5 L84-Cyj1 L83-Gea2 L82-Cth0 L81-T_d1 L80-D_k8 L79-Cwm7 L78-Wpe1 L77-Mhx3 L76-Wkl1 L75-Nbw4 L74-Nh_3 L73-Mf_0 L72-Giw0 L71-Fxv5 L70-Say2 L69-Frm2 L68-Dgz6 L67-Euw5 L66-Ica8 L65-Pt_6 L64-Koz3 L63-Pgl4 L62-Vpv4 L61-Nos2 L60-Kxt5 L59-Phw6 L58-Zbn6 L57-Iaa0 L56-Ive8 L55-J_e3 L54-Fkt6 L53-Usx8 L52-Teo8 L51-R_q7 L50-Mjj1 L49-Jrd6 L48-Win5 L47-Zo_4 L46-Haq5 L45-Pj_3 L44-Qiv0 L43-Diy3 L42-Voq1 L41-X_l1 L40-Hjr2 L39-Zrw2 L38-Vya3 L37-Uyy1 L36-Qmz4 L35-E_c7 L34-Yme7 L33-Nko8 L32-Rsg1 L31-X_m3 L30-Jux7 L29-Swz3 L28-Fje7 L27-Bqb6 L26-Ilx2 L25-Fjd6 L24-Agd7 L23-Yss2 L22-Xdt2 L21-Zet0 L20-Ybu4 L19-Iuv7 L18-Fs_0 L17-Zbo0 L16-Heq1 L15-W__5 L14-Ia_8 L13-Iiv5 L12-Jp_4 L11-Xdj2 L10-Muu7 L9-G_g2 L8-Jaf6 L7-Hao7 L6-Plv6 L5-Sfl4 L4-Rrw8 L3-Ocd3 L2-Nqj1 L1-Zwm3
[90m-->8/8
[0m[90m-->8/8
[0m[90m-->9/9
[0m[90m-->9/9
[0m[90m-->11/11
[0m[90m-->11/11
[0m[90m-->11/12
[0m[90m-->11/12
[0m[90m-->11/13
[0m[90m-->11/14
[0m[90m-->11/16
[0m[90m-->11/17
[0m[90m-->11/17
[0mL133-Gcu2 L132-Ktz9 L131-Wbv9 L130-X_n4 L129-Yk_6 L128-Eie9 L127-Ya_3 L126-Ntt3 L125-Yy_1 L124-D_r1 L123-Phn6 L122-Yow8 L121-Qlp5 L120-Kls7 L119-B_o9 L118-Tdu5 L117-Wbq8 L116-Ajo4 L115-Vjj6 L114-Cjg0 L113-Vjh9 L112-E_z8 L111-C_n3 L110-Egk1 L109-Vwe0 L108-Jrb2 L107-Kgx9 L106-Apb9 L105-Jzx9 L104-Xlb7 L103-Pry7 L102-Fim5 L101-Gkm5 L100-Pvu7 L99-Qvc3 L98-Crm5 L97-Cyj1 L96-Gea2 L95-Cth0 L94-T_d1 L93-D_k8 L92-Cwm7 L91-Wpe1 L90-Mhx3 L89-Wkl1 L88-Nbw4 L87-Nh_3 L86-Mf_0 L85-Giw0 L84-Fxv5 L83-Say2 L82-Frm2 L81-Dgz6 L80-Euw5 L79-Ica8 L78-Pt_6 L77-Koz3 L76-Pgl4 L75-Vpv4 L74-Nos2 L73-Kxt5 L72-Phw6 L71-Zbn6 L70-Iaa0 L69-Ive8 L68-J_e3 L67-Fkt6 L66-Usx8 L65-Teo8 L64-R_q7 L63-Mjj1 L62-Jrd6 L61-Win5 L60-Zo_4 L59-Haq5 L58-Pj_3 L57-Qiv0 L56-Diy3 L55-Voq1 L54-X_l1 L53-Hjr2 L52-Zrw2 L51-Vya3 L50-Uyy1 L49-Qmz4 L48-E_c7 L47-Yme7 L46-Nko8 L45-Rsg1 L44-X_m3 L43-Jux7 L42-Swz3 L41-Fje7 L40-Bqb6 L39-Ilx2 L38-Fjd6 L37-Agd7 L36-Yss2 L35-Xdt2 L34-Zet0 L33-Ybu4 L32-Iuv7 L31-Fs_0 L30-Zbo0 L29-Heq1 L28-W__5 L27-Ia_8 L26-Iiv5 L25-Jp_4 L24-Xdj2 L23-Muu7 L22-G_g2 L21-Jaf6 L20-Hao7 L19-Plv6 L18-Sfl4 L17-Rrw8 L16-Ocd3 L15-Nqj1 L14-Zwm3 L13-Yxo6 L12-Cuk7 L11-Qch7 L10-E_e8 L9-C_b0 L8-J_e4 L7-J_c6 L6-C_s4 L5-Muy6 L4-Nfk8 L3-Nuo2 L2-Bwx7 L1-Hnq6
[90m-->8/8
[0m[90m-->8/8
[0m[90m-->9/9
[0m[90m-->9/9
[0m[90m-->11/11
[0m[90m-->11/11
[0m[90m-->12/12
[0m[90m-->12/12
[0m[90m-->12/13
[0m[90m-->12/14
[0m[90m-->12/16
[0m[90m-->12/17
[0m[90m-->12/17
[0mL140-Gcu2 L139-Ktz9 L138-Wbv9 L137-X_n4 L136-Yk_6 L135-Eie9 L134-Ya_3 L133-D_r1 L132-Phn6 L131-Yow8 L130-Qlp5 L129-Kls7 L128-B_o9 L127-Tdu5 L126-Wbq8 L125-Ajo4 L124-Vjj6 L123-Cjg0 L122-Vjh9 L121-E_z8 L120-C_n3 L119-Egk1 L118-Vwe0 L117-Jrb2 L116-Kgx9 L115-Xlb7 L114-Pry7 L113-Fim5 L112-Gkm5 L111-Pvu7 L110-Qvc3 L109-Crm5 L108-Cyj1 L107-Gea2 L106-Cth0 L105-T_d1 L104-Wpe1 L103-Mhx3 L102-Wkl1 L101-Nbw4 L100-Nh_3 L99-Mf_0 L98-Giw0 L97-Fxv5 L96-Say2 L95-Frm2 L94-Dgz6 L93-Euw5 L92-Ica8 L91-Pt_6 L90-Koz3 L89-Pgl4 L88-Vpv4 L87-Nos2 L86-Kxt5 L85-Phw6 L84-Zbn6 L83-Iaa0 L82-Ive8 L81-J_e3 L80-Fkt6 L79-Usx8 L78-Teo8 L77-R_q7 L76-Mjj1 L75-Jrd6 L74-Win5 L73-Zo_4 L72-Haq5 L71-Pj_3 L70-Qiv0 L69-Diy3 L68-Voq1 L67-X_l1 L66-Hjr2 L65-Zrw2 L64-Vya3 L63-Uyy1 L62-Qmz4 L61-E_c7 L60-Yme7 L59-Nko8 L58-Rsg1 L57-X_m3 L56-Jux7 L55-Swz3 L54-Fje7 L53-Bqb6 L52-Ilx2 L51-Fjd6 L50-Agd7 L49-Yss2 L48-Xdt2 L47-Zet0 L46-Ybu4 L45-Iuv7 L44-Fs_0 L43-Zbo0 L42-Heq1 L41-W__5 L40-Ia_8 L39-Iiv5 L38-Jp_4 L37-Xdj2 L36-Muu7 L35-G_g2 L34-Jaf6 L33-Hao7 L32-Plv6 L31-Sfl4 L30-Rrw8 L29-Ocd3 L28-Nqj1 L27-Zwm3 L26-Yxo6 L25-Cuk7 L24-Qch7 L23-E_e8 L22-C_b0 L21-J_e4 L20-J_c6 L19-C_s4 L18-Muy6 L17-Nfk8 L16-Nuo2 L15-Bwx7 L14-Hnq6 L13-Ymt9 L12-Qvw3 L11-Qjc2 L10-Vsd2 L9-Ma_8 L8-Kqa5 L7-Gbs5 L6-Xlm8 L5-Beg9 L4-P_n2 L3-Snb2 L2-Xyf6 L1-J_a6
[90m-->8/8
[0m[90m-->8/8
[0m[90m-->9/9
[0m[90m-->9/9
[0m[90m-->11/11
[0m[90m-->11/11
[0m[90m-->12/12
[0m[90m-->12/12
[0m[90m-->13/13
[0m[90m-->13/14
[0m[90m-->13/16
[0m[90m-->13/17
[0m[90m-->13/17
[0mL145-Gcu2 L144-Ktz9 L143-Wbv9 L142-X_n4 L141-Yk_6 L140-D_r1 L139-Phn6 L138-Yow8 L137-Qlp5 L136-Kls7 L135-B_o9 L134-Tdu5 L133-Vjj6 L132-Cjg0 L131-Vjh9 L130-E_z8 L129-C_n3 L128-Egk1 L127-Vwe0 L126-Jrb2 L125-Kgx9 L124-Xlb7 L123-Pry7 L122-Fim5 L121-Gkm5 L120-Pvu7 L119-Qvc3 L118-Crm5 L117-Cyj1 L116-Gea2 L115-Wpe1 L114-Mhx3 L113-Wkl1 L112-Nbw4 L111-Nh_3 L110-Mf_0 L109-Giw0 L108-Fxv5 L107-Say2 L106-Frm2 L105-Dgz6 L104-Pt_6 L103-Koz3 L102-Pgl4 L101-Vpv4 L100-Nos2 L99-Kxt5 L98-Phw6 L97-Zbn6 L96-Iaa0 L95-Ive8 L94-J_e3 L93-Fkt6 L92-Usx8 L91-Teo8 L90-R_q7 L89-Mjj1 L88-Jrd6 L87-Win5 L86-Zo_4 L85-Haq5 L84-Pj_3 L83-Qiv0 L82-Diy3 L81-Voq1 L80-X_l1 L79-Hjr2 L78-Zrw2 L77-Vya3 L76-Uyy1 L75-Qmz4 L74-E_c7 L73-Yme7 L72-Nko8 L71-Rsg1 L70-X_m3 L69-Jux7 L68-Swz3 L67-Fje7 L66-Bqb6 L65-Ilx2 L64-Fjd6 L63-Agd7 L62-Yss2 L61-Xdt2 L60-Zet0 L59-Ybu4 L58-Iuv7 L57-Fs_0 L56-Zbo0 L55-Heq1 L54-W__5 L53-Ia_8 L52-Iiv5 L51-Jp_4 L50-Xdj2 L49-Muu7 L48-G_g2 L47-Jaf6 L46-Hao7 L45-Plv6 L44-Sfl4 L43-Rrw8 L42-Ocd3 L41-Nqj1 L40-Zwm3 L39-Yxo6 L38-Cuk7 L37-Qch7 L36-E_e8 L35-C_b0 L34-J_e4 L33-J_c6 L32-C_s4 L31-Muy6 L30-Nfk8 L29-Nuo2 L28-Bwx7 L27-Hnq6 L26-Ymt9 L25-Qvw3 L24-Qjc2 L23-Vsd2 L22-Ma_8 L21-Kqa5 L20-Gbs5 L19-Xlm8 L18-Beg9 L17-P_n2 L16-Snb2 L15-Xyf6 L14-J_a6 L13-Fwm8 L12-Gjp0 L11-Mvt1 L10-Mzx1 L9-Dud4 L8-Uz_2 L7-I_b5 L6-Qb_2 L5-Wcx6 L4-Hhw2 L3-Hdh8 L2-Hs_4 L1-F_b8
[90m-->8/8
[0m[90m-->8/8
[0m[90m-->9/9
[0m[90m-->9/9
[0m[90m-->11/11
[0m[90m-->11/11
[0m[90m-->12/12
[0m[90m-->12/12
[0m[90m-->13/13
[0m[90m-->14/14
[0m[90m-->14/16
[0m[90m-->14/17
[0m[90m-->14/17
[0mL149-Gcu2 L148-Ktz9 L147-Wbv9 L146-X_n4 L145-D_r1 L144-Phn6 L143-Yow8 L142-Qlp5 L141-Kls7 L140-Vjj6 L139-Cjg0 L138-Vjh9 L137-E_z8 L136-C_n3 L135-Egk1 L134-Vwe0 L133-Xlb7 L132-Pry7 L131-Fim5 L130-Gkm5 L129-Pvu7 L128-Qvc3 L127-Crm5 L126-Cyj1 L125-Gea2 L124-Wpe1 L123-Mhx3 L122-Wkl1 L121-Nbw4 L120-Nh_3 L119-Mf_0 L118-Giw0 L117-Fxv5 L116-Say2 L115-Pt_6 L114-Koz3 L113-Pgl4 L112-Vpv4 L111-Nos2 L110-Kxt5 L109-Phw6 L108-Zbn6 L107-Iaa0 L106-Ive8 L105-J_e3 L104-Teo8 L103-R_q7 L102-Mjj1 L101-Jrd6 L100-Win5 L99-Zo_4 L98-Haq5 L97-Pj_3 L96-Qiv0 L95-Diy3 L94-Voq1 L93-X_l1 L92-Hjr2 L91-Zrw2 L90-Vya3 L89-Uyy1 L88-Qmz4 L87-E_c7 L86-Yme7 L85-Nko8 L84-Rsg1 L83-X_m3 L82-Jux7 L81-Swz3 L80-Fje7 L79-Bqb6 L78-Ilx2 L77-Fjd6 L76-Agd7 L75-Yss2 L74-Xdt2 L73-Zet0 L72-Ybu4 L71-Iuv7 L70-Fs_0 L69-Zbo0 L68-Heq1 L67-W__5 L66-Ia_8 L65-Iiv5 L64-Jp_4 L63-Xdj2 L62-Muu7 L61-G_g2 L60-Jaf6 L59-Hao7 L58-Plv6 L57-Sfl4 L56-Rrw8 L55-Ocd3 L54-Nqj1 L53-Zwm3 L52-Yxo6 L51-Cuk7 L50-Qch7 L49-E_e8 L48-C_b0 L47-J_e4 L46-J_c6 L45-C_s4 L44-Muy6 L43-Nfk8 L42-Nuo2 L41-Bwx7 L40-Hnq6 L39-Ymt9 L38-Qvw3 L37-Qjc2 L36-Vsd2 L35-Ma_8 L34-Kqa5 L33-Gbs5 L32-Xlm8 L31-Beg9 L30-P_n2 L29-Snb2 L28-Xyf6 L27-J_a6 L26-Fwm8 L25-Gjp0 L24-Mvt1 L23-Mzx1 L22-Dud4 L21-Uz_2 L20-I_b5 L19-Qb_2 L18-Wcx6 L17-Hhw2 L16-Hdh8 L15-Hs_4 L14-F_b8 L13-Z_u0 L12-Dcr9 L11-Yuw1 L10-V_f6 L9-Dxq3 L8-Yta7 L7-Cpq1 L6-Bbw2 L5-Csh4 L4-Elg6 L3-Hth5 L2-H_h6 L1-Xwx4
[90m-->8/8
[0m[90m-->8/8
[0m[90m-->9/9
[0m[90m-->9/9
[0m[90m-->11/11
[0m[90m-->11/11
[0m[90m-->12/12
[0m[90m-->12/12
[0m[90m-->13/13
[0m[90m-->14/14
[0m[90m-->15/16
[0m[90m-->15/17
[0m[90m-->15/17
[0mL152-Gcu2 L151-Ktz9 L150-Wbv9 L149-D_r1 L148-Phn6 L147-Yow8 L146-Qlp5 L145-Vjj6 L144-Cjg0 L143-Vjh9 L142-E_z8 L141-C_n3 L140-Xlb7 L139-Pry7 L138-Fim5 L137-Gkm5 L136-Pvu7 L135-Qvc3 L134-Crm5 L133-Wpe1 L132-Mhx3 L131-Wkl1 L130-Nbw4 L129-Nh_3 L128-Mf_0 L127-Giw0 L126-Fxv5 L125-Say2 L124-Pt_6 L123-Koz3 L122-Pgl4 L121-Vpv4 L120-Nos2 L119-Kxt5 L118-Phw6 L117-Zbn6 L116-Iaa0 L115-Teo8 L114-R_q7 L113-Mjj1 L112-Jrd6 L111-Win5 L110-Zo_4 L109-Haq5 L108-Pj_3 L107-Qiv0 L106-Diy3 L105-Voq1 L104-Zrw2 L103-Vya3 L102-Uyy1 L101-Qmz4 L100-E_c7 L99-Yme7 L98-Nko8 L97-Rsg1 L96-X_m3 L95-Jux7 L94-Swz3 L93-Fje7 L92-Bqb6 L91-Ilx2 L90-Fjd6 L89-Agd7 L88-Yss2 L87-Xdt2 L86-Zet0 L85-Ybu4 L84-Iuv7 L83-Fs_0 L82-Zbo0 L81-Heq1 L80-W__5 L79-Ia_8 L78-Iiv5 L77-Jp_4 L76-Xdj2 L75-Muu7 L74-G_g2 L73-Jaf6 L72-Hao7 L71-Plv6 L70-Sfl4 L69-Rrw8 L68-Ocd3 L67-Nqj1 L66-Zwm3 L65-Yxo6 L64-Cuk7 L63-Qch7 L62-E_e8 L61-C_b0 L60-J_e4 L59-J_c6 L58-C_s4 L57-Muy6 L56-Nfk8 L55-Nuo2 L54-Bwx7 L53-Hnq6 L52-Ymt9 L51-Qvw3 L50-Qjc2 L49-Vsd2 L48-Ma_8 L47-Kqa5 L46-Gbs5 L45-Xlm8 L44-Beg9 L43-P_n2 L42-Snb2 L41-Xyf6 L40-J_a6 L39-Fwm8 L38-Gjp0 L37-Mvt1 L36-Mzx1 L35-Dud4 L34-Uz_2 L33-I_b5 L32-Qb_2 L31-Wcx6 L30-Hhw2 L29-Hdh8 L28-Hs_4 L27-F_b8 L26-Z_u0 L25-Dcr9 L24-Yuw1 L23-V_f6 L22-Dxq3 L21-Yta7 L20-Cpq1 L19-Bbw2 L18-Csh4 L17-Elg6 L16-Hth5 L15-H_h6 L14-Xwx4 L13-Tz_6 L12-Dzx7 L11-Erj4 L10-Aew8 L9-Do_1 L8-Wju6 L7-T_u0 L6-Ukm1 L5-Jmo3 L4-Pnr0 L3-Tkb0 L2-W__0 L1-Eww3
L152-D_r1 L151-Phn6 L150-Yow8 L149-Vjj6 L148-Cjg0 L147-Vjh9 L146-E_z8 L145-Xlb7 L144-Pry7 L143-Fim5 L142-Gkm5 L141-Pvu7 L140-Wpe1 L139-Mhx3 L138-Wkl1 L137-Nbw4 L136-Nh_3 L135-Mf_0 L134-Giw0 L133-Pt_6 L132-Koz3 L131-Pgl4 L130-Vpv4 L129-Nos2 L128-Kxt5 L127-Phw6 L126-Zbn6 L125-Iaa0 L124-Teo8 L123-R_q7 L122-Mjj1 L121-Jrd6 L120-Win5 L119-Zo_4 L118-Haq5 L117-Pj_3 L116-Qiv0 L115-Zrw2 L114-Vya3 L113-Uyy1 L112-Qmz4 L111-E_c7 L110-Yme7 L109-Nko8 L108-Rsg1 L107-X_m3 L106-Jux7 L105-Swz3 L104-Ilx2 L103-Fjd6 L102-Agd7 L101-Yss2 L100-Xdt2 L99-Zet0 L98-Ybu4 L97-Iuv7 L96-Fs_0 L95-Zbo0 L94-Heq1 L93-W__5 L92-Ia_8 L91-Iiv5 L90-Jp_4 L89-Xdj2 L88-Muu7 L87-G_g2 L86-Jaf6 L85-Hao7 L84-Plv6 L83-Sfl4 L82-Rrw8 L81-Ocd3 L80-Nqj1 L79-Zwm3 L78-Yxo6 L77-Cuk7 L76-Qch7 L75-E_e8 L74-C_b0 L73-J_e4 L72-J_c6 L71-C_s4 L70-Muy6 L69-Nfk8 L68-Nuo2 L67-Bwx7 L66-Hnq6 L65-Ymt9 L64-Qvw3 L63-Qjc2 L62-Vsd2 L61-Ma_8 L60-Kqa5 L59-Gbs5 L58-Xlm8 L57-Beg9 L56-P_n2 L55-Snb2 L54-Xyf6 L53-J_a6 L52-Fwm8 L51-Gjp0 L50-Mvt1 L49-Mzx1 L48-Dud4 L47-Uz_2 L46-I_b5 L45-Qb_2 L44-Wcx6 L43-Hhw2 L42-Hdh8 L41-Hs_4 L40-F_b8 L39-Z_u0 L38-Dcr9 L37-Yuw1 L36-V_f6 L35-Dxq3 L34-Yta7 L33-Cpq1 L32-Bbw2 L31-Csh4 L30-Elg6 L29-Hth5 L28-H_h6 L27-Xwx4 L26-Tz_6 L25-Dzx7 L24-Erj4 L23-Aew8 L22-Do_1 L21-Wju6 L20-T_u0 L19-Ukm1 L18-Jmo3 L17-Pnr0 L16-Tkb0 L15-W__0 L14-Eww3 L13-Y_i6 L12-Y_i6 L11-Ecb2 L10-Npi8 L9-Vmu3 L8-Fkj5 L7-Bsx0 L6-Dvc5 L5-Aak7 L4-B_c2 L3-Dse5 L2-Drx0 L1-Sue7
L152-Vjj6 L151-Cjg0 L150-Vjh9 L149-Xlb7 L148-Pry7 L147-Fim5 L146-Gkm5 L145-Wpe1 L144-Mhx3 L143-Wkl1 L142-Nbw4 L141-Nh_3 L140-Pt_6 L139-Koz3 L138-Pgl4 L137-Vpv4 L136-Nos2 L135-Kxt5 L134-Phw6 L133-Teo8 L132-R_q7 L131-Mjj1 L130-Jrd6 L129-Win5 L128-Zo_4 L127-Haq5 L126-Pj_3 L125-Qiv0 L124-Zrw2 L123-Vya3 L122-Uyy1 L121-Qmz4 L120-E_c7 L119-Yme7 L118-Nko8 L117-Rsg1 L116-X_m3 L115-Ilx2 L114-Fjd6 L113-Agd7 L112-Yss2 L111-Xdt2 L110-Zet0 L109-Ybu4 L108-Iuv7 L107-Fs_0 L106-Zbo0 L105-Heq1 L104-Iiv5 L103-Jp_4 L102-Xdj2 L101-Muu7 L100-G_g2 L99-Jaf6 L98-Hao7 L97-Plv6 L96-Sfl4 L95-Rrw8 L94-Ocd3 L93-Nqj1 L92-Zwm3 L91-Yxo6 L90-Cuk7 L89-Qch7 L88-E_e8 L87-C_b0 L86-J_e4 L85-J_c6 L84-C_s4 L83-Muy6 L82-Nfk8 L81-Nuo2 L80-Bwx7 L79-Hnq6 L78-Ymt9 L77-Qvw3 L76-Qjc2 L75-Vsd2 L74-Ma_8 L73-Kqa5 L72-Gbs5 L71-Xlm8 L70-Beg9 L69-P_n2 L68-Snb2 L67-Xyf6 L66-J_a6 L65-Fwm8 L64-Gjp0 L63-Mvt1 L62-Mzx1 L61-Dud4 L60-Uz_2 L59-I_b5 L58-Qb_2 L57-Wcx6 L56-Hhw2 L55-Hdh8 L54-Hs_4 L53-F_b8 L52-Z_u0 L51-Dcr9 L50-Yuw1 L49-V_f6 L48-Dxq3 L47-Yta7 L46-Cpq1 L45-Bbw2 L44-Csh4 L43-Elg6 L42-Hth5 L41-H_h6 L40-Xwx4 L39-Tz_6 L38-Dzx7 L37-Erj4 L36-Aew8 L35-Do_1 L34-Wju6 L33-T_u0 L32-Ukm1 L31-Jmo3 L30-Pnr0 L29-Tkb0 L28-W__0 L27-Eww3 L26-Y_i6 L25-Y_i6 L24-Ecb2 L23-Npi8 L22-Vmu3 L21-Fkj5 L20-Bsx0 L19-Dvc5 L18-Aak7 L17-B_c2 L16-Dse5 L15-Drx0 L14-Sue7 L11-Y_i6 L10-Mgn1 L9-Xow0 L8-Fyy0 L7-Oqb6 L6-Prw2 L5-Va_9 L4-Tfr2 L3-Hkp8 L2-V__9 L1-Daw9
L152-Xlb7 L151-Pry7 L150-Fim5 L149-Wpe1 L148-Mhx3 L147-Wkl1 L146-Nbw4 L145-Pt_6 L144-Koz3 L143-Pgl4 L142-Vpv4 L141-Nos2 L140-Teo8 L139-R_q7 L138-Mjj1 L137-Jrd6 L136-Win5 L135-Zo_4 L134-Haq5 L133-Zrw2 L132-Vya3 L131-Uyy1 L130-Qmz4 L129-E_c7 L128-Yme7 L127-Nko8 L126-Rsg1 L125-X_m3 L124-Ilx2 L123-Fjd6 L122-Agd7 L121-Yss2 L120-Xdt2 L119-Zet0 L118-Ybu4 L117-Iuv7 L116-Fs_0 L115-Iiv5 L114-Jp_4 L113-Xdj2 L112-Muu7 L111-G_g2 L110-Jaf6 L109-Hao7 L108-Plv6 L107-Sfl4 L106-Rrw8 L105-Ocd3 L104-Yxo6 L103-Cuk7 L102-Qch7 L101-E_e8 L100-C_b0 L99-J_e4 L98-J_c6 L97-C_s4 L96-Muy6 L95-Nfk8 L94-Nuo2 L93-Bwx7 L92-Hnq6 L91-Ymt9 L90-Qvw3 L89-Qjc2 L88-Vsd2 L87-Ma_8 L86-Kqa5 L85-Gbs5 L84-Xlm8 L83-Beg9 L82-P_n2 L81-Snb2 L80-Xyf6 L79-J_a6 L78-Fwm8 L77-Gjp0 L76-Mvt1 L75-Mzx1 L74-Dud4 L73-Uz_2 L72-I_b5 L71-Qb_2 L70-Wcx6 L69-Hhw2 L68-Hdh8 L67-Hs_4 L66-F_b8 L65-Z_u0 L64-Dcr9 L63-Yuw1 L62-V_f6 L61-Dxq3 L60-Yta7 L59-Cpq1 L58-Bbw2 L57-Csh4 L56-Elg6 L55-Hth5 L54-H_h6 L53-Xwx4 L52-Tz_6 L51-Dzx7 L50-Erj4 L49-Aew8 L48-Do_1 L47-Wju6 L46-T_u0 L45-Ukm1 L44-Jmo3 L43-Pnr0 L42-Tkb0 L41-W__0 L40-Eww3 L39-Y_i6 L38-Y_i6 L37-Ecb2 L36-Npi8 L35-Vmu3 L34-Fkj5 L33-Bsx0 L32-Dvc5 L31-Aak7 L30-B_c2 L29-Dse5 L28-Drx0 L27-Sue7 L24-Y_i6 L23-Mgn1 L22-Xow0 L21-Fyy0 L20-Oqb6 L19-Prw2 L18-Va_9 L17-Tfr2 L16-Hkp8 L15-V__9 L14-Daw9 L10-Wbw4 L9-G_f5 L8-Jo_7 L7-Xwu2 L6-Bc_0 L5-Bby3 L4-Frw9 L3-Tc_4 L2-Ejt8 L1-G__8
L152-Wpe1 L151-Mhx3 L150-Wkl1 L149-Pt_6 L148-Koz3 L147-Pgl4 L146-Vpv4 L145-Teo8 L144-R_q7 L143-Mjj1 L142-Jrd6 L141-Win5 L140-Zrw2 L139-Vya3 L138-Uyy1 L137-Qmz4 L136-E_c7 L135-Yme7 L134-Nko8 L133-Ilx2 L132-Fjd6 L131-Agd7 L130-Yss2 L129-Xdt2 L128-Zet0 L127-Ybu4 L126-Iuv7 L125-Fs_0 L124-Iiv5 L123-Jp_4 L122-Xdj2 L121-Muu7 L120-G_g2 L119-Jaf6 L118-Hao7 L117-Plv6 L116-Sfl4 L115-Yxo6 L114-Cuk7 L113-Qch7 L112-E_e8 L111-C_b0 L110-J_e4 L109-J_c6 L108-C_s4 L107-Muy6 L106-Nfk8 L105-Nuo2 L104-Ymt9 L103-Qvw3 L102-Qjc2 L101-Vsd2 L100-Ma_8 L99-Kqa5 L98-Gbs5 L97-Xlm8 L96-Beg9 L95-P_n2 L94-Snb2 L93-Xyf6 L92-J_a6 L91-Fwm8 L90-Gjp0 L89-Mvt1 L88-Mzx1 L87-Dud4 L86-Uz_2 L85-I_b5 L84-Qb_2 L83-Wcx6 L82-Hhw2 L81-Hdh8 L80-Hs_4 L79-F_b8 L78-Z_u0 L77-Dcr9 L76-Yuw1 L75-V_f6 L74-Dxq3 L73-Yta7 L72-Cpq1 L71-Bbw2 L70-Csh4 L69-Elg6 L68-Hth5 L67-H_h6 L66-Xwx4 L65-Tz_6 L64-Dzx7 L63-Erj4 L62-Aew8 L61-Do_1 L60-Wju6 L59-T_u0 L58-Ukm1 L57-Jmo3 L56-Pnr0 L55-Tkb0 L54-W__0 L53-Eww3 L52-Y_i6 L51-Y_i6 L50-Ecb2 L49-Npi8 L48-Vmu3 L47-Fkj5 L46-Bsx0 L45-Dvc5 L44-Aak7 L43-B_c2 L42-Dse5 L41-Drx0 L40-Sue7 L37-Y_i6 L36-Mgn1 L35-Xow0 L34-Fyy0 L33-Oqb6 L32-Prw2 L31-Va_9 L30-Tfr2 L29-Hkp8 L28-V__9 L27-Daw9 L23-Wbw4 L22-G_f5 L21-Jo_7 L20-Xwu2 L19-Bc_0 L18-Bby3 L17-Frw9 L16-Tc_4 L15-Ejt8 L14-G__8 L10-Y_i6 L9-Ecc8 L8-Gmn6 L7-X_n2 L6-Rmi7 L5-Mjs0 L4-Qi_8 L3-Aun5 L2-Hel3 L1-Wnx9
L152-Pt_6 L151-Koz3 L150-Pgl4 L149-Teo8 L148-R_q7 L147-Mjj1 L146-Jrd6 L145-Zrw2 L144-Vya3 L143-Uyy1 L142-Qmz4 L141-E_c7 L140-Ilx2 L139-Fjd6 L138-Agd7 L137-Yss2 L136-Xdt2 L135-Zet0 L134-Ybu4 L133-Iiv5 L132-Jp_4 L131-Xdj2 L130-Muu7 L129-G_g2 L128-Jaf6 L127-Hao7 L126-Plv6 L125-Sfl4 L124-Yxo6 L123-Cuk7 L122-Qch7 L121-E_e8 L120-C_b0 L119-J_e4 L118-J_c6 L117-C_s4 L116-Muy6 L115-Ymt9 L114-Qvw3 L113-Qjc2 L112-Vsd2 L111-Ma_8 L110-Kqa5 L109-Gbs5 L108-Xlm8 L107-Beg9 L106-P_n2 L105-Snb2 L104-Fwm8 L103-Gjp0 L102-Mvt1 L101-Mzx1 L100-Dud4 L99-Uz_2 L98-I_b5 L97-Qb_2 L96-Wcx6 L95-Hhw2 L94-Hdh8 L93-Hs_4 L92-F_b8 L91-Z_u0 L90-Dcr9 L89-Yuw1 L88-V_f6 L87-Dxq3 L86-Yta7 L85-Cpq1 L84-Bbw2 L83-Csh4 L82-Elg6 L81-Hth5 L80-H_h6 L79-Xwx4 L78-Tz_6 L77-Dzx7 L76-Erj4 L75-Aew8 L74-Do_1 L73-Wju6 L72-T_u0 L71-Ukm1 L70-Jmo3 L69-Pnr0 L68-Tkb0 L67-W__0 L66-Eww3 L65-Y_i6 L64-Y_i6 L63-Ecb2 L62-Npi8 L61-Vmu3 L60-Fkj5 L59-Bsx0 L58-Dvc5 L57-Aak7 L56-B_c2 L55-Dse5 L54-Drx0 L53-Sue7 L50-Y_i6 L49-Mgn1 L48-Xow0 L47-Fyy0 L46-Oqb6 L45-Prw2 L44-Va_9 L43-Tfr2 L42-Hkp8 L41-V__9 L40-Daw9 L36-Wbw4 L35-G_f5 L34-Jo_7 L33-Xwu2 L32-Bc_0 L31-Bby3 L30-Frw9 L29-Tc_4 L28-Ejt8 L27-G__8 L23-Y_i6 L22-Ecc8 L21-Gmn6 L20-X_n2 L19-Rmi7 L18-Mjs0 L17-Qi_8 L16-Aun5 L15-Hel3 L14-Wnx9 L9-Y_i6 L8-Tnu1 L7-Ahs4 L6-Rxt4 L5-Rin5 L4-Zxa5 L3-M_f1 L2-Apn2 L1-Xdc6
L152-Teo8 L151-R_q7 L150-Mjj1 L149-Zrw2 L148-Vya3 L147-Uyy1 L146-Qmz4 L145-Ilx2 L144-Fjd6 L143-Agd7 L142-Yss2 L141-Xdt2 L140-Iiv5 L139-Jp_4 L138-Xdj2 L137-Muu7 L136-G_g2 L135-Jaf6 L134-Hao7 L133-Yxo6 L132-Cuk7 L131-Qch7 L130-E_e8 L129-C_b0 L128-J_e4 L127-J_c6 L126-C_s4 L125-Muy6 L124-Ymt9 L123-Qvw3 L122-Qjc2 L121-Vsd2 L120-Ma_8 L119-Kqa5 L118-Gbs5 L117-Xlm8 L116-Beg9 L115-Fwm8 L114-Gjp0 L113-Mvt1 L112-Mzx1 L111-Dud4 L110-Uz_2 L109-I_b5 L108-Qb_2 L107-Wcx6 L106-Hhw2 L105-Hdh8 L104-Z_u0 L103-Dcr9 L102-Yuw1 L101-V_f6 L100-Dxq3 L99-Yta7 L98-Cpq1 L97-Bbw2 L96-Csh4 L95-Elg6 L94-Hth5 L93-H_h6 L92-Xwx4 L91-Tz_6 L90-Dzx7 L89-Erj4 L88-Aew8 L87-Do_1 L86-Wju6 L85-T_u0 L84-Ukm1 L83-Jmo3 L82-Pnr0 L81-Tkb0 L80-W__0 L79-Eww3 L78-Y_i6 L77-Y_i6 L76-Ecb2 L75-Npi8 L74-Vmu3 L73-Fkj5 L72-Bsx0 L71-Dvc5 L70-Aak7 L69-B_c2 L68-Dse5 L67-Drx0 L66-Sue7 L63-Y_i6 L62-Mgn1 L61-Xow0 L60-Fyy0 L59-Oqb6 L58-Prw2 L57-Va_9 L56-Tfr2 L55-Hkp8 L54-V__9 L53-Daw9 L49-Wbw4 L48-G_f5 L47-Jo_7 L46-Xwu2 L45-Bc_0 L44-Bby3 L43-Frw9 L42-Tc_4 L41-Ejt8 L40-G__8 L36-Y_i6 L35-Ecc8 L34-Gmn6 L33-X_n2 L32-Rmi7 L31-Mjs0 L30-Qi_8 L29-Aun5 L28-Hel3 L27-Wnx9 L22-Y_i6 L21-Tnu1 L20-Ahs4 L19-Rxt4 L18-Rin5 L17-Zxa5 L16-M_f1 L15-Apn2 L14-Xdc6 L8-Y_i6 L7-Y_i6 L6-Dg_7 L5-Jns8 L4-Bxn2 L3-Cti4 L2-Tjn6 L1-Din3
L152-Zrw2 L151-Vya3 L150-Uyy1 L149-Ilx2 L148-Fjd6 L147-Agd7 L146-Yss2 L145-Iiv5 L144-Jp_4 L143-Xdj2 L142-Muu7 L141-G_g2 L140-Yxo6 L139-Cuk7 L138-Qch7 L137-E_e8 L136-C_b0 L135-J_e4 L134-J_c6 L133-Ymt9 L132-Qvw3 L131-Qjc2 L130-Vsd2 L129-Ma_8 L128-Kqa5 L127-Gbs5 L126-Xlm8 L125-Beg9 L124-Fwm8 L123-Gjp0 L122-Mvt1 L121-Mzx1 L120-Dud4 L119-Uz_2 L118-I_b5 L117-Qb_2 L116-Wcx6 L115-Z_u0 L114-Dcr9 L113-Yuw1 L112-V_f6 L111-Dxq3 L110-Yta7 L109-Cpq1 L108-Bbw2 L107-Csh4 L106-Elg6 L105-Hth5 L104-Tz_6 L103-Dzx7 L102-Erj4 L101-Aew8 L100-Do_1 L99-Wju6 L98-T_u0 L97-Ukm1 L96-Jmo3 L95-Pnr0 L94-Tkb0 L93-W__0 L92-Eww3 L91-Y_i6 L90-Y_i6 L89-Ecb2 L88-Npi8 L87-Vmu3 L86-Fkj5 L85-Bsx0 L84-Dvc5 L83-Aak7 L82-B_c2 L81-Dse5 L80-Drx0 L79-Sue7 L76-Y_i6 L75-Mgn1 L74-Xow0 L73-Fyy0 L72-Oqb6 L71-Prw2 L70-Va_9 L69-Tfr2 L68-Hkp8 L67-V__9 L66-Daw9 L62-Wbw4 L61-G_f5 L60-Jo_7 L59-Xwu2 L58-Bc_0 L57-Bby3 L56-Frw9 L55-Tc_4 L54-Ejt8 L53-G__8 L49-Y_i6 L48-Ecc8 L47-Gmn6 L46-X_n2 L45-Rmi7 L44-Mjs0 L43-Qi_8 L42-Aun5 L41-Hel3 L40-Wnx9 L35-Y_i6 L34-Tnu1 L33-Ahs4 L32-Rxt4 L31-Rin5 L30-Zxa5 L29-M_f1 L28-Apn2 L27-Xdc6 L21-Y_i6 L20-Y_i6 L19-Dg_7 L18-Jns8 L17-Bxn2 L16-Cti4 L15-Tjn6 L14-Din3 L6-Y_i6 L5-Y_i6 L4-Oup7 L3-Zxl8 L2-Bf_8 L1-Tkv5
L152-Ilx2 L151-Fjd6 L150-Agd7 L149-Iiv5 L148-Jp_4 L147-Xdj2 L146-Muu7 L145-Yxo6 L144-Cuk7 L143-Qch7 L142-E_e8 L141-C_b0 L140-Ymt9 L139-Qvw3 L138-Qjc2 L137-Vsd2 L136-Ma_8 L135-Kqa5 L134-Gbs5 L133-Fwm8 L132-Gjp0 L131-Mvt1 L130-Mzx1 L129-Dud4 L128-Uz_2 L127-I_b5 L126-Qb_2 L125-Wcx6 L124-Z_u0 L123-Dcr9 L122-Yuw1 L121-V_f6 L120-Dxq3 L119-Yta7 L118-Cpq1 L117-Bbw2 L116-Csh4 L115-Tz_6 L114-Dzx7 L113-Erj4 L112-Aew8 L111-Do_1 L110-Wju6 L109-T_u0 L108-Ukm1 L107-Jmo3 L106-Pnr0 L105-Tkb0 L104-Y_i6 L103-Y_i6 L102-Ecb2 L101-Npi8 L100-Vmu3 L99-Fkj5 L98-Bsx0 L97-Dvc5 L96-Aak7 L95-B_c2 L94-Dse5 L93-Drx0 L92-Sue7 L89-Y_i6 L88-Mgn1 L87-Xow0 L86-Fyy0 L85-Oqb6 L84-Prw2 L83-Va_9 L82-Tfr2 L81-Hkp8 L80-V__9 L79-Daw9 L75-Wbw4 L74-G_f5 L73-Jo_7 L72-Xwu2 L71-Bc_0 L70-Bby3 L69-Frw9 L68-Tc_4 L67-Ejt8 L66-G__8 L62-Y_i6 L61-Ecc8 L60-Gmn6 L59-X_n2 L58-Rmi7 L57-Mjs0 L56-Qi_8 L55-Aun5 L54-Hel3 L53-Wnx9 L48-Y_i6 L47-Tnu1 L46-Ahs4 L45-Rxt4 L44-Rin5 L43-Zxa5 L42-M_f1 L41-Apn2 L40-Xdc6 L34-Y_i6 L33-Y_i6 L32-Dg_7 L31-Jns8 L30-Bxn2 L29-Cti4 L28-Tjn6 L27-Din3 L19-Y_i6 L18-Y_i6 L17-Oup7 L16-Zxl8 L15-Bf_8 L14-Tkv5 L4-Bsh6 L3-Ngl7 L2-Rn_8 L1-Clm4
L152-Iiv5 L151-Jp_4 L150-Xdj2 L149-Yxo6 L148-Cuk7 L147-Qch7 L146-E_e8 L145-Ymt9 L144-Qvw3 L143-Qjc2 L142-Vsd2 L141-Ma_8 L140-Fwm8 L139-Gjp0 L138-Mvt1 L137-Mzx1 L136-Dud4 L135-Uz_2 L134-I_b5 L133-Z_u0 L132-Dcr9 L131-Yuw1 L130-V_f6 L129-Dxq3 L128-Yta7 L127-Cpq1 L126-Bbw2 L125-Csh4 L124-Tz_6 L123-Dzx7 L122-Erj4 L121-Aew8 L120-Do_1 L119-Wju6 L118-T_u0 L117-Ukm1 L116-Jmo3 L115-Y_i6 L114-Y_i6 L113-Ecb2 L112-Npi8 L111-Vmu3 L110-Fkj5 L109-Bsx0 L108-Dvc5 L107-Aak7 L106-B_c2 L105-Dse5 L102-Y_i6 L101-Mgn1 L100-Xow0 L99-Fyy0 L98-Oqb6 L97-Prw2 L96-Va_9 L95-Tfr2 L94-Hkp8 L93-V__9 L92-Daw9 L88-Wbw4 L87-G_f5 L86-Jo_7 L85-Xwu2 L84-Bc_0 L83-Bby3 L82-Frw9 L81-Tc_4 L80-Ejt8 L79-G__8 L75-Y_i6 L74-Ecc8 L73-Gmn6 L72-X_n2 L71-Rmi7 L70-Mjs0 L69-Qi_8 L68-Aun5 L67-Hel3 L66-Wnx9 L61-Y_i6 L60-Tnu1 L59-Ahs4 L58-Rxt4 L57-Rin5 L56-Zxa5 L55-M_f1 L54-Apn2 L53-Xdc6 L47-Y_i6 L46-Y_i6 L45-Dg_7 L44-Jns8 L43-Bxn2 L42-Cti4 L41-Tjn6 L40-Din3 L32-Y_i6 L31-Y_i6 L30-Oup7 L29-Zxl8 L28-Bf_8 L27-Tkv5 L17-Bsh6 L16-Ngl7 L15-Rn_8 L14-Clm4 L4-Y_i6 L3-Y_i6 L2-Tyu0 L1-Ihj5
L152-Yxo6 L151-Cuk7 L150-Qch7 L149-Ymt9 L148-Qvw3 L147-Qjc2 L146-Vsd2 L145-Fwm8 L144-Gjp0 L143-Mvt1 L142-Mzx1 L141-Dud4 L140-Z_u0 L139-Dcr9 L138-Yuw1 L137-V_f6 L136-Dxq3 L135-Yta7 L134-Cpq1 L133-Tz_6 L132-Dzx7 L131-Erj4 L130-Aew8 L129-Do_1 L128-Wju6 L127-T_u0 L126-Ukm1 L125-Jmo3 L124-Y_i6 L123-Y_i6 L122-Ecb2 L121-Npi8 L120-Vmu3 L119-Fkj5 L118-Bsx0 L117-Dvc5 L116-Aak7 L113-Y_i6 L112-Mgn1 L111-Xow0 L110-Fyy0 L109-Oqb6 L108-Prw2 L107-Va_9 L106-Tfr2 L105-Hkp8 L101-Wbw4 L100-G_f5 L99-Jo_7 L98-Xwu2 L97-Bc_0 L96-Bby3 L95-Frw9 L94-Tc_4 L93-Ejt8 L92-G__8 L88-Y_i6 L87-Ecc8 L86-Gmn6 L85-X_n2 L84-Rmi7 L83-Mjs0 L82-Qi_8 L81-Aun5 L80-Hel3 L79-Wnx9 L74-Y_i6 L73-Tnu1 L72-Ahs4 L71-Rxt4 L70-Rin5 L69-Zxa5 L68-M_f1 L67-Apn2 L66-Xdc6 L60-Y_i6 L59-Y_i6 L58-Dg_7 L57-Jns8 L56-Bxn2 L55-Cti4 L54-Tjn6 L53-Din3 L45-Y_i6 L44-Y_i6 L43-Oup7 L42-Zxl8 L41-Bf_8 L40-Tkv5 L30-Bsh6 L29-Ngl7 L28-Rn_8 L27-Clm4 L17-Y_i6 L16-Y_i6 L15-Tyu0 L14-Ihj5 L2-Y_i6 L1-Y_i6
L152-Ymt9 L151-Qvw3 L150-Qjc2 L149-Fwm8 L148-Gjp0 L147-Mvt1 L146-Mzx1 L145-Z_u0 L144-Dcr9 L143-Yuw1 L142-V_f6 L141-Dxq3 L140-Tz_6 L139-Dzx7 L138-Erj4 L137-Aew8 L136-Do_1 L135-Wju6 L134-T_u0 L133-Y_i6 L132-Y_i6 L131-Ecb2 L130-Npi8 L129-Vmu3 L128-Fkj5 L127-Bsx0 L126-Dvc5 L125-Aak7 L122-Y_i6 L121-Mgn1 L120-Xow0 L119-Fyy0 L118-Oqb6 L117-Prw2 L116-Va_9 L112-Wbw4 L111-G_f5 L110-Jo_7 L109-Xwu2 L108-Bc_0 L107-Bby3 L106-Frw9 L105-Tc_4 L101-Y_i6 L100-Ecc8 L99-Gmn6 L98-X_n2 L97-Rmi7 L96-Mjs0 L95-Qi_8 L94-Aun5 L93-Hel3 L92-Wnx9 L87-Y_i6 L86-Tnu1 L85-Ahs4 L84-Rxt4 L83-Rin5 L82-Zxa5 L81-M_f1 L80-Apn2 L79-Xdc6 L73-Y_i6 L72-Y_i6 L71-Dg_7 L70-Jns8 L69-Bxn2 L68-Cti4 L67-Tjn6 L66-Din3 L58-Y_i6 L57-Y_i6 L56-Oup7 L55-Zxl8 L54-Bf_8 L53-Tkv5 L43-Bsh6 L42-Ngl7 L41-Rn_8 L40-Clm4 L30-Y_i6 L29-Y_i6 L28-Tyu0 L27-Ihj5 L15-Y_i6 L14-Y_i6
L152-Fwm8 L151-Gjp0 L150-Mvt1 L149-Z_u0 L148-Dcr9 L147-Yuw1 L146-V_f6 L145-Tz_6 L144-Dzx7 L143-Erj4 L142-Aew8 L141-Do_1 L140-Y_i6 L139-Y_i6 L138-Ecb2 L137-Npi8 L136-Vmu3 L135-Fkj5 L134-Bsx0 L131-Y_i6 L130-Mgn1 L129-Xow0 L128-Fyy0 L127-Oqb6 L126-Prw2 L125-Va_9 L121-Wbw4 L120-G_f5 L119-Jo_7 L118-Xwu2 L117-Bc_0 L116-Bby3 L112-Y_i6 L111-Ecc8 L110-Gmn6 L109-X_n2 L108-Rmi7 L107-Mjs0 L106-Qi_8 L105-Aun5 L100-Y_i6 L99-Tnu1 L98-Ahs4 L97-Rxt4 L96-Rin5 L95-Zxa5 L94-M_f1 L93-Apn2 L92-Xdc6 L86-Y_i6 L85-Y_i6 L84-Dg_7 L83-Jns8 L82-Bxn2 L81-Cti4 L80-Tjn6 L79-Din3 L71-Y_i6 L70-Y_i6 L69-Oup7 L68-Zxl8 L67-Bf_8 L66-Tkv5 L56-Bsh6 L55-Ngl7 L54-Rn_8 L53-Clm4 L43-Y_i6 L42-Y_i6 L41-Tyu0 L40-Ihj5 L28-Y_i6 L27-Y_i6
L152-Z_u0 L151-Dcr9 L150-Yuw1 L149-Tz_6 L148-Dzx7 L147-Erj4 L146-Aew8 L145-Y_i6 L144-Y_i6 L143-Ecb2 L142-Npi8 L141-Vmu3 L138-Y_i6 L137-Mgn1 L136-Xow0 L135-Fyy0 L134-Oqb6 L130-Wbw4 L129-G_f5 L128-Jo_7 L127-Xwu2 L126-Bc_0 L125-Bby3 L121-Y_i6 L120-Ecc8 L119-Gmn6 L118-X_n2 L117-Rmi7 L116-Mjs0 L111-Y_i6 L110-Tnu1 L109-Ahs4 L108-Rxt4 L107-Rin5 L106-Zxa5 L105-M_f1 L99-Y_i6 L98-Y_i6 L97-Dg_7 L96-Jns8 L95-Bxn2 L94-Cti4 L93-Tjn6 L92-Din3 L84-Y_i6 L83-Y_i6 L82-Oup7 L81-Zxl8 L80-Bf_8 L79-Tkv5 L69-Bsh6 L68-Ngl7 L67-Rn_8 L66-Clm4 L56-Y_i6 L55-Y_i6 L54-Tyu0 L53-Ihj5 L41-Y_i6 L40-Y_i6
L152-Tz_6 L151-Dzx7 L150-Erj4 L149-Y_i6 L148-Y_i6 L147-Ecb2 L146-Npi8 L143-Y_i6 L142-Mgn1 L141-Xow0 L137-Wbw4 L136-G_f5 L135-Jo_7 L134-Xwu2 L130-Y_i6 L129-Ecc8 L128-Gmn6 L127-X_n2 L126-Rmi7 L125-Mjs0 L120-Y_i6 L119-Tnu1 L118-Ahs4 L117-Rxt4 L116-Rin5 L110-Y_i6 L109-Y_i6 L108-Dg_7 L107-Jns8 L106-Bxn2 L105-Cti4 L97-Y_i6 L96-Y_i6 L95-Oup7 L94-Zxl8 L93-Bf_8 L92-Tkv5 L82-Bsh6 L81-Ngl7 L80-Rn_8 L79-Clm4 L69-Y_i6 L68-Y_i6 L67-Tyu0 L66-Ihj5 L54-Y_i6 L53-Y_i6
L152-Y_i6 L151-Y_i6 L150-Ecb2 L147-Y_i6 L146-Mgn1 L142-Wbw4 L141-G_f5 L137-Y_i6 L136-Ecc8 L135-Gmn6 L134-X_n2 L129-Y_i6 L128-Tnu1 L127-Ahs4 L126-Rxt4 L125-Rin5 L119-Y_i6 L118-Y_i6 L117-Dg_7 L116-Jns8 L108-Y_i6 L107-Y_i6 L106-Oup7 L105-Zxl8 L95-Bsh6 L94-Ngl7 L93-Rn_8 L92-Clm4 L82-Y_i6 L81-Y_i6 L80-Tyu0 L79-Ihj5 L67-Y_i6 L66-Y_i6
L150-Y_i6 L146-Wbw4 L142-Y_i6 L141-Ecc8 L136-Y_i6 L135-Tnu1 L134-Ahs4 L128-Y_i6 L127-Y_i6 L126-Dg_7 L125-Jns8 L117-Y_i6 L116-Y_i6 L106-Bsh6 L105-Ngl7 L95-Y_i6 L94-Y_i6 L93-Tyu0 L92-Ihj5 L80-Y_i6 L79-Y_i6
L146-Y_i6 L141-Y_i6 L135-Y_i6 L134-Y_i6 L126-Y_i6 L125-Y_i6 L106-Y_i6 L105-Y_i6 L93-Y_i6 L92-Y_i6
[92m->lines number: 32
[0m
