all
[94m->finding paths...
[0m[94m-->starting edm_karp...
[0m[94m--->starting bfs...
[0m[94m--->finish bfs.
[0m[90mPaths:
size: 35
Wna2->N_i0->Icf0->Glv9->Wco7->Sc_1->Jk_7->Cbu6->Qhi4->Mwt6->Hta8->Gcc0->Atj3->Bpw4->Jeh5->Mni7->Oxf8->Mmc9->Gdv1->Sun2->S_m5->Ow_0->Yof8->Dfn1->Vel1->Tbw4->Zwn2->Tnf9->Qnw4->Ptj3->Wbv4->P_x0->Tbp7->Hsf0->Jfr1->Dhr8


[0m[94m--->starting bfs...
[0m[94m--->finish bfs.
[0m[90mPaths:
size: 35
Wna2->N_i0->Icf0->Glv9->Wco7->Sc_1->Jk_7->Cbu6->Qhi4->Mwt6->Hta8->Gcc0->Atj3->Bpw4->Jeh5->Mni7->Oxf8->Mmc9->Gdv1->Sun2->S_m5->Ow_0->Yof8->Dfn1->Vel1->Tbw4->Zwn2->Tnf9->Qnw4->Ptj3->Wbv4->P_x0->Tbp7->Hsf0->Jfr1->Dhr8


[0m[94m-->finish edm_karp.
[0m[90mPaths:
size: 35
Wna2->N_i0->Icf0->Glv9->Wco7->Sc_1->Jk_7->Cbu6->Qhi4->Mwt6->Hta8->Gcc0->Atj3->Bpw4->Jeh5->Mni7->Oxf8->Mmc9->Gdv1->Sun2->S_m5->Ow_0->Yof8->Dfn1->Vel1->Tbw4->Zwn2->Tnf9->Qnw4->Ptj3->Wbv4->P_x0->Tbp7->Hsf0->Jfr1->Dhr8


[0m[94m---->releasing ants...
[0m[90m-->1/1
[0mL1-N_i0
L1-Icf0
L1-Glv9
L1-Wco7
L1-Sc_1
L1-Jk_7
L1-Cbu6
L1-Qhi4
L1-Mwt6
L1-Hta8
L1-Gcc0
L1-Atj3
L1-Bpw4
L1-Jeh5
L1-Mni7
L1-Oxf8
L1-Mmc9
L1-Gdv1
L1-Sun2
L1-S_m5
L1-Ow_0
L1-Yof8
L1-Dfn1
L1-Vel1
L1-Tbw4
L1-Zwn2
L1-Tnf9
L1-Qnw4
L1-Ptj3
L1-Wbv4
L1-P_x0
L1-Tbp7
L1-Hsf0
L1-Jfr1
L1-Dhr8
[92m->lines number: 35
[0m
