all
[94m->finding paths...
[0m[94m-->starting edm_karp...
[0m[94m--->starting bfs...
[0m[94m--->finish bfs.
[0m[90mPaths:
size: 30
Pbs1->Mie3->Dan7->Ntw9->Gyu2->Ybm5->Og_1->Xsl3->Qeh9->Vtw0->Smi3->Ish5->Zmc7->Tnv7->Fx_7->Byr3->Sqt2->Cdr7->Cmg8->Bhg2->Eqg8->Ifm7->Kgv0->Wuz0->Piw8->Mwa5->Hmo8->Qwr5->Xok1->Bce1->Ywv0


[0m[94m--->starting bfs...
[0m[94m--->finish bfs.
[0m[90mPaths:
size: 30
Pbs1->Mie3->Dan7->Ntw9->Gyu2->Ybm5->Og_1->Xsl3->Qeh9->Vtw0->Smi3->Ish5->Zmc7->Tnv7->Fx_7->Byr3->Sqt2->Cdr7->Cmg8->Bhg2->Eqg8->Ifm7->Kgv0->Wuz0->Piw8->Mwa5->Hmo8->Qwr5->Xok1->Bce1->Ywv0


[0m[94m-->finish edm_karp.
[0m[90mPaths:
size: 30
Pbs1->Mie3->Dan7->Ntw9->Gyu2->Ybm5->Og_1->Xsl3->Qeh9->Vtw0->Smi3->Ish5->Zmc7->Tnv7->Fx_7->Byr3->Sqt2->Cdr7->Cmg8->Bhg2->Eqg8->Ifm7->Kgv0->Wuz0->Piw8->Mwa5->Hmo8->Qwr5->Xok1->Bce1->Ywv0


[0m[94m---->releasing ants...
[0m[90m-->1/1
[0mL1-Mie3
L1-Dan7
L1-Ntw9
L1-Gyu2
L1-Ybm5
L1-Og_1
L1-Xsl3
L1-Qeh9
L1-Vtw0
L1-Smi3
L1-Ish5
L1-Zmc7
L1-Tnv7
L1-Fx_7
L1-Byr3
L1-Sqt2
L1-Cdr7
L1-Cmg8
L1-Bhg2
L1-Eqg8
L1-Ifm7
L1-Kgv0
L1-Wuz0
L1-Piw8
L1-Mwa5
L1-Hmo8
L1-Qwr5
L1-Xok1
L1-Bce1
L1-Ywv0
[92m->lines number: 30
[0m
